299,300
300,294 269
294,269
296,294 269 279
298,294 269 289
305,306
306,295 274
295,294 269 274
301,295 274 275
297,294 269 284
302,296 279 295 274 280
310,311
311,296
307,296 281
304,298 289 295 274 290
308,297 284 296 286
303,297 284 295 274 285
309,298 296 291
312,297 287
314,315
315,297
313,298 297 292
317,318
318,298
316,298 293
323,324
324,319 301
319,301
321,319 301 303
328,329
329,320 302
320,319 301 302
332,333
325,320 302 307
333,321
322,319 301 304
330,321 312
335,336
326,321 303 320 302 308
336,322
327,322 304 320 302 309
331,322 304 321 313
334,322 316
337,325
340,341
341,337
339,337 325 327
347,348
348,339
344,345
345,338 326
338,337 325 326
346,339 327 334
343,339 327 338 326 331
342,338 326 330
351,352
352,349 330
349,342 330
360,303 304 302 301 305
354,355
362,309 308 307 310 302
355,350 343
350,349 330 343 331
359,294 360 295
364,313 312 314 303 308
353,350 343 346
366,316 317 313 309 304
361,294 362 296
365,294 366 298
370,327 326 325 328
357,358
368,365 363 361 359 297 298 295 296 299
358,356 346
363,294 364 297
356,353 346
372,331 326 330 332
369,319 370 320
374,334 331 327 335
367,368 294
373,319 374 322
371,319 372 321
375,369 359 361
376,371 372 359 363
379,377 376 375
383,342 343 344
377,373 359 365
385,343 346 347
382,337 383 338
381,378 371 373 369 322 320 321 323
378,319 379 359
386,382 383 375 376
387,382 369 376
384,337 385 339
392,389 387 375
388,384 385 375 377
389,384 385 369 377
396,353 354
380,381 319
395,349 396 350
400,388 389
390,337 388 375
398,395 396 387 389
399,395 382 400 384
397,395 396 386 388
404,399 387 386
394,391 390 384 382 338 339 340
391,337 392 369
401,349 397 386
393,394 337
403,349 404 382
406,403 402 401 395 350 351
402,349 398
407,356 397
411,399 397 398
409,356 399
405,406 349
408,356 398
419,390 386
414,367
413,410 409 408 407 357
410,356 411 395
412,413 356
415,378 414 367
416,380 415 378
418,419 388 415 414
417,416 380
423,420 418
420,391 419 416 378
428,401 418 415
425,421 420
429,402 401 420 416
421,391 417 380
422,393 423 419
427,424 422
424,393 425 391
431,402 421 417
426,427 393
435,430 429 428
430,403 401 422 419
437,432 431 429
432,403 402 424 391
439,433 432 430
433,403 426 393
434,405 435 401
442,407 428
443,408 407 429
436,405 437 402
444,409 407 430
441,438 436 434
438,405 439 403
445,410 407 434
440,441 405
446,408 431
447,409 408 432
448,410 408 436
449,409 433
453,445 444 443 442
451,410 440
450,410 409 438
455,448 447 446 443
452,412 453 407
457,450 449 447 444
459,450 451 448 445
454,412 455 408
456,412 457 409
461,458 456 454 452
458,412 459 410
460,461 412
463,442
462,463
465,443
464,465
467,444
466,467
469,445
468,469
471,452
470,471
473,270
472,473
475,446
474,475
477,447
476,477
479,448
478,479
481,454
480,481
483,271
482,483
485,276
484,485
487,449
486,487
489,450
488,489
491,456
490,491
493,272
492,493
495,277
494,495
497,282
496,497
499,451
498,499
501,458
500,501
503,273
502,503
505,278
504,505
507,283
506,507
509,288
508,509
511,460
510,511
