385,386
386,380 355
380,355
391,392
396,397
392,381 360
381,380 355 360
397,382
382,380 355 365
383,380 355 370
389,383 370 381 360 371
387,381 360 361
400,401
401,383
398,383 373
393,382 365 367
388,382 365 381 360 366
384,380 355 375
403,404
394,383 370 382 365 372
404,384
402,384 379
395,384 375 382 365 377
390,384 375 381 360 376
399,384 375 383 378
409,410
410,405 387
405,387
421,422
422,408 390
408,405 387 390
446,390 388 387 389 391
420,408 390 402
418,419
414,415
415,406 388
406,405 387 388
417,408 390 407 389 399
448,395 394 388 393 396
416,407 389 398
419,407 389
413,408 390 406 388 395
407,405 387 389
445,380 446 381
411,406 388 393
412,407 389 406 388 394
450,399 394 398 400 389
452,399 390 395 402 403
447,380 448 382
453,454
454,445
455,456
456,447
461,462
462,380
459,460
460,451 452
451,380 452 384
426,427
427,423 393
466,412 411 413 414
423,411 393
468,412 416 417 418
430,431
431,424 394
457,458
424,423 393 412 394
458,449 450
470,413 417 420 421
433,434
428,424 394 416 398
464,449 451 461 447 445 384 383 382 381 385
434,425 395
425,423 393 413 395
449,380 450 383
465,405 466 406
432,425 395 420 402
467,405 468 407
472,473
437,438
473,465
438,435 398
435,428 398
463,464 380
469,405 470 408
475,476
476,467
429,425 395 424 394 417 399
474,467 445 457
478,479
471,465 445 455
479,469
477,469 445 459
480,481
440,441
441,436 399
481,445
436,435 398 429 399
483,480 477 471 474 453
439,436 399 432 402
484,485
485,405
489,429 428 430
487,482 484 469 467 465 407 406 408 409
482,405 483 445
491,429 432 433
443,444
444,442 402
442,439 402
494,474 475
486,487 405
499,477 478
490,423 491 425
500,501
501,490
502,503
503,471
506,507
507,465
495,496
497,490 491 471 477
496,488 489
488,423 489 424
498,490 491 465 499 469
510,511
511,423
505,497 492 502
515,439 440
492,488 489 471 474
509,498 493 506 471 472
493,488 489 465 494 467
504,423 505 471
519,498 497 500
520,521
521,514
513,508 504 510 488 490 425 424 426
508,423 509 465
522,523
514,435 515 436
523,492
517,514 515 493 498
525,526
516,514 515 492 497
526,493
518,514 515 488 519 490
528,525 517
529,530
530,488
524,435 516 492
532,529 518 493 492 495
533,534
534,435
537,538
538,516
531,435 532 488
512,513 423
540,541
541,517
536,531 527 533 524 514 436 437
539,442 537
527,435 528 493
543,544
544,518
546,547
542,442 540
547,514
549,546 518 517 516 520
550,551
551,442
545,442 543
554,555
555,463
558,559
559,482
535,536 435
561,562
562,486
556,554
553,548 545 550 542 539 443
548,442 549 514
567,568
568,504
557,482 556 554
564,504 557 556
571,572
572,508
560,486 557 482
575,576
576,512
570,565 564 567
565,508 504 560 482
580,524 522
563,560 486
582,565 558
552,553 442
574,566 565 571
569,512 570 504
566,508 563 486
585,566 561
579,580 516 564
583,531 580 569
588,589
589,580
581,527 580 582 560
591,581 588 583 579
578,573 569 575
573,512 574 508
592,593
593,527
584,527 585 563
596,597
595,586 584 592 581
586,531 527 573 574
597,531
600,601
601,535
590,535 591 580
577,578 512
594,535 595 527
599,587 596 586 583
587,531 577 512
605,542 539 581
604,539 579
606,545 539 583
603,598 594 590 600
598,535 599 531
607,548 539 590
608,542 584
602,603 535
610,548 542 594
614,615
609,545 542 586
612,548 545 598
615,539
617,614 607 606 604 605
611,545 587
618,619
619,542
621,618 609 610 608 605
613,548 602
622,623
616,552 617 539
623,545
625,622 611 612 609 606
626,627
620,552 621 542
627,548
629,626 613 612 610 607
624,552 625 545
630,631
631,552
633,628 630 624 620 616
628,552 629 548
632,633 552
635,604
634,635
637,605
636,637
639,606
638,639
641,607
640,641
643,616
642,643
645,356
644,645
647,608
646,647
649,609
648,649
651,610
650,651
653,620
652,653
655,357
654,655
657,362
656,657
659,611
658,659
661,612
660,661
663,624
662,663
665,358
664,665
667,363
666,667
669,368
668,669
671,613
670,671
673,628
672,673
675,359
674,675
677,364
676,677
679,369
678,679
681,374
680,681
683,632
682,683
