1765,1766
1766,1755 1655
1755,1655
1795,1796
1786,1787
1796,1758 1685
1758,1755 1655 1685
1787,1757 1675
1757,1755 1655 1675
1816,1817
1825,1826
1817,1761 1715
1826,1763 1735
1761,1755 1655 1715
1810,1811
1776,1777
1763,1755 1655 1735
1821,1822
1803,1804
1822,1762 1725
1828,1829
1762,1755 1655 1725
1811,1760 1705
1804,1759 1695
1760,1755 1655 1705
1829,1764 1745
1759,1755 1655 1695
1777,1756 1665
1756,1755 1655 1665
1764,1755 1655 1745
1767,1756 1665 1666
1788,1758 1685 1688
1778,1757 1675 1677
1823,1763 1735 1743
1812,1761 1715 1721
1827,1764 1745 1754
1805,1760 1705 1710
1797,1759 1695 1699
1818,1762 1725 1732
1779,1758 1685 1757 1675 1687
1784,1763 1735 1757 1675 1737
1780,1759 1695 1757 1675 1697
1839,1840
1781,1760 1705 1757 1675 1707
1840,1830 1666
1770,1759 1695 1756 1665 1696
1772,1761 1715 1756 1665 1716
1830,1767 1666
1771,1760 1705 1756 1665 1706
1768,1757 1675 1756 1665 1676
1769,1758 1685 1756 1665 1686
1773,1762 1725 1756 1665 1726
1783,1762 1725 1757 1675 1727
1774,1763 1735 1756 1665 1736
1793,1763 1735 1758 1685 1738
1782,1761 1715 1757 1675 1717
1785,1764 1745 1757 1675 1747
1790,1760 1705 1758 1685 1708
1791,1761 1715 1758 1685 1718
1789,1759 1695 1758 1685 1698
1792,1762 1725 1758 1685 1728
1807,1762 1725 1760 1705 1730
1794,1764 1745 1758 1685 1748
2088,1785 1782 1783 1768 1781 1780 1784 1779 1778 1786
1866,1867
1879,1880
1867,1833 1696
1880,1835 1716
1833,1830 1666 1770 1696
1835,1830 1666 1772 1716
1814,1763 1735 1761 1715 1741
1884,1885
2090,1794 1792 1789 1791 1790 1793 1769 1779 1788 1795
1885,1836 1726
1873,1874
1836,1830 1666 1773 1726
1874,1834 1706
1834,1830 1666 1771 1706
1858,1859
1849,1850
1850,1831 1676
1831,1830 1666 1768 1676
1859,1832 1686
1832,1830 1666 1769 1686
1815,1764 1745 1761 1715 1751
2086,1775 1774 1773 1768 1769 1771 1772 1770 1767 1776
1775,1764 1745 1756 1665 1746
2121,2122
2122,1755
1813,1762 1725 1761 1715 1731
1888,1889
1889,1837 1736
1837,1830 1666 1774 1736
1860,1833 1696 1797 1699
1875,1835 1716 1812 1721
1841,1831 1676 1778 1677
1881,1836 1726 1818 1732
1820,1764 1745 1762 1725 1752
1801,1763 1735 1759 1695 1739
1868,1834 1706 1805 1710
1806,1761 1715 1760 1705 1720
1800,1762 1725 1759 1695 1729
2096,1813 1806 1799 1815 1814 1791 1782 1772 1812 1816
1851,1832 1686 1788 1688
1799,1761 1715 1759 1695 1719
2169,2170
2170,1830
1802,1764 1745 1759 1695 1749
1824,1764 1745 1763 1735 1753
1891,1892
2107,2108
1892,1838 1746
1838,1830 1666 1775 1746
2108,2089 2090
2089,1755 2090 1758
1842,1832 1686 1831 1676 1779 1687
2092,1802 1801 1800 1799 1798 1789 1770 1780 1797 1803
1798,1760 1705 1759 1695 1709
1886,1837 1736 1823 1743
1901,1902
1902,1893 1677
1893,1841 1677
2098,1820 1819 1813 1800 1807 1792 1783 1773 1818 1821
1819,1763 1735 1762 1725 1742
2230,2231
2231,1893
1876,1836 1726 1835 1716 1813 1731
1890,1838 1746 1827 1754
2105,2106
1852,1833 1696 1832 1686 1789 1698
2106,2087 2088
2087,1755 2088 1757
1864,1837 1736 1833 1696 1801 1739
1853,1834 1706 1832 1686 1790 1708
1854,1835 1716 1832 1686 1791 1718
2100,1824 1819 1808 1801 1814 1793 1774 1784 1823 1825
1808,1763 1735 1760 1705 1740
1870,1836 1726 1834 1706 1807 1730
1862,1835 1716 1833 1696 1799 1719
1855,1836 1726 1832 1686 1792 1728
1863,1836 1726 1833 1696 1800 1729
2103,2104
2104,2085 2086
2165,2166
2166,2085 2086
2085,1755 2086 1756
1857,1838 1746 1832 1686 1794 1748
1843,1833 1696 1831 1676 1780 1697
1910,1911
1911,1894 1687
1894,1893 1677 1842 1687
1847,1837 1736 1831 1676 1784 1737
1861,1834 1706 1833 1696 1798 1709
1848,1838 1746 1831 1676 1785 1747
2115,2116
2116,2097 1762
2097,1755 2098 1762
2113,2114
2114,2095 1761
2095,1755 2096 1761
1878,1838 1746 1835 1716 1815 1751
2130,1865 1864 1863 1862 1861 1860 1852 1843 1866
1883,1838 1746 1836 1726 1820 1752
1865,1838 1746 1833 1696 1802 1749
2109,2110
2110,2091 1759
1887,1838 1746 1837 1736 1824 1753
2091,1755 2092 1759
1869,1835 1716 1834 1706 1806 1720
1903,1894 1687 1851 1688
1877,1837 1736 1835 1716 1814 1741
1844,1834 1706 1831 1676 1781 1707
2128,1857 1856 1855 1854 1853 1852 1851 1842 1858
1856,1837 1736 1832 1686 1793 1738
2134,1878 1877 1876 1875 1869 1862 1854 1845 1879
1882,1837 1736 1836 1726 1819 1742
1845,1835 1716 1831 1676 1782 1717
2126,1848 1847 1846 1845 1844 1843 1842 1841 1849
2136,1883 1882 1881 1876 1870 1863 1855 1846 1884
1846,1836 1726 1831 1676 1783 1727
1918,1919
1919,1895 1697
1895,1893 1677 1843 1697
2094,1809 1808 1806 1798 1807 1790 1771 1781 1805 1810
2102,1824 1820 1809 1802 1775 1815 1794 1785 1827 1828
1809,1764 1745 1760 1705 1750
1943,1944
1940,1941
1944,1900 1747
1900,1893 1677 1848 1747
1941,1899 1737
1899,1893 1677 1847 1737
2138,1888 1887 1886 1882 1877 1871 1864 1856 1847
1871,1837 1736 1834 1706 1808 1740
1952,1953
1953,1945 1688
2294,2295
2295,1945 1688
1945,1903 1688
2117,2118
2118,2099 1763
2099,1755 2100 1763
2148,2149
2149,2129 1833
2129,1830 2130 1833
1925,1926
1912,1895 1697 1860 1699
1926,1896 1707
1896,1893 1677 1844 1707
1942,1900 1747 1890 1754
1938,1899 1737 1886 1743
1931,1932
1932,1897 1717
1897,1893 1677 1845 1717
2145,2146
2146,2127 1832
2127,1830 2128 1832
2154,2155
2155,2133 1835
2133,1830 2134 1835
1936,1937
1937,1898 1727
1898,1893 1677 1846 1727
2142,2143
2143,2125 1831
2226,2227
2227,2125 1831
2157,2158
2125,1830 2126 1831
2158,2135 1836
2135,1830 2136 1836
2119,2120
2120,2101 1764
2101,1755 2102 1764
2111,2112
2112,2093 1760
2124,2101 2099 2097 2095 2093 2091 2089 2087 2085 2121 1764 1762 1763 1761 1760 1759 1756 1757 1758 1765
2093,1755 2094 1760
2132,1872 1871 1870 1869 1868 1861 1853 1844 1873
1904,1895 1697 1894 1687 1852 1698
2140,1891 1890 1887 1883 1878 1872 1865 1857 1848
1872,1838 1746 1834 1706 1809 1750
1909,1900 1747 1894 1687 1857 1748
2160,2161
2161,2137 1736
2137,1830 2138 1736
1916,1899 1737 1895 1697 1864 1739
1939,1900 1747 1899 1737 1887 1753
1920,1896 1707 1868 1710
1927,1897 1717 1875 1721
2194,2148 2147
2147,2129 1833 2085 2086 2109 1759
1933,1898 1727 1881 1732
2123,2124 1755
1917,1900 1747 1895 1697 1865 1749
1908,1899 1737 1894 1687 1856 1738
1906,1897 1717 1894 1687 1854 1718
1914,1897 1717 1895 1697 1862 1719
2189,2145 2144
2144,2127 1832 2085 2086 2107 2090
2204,2154 2153
2153,2133 1835 2085 2086 2113 1761
2209,2157 2156
2156,2135 1836 2085 2086 2115 1762
2222,2223
2223,2141 2088
2141,2125 1831 2085 2086 2105 2088
1960,1961
1961,1946 1698
1946,1945 1688 1904 1698
1905,1896 1707 1894 1687 1853 1708
1985,1986
1986,1951 1748
1951,1945 1688 1909 1748
1924,1900 1747 1896 1707 1872 1750
2214,2160 2159
2159,2137 1736 2085 2086 2117 1763
2625,2626
2626,2123
1923,1899 1737 1896 1707 1871 1740
1913,1896 1707 1895 1697 1861 1709
2176,1918 1917 1916 1915 1914 1913 1912 1904
1915,1898 1727 1895 1697 1863 1729
1921,1897 1717 1896 1707 1869 1720
2174,1910 1909 1908 1907 1906 1905 1904 1903
1907,1898 1727 1894 1687 1855 1728
2178,1925 1924 1923 1922 1921 1920 1913 1905
1922,1898 1727 1896 1707 1870 1730
1954,1946 1698 1912 1699
1929,1899 1737 1897 1717 1877 1741
1984,1951 1748 1942 1754
1973,1974
1974,1948 1718
1948,1945 1688 1906 1718
2627,2625
1930,1900 1747 1897 1717 1878 1751
2180,1931 1930 1929 1928 1927 1921 1914 1906
1928,1898 1727 1897 1717 1876 1731
2184,1940 1939 1938 1934 1929 1923 1916 1908
1934,1899 1737 1898 1727 1882 1742
2182,1936 1935 1934 1933 1928 1922 1915 1907
2186,1943 1942 1939 1935 1930 1924 1917 1909
1935,1900 1747 1898 1727 1883 1752
2163,2164
2164,2139 1746
2139,1830 2140 1746
2151,2152
1967,1968
2152,2131 1834
1968,1947 1708
2131,1830 2132 1834
1947,1945 1688 1905 1708
1959,1951 1748 1946 1698 1917 1749
1993,1994
1994,1987 1699
2359,2360
2360,1987 1699
1987,1954 1699
1982,1983
1983,1950 1738
1950,1945 1688 1908 1738
1978,1979
1979,1949 1728
1949,1945 1688 1907 1728
2190,2191
2195,2196
2191,2173 1687
2196,2175 1697
2290,2291
1969,1948 1718 1927 1721
2175,1893 1677 2176 1697
2291,2173 1687
2173,1893 1677 2174 1687
2200,2201
2201,2177 1707
2177,1893 1677 2178 1707
1962,1947 1708 1920 1710
2205,2206
2206,2179 1717
2179,1893 1677 2180 1717
1956,1948 1718 1946 1698 1914 1719
2215,2216
2216,2183 1737
2183,1893 1677 2184 1737
1972,1951 1748 1948 1718 1930 1751
2220,2221
2221,2185 1747
2185,1893 1677 2186 1747
2210,2211
2211,2181 1727
2181,1893 1677 2182 1727
2219,2163 2162
1980,1950 1738 1938 1743
2162,2139 1746 2085 2086 2119 1764
2168,2165 2162 2159 2156 2153 2150 2147 2144 2141 2103
2199,2151 2150
1963,1948 1718 1947 1708 1921 1720
2150,2131 1834 2085 2086 2111 1760
1955,1947 1708 1946 1698 1913 1709
1966,1951 1748 1947 1708 1924 1750
1975,1949 1728 1933 1732
2018,2019
2019,1992 1749
1992,1987 1699 1959 1749
2282,2283
2283,2187 2090
2187,2173 1687 2141 2088 2144 2090
2193,2175 1697 2125 1831 2194 1833
2249,2195 2193 2192
2192,2175 1697 2141 2088 2147 1759
1957,1949 1728 1946 1698 1915 1729
1964,1949 1728 1947 1708 1922 1730
2006,2007
2007,1989 1719
1989,1987 1699 1956 1719
2202,2179 1717 2141 2088 2153 1761
2017,1992 1749 1984 1754
2212,2183 1737 2141 2088 2159 1763
2273,2215 2213 2212
2213,2183 1737 2125 1831 2214 1736
2207,2181 1727 2141 2088 2156 1762
2267,2210 2208 2207
2208,2181 1727 2125 1831 2209 1836
2000,2001
2001,1988 1709
1988,1987 1699 1955 1709
2217,2185 1747 2141 2088 2162 1764
2261,2205 2203 2202
2203,2179 1717 2125 1831 2204 1835
2172,2167 2139 2137 2135 2133 2131 2129 2127 2125 1838 2169 1837 1831 1834 1836 1832 1835 1833 1839
2629,2630
2630,2167 2086
2235,1960 1959 1958 1957 1956 1955 1954
1970,1949 1728 1948 1718 1928 1731
2167,1830 2168 2086
1958,1950 1738 1946 1698 1916 1739
1976,1950 1738 1949 1728 1934 1742
2241,1978 1977 1976 1975 1970 1964 1957
1977,1951 1748 1949 1728 1935 1752
2286,2287
2287,2188 1832
2188,2173 1687 2125 1831 2189 1832
2002,1989 1719 1969 1721
2237,1967 1966 1965 1964 1963 1962 1955
1965,1950 1738 1947 1708 1923 1740
2239,1973 1972 1971 1970 1969 1963 1956
1971,1950 1738 1948 1718 1929 1741
2011,2012
2012,1990 1729
1990,1987 1699 1957 1729
1995,1988 1709 1962 1710
2633,2634
2632,2629 2628
2634,2171 1830
2628,2167 2086 2627 2625
2171,2172 1830
2243,1982 1981 1980 1976 1971 1965 1958
2245,1985 1984 1981 1977 1972 1966 1959
1981,1951 1748 1950 1738 1939 1753
2279,2220 2218 2217
2218,2185 1747 2125 1831 2219 1746
2005,1992 1749 1989 1719 1972 1751
2225,2222 2217 2212 2207 2202 2197 2192 2187
2197,2177 1707 2141 2088 2150 1760
2229,2226 2218 2213 2208 2203 2198 2193 2188 2142 2141
2255,2200 2198 2197
2198,2177 1707 2125 1831 2199 1834
1996,1989 1719 1988 1709 1963 1720
1999,1992 1749 1988 1709 1966 1750
2268,2269
2269,2240 1728
2250,2251
2240,1945 1688 2241 1728
2251,2234 1698
2355,2356
2356,2234 1698
2234,1945 1688 2235 1698
2025,2026
2026,2020 1710
2423,2424
2008,1990 1729 1975 1732
2424,2020 1710
2020,1995 1710
2636,2633 2631
2631,2171 1830 2632 2086
2256,2257
2257,2236 1708
2236,1945 1688 2237 1708
2262,2263
2263,2238 1718
2238,1945 1688 2239 1718
2015,2016
2016,1991 1739
1991,1987 1699 1958 1739
1997,1990 1729 1988 1709 1964 1730
2003,1990 1729 1989 1719 1970 1731
2010,1992 1749 1990 1729 1977 1752
2635,2636 1830
2274,2275
2280,2281
2275,2242 1738
2281,2244 1748
2242,1945 1688 2243 1738
2244,1945 1688 2245 1748
2640,2641
2641,2224 2088
2224,1893 2225 2088
2233,2228 2224 2185 2183 2181 2179 2177 2175 2173 1900 1899 1898 1897 1896 1895 1894 2230 1901
2644,2645
2645,2228 1831
2228,1893 2229 1831
2264,2240 1728 2187 2090 2207 1762
2266,2240 1728 2173 1687 2267 1727
2343,2344
2351,2352
2344,2246 1759
2326,2268 2266 2265 2264
2352,2248 1697
2246,2234 1698 2187 2090 2192 1759
2265,2240 1728 2188 1832 2208 1836
2248,2234 1698 2173 1687 2249 1697
2347,2348
2348,2247 1833
2031,2032
2247,2234 1698 2188 1832 2193 1833
2032,2021 1720
2021,2020 1710 1996 1720
2043,2044
2044,2024 1750
2024,2020 1710 1999 1750
2013,1991 1739 1980 1743
2252,2236 1708 2187 2090 2197 1760
2258,2238 1718 2187 2090 2202 1761
2253,2236 1708 2188 1832 2198 1834
2036,2037
2037,2022 1730
2022,2020 1710 1997 1730
2637,2224 2088 2628 2625
2299,2000 1999 1998 1997 1996 1995
1998,1991 1739 1988 1709 1965 1740
2301,2006 2005 2004 2003 2002 1996
2004,1991 1739 1989 1719 1971 1741
2648,2649
2649,2232 1893
2232,2233 1893
2270,2242 1738 2187 2090 2212 1763
2285,2282 2276 2270 2264 2258 2252 2246
2276,2244 1748 2187 2090 2217 1764
2303,2011 2010 2009 2008 2003 1997
2009,1991 1739 1990 1729 1976 1742
2027,2021 1720 2002 1721
2042,2024 1750 2017 1754
2277,2244 1748 2188 1832 2218 1746
2271,2242 1738 2188 1832 2213 1736
2312,2256 2254 2253 2252
2254,2236 1708 2173 1687 2255 1707
2333,2274 2272 2271 2270
2272,2242 1738 2173 1687 2273 1737
2340,2280 2278 2277 2276
2278,2244 1748 2173 1687 2279 1747
2643,2640 2638 2637
2033,2022 1730 2008 1732
2638,2228 1831 2224 2088 2631 2086
2305,2015 2014 2013 2009 2004 1998
2307,2018 2017 2014 2010 2005 1999
2014,1992 1749 1991 1739 1981 1753
2647,2644 2639 2638
2639,2228 1831 2635 1830
2293,2290 2278 2272 2266 2260 2254 2248 2190 2188 2187
2260,2238 1718 2173 1687 2261 1717
2049,2050
2050,2045 1721
2484,2485
2485,2045 1721
2289,2286 2277 2271 2265 2259 2253 2247
2045,2027 1721
2319,2262 2260 2259 2258
2259,2238 1718 2188 1832 2203 1835
2040,2041
2041,2023 1740
2023,2020 1710 1998 1740
2028,2022 1730 2021 1720 2003 1731
2030,2024 1750 2021 1720 2005 1751
2320,2321
2321,2300 1719
2300,1987 1699 2301 1719
2327,2328
2328,2302 1729
2302,1987 1699 2303 1729
2035,2024 1750 2022 1730 2010 1752
2658,2659
2659,2284 2090
2284,1945 1688 2285 2090
2313,2314
2314,2298 1709
2419,2420
2420,2298 1709
2298,1987 1699 2299 1709
2642,2232 1893 2643 2088
2651,2648 2646 2642
2646,2232 1893 2647 1831
2038,2023 1740 2013 1743
2334,2335
2335,2304 1739
2304,1987 1699 2305 1739
2341,2342
2342,2306 1749
2306,1987 1699 2307 1749
2666,2667
2667,2292 1687
2292,1945 1688 2293 1687
2297,2294 2292 2288 2284 2244 2242 2240 2238 2236 2234 1952 1951 1950 1949 1948 1947 1946
2650,2651 1893
2662,2663
2663,2288 1832
2288,1945 1688 2289 1832
2652,2284 2090 2637 2625
2366,2036 2035 2034 2033 2028
2061,2062
2034,2023 1740 2022 1730 2009 1742
2054,2055
2062,2048 1751
2048,2045 1721 2030 1751
2055,2046 1731
2046,2045 1721 2028 1731
2316,2300 1719 2247 1833 2259 1835
2315,2300 1719 2246 1759 2258 1761
2370,2043 2042 2039 2035 2030
2039,2024 1750 2023 1740 2014 1753
2317,2300 1719 2248 1697 2260 1717
2364,2031 2030 2029 2028 2027
2368,2040 2039 2038 2034 2029
2029,2023 1740 2021 1720 2004 1741
2322,2302 1729 2246 1759 2264 1762
2376,2320 2318 2317 2316 2315
2318,2300 1719 2234 1698 2319 1718
2403,2404
2323,2302 1729 2247 1833 2265 1836
2404,2308 1760
2308,2298 1709 2246 1759 2252 1760
2407,2408
2408,2309 1834
2309,2298 1709 2247 1833 2253 1834
2657,2292 1687 2650 1893
2670,2671
2671,2296 1688
2296,2297 1688
2060,2048 1751 2042 1754
2051,2046 1731 2033 1732
2411,2412
2412,2310 1707
2310,2298 1709 2248 1697 2254 1707
2329,2304 1739 2246 1759 2270 1763
2346,2343 2336 2329 2322 2315 2308
2336,2306 1749 2246 1759 2276 1764
2654,2292 1687 2284 2090 2642 2088
2655,2288 1832 2639 1830
2385,2386
2386,2365 1730
2365,2020 1710 2366 1730
2661,2658 2654 2653 2652
2653,2288 1832 2284 2090 2638 2086
2058,2059
2059,2047 1741
2047,2045 1721 2029 1741
2415,2416
2401,2402
2416,2311 1708
2402,2369 1750
2311,2298 1709 2234 1698 2312 1708
2369,2020 1710 2370 1750
2324,2302 1729 2248 1697 2266 1727
2384,2327 2325 2324 2323 2322
2325,2302 1729 2234 1698 2326 1728
2066,2067
2067,2063 1732
2540,2541
2541,2063 1732
2063,2051 1732
2665,2662 2656 2655 2653
2669,2666 2657 2656 2654
2656,2292 1687 2288 1832 2646 1831
2053,2048 1751 2046 1731 2035 1752
2330,2304 1739 2247 1833 2271 1736
2350,2347 2337 2330 2323 2316 2309
2337,2306 1749 2247 1833 2277 1746
2331,2304 1739 2248 1697 2272 1737
2660,2296 1688 2661 2090
2392,2334 2332 2331 2330 2329
2332,2304 1739 2234 1698 2333 1738
2377,2378
2378,2363 1720
2480,2481
2481,2363 1720
2363,2020 1710 2364 1720
2393,2394
2394,2367 1740
2367,2020 1710 2368 1740
2358,2355 2339 2332 2325 2318 2311 2250 2248 2247 2246
2354,2351 2338 2331 2324 2317 2310
2339,2306 1749 2234 1698 2340 1748
2400,2341 2339 2338 2337 2336
2338,2306 1749 2248 1697 2278 1747
2056,2047 1741 2038 1743
2684,2685
2685,2345 1759
2345,1987 1699 2346 1759
2380,2365 1730 2309 1834 2323 1836
2379,2365 1730 2308 1760 2322 1762
2664,2296 1688 2665 1832
2428,2054 2053 2052 2051
2052,2047 1741 2046 1731 2034 1742
2395,2369 1750 2308 1760 2336 1764
2381,2365 1730 2310 1707 2324 1727
2382,2365 1730 2311 1708 2325 1728
2673,2670 2668 2664 2660
2668,2296 1688 2669 1687
2430,2058 2057 2056 2052
2073,2074
2432,2061 2060 2057 2053
2074,2065 1752
2057,2048 1751 2047 1741 2039 1753
2065,2063 1732 2053 1752
2688,2689
2689,2349 1833
2349,1987 1699 2350 1833
2674,2345 1759 2652 2625
2439,2385 2383 2382 2381 2380 2379
2383,2365 1730 2298 1709 2384 1729
2672,2673 1688
2396,2369 1750 2309 1834 2337 1746
2460,2461
2461,2371 1761
2371,2363 1720 2308 1760 2315 1761
2464,2465
2465,2372 1835
2372,2363 1720 2309 1834 2316 1835
2362,2359 2357 2353 2349 2345 2306 2304 2302 2300 2298 1993 1992 1991 1990 1989 1988
2696,2697
2697,2357 1698
2389,2367 1740 2310 1707 2331 1737
2357,1987 1699 2358 1698
2410,2407 2396 2388 2380 2372
2406,2403 2395 2387 2379 2371
2692,2693
2387,2367 1740 2308 1760 2329 1763
2388,2367 1740 2309 1834 2330 1736
2693,2353 1697
2353,1987 1699 2354 1697
2390,2367 1740 2311 1708 2332 1738
2072,2065 1752 2060 1754
2070,2071
2071,2064 1742
2064,2063 1732 2052 1742
2468,2469
2472,2473
2469,2373 1717
2473,2374 1718
2448,2393 2391 2390 2389 2388 2387
2373,2363 1720 2310 1707 2317 1717
2374,2363 1720 2311 1708 2318 1718
2391,2367 1740 2298 1709 2392 1739
2476,2477
2477,2375 1719
2375,2363 1720 2298 1709 2376 1719
2449,2450
2450,2429 1741
2678,2349 1833 2655 1830
2429,2045 1721 2430 1741
2700,2701
2675,2349 1833 2345 1759 2653 2086
2701,2361 1699
2361,2362 1699
2458,2459
2459,2431 1751
2431,2045 1721 2432 1751
2414,2411 2397 2389 2381 2373
2397,2369 1750 2310 1707 2338 1747
2440,2441
2441,2427 1731
2536,2537
2537,2427 1731
2422,2419 2399 2391 2383 2375 2313 2311 2310 2309 2308
2427,2045 1721 2428 1731
2399,2369 1750 2298 1709 2400 1749
2681,2353 1697 2657 1893
2068,2064 1742 2056 1743
2418,2415 2398 2390 2382 2374
2457,2401 2399 2398 2397 2396 2395
2398,2369 1750 2311 1708 2339 1748
2677,2357 1698 2345 1759 2660 2090
2723,2724
2719,2720
2724,2409 1834
2720,2405 1760
2409,2020 1710 2410 1834
2405,2020 1710 2406 1760
2683,2357 1698 2672 1688
2687,2684 2677 2676 2675 2674
2676,2353 1697 2345 1759 2654 2088
2679,2353 1697 2349 1833 2656 1831
2695,2692 2682 2681 2679 2676
2691,2688 2680 2679 2678 2675
2682,2357 1698 2353 1697 2668 1687
2699,2696 2683 2682 2680 2677
2680,2357 1698 2349 1833 2664 1832
2489,2070 2069 2068
2491,2073 2072 2069
2069,2065 1752 2064 1742 2057 1753
2077,2078
2078,2075 1743
2589,2590
2590,2075 1743
2075,2068 1743
2442,2429 1741 2371 1761 2387 1763
2443,2429 1741 2372 1835 2388 1736
2444,2429 1741 2373 1717 2389 1737
2451,2431 1751 2371 1761 2395 1764
2452,2431 1751 2372 1835 2396 1746
2709,2409 1834 2678 1830
2704,2405 1760 2674 2625
2686,2361 1699 2687 1759
2727,2728
2728,2413 1707
2413,2020 1710 2414 1707
2463,2460 2451 2442 2433
2512,2513
2513,2433 1762
2433,2427 1731 2371 1761 2379 1762
2735,2736
2736,2421 1709
2421,2020 1710 2422 1709
2445,2429 1741 2374 1718 2390 1738
2426,2423 2421 2417 2413 2409 2405 2369 2367 2365 2363 2025 2024 2023 2022 2021
2731,2732
2732,2417 1708
2417,2020 1710 2418 1708
2467,2464 2452 2443 2434
2516,2517
2517,2434 1836
2434,2427 1731 2372 1835 2380 1836
2690,2361 1699 2691 1833
2694,2361 1699 2695 1697
2705,2409 1834 2405 1760 2675 2086
2453,2431 1751 2373 1717 2397 1747
2703,2700 2698 2694 2690 2686
2698,2361 1699 2699 1698
2500,2501
2501,2488 1742
2585,2586
2586,2488 1742
2080,2081
2488,2063 1732 2489 1742
2081,2076 1753
2076,2075 1743 2069 1753
2446,2429 1741 2375 1719 2391 1739
2499,2449 2447 2446 2445 2444 2443 2442
2447,2429 1741 2363 1720 2448 1740
2739,2740
2740,2425 1710
2425,2426 1710
2702,2703 1699
2510,2511
2511,2490 1752
2490,2063 1732 2491 1752
2471,2468 2453 2444 2435
2520,2521
2521,2435 1727
2435,2427 1731 2373 1717 2381 1727
2454,2431 1751 2374 1718 2398 1748
2475,2472 2454 2445 2436
2455,2431 1751 2375 1719 2399 1749
2524,2525
2525,2436 1728
2436,2427 1731 2374 1718 2382 1728
2713,2413 1707 2681 1893
2706,2413 1707 2405 1760 2676 2088
2479,2476 2455 2446 2437
2528,2529
2529,2437 1729
2437,2427 1731 2375 1719 2383 1729
2708,2421 1709 2405 1760 2686 1759
2509,2458 2456 2455 2454 2453 2452 2451
2456,2431 1751 2363 1720 2457 1750
2768,2769
2769,2466 1835
2466,2045 1721 2467 1835
2715,2421 1709 2413 1707 2694 1697
2712,2421 1709 2409 1834 2690 1833
2545,2080 2079
2079,2076 1753 2072 1754
2710,2413 1707 2409 1834 2679 1831
2557,2558
2558,2492 1763
2492,2488 1742 2433 1762 2442 1763
2718,2421 1709 2702 1699
2722,2719 2708 2707 2706 2705 2704
2707,2417 1708 2405 1760 2677 2090
2716,2417 1708 2683 1688
2738,2735 2718 2717 2715 2712 2708
2717,2421 1709 2417 1708 2698 1698
2083,2084
2084,2082 1754
2621,2622
2622,2082 1754
2581,2582
2082,2079 1754
2582,2498 1741
2498,2488 1742 2427 1731 2499 1741
2749,2466 1835 2709 1830
2726,2723 2712 2711 2710 2709 2705
2711,2417 1708 2409 1834 2680 1832
2772,2773
2773,2470 1717
2515,2512 2502 2492
2470,2045 1721 2471 1717
2502,2490 1752 2433 1762 2451 1764
2776,2777
2730,2727 2715 2714 2713 2710 2706
2777,2474 1718
2474,2045 1721 2475 1718
2734,2731 2717 2716 2714 2711 2707
2714,2417 1708 2413 1707 2682 1687
2503,2490 1752 2434 1836 2452 1746
2519,2516 2503 2493
2561,2562
2562,2493 1736
2483,2480 2456 2447 2438 2377 2375 2374 2373 2372 2371
2493,2488 1742 2434 1836 2443 1736
2532,2533
2533,2438 1730
2438,2427 1731 2363 1720 2439 1730
2539,2536 2508 2498 2440 2438 2437 2436 2435 2434 2433
2508,2490 1752 2427 1731 2509 1751
2555,2556
2556,2544 1753
2617,2618
2569,2570
2618,2544 1753
2570,2495 1738
2544,2075 1743 2545 1753
2495,2488 1742 2436 1728 2445 1738
2527,2524 2505 2495
2505,2490 1752 2436 1728 2454 1748
2737,2425 1710 2738 1709
2721,2425 1710 2722 1760
2725,2425 1710 2726 1834
2729,2425 1710 2730 1707
2565,2566
2566,2494 1737
2494,2488 1742 2435 1727 2444 1737
2523,2520 2504 2494
2504,2490 1752 2435 1727 2453 1747
2758,2474 1718 2716 1688
2764,2765
2765,2462 1761
2462,2045 1721 2463 1761
2506,2490 1752 2437 1729 2455 1749
2531,2528 2506 2496
2820,2821
2821,2514 1762
2573,2574
2780,2781
2514,2063 1732 2515 1762
2574,2496 1739
2781,2478 1719
2496,2488 1742 2437 1729 2446 1739
2478,2045 1721 2479 1719
2750,2470 1717 2466 1835 2710 1831
2751,2474 1718 2466 1835 2711 1832
2754,2470 1717 2713 1893
2824,2825
2825,2518 1836
2518,2063 1732 2519 1836
2487,2484 2482 2478 2474 2470 2466 2462 2431 2429 2427 2049 2048 2047 2046
2784,2785
2785,2482 1720
2482,2045 1721 2483 1720
2844,2845
2845,2538 1731
2538,2063 1732 2539 1731
2742,2739 2737 2733 2729 2725 2721
2733,2425 1710 2734 1708
2564,2561 2547
2832,2833
2833,2526 1728
2596,2597
2526,2063 1732 2527 1728
2597,2547 1746
2547,2544 1753 2493 1736 2503 1746
2572,2569 2549
2560,2557 2546
2602,2603
2593,2594
2603,2549 1748
2594,2546 1764
2549,2544 1753 2495 1738 2505 1748
2546,2544 1753 2492 1763 2502 1764
2743,2462 1761 2704 2625
2577,2578
2578,2497 1740
2497,2488 1742 2438 1730 2447 1740
2828,2829
2829,2522 1727
2584,2581 2552
2522,2063 1732 2523 1727
2611,2612
2612,2552 1751
2552,2544 1753 2498 1741 2508 1751
2568,2565 2548
2599,2600
2741,2742 1710
2600,2548 1747
2548,2544 1753 2494 1737 2504 1747
2799,2518 1836 2749 1830
2788,2789
2789,2486 1721
2486,2487 1721
2535,2532 2507 2497
2554,2510 2508 2507 2506 2505 2504 2503 2502
2507,2490 1752 2438 1730 2456 1750
2836,2837
2837,2530 1729
2530,2063 1732 2531 1729
2747,2478 1719 2462 1761 2708 1759
2755,2474 1718 2470 1717 2714 1687
2744,2466 1835 2462 1761 2705 2086
2752,2478 1719 2466 1835 2712 1833
2756,2478 1719 2470 1717 2715 1697
2759,2478 1719 2474 1718 2717 1698
2761,2478 1719 2718 1699
2900,2901
2901,2571 1738
2571,2075 1743 2572 1738
2892,2893
2893,2563 1736
2563,2075 1743 2564 1736
2888,2889
2889,2559 1763
2801,2526 1728 2518 1836 2751 1832
2559,2075 1743 2560 1763
2745,2470 1717 2462 1761 2706 2088
2912,2913
2913,2583 1741
2583,2075 1743 2584 1741
2800,2522 1727 2518 1836 2750 1831
2896,2897
2897,2567 1737
2760,2482 1720 2474 1718 2733 1708
2567,2075 1743 2568 1737
2993,2994
2994,2613 1751
2613,2082 1754 2611 1751
2748,2482 1720 2462 1761 2721 1760
2543,2540 2538 2534 2530 2526 2522 2518 2514 2490 2488 2066 2065 2064
2840,2841
2841,2534 1730
2534,2063 1732 2535 1730
2814,2530 1729 2761 1699
2576,2573 2550
2605,2606
2606,2550 1749
2550,2544 1753 2496 1739 2506 1749
2796,2530 1729 2514 1762 2747 1759
2793,2518 1836 2514 1762 2744 2086
2810,2526 1728 2758 1688
2806,2526 1728 2522 1727 2755 1687
2802,2530 1729 2518 1836 2752 1833
2807,2530 1729 2522 1727 2756 1697
2981,2982
2982,2604 1748
2811,2530 1729 2526 1728 2759 1698
2604,2082 1754 2602 1748
2973,2974
2974,2598 1746
2598,2082 1754 2596 1746
2792,2514 1762 2743 2625
2805,2522 1727 2754 1893
2969,2970
2970,2595 1764
2595,2082 1754 2593 1764
2763,2482 1720 2741 1710
2767,2764 2748 2747 2746 2745 2744 2743
2779,2776 2760 2759 2758 2755 2751 2746
2746,2474 1718 2462 1761 2707 2090
2848,2849
2849,2542 1732
2542,2543 1732
2977,2978
2978,2601 1747
2601,2082 1754 2599 1747
2794,2522 1727 2514 1762 2745 2088
2771,2768 2753 2752 2751 2750 2749 2744
2753,2482 1720 2466 1835 2725 1834
2580,2577 2551
2873,2571 1738 2810 1688
2608,2609
2609,2551 1750
2551,2544 1753 2497 1740 2507 1750
2904,2905
2905,2575 1739
2575,2075 1743 2576 1739
2860,2563 1736 2799 1830
2852,2559 1763 2792 2625
2867,2567 1737 2805 1893
2853,2563 1736 2559 1763 2793 2086
2862,2571 1738 2563 1736 2801 1832
2588,2585 2553 2500 2498 2497 2496 2495 2494 2493 2492
2817,2534 1730 2763 1710
2614,2615
2615,2553 1752
2620,2617 2555 2553 2552 2551 2550 2549 2548 2547 2546
2868,2571 1738 2567 1737 2806 1687
2553,2544 1753 2488 1742 2554 1752
2812,2534 1730 2526 1728 2760 1708
2797,2534 1730 2514 1762 2748 1760
2766,2486 1721 2767 1761
2775,2772 2757 2756 2755 2754 2750 2745
2757,2482 1720 2470 1717 2729 1707
2861,2567 1737 2563 1736 2800 1831
2778,2486 1721 2779 1718
2948,2604 1748 2873 1688
2770,2486 1721 2771 1835
2924,2595 1764 2852 2625
2933,2598 1746 2860 1830
2783,2780 2762 2761 2759 2756 2752 2747
2787,2784 2763 2762 2760 2757 2753 2748
2762,2482 1720 2478 1719 2737 1709
2941,2601 1747 2867 1893
2854,2567 1737 2559 1763 2794 2088
2908,2909
2909,2579 1740
2579,2075 1743 2580 1740
2774,2486 1721 2775 1717
2985,2986
2986,2607 1749
2607,2082 1754 2605 1749
2925,2598 1746 2595 1764 2853 2086
2997,2998
2989,2990
2998,2616 1752
2935,2604 1748 2598 1746 2862 1832
2592,2589 2587 2583 2579 2575 2571 2567 2563 2559 2544 2077 2076
2990,2610 1750
2616,2082 1754 2614 1752
2610,2082 1754 2608 1750
2856,2575 1739 2559 1763 2796 1759
2916,2917
2917,2587 1742
2587,2075 1743 2588 1742
2942,2604 1748 2601 1747 2868 1687
2795,2526 1728 2514 1762 2746 2090
2782,2486 1721 2783 1719
2934,2601 1747 2598 1746 2861 1831
2823,2820 2798 2797 2796 2795 2794 2793 2792
2798,2538 1731 2514 1762 2766 1761
2835,2832 2813 2812 2811 2810 2806 2801 2795
2813,2538 1731 2526 1728 2778 1718
2803,2534 1730 2518 1836 2753 1834
2878,2575 1739 2814 1699
2863,2575 1739 2563 1736 2802 1833
2869,2575 1739 2567 1737 2807 1697
2874,2575 1739 2571 1738 2811 1698
2791,2788 2786 2782 2778 2774 2770 2766
2786,2486 1721 2787 1720
2920,2921
2921,2591 1743
2591,2592 1743
2926,2601 1747 2595 1764 2854 2088
2857,2579 1740 2559 1763 2797 1760
2808,2534 1730 2522 1727 2757 1707
2831,2828 2809 2808 2807 2806 2805 2800 2794
2809,2538 1731 2522 1727 2774 1717
2624,2621 2619 2616 2613 2610 2607 2604 2601 2598 2595 2083
3001,3002
2822,2542 1732 2823 1762
2834,2542 1732 2835 1728
3002,2619 1753
2928,2607 1749 2595 1764 2856 1759
2619,2082 1754 2620 1753
2875,2579 1740 2571 1738 2812 1708
2815,2534 1730 2530 1729 2762 1709
2790,2791 1721
2855,2571 1738 2559 1763 2795 2090
2954,2607 1749 2878 1699
2839,2836 2816 2815 2814 2811 2807 2802 2796
2816,2538 1731 2530 1729 2782 1719
2858,2583 1741 2559 1763 2798 1761
2827,2824 2804 2803 2802 2801 2800 2799 2793
2804,2538 1731 2518 1836 2770 1835
2882,2579 1740 2817 1710
2943,2607 1749 2601 1747 2869 1697
2936,2607 1749 2598 1746 2863 1833
2949,2607 1749 2604 1748 2874 1698
2830,2542 1732 2831 1727
2843,2840 2818 2817 2815 2812 2808 2803 2797
2818,2538 1731 2534 1730 2786 1720
3005,3006
3006,2623 1754
2623,2624 1754
2847,2844 2819 2818 2816 2813 2809 2804 2798
2819,2538 1731 2790 1721
2876,2583 1741 2571 1738 2813 1718
2870,2579 1740 2567 1737 2808 1707
2838,2542 1732 2839 1729
2929,2610 1750 2595 1764 2857 1760
2826,2542 1732 2827 1836
2959,2610 1750 2882 1710
2950,2610 1750 2604 1748 2875 1708
2891,2888 2859 2858 2857 2856 2855 2854 2853 2852
2903,2900 2877 2876 2875 2874 2873 2868 2862 2855
2879,2579 1740 2575 1739 2815 1709
2859,2587 1742 2559 1763 2822 1762
2877,2587 1742 2571 1738 2834 1728
2930,2613 1751 2595 1764 2858 1761
2927,2604 1748 2595 1764 2855 2090
2864,2579 1740 2563 1736 2803 1834
2842,2542 1732 2843 1730
2851,2848 2846 2842 2838 2834 2830 2826 2822
2846,2542 1732 2847 1731
2871,2583 1741 2567 1737 2809 1717
2880,2583 1741 2575 1739 2816 1719
2899,2896 2872 2871 2870 2869 2868 2867 2861 2854
2872,2587 1742 2567 1737 2830 1727
2865,2583 1741 2563 1736 2804 1835
2885,2583 1741 2819 1721
2883,2583 1741 2579 1740 2818 1720
2890,2591 1743 2891 1763
2902,2591 1743 2903 1738
2951,2613 1751 2604 1748 2876 1718
2850,2851 1732
2944,2610 1750 2601 1747 2870 1707
2907,2904 2881 2880 2879 2878 2874 2869 2863 2856
2881,2587 1742 2575 1739 2838 1729
2895,2892 2866 2865 2864 2863 2862 2861 2860 2853
2866,2587 1742 2563 1736 2826 1836
2955,2610 1750 2607 1749 2879 1709
2952,2616 1752 2604 1748 2877 1728
2931,2616 1752 2595 1764 2859 1762
2937,2610 1750 2598 1746 2864 1834
2898,2591 1743 2899 1737
2911,2908 2884 2883 2882 2879 2875 2870 2864 2857
2884,2587 1742 2579 1740 2842 1730
2963,2613 1751 2885 1721
2915,2912 2886 2885 2883 2880 2876 2871 2865 2858
2886,2587 1742 2583 1741 2846 1731
2919,2916 2887 2886 2884 2881 2877 2872 2866 2859
2887,2587 1742 2850 1732
2906,2591 1743 2907 1739
2946,2616 1752 2601 1747 2872 1727
2945,2613 1751 2601 1747 2871 1717
2938,2613 1751 2598 1746 2865 1835
2956,2613 1751 2607 1749 2880 1719
2894,2591 1743 2895 1736
2960,2613 1751 2610 1750 2883 1720
2984,2981 2953 2952 2951 2950 2949 2948 2942 2935 2927
2972,2969 2932 2931 2930 2929 2928 2927 2926 2925 2924
2953,2619 1753 2604 1748 2902 1738
2932,2619 1753 2595 1764 2890 1763
2957,2616 1752 2607 1749 2881 1729
2910,2591 1743 2911 1740
2939,2616 1752 2598 1746 2866 1836
2914,2591 1743 2915 1741
2923,2920 2918 2914 2910 2906 2902 2898 2894 2890
2966,2616 1752 2887 1732
2918,2591 1743 2919 1742
2980,2977 2947 2946 2945 2944 2943 2942 2941 2934 2926
2961,2616 1752 2610 1750 2884 1730
2947,2619 1753 2601 1747 2898 1737
2983,2623 1754 2984 1748
2964,2616 1752 2613 1751 2886 1731
2971,2623 1754 2972 1764
2988,2985 2958 2957 2956 2955 2954 2949 2943 2936 2928
2958,2619 1753 2607 1749 2906 1739
2922,2923 1743
2976,2973 2940 2939 2938 2937 2936 2935 2934 2933 2925
2940,2619 1753 2598 1746 2894 1736
2992,2989 2962 2961 2960 2959 2955 2950 2944 2937 2929
2979,2623 1754 2980 1747
2962,2619 1753 2610 1750 2910 1740
2996,2993 2965 2964 2963 2960 2956 2951 2945 2938 2930
2965,2619 1753 2613 1751 2914 1741
3000,2997 2967 2966 2964 2961 2957 2952 2946 2939 2931
2967,2619 1753 2616 1752 2918 1742
3004,3001 2968 2967 2965 2962 2958 2953 2947 2940 2932
2968,2619 1753 2922 1743
2987,2623 1754 2988 1749
2975,2623 1754 2976 1746
2991,2623 1754 2992 1750
2995,2623 1754 2996 1751
2999,2623 1754 3000 1752
3008,3005 3003 2999 2995 2991 2987 2983 2979 2975 2971
3003,2623 1754 3004 1753
3007,3008 1754
3010,2924
3009,3010
3012,2925
3011,3012
3014,2926
3013,3014
3016,2927
3015,3016
3018,2928
3017,3018
3020,2929
3019,3020
3022,2930
3021,3022
3024,2931
3023,3024
3026,2932
3025,3026
3028,2971
3027,3028
3030,1656
3029,3030
3032,2933
3031,3032
3034,2934
3033,3034
3036,2935
3035,3036
3038,2936
3037,3038
3040,2937
3039,3040
3042,2938
3041,3042
3044,2939
3043,3044
3046,2940
3045,3046
3048,2975
3047,3048
3050,1657
3049,3050
3052,1667
3051,3052
3054,2941
3053,3054
3056,2942
3055,3056
3058,2943
3057,3058
3060,2944
3059,3060
3062,2945
3061,3062
3064,2946
3063,3064
3066,2947
3065,3066
3068,2979
3067,3068
3070,1658
3069,3070
3072,1668
3071,3072
3074,1678
3073,3074
3076,2948
3075,3076
3078,2949
3077,3078
3080,2950
3079,3080
3082,2951
3081,3082
3084,2952
3083,3084
3086,2953
3085,3086
3088,2983
3087,3088
3090,1659
3089,3090
3092,1669
3091,3092
3094,1679
3093,3094
3096,1689
3095,3096
3098,2954
3097,3098
3100,2955
3099,3100
3102,2956
3101,3102
3104,2957
3103,3104
3106,2958
3105,3106
3108,2987
3107,3108
3110,1660
3109,3110
3112,1670
3111,3112
3114,1680
3113,3114
3116,1690
3115,3116
3118,1700
3117,3118
3120,2959
3119,3120
3122,2960
3121,3122
3124,2961
3123,3124
3126,2962
3125,3126
3128,2991
3127,3128
3130,1661
3129,3130
3132,1671
3131,3132
3134,1681
3133,3134
3136,1691
3135,3136
3138,1701
3137,3138
3140,1711
3139,3140
3142,2963
3141,3142
3144,2964
3143,3144
3146,2965
3145,3146
3148,2995
3147,3148
3150,1662
3149,3150
3152,1672
3151,3152
3154,1682
3153,3154
3156,1692
3155,3156
3158,1702
3157,3158
3160,1712
3159,3160
3162,1722
3161,3162
3164,2966
3163,3164
3166,2967
3165,3166
3168,2999
3167,3168
3170,1663
3169,3170
3172,1673
3171,3172
3174,1683
3173,3174
3176,1693
3175,3176
3178,1703
3177,3178
3180,1713
3179,3180
3182,1723
3181,3182
3184,1733
3183,3184
3186,2968
3185,3186
3188,3003
3187,3188
3190,1664
3189,3190
3192,1674
3191,3192
3194,1684
3193,3194
3196,1694
3195,3196
3198,1704
3197,3198
3200,1714
3199,3200
3202,1724
3201,3202
3204,1734
3203,3204
3206,1744
3205,3206
3208,3007
3207,3208
