5670,5671
5671,5650 5230
5650,5230
5781,5782
5782,5656 5236
5656,5650 5230 5236
5765,5766
5766,5655 5235
5655,5650 5230 5235
5711,5712
5712,5652 5232
5652,5650 5230 5232
5748,5749
5730,5731
5749,5654 5234
5654,5650 5230 5234
5731,5653 5233
5653,5650 5230 5233
5691,5692
5692,5651 5231
5651,5650 5230 5231
5750,5655 5235 5335
5693,5652 5232 5272
5796,5797
5797,5657 5237
5657,5650 5230 5237
5694,5652 5232 5653 5233 5273
5695,5652 5232 5654 5234 5274
7611,7612
7612,5650
7614,7615
7615,5651
7617,7618
7618,5652
7620,7621
7621,5653
7623,7624
7624,5654
7626,7627
7627,5655
7629,7630
7630,5656
7632,7633
7633,5657
5672,5651 5231 5251
5751,5655 5235 5656 5236 5336
5713,5653 5233 5293
5696,5652 5232 5655 5235 5275
5732,5654 5234 5314
5810,5811
5811,5658 5238
7635,7636
7636,5658 5238
5658,5650 5230 5238
8841,8842
8842,5658
8867,8868
8868,5657
8890,8891
8891,5656
8910,8911
8911,5655
8927,8928
8928,5654
8941,8942
8942,5653
8952,8953
8953,5652
8960,8961
8961,5651
8965,8966
8966,5650
5673,5651 5231 5652 5232 5252
5715,5653 5233 5655 5235 5295
5714,5653 5233 5654 5234 5294
5733,5654 5234 5655 5235 5315
5697,5652 5232 5656 5236 5276
5823,5824
5824,5659 5239
7638,7639
7639,5659 5239
8812,8813
8813,5659 5239
5659,5650 5230 5239
5674,5651 5231 5653 5233 5253
5716,5653 5233 5656 5236 5296
5835,5836
5836,5660 5240
7641,7642
7642,5660 5240
8780,8781
8781,5660 5240
5660,5650 5230 5240
5734,5654 5234 5656 5236 5316
5846,5847
5847,5661 5241
7644,7645
7645,5661 5241
8745,8746
8746,5661 5241
5661,5650 5230 5241
7670,7671
7671,7610 5630
7610,5650 5630
7613,5651 7610 5630 5631
7616,5652 7610 5630 5632
7619,5653 7610 5630 5633
7622,5654 7610 5630 5634
7625,5655 7610 5630 5635
7628,5656 7610 5630 5636
7631,5657 7610 5630 5637
5856,5857
5857,5662 5242
7647,7648
7648,5662 5242
8707,8708
8708,5662 5242
5662,5650 5230 5242
7634,5658 5238 7610 5630 5638
7637,5659 5239 7610 5630 5639
7640,5660 5240 7610 5630 5640
7643,5661 5241 7610 5630 5641
5675,5651 5231 5654 5234 5254
5681,5651 5231 5660 5240 5260
5865,5866
5866,5663 5243
7650,7651
7651,5663 5243
8666,8667
8667,5663 5243
5663,5650 5230 5243
5682,5651 5231 5661 5241 5261
5873,5874
5874,5664 5244
7653,7654
7654,5664 5244
8622,8623
8623,5664 5244
5664,5650 5230 5244
5676,5651 5231 5655 5235 5255
5677,5651 5231 5656 5236 5256
5701,5652 5232 5660 5240 5280
5684,5651 5231 5663 5243 5263
5919,5920
5920,5900 5251
7673,7674
7674,5900 5251
8957,8958
8958,5900 5251
5900,5672 5251
5702,5652 5232 5661 5241 5281
5880,5881
5881,5665 5245
7656,7657
7657,5665 5245
8575,8576
8576,5665 5245
5665,5650 5230 5245
5721,5653 5233 5661 5241 5301
5720,5653 5233 5660 5240 5300
5704,5652 5232 5663 5243 5283
5939,5940
5940,5901 5252
7676,7677
7677,5901 5252
8949,8950
8950,5901 5252
5901,5900 5251 5673 5252
5739,5654 5234 5661 5241 5321
5886,5887
5887,5666 5246
7659,7660
7660,5666 5246
8525,8526
8526,5666 5246
5666,5650 5230 5246
5756,5655 5235 5661 5241 5341
5738,5654 5234 5660 5240 5320
5723,5653 5233 5663 5243 5303
5772,5656 5236 5661 5241 5361
5958,5959
5959,5902 5253
7679,7680
7680,5902 5253
8938,8939
8939,5902 5253
5902,5900 5251 5674 5253
5891,5892
5892,5667 5247
7662,7663
7663,5667 5247
8472,8473
8473,5667 5247
5667,5650 5230 5247
5787,5657 5237 5661 5241 5381
5741,5654 5234 5663 5243 5323
5755,5655 5235 5660 5240 5340
5801,5658 5238 5661 5241 5401
5976,5977
5977,5903 5254
7682,7683
7683,5903 5254
8924,8925
8925,5903 5254
5903,5900 5251 5675 5254
5895,5896
5896,5668 5248
7665,7666
7666,5668 5248
8416,8417
8417,5668 5248
5668,5650 5230 5248
5814,5659 5239 5661 5241 5421
5771,5656 5236 5660 5240 5360
5758,5655 5235 5663 5243 5343
5826,5660 5240 5661 5241 5441
5993,5994
5994,5904 5255
7685,7686
7686,5904 5255
8907,8908
8908,5904 5255
5904,5900 5251 5676 5255
5898,5899
5899,5669 5249
7668,7669
7669,5669 5249
8357,8358
8358,5669 5249
5669,5650 5230 5249
5837,5661 5241 5461
5774,5656 5236 5663 5243 5363
5786,5657 5237 5660 5240 5380
5800,5658 5238 5660 5240 5400
6009,6010
6010,5905 5256
7688,7689
7689,5905 5256
8887,8888
8888,5905 5256
5905,5900 5251 5677 5256
5767,5656 5236 5356
5813,5659 5239 5660 5240 5420
5825,5660 5240 5440
5789,5657 5237 5663 5243 5383
5803,5658 5238 5663 5243 5403
5678,5651 5231 5657 5237 5257
6063,6064
6064,5909 5260
7700,7701
7701,5909 5260
8777,8778
8778,5909 5260
5909,5900 5251 5681 5260
5816,5659 5239 5663 5243 5423
5828,5660 5240 5663 5243 5443
7649,5663 5243 7610 5630 5643
5839,5661 5241 5663 5243 5463
5849,5662 5242 5663 5243 5483
5698,5652 5232 5657 5237 5277
5858,5663 5243 5503
6074,6075
6075,5910 5261
7703,7704
7704,5910 5261
8742,8743
8743,5910 5261
5910,5900 5251 5682 5261
5717,5653 5233 5657 5237 5297
5783,5657 5237 5377
5735,5654 5234 5657 5237 5317
5752,5655 5235 5657 5237 5337
5768,5656 5236 5657 5237 5357
6093,6094
6094,5912 5263
7709,7710
7710,5912 5263
8663,8664
8664,5912 5263
5912,5900 5251 5684 5263
7729,7730
7730,7672 5631
7672,5900 5251 7613 5631
5679,5651 5231 5658 5238 5258
5699,5652 5232 5658 5238 5278
5921,5901 5252 5693 5272
5718,5653 5233 5658 5238 5298
5736,5654 5234 5658 5238 5318
5753,5655 5235 5658 5238 5338
5798,5658 5238 5398
6038,6039
6039,5907 5258
7694,7695
7695,5907 5258
8838,8839
8839,5907 5258
5907,5900 5251 5679 5258
5769,5656 5236 5658 5238 5358
5922,5901 5252 5902 5253 5694 5273
5784,5657 5237 5658 5238 5378
5680,5651 5231 5659 5239 5259
5941,5902 5253 5713 5293
5700,5652 5232 5659 5239 5279
5927,5901 5252 5907 5258 5699 5278
5997,5905 5256 5907 5258 5769 5358
5719,5653 5233 5659 5239 5299
5737,5654 5234 5659 5239 5319
5923,5901 5252 5903 5254 5695 5274
5964,5903 5254 5907 5258 5736 5318
5981,5904 5255 5907 5258 5753 5338
5946,5902 5253 5907 5258 5718 5298
5754,5655 5235 5659 5239 5339
5770,5656 5236 5659 5239 5359
6026,5907 5258 5798 5398
5942,5902 5253 5903 5254 5714 5294
5785,5657 5237 5659 5239 5379
6028,5907 5258 5909 5260 5800 5400
5812,5659 5239 5419
7693,5907 5258 7672 5631 7634 5638
5799,5658 5238 5659 5239 5399
5960,5903 5254 5732 5314
6029,5907 5258 5910 5261 5801 5401
6031,5907 5258 5912 5263 5803 5403
5683,5651 5231 5662 5242 5262
5703,5652 5232 5662 5242 5282
5722,5653 5233 5662 5242 5302
5924,5901 5252 5904 5255 5696 5275
5740,5654 5234 5662 5242 5322
5757,5655 5235 5662 5242 5342
5773,5656 5236 5662 5242 5362
5788,5657 5237 5662 5242 5382
5802,5658 5238 5662 5242 5402
5943,5902 5253 5904 5255 5715 5295
7646,5662 5242 7610 5630 5642
5815,5659 5239 5662 5242 5422
5848,5662 5242 5482
5827,5660 5240 5662 5242 5442
5838,5661 5241 5662 5242 5462
5685,5651 5231 5664 5244 5264
5961,5903 5254 5904 5255 5733 5315
5705,5652 5232 5664 5244 5284
5724,5653 5233 5664 5244 5304
5978,5904 5255 5750 5335
5742,5654 5234 5664 5244 5324
5759,5655 5235 5664 5244 5344
6101,6102
6102,5913 5264
7712,7713
7713,5913 5264
8619,8620
8620,5913 5264
5913,5900 5251 5685 5264
5775,5656 5236 5664 5244 5364
5790,5657 5237 5664 5244 5384
5925,5901 5252 5905 5256 5697 5276
5804,5658 5238 5664 5244 5404
5817,5659 5239 5664 5244 5424
5933,5901 5252 5913 5264 5705 5284
6003,5905 5256 5913 5264 5775 5364
5952,5902 5253 5913 5264 5724 5304
5944,5902 5253 5905 5256 5716 5296
6032,5907 5258 5913 5264 5804 5404
5829,5660 5240 5664 5244 5444
5970,5903 5254 5913 5264 5742 5324
5987,5904 5255 5913 5264 5759 5344
7652,5664 5244 7610 5630 5644
7711,5913 5264 7672 5631 7652 5644
5840,5661 5241 5664 5244 5464
5867,5664 5244 5524
5962,5903 5254 5905 5256 5734 5316
5850,5662 5242 5664 5244 5484
5859,5663 5243 5664 5244 5504
6095,5913 5264 5867 5524
5686,5651 5231 5665 5245 5265
6068,5910 5261 5913 5264 5840 5464
5706,5652 5232 5665 5245 5285
5979,5904 5255 5905 5256 5751 5336
5725,5653 5233 5665 5245 5305
5743,5654 5234 5665 5245 5325
6108,6109
6109,5914 5265
7715,7716
7716,5914 5265
8572,8573
8573,5914 5265
5914,5900 5251 5686 5265
5760,5655 5235 5665 5245 5345
5776,5656 5236 5665 5245 5365
5791,5657 5237 5665 5245 5385
5929,5901 5252 5909 5260 5701 5280
5805,5658 5238 5665 5245 5405
5934,5901 5252 5914 5265 5706 5285
5988,5904 5255 5914 5265 5760 5345
6004,5905 5256 5914 5265 5776 5365
5818,5659 5239 5665 5245 5425
5948,5902 5253 5909 5260 5720 5300
6033,5907 5258 5914 5265 5805 5405
5953,5902 5253 5914 5265 5725 5305
5971,5903 5254 5914 5265 5743 5325
5830,5660 5240 5665 5245 5445
5841,5661 5241 5665 5245 5465
5966,5903 5254 5909 5260 5738 5320
5851,5662 5242 5665 5245 5485
7655,5665 5245 7610 5630 5645
5875,5665 5245 5545
7714,5914 5265 7672 5631 7655 5645
5860,5663 5243 5665 5245 5505
5868,5664 5244 5665 5245 5525
6058,5909 5260 5914 5265 5830 5445
5983,5904 5255 5909 5260 5755 5340
5707,5652 5232 5666 5246 5286
5687,5651 5231 5666 5246 5266
6088,5912 5263 5914 5265 5860 5505
6096,5913 5264 5914 5265 5868 5525
5726,5653 5233 5666 5246 5306
5999,5905 5256 5909 5260 5771 5360
5761,5655 5235 5666 5246 5346
5744,5654 5234 5666 5246 5326
6053,5909 5260 5825 5440
5777,5656 5236 5666 5246 5366
5792,5657 5237 5666 5246 5386
5806,5658 5238 5666 5246 5406
5930,5901 5252 5910 5261 5702 5281
5819,5659 5239 5666 5246 5426
5949,5902 5253 5910 5261 5721 5301
5831,5660 5240 5666 5246 5446
5842,5661 5241 5666 5246 5466
5852,5662 5242 5666 5246 5486
7658,5666 5246 7610 5630 5646
5882,5666 5246 5566
5861,5663 5243 5666 5246 5506
5869,5664 5244 5666 5246 5526
5876,5665 5245 5666 5246 5546
5967,5903 5254 5910 5261 5739 5321
5688,5651 5231 5667 5247 5267
5708,5652 5232 5667 5247 5287
5727,5653 5233 5667 5247 5307
5745,5654 5234 5667 5247 5327
5762,5655 5235 5667 5247 5347
5984,5904 5255 5910 5261 5756 5341
6119,6120
6120,5916 5267
7721,7722
7722,5916 5267
8469,8470
8470,5916 5267
5916,5900 5251 5688 5267
5778,5656 5236 5667 5247 5367
5793,5657 5237 5667 5247 5387
5807,5658 5238 5667 5247 5407
5820,5659 5239 5667 5247 5427
6000,5905 5256 5910 5261 5772 5361
5936,5901 5252 5916 5267 5708 5287
6006,5905 5256 5916 5267 5778 5367
5853,5662 5242 5667 5247 5487
5832,5660 5240 5667 5247 5447
5843,5661 5241 5667 5247 5467
6054,5909 5260 5910 5261 5826 5441
5955,5902 5253 5916 5267 5727 5307
6065,5910 5261 5837 5461
5862,5663 5243 5667 5247 5507
6060,5909 5260 5916 5267 5832 5447
5870,5664 5244 5667 5247 5527
5877,5665 5245 5667 5247 5547
5973,5903 5254 5916 5267 5745 5327
5888,5667 5247 5587
7661,5667 5247 7610 5630 5647
5932,5901 5252 5912 5263 5704 5283
6090,5912 5263 5916 5267 5862 5507
5883,5666 5246 5667 5247 5567
6098,5913 5264 5916 5267 5870 5527
5990,5904 5255 5916 5267 5762 5347
5689,5651 5231 5668 5248 5268
5951,5902 5253 5912 5263 5723 5303
5709,5652 5232 5668 5248 5288
5746,5654 5234 5668 5248 5328
5728,5653 5233 5668 5248 5308
5763,5655 5235 5668 5248 5348
5779,5656 5236 5668 5248 5368
5969,5903 5254 5912 5263 5741 5323
5794,5657 5237 5668 5248 5388
5808,5658 5238 5668 5248 5408
5821,5659 5239 5668 5248 5428
5833,5660 5240 5668 5248 5448
5844,5661 5241 5668 5248 5468
5986,5904 5255 5912 5263 5758 5343
5854,5662 5242 5668 5248 5488
5871,5664 5244 5668 5248 5528
5863,5663 5243 5668 5248 5508
7664,5668 5248 7610 5630 5648
5878,5665 5245 5668 5248 5548
5893,5668 5248 5608
5884,5666 5246 5668 5248 5568
6002,5905 5256 5912 5263 5774 5363
5889,5667 5247 5668 5248 5588
5690,5651 5231 5669 5249 5269
5710,5652 5232 5669 5249 5289
5729,5653 5233 5669 5249 5309
5747,5654 5234 5669 5249 5329
6056,5909 5260 5912 5263 5828 5443
5764,5655 5235 5669 5249 5349
6126,6127
6127,5918 5269
7727,7728
7728,5918 5269
8353,8354
8354,5918 5269
5918,5900 5251 5690 5269
5780,5656 5236 5669 5249 5369
5795,5657 5237 5669 5249 5389
5809,5658 5238 5669 5249 5409
6067,5910 5261 5912 5263 5839 5463
5822,5659 5239 5669 5249 5429
5938,5901 5252 5918 5269 5710 5289
6086,5912 5263 5858 5503
7675,5901 5252 7672 5631 7616 5632
7678,5902 5253 7672 5631 7619 5633
6008,5905 5256 5918 5269 5780 5369
7681,5903 5254 7672 5631 7622 5634
5957,5902 5253 5918 5269 5729 5309
7684,5904 5255 7672 5631 7625 5635
7687,5905 5256 7672 5631 7628 5636
5834,5660 5240 5669 5249 5449
7699,5909 5260 7672 5631 7640 5640
7702,5910 5261 7672 5631 7643 5641
7708,5912 5263 7672 5631 7649 5643
5975,5903 5254 5918 5269 5747 5329
5992,5904 5255 5918 5269 5764 5349
6146,6147
6147,6128 5272
7732,7733
7733,6128 5272
8946,8947
8947,6128 5272
6128,5921 5272
5845,5661 5241 5669 5249 5469
5855,5662 5242 5669 5249 5489
5864,5663 5243 5669 5249 5509
5872,5664 5244 5669 5249 5529
5879,5665 5245 5669 5249 5549
6165,6166
6166,6129 5273
7735,7736
7736,6129 5273
8935,8936
8936,6129 5273
6129,6128 5272 5922 5273
6073,5910 5261 5918 5269 5845 5469
5885,5666 5246 5669 5249 5569
5890,5667 5247 5669 5249 5589
8356,7670 7667 7664 7661 7658 7655 7652 7649 7646 7643 7640 7637 7634 7631 7628 7625 7622 7619 7616 7613
7667,5669 5249 7610 5630 5649
6100,5913 5264 5918 5269 5872 5529
6107,5914 5265 5918 5269 5879 5549
5897,5669 5249 5629
6183,6184
6184,6130 5274
7738,7739
7739,6130 5274
8921,8922
8922,6130 5274
6130,6128 5272 5923 5274
5995,5905 5256 5767 5356
5894,5668 5248 5669 5249 5609
6125,5918 5269 5897 5629
6024,6025
6025,5906 5257
7691,7692
7692,5906 5257
8864,8865
8865,5906 5257
5906,5900 5251 5678 5257
6051,6052
6052,5908 5259
7697,7698
7698,5908 5259
8809,8810
8810,5908 5259
5908,5900 5251 5680 5259
6200,6201
6201,6131 5275
7741,7742
7742,6131 5275
8904,8905
8905,6131 5275
6131,6128 5272 5924 5275
6084,6085
6085,5911 5262
7706,7707
7707,5911 5262
8704,8705
8705,5911 5262
5911,5900 5251 5683 5262
6057,5909 5260 5913 5264 5829 5444
6087,5912 5263 5913 5264 5859 5504
5926,5901 5252 5906 5257 5698 5277
5928,5901 5252 5908 5259 5700 5279
6216,6217
6217,6132 5276
7744,7745
7745,6132 5276
8884,8885
8885,6132 5276
6132,6128 5272 5925 5276
6069,5910 5261 5914 5265 5841 5465
5945,5902 5253 5906 5257 5717 5297
5947,5902 5253 5908 5259 5719 5299
5963,5903 5254 5906 5257 5735 5317
6103,5914 5265 5875 5545
5965,5903 5254 5908 5259 5737 5319
6245,6246
6246,6134 5278
7750,7751
7751,6134 5278
8835,8836
8836,6134 5278
6134,6128 5272 5927 5278
5980,5904 5255 5906 5257 5752 5337
5982,5904 5255 5908 5259 5754 5339
5996,5905 5256 5906 5257 5768 5357
6114,6115
6115,5915 5266
7718,7719
7719,5915 5266
8522,8523
8523,5915 5266
5915,5900 5251 5687 5266
5998,5905 5256 5908 5259 5770 5359
6011,5906 5257 5783 5377
6270,6271
6271,6136 5280
7756,7757
7757,6136 5280
8774,8775
8775,6136 5280
6136,6128 5272 5929 5280
6013,5906 5257 5908 5259 5785 5379
6012,5906 5257 5907 5258 5784 5378
6035,5907 5258 5916 5267 5807 5407
6027,5907 5258 5908 5259 5799 5399
6014,5906 5257 5909 5260 5786 5380
6040,5908 5259 5812 5419
6281,6282
6282,6137 5281
7759,7760
7760,6137 5281
8739,8740
8740,6137 5281
6137,6128 5272 5930 5281
6015,5906 5257 5910 5261 5787 5381
6071,5910 5261 5916 5267 5843 5467
6041,5908 5259 5909 5260 5813 5420
6017,5906 5257 5912 5263 5789 5383
6042,5908 5259 5910 5261 5814 5421
6300,6301
6301,6139 5283
7765,7766
7766,6139 5283
8660,8661
8661,6139 5283
6139,6128 5272 5932 5283
6018,5906 5257 5913 5264 5790 5384
6105,5914 5265 5916 5267 5877 5547
6044,5908 5259 5912 5263 5816 5423
6019,5906 5257 5914 5265 5791 5385
6045,5908 5259 5913 5264 5817 5424
6308,6309
6309,6140 5284
7768,7769
7769,6140 5284
8616,8617
8617,6140 5284
6140,6128 5272 5933 5284
6116,5916 5267 5888 5587
7720,5916 5267 7672 5631 7661 5647
6021,5906 5257 5916 5267 5793 5387
7690,5906 5257 7672 5631 7631 5637
6046,5908 5259 5914 5265 5818 5425
6023,5906 5257 5918 5269 5795 5389
7696,5908 5259 7672 5631 7637 5639
6048,5908 5259 5916 5267 5820 5427
6315,6316
6316,6141 5285
7771,7772
7772,6141 5285
8569,8570
8570,6141 5285
6141,6128 5272 5934 5285
6123,6124
6124,5917 5268
7724,7725
7725,5917 5268
8413,8414
8414,5917 5268
5917,5900 5251 5689 5268
6231,6232
6232,6133 5277
7747,7748
7748,6133 5277
8861,8862
8862,6133 5277
6133,6128 5272 5926 5277
6050,5908 5259 5918 5269 5822 5429
6258,6259
6259,6135 5279
7753,7754
7754,6135 5279
8806,8807
8807,6135 5279
6135,6128 5272 5928 5279
6037,5907 5258 5918 5269 5809 5409
6326,6327
6327,6143 5287
7777,7778
7778,6143 5287
8466,8467
8467,6143 5287
6143,6128 5272 5936 5287
6062,5909 5260 5918 5269 5834 5449
7726,5918 5269 7672 5631 7667 5649
6152,6129 5273 6133 5277 5945 5297
6092,5912 5263 5918 5269 5864 5509
6154,6129 5273 6135 5279 5947 5299
6118,5916 5267 5918 5269 5890 5589
6333,6334
6334,6145 5289
7783,7784
7784,6145 5289
8349,8350
8350,6145 5289
6145,6128 5272 5938 5289
7785,7786
7786,7731 5632
7731,6128 5272 7675 5632
5931,5901 5252 5911 5262 5703 5282
5950,5902 5253 5911 5262 5722 5302
6170,6130 5274 6133 5277 5963 5317
6148,6129 5273 5941 5293
6172,6130 5274 6135 5279 5965 5319
5968,5903 5254 5911 5262 5740 5322
5985,5904 5255 5911 5262 5757 5342
6001,5905 5256 5911 5262 5773 5362
6187,6131 5275 6133 5277 5980 5337
6149,6129 5273 6130 5274 5942 5294
6189,6131 5275 6135 5279 5982 5339
6016,5906 5257 5911 5262 5788 5382
6030,5907 5258 5911 5262 5802 5402
6167,6130 5274 5960 5314
6043,5908 5259 5911 5262 5815 5422
6203,6132 5276 6133 5277 5996 5357
6205,6132 5276 6135 5279 5998 5359
6055,5909 5260 5911 5262 5827 5442
6076,5911 5262 5848 5482
6218,6133 5277 6011 5377
6066,5910 5261 5911 5262 5838 5462
6150,6129 5273 6131 5275 5943 5295
6220,6133 5277 6135 5279 6013 5379
6077,5911 5262 5912 5263 5849 5483
6078,5911 5262 5913 5264 5850 5484
6219,6133 5277 6134 5278 6012 5378
6079,5911 5262 5914 5265 5851 5485
7705,5911 5262 7672 5631 7646 5642
6168,6130 5274 6131 5275 5961 5315
6234,6134 5278 6135 5279 6027 5399
6081,5911 5262 5916 5267 5853 5487
6185,6131 5275 5978 5335
6083,5911 5262 5918 5269 5855 5489
6221,6133 5277 6136 5280 6014 5380
5935,5901 5252 5915 5266 5707 5286
6247,6135 5279 6040 5419
5954,5902 5253 5915 5266 5726 5306
6151,6129 5273 6132 5276 5944 5296
5972,5903 5254 5915 5266 5744 5326
6222,6133 5277 6137 5281 6015 5381
6248,6135 5279 6136 5280 6041 5420
5989,5904 5255 5915 5266 5761 5346
6005,5905 5256 5915 5266 5777 5366
6169,6130 5274 6132 5276 5962 5316
6020,5906 5257 5915 5266 5792 5386
6224,6133 5277 6139 5283 6017 5383
6249,6135 5279 6137 5281 6042 5421
6034,5907 5258 5915 5266 5806 5406
6047,5908 5259 5915 5266 5819 5426
6186,6131 5275 6132 5276 5979 5336
6059,5909 5260 5915 5266 5831 5446
6225,6133 5277 6140 5284 6018 5384
6251,6135 5279 6139 5283 6044 5423
6070,5910 5261 5915 5266 5842 5466
6202,6132 5276 5995 5356
6080,5911 5262 5915 5266 5852 5486
6089,5912 5263 5915 5266 5861 5506
6226,6133 5277 6141 5285 6019 5385
6252,6135 5279 6140 5284 6045 5424
6097,5913 5264 5915 5266 5869 5526
6153,6129 5273 6134 5278 5946 5298
6110,5915 5266 5882 5566
7717,5915 5266 7672 5631 7658 5646
6104,5914 5265 5915 5266 5876 5546
6111,5915 5266 5916 5267 5883 5567
6253,6135 5279 6141 5285 6046 5425
6113,5915 5266 5918 5269 5885 5569
6171,6130 5274 6134 5278 5964 5318
5937,5901 5252 5917 5268 5709 5288
5956,5902 5253 5917 5268 5728 5308
5974,5903 5254 5917 5268 5746 5328
5991,5904 5255 5917 5268 5763 5348
6007,5905 5256 5917 5268 5779 5368
6188,6131 5275 6134 5278 5981 5338
6330,6331
6331,6144 5288
7780,7781
7781,6144 5288
8410,8411
8411,6144 5288
6144,6128 5272 5937 5288
6022,5906 5257 5917 5268 5794 5388
6036,5907 5258 5917 5268 5808 5408
6049,5908 5259 5917 5268 5821 5428
6061,5909 5260 5917 5268 5833 5448
6204,6132 5276 6134 5278 5997 5358
6163,6129 5273 6144 5288 5956 5308
6229,6133 5277 6144 5288 6022 5388
6233,6134 5278 6026 5398
6256,6135 5279 6144 5288 6049 5428
6243,6134 5278 6144 5288 6036 5408
6072,5910 5261 5917 5268 5844 5468
6181,6130 5274 6144 5288 5974 5328
6198,6131 5275 6144 5288 5991 5348
6155,6129 5273 6136 5280 5948 5300
6214,6132 5276 6144 5288 6007 5368
6082,5911 5262 5917 5268 5854 5488
6091,5912 5263 5917 5268 5863 5508
6099,5913 5264 5917 5268 5871 5528
6106,5914 5265 5917 5268 5878 5548
6121,5917 5268 5893 5608
6173,6130 5274 6136 5280 5966 5320
6112,5915 5266 5917 5268 5884 5568
6117,5916 5267 5917 5268 5889 5588
8352,7729 7726 7723 7720 7717 7714 7711 7708 7705 7702 7699 7696 7693 7690 7687 7684 7681 7678 7675
7723,5917 5268 7672 5631 7664 5648
7779,6144 5288 7731 5632 7723 5648
6306,6140 5284 6144 5288 6099 5528
6313,6141 5285 6144 5288 6106 5548
6122,5917 5268 5918 5269 5894 5609
6190,6131 5275 6136 5280 5983 5340
6324,6143 5287 6144 5288 6117 5588
6291,6292
6292,6138 5282
7762,7763
7763,6138 5282
8701,8702
8702,6138 5282
6138,6128 5272 5931 5282
6321,6322
6322,6142 5286
7774,7775
7775,6142 5286
8519,8520
8520,6142 5286
6142,6128 5272 5935 5286
6268,6136 5280 6144 5288 6061 5448
6279,6137 5281 6144 5288 6072 5468
6206,6132 5276 6136 5280 5999 5360
6298,6139 5283 6144 5288 6091 5508
6157,6129 5273 6138 5282 5950 5302
6328,6144 5288 6121 5608
6161,6129 5273 6142 5286 5954 5306
6179,6130 5274 6142 5286 5972 5326
6235,6134 5278 6136 5280 6028 5400
6196,6131 5275 6142 5286 5989 5346
6175,6130 5274 6138 5282 5968 5322
6329,6144 5288 6145 5289 6122 5609
6212,6132 5276 6142 5286 6005 5366
6227,6133 5277 6142 5286 6020 5386
6260,6136 5280 6053 5440
6241,6134 5278 6142 5286 6034 5406
6192,6131 5275 6138 5282 5985 5342
6156,6129 5273 6137 5281 5949 5301
6254,6135 5279 6142 5286 6047 5426
6266,6136 5280 6142 5286 6059 5446
6174,6130 5274 6137 5281 5967 5321
6277,6137 5281 6142 5286 6070 5466
6208,6132 5276 6138 5282 6001 5362
6191,6131 5275 6137 5281 5984 5341
6287,6138 5282 6142 5286 6080 5486
6296,6139 5283 6142 5286 6089 5506
6207,6132 5276 6137 5281 6000 5361
6304,6140 5284 6142 5286 6097 5526
6317,6142 5286 6110 5566
6223,6133 5277 6138 5282 6016 5382
6236,6134 5278 6137 5281 6029 5401
6311,6141 5285 6142 5286 6104 5546
6261,6136 5280 6137 5281 6054 5441
6272,6137 5281 6065 5461
6319,6142 5286 6144 5288 6112 5568
6318,6142 5286 6143 5287 6111 5567
6237,6134 5278 6138 5282 6030 5402
7773,6142 5286 7731 5632 7717 5646
6320,6142 5286 6145 5289 6113 5569
6158,6129 5273 6139 5283 5951 5303
6176,6130 5274 6139 5283 5969 5323
6193,6131 5275 6139 5283 5986 5343
6209,6132 5276 6139 5283 6002 5363
6250,6135 5279 6138 5282 6043 5422
6238,6134 5278 6139 5283 6031 5403
6263,6136 5280 6139 5283 6056 5443
6293,6139 5283 6086 5503
6274,6137 5281 6139 5283 6067 5463
6159,6129 5273 6140 5284 5952 5304
6262,6136 5280 6138 5282 6055 5442
6177,6130 5274 6140 5284 5970 5324
6194,6131 5275 6140 5284 5987 5344
6210,6132 5276 6140 5284 6003 5364
6239,6134 5278 6140 5284 6032 5404
6264,6136 5280 6140 5284 6057 5444
6273,6137 5281 6138 5282 6066 5462
6302,6140 5284 6095 5524
6275,6137 5281 6140 5284 6068 5464
6294,6139 5283 6140 5284 6087 5504
6283,6138 5282 6076 5482
6160,6129 5273 6141 5285 5953 5305
6178,6130 5274 6141 5285 5971 5325
6195,6131 5275 6141 5285 5988 5345
6211,6132 5276 6141 5285 6004 5365
6240,6134 5278 6141 5285 6033 5405
6284,6138 5282 6139 5283 6077 5483
6265,6136 5280 6141 5285 6058 5445
6276,6137 5281 6141 5285 6069 5465
6310,6141 5285 6103 5545
6295,6139 5283 6141 5285 6088 5505
6303,6140 5284 6141 5285 6096 5525
6285,6138 5282 6140 5284 6078 5484
6162,6129 5273 6143 5287 5955 5307
6180,6130 5274 6143 5287 5973 5327
6197,6131 5275 6143 5287 5990 5347
6213,6132 5276 6143 5287 6006 5367
6228,6133 5277 6143 5287 6021 5387
6286,6138 5282 6141 5285 6079 5485
6242,6134 5278 6143 5287 6035 5407
6255,6135 5279 6143 5287 6048 5427
6267,6136 5280 6143 5287 6060 5447
6278,6137 5281 6143 5287 6071 5467
6297,6139 5283 6143 5287 6090 5507
6288,6138 5282 6143 5287 6081 5487
6323,6143 5287 6116 5587
6305,6140 5284 6143 5287 6098 5527
6312,6141 5285 6143 5287 6105 5547
6164,6129 5273 6145 5289 5957 5309
6182,6130 5274 6145 5289 5975 5329
6289,6138 5282 6144 5288 6082 5488
6199,6131 5275 6145 5289 5992 5349
6215,6132 5276 6145 5289 6008 5369
6230,6133 5277 6145 5289 6023 5389
6244,6134 5278 6145 5289 6037 5409
6257,6135 5279 6145 5289 6050 5429
6290,6138 5282 6145 5289 6083 5489
7761,6138 5282 7731 5632 7705 5642
6269,6136 5280 6145 5289 6062 5449
6280,6137 5281 6145 5289 6073 5469
7734,6129 5273 7731 5632 7678 5633
7737,6130 5274 7731 5632 7681 5634
7740,6131 5275 7731 5632 7684 5635
7743,6132 5276 7731 5632 7687 5636
6299,6139 5283 6145 5289 6092 5509
7746,6133 5277 7731 5632 7690 5637
7749,6134 5278 7731 5632 7693 5638
7752,6135 5279 7731 5632 7696 5639
7755,6136 5280 7731 5632 7699 5640
7758,6137 5281 7731 5632 7702 5641
7764,6139 5283 7731 5632 7708 5643
7767,6140 5284 7731 5632 7711 5644
7770,6141 5285 7731 5632 7714 5645
7776,6143 5287 7731 5632 7720 5647
6307,6140 5284 6145 5289 6100 5529
8348,7785 7782 7779 7776 7773 7770 7767 7764 7761 7758 7755 7752 7749 7746 7743 7740 7737 7734
7782,6145 5289 7731 5632 7726 5649
6332,6145 5289 6125 5629
6314,6141 5285 6145 5289 6107 5549
6352,6353
6353,6335 5293
7788,7789
7789,6335 5293
8932,8933
8933,6335 5293
6335,6148 5293
6325,6143 5287 6145 5289 6118 5589
6432,6433
6403,6404
6433,6340 5298
6404,6338 5296
7803,7804
7804,6340 5298
7797,7798
8832,8833
7798,6338 5296
8833,6340 5298
8881,8882
6340,6335 5293 6153 5298
8882,6338 5296
6338,6335 5293 6151 5296
6418,6419
6387,6388
6419,6339 5297
6388,6337 5295
7800,7801
7794,7795
7801,6339 5297
7795,6337 5295
8858,8859
8901,8902
8859,6339 5297
6339,6335 5293 6152 5297
8902,6337 5295
6337,6335 5293 6150 5295
6370,6371
6371,6336 5294
7791,7792
7792,6336 5294
8918,8919
8919,6336 5294
6336,6335 5293 6149 5294
6445,6446
6446,6341 5299
7806,7807
7807,6341 5299
8803,8804
8804,6341 5299
6341,6335 5293 6154 5299
6389,6338 5296 6202 5356
6372,6337 5295 6185 5335
6354,6336 5294 6167 5314
6457,6458
6458,6342 5300
7809,7810
7810,6342 5300
8771,8772
8772,6342 5300
6342,6335 5293 6155 5300
6390,6338 5296 6339 5297 6203 5357
6359,6336 5294 6341 5299 6172 5319
6391,6338 5296 6340 5298 6204 5358
6373,6337 5295 6338 5296 6186 5336
6405,6339 5297 6218 5377
6355,6336 5294 6337 5295 6168 5315
6468,6469
6469,6343 5301
7812,7813
7813,6343 5301
8736,8737
8737,6343 5301
6343,6335 5293 6156 5301
6376,6337 5295 6341 5299 6189 5339
6478,6479
6479,6344 5302
7815,7816
7816,6344 5302
8698,8699
8699,6344 5302
6344,6335 5293 6157 5302
6374,6337 5295 6339 5297 6187 5337
6406,6339 5297 6340 5298 6219 5378
6356,6336 5294 6338 5296 6169 5316
6487,6488
6488,6345 5303
7818,7819
7819,6345 5303
8657,8658
8658,6345 5303
6345,6335 5293 6158 5303
6392,6338 5296 6341 5299 6205 5359
6362,6336 5294 6344 5302 6175 5322
6375,6337 5295 6340 5298 6188 5338
6357,6336 5294 6339 5297 6170 5317
6407,6339 5297 6341 5299 6220 5379
6421,6340 5298 6341 5299 6234 5399
6495,6496
6496,6346 5304
7821,7822
7822,6346 5304
8613,8614
8614,6346 5304
6346,6335 5293 6159 5304
6434,6341 5299 6247 5419
6538,6539
6539,6522 5314
7841,7842
7842,6522 5314
8915,8916
8916,6522 5314
6522,6354 5314
6395,6338 5296 6344 5302 6208 5362
6379,6337 5295 6344 5302 6192 5342
6358,6336 5294 6340 5298 6171 5318
6502,6503
6503,6347 5305
7824,7825
7825,6347 5305
8566,8567
8567,6347 5305
6347,6335 5293 6160 5305
6410,6339 5297 6344 5302 6223 5382
6555,6556
6556,6523 5315
7844,7845
7845,6523 5315
8898,8899
8899,6523 5315
6523,6522 5314 6355 5315
6424,6340 5298 6344 5302 6237 5402
6508,6509
6509,6348 5306
7827,7828
7828,6348 5306
8516,8517
8517,6348 5306
6348,6335 5293 6161 5306
6600,6601
6601,6526 5318
7853,7854
7854,6526 5318
8829,8830
8830,6526 5318
6526,6522 5314 6358 5318
6513,6514
6514,6349 5307
7830,7831
7831,6349 5307
8463,8464
8464,6349 5307
6349,6335 5293 6162 5307
6571,6572
6572,6524 5316
7847,7848
7848,6524 5316
8878,8879
8879,6524 5316
6524,6522 5314 6356 5316
6586,6587
6587,6525 5317
7850,7851
7851,6525 5317
8855,8856
8856,6525 5317
6525,6522 5314 6357 5317
6437,6341 5299 6344 5302 6250 5422
6366,6336 5294 6348 5306 6179 5326
6543,6523 5315 6526 5318 6375 5338
6517,6518
6518,6350 5308
7833,7834
7834,6350 5308
8407,8408
8408,6350 5308
6350,6335 5293 6163 5308
6541,6523 5315 6524 5316 6373 5336
6613,6614
6614,6527 5319
7856,7857
7857,6527 5319
8800,8801
8801,6527 5319
6527,6522 5314 6359 5319
6449,6342 5300 6344 5302 6262 5442
6383,6337 5295 6348 5306 6196 5346
6399,6338 5296 6348 5306 6212 5366
6557,6524 5316 6389 5356
6520,6521
6521,6351 5309
7836,7837
7837,6351 5309
8345,8346
8346,6351 5309
6351,6335 5293 6164 5309
7838,7839
7839,7787 5633
7787,6335 5293 7734 5633
6646,6647
6647,6530 5322
7865,7866
7866,6530 5322
8695,8696
8696,6530 5322
6530,6522 5314 6362 5322
6460,6343 5301 6344 5302 6273 5462
6414,6339 5297 6348 5306 6227 5386
6428,6340 5298 6348 5306 6241 5406
6420,6340 5298 6233 5398
6559,6524 5316 6526 5318 6391 5358
6540,6523 5315 6372 5335
6470,6344 5302 6283 5482
6441,6341 5299 6348 5306 6254 5426
6453,6342 5300 6348 5306 6266 5446
6360,6336 5294 6342 5300 6173 5320
6638,6530 5322 6470 5482
6542,6523 5315 6525 5317 6374 5337
6558,6524 5316 6525 5317 6390 5357
6573,6525 5317 6405 5377
6464,6343 5301 6348 5306 6277 5466
6474,6344 5302 6348 5306 6287 5486
6377,6337 5295 6342 5300 6190 5340
6393,6338 5296 6342 5300 6206 5360
6574,6525 5317 6526 5318 6406 5378
6544,6523 5315 6527 5319 6376 5339
6483,6345 5303 6348 5306 6296 5506
6491,6346 5304 6348 5306 6304 5526
6408,6339 5297 6342 5300 6221 5380
6422,6340 5298 6342 5300 6235 5400
6560,6524 5316 6527 5319 6392 5359
6504,6348 5306 6317 5566
6447,6342 5300 6260 5440
6575,6525 5317 6527 5319 6407 5379
6498,6347 5305 6348 5306 6311 5546
6435,6341 5299 6342 5300 6248 5420
6589,6526 5318 6527 5319 6421 5399
6602,6527 5319 6434 5419
6676,6677
6677,6534 5326
7877,7878
7878,6534 5326
8513,8514
8514,6534 5326
6534,6522 5314 6366 5326
6361,6336 5294 6343 5301 6174 5321
6378,6337 5295 6343 5301 6191 5341
6394,6338 5296 6343 5301 6207 5361
6547,6523 5315 6530 5322 6379 5342
6563,6524 5316 6530 5322 6395 5362
6551,6523 5315 6534 5326 6383 5346
6636,6637
6637,6529 5321
7862,7863
7863,6529 5321
8733,8734
8734,6529 5321
6529,6522 5314 6361 5321
6409,6339 5297 6343 5301 6222 5381
6423,6340 5298 6343 5301 6236 5401
6578,6525 5317 6530 5322 6410 5382
6592,6526 5318 6530 5322 6424 5402
6546,6523 5315 6529 5321 6378 5341
6567,6524 5316 6534 5326 6399 5366
6577,6525 5317 6529 5321 6409 5381
6436,6341 5299 6343 5301 6249 5421
6605,6527 5319 6530 5322 6437 5422
6582,6525 5317 6534 5326 6414 5386
6562,6524 5316 6529 5321 6394 5361
6596,6526 5318 6534 5326 6428 5406
6705,6706
6706,6690 5335
7891,7892
7892,6690 5335
8895,8896
8896,6690 5335
6690,6540 5335
6628,6529 5321 6530 5322 6460 5462
6448,6342 5300 6343 5301 6261 5441
6609,6527 5319 6534 5326 6441 5426
6459,6343 5301 6272 5461
6632,6529 5321 6534 5326 6464 5466
6642,6530 5322 6534 5326 6474 5486
6721,6722
6722,6691 5336
7894,7895
7895,6691 5336
8875,8876
8876,6691 5336
6691,6690 5335 6541 5336
6363,6336 5294 6345 5303 6176 5323
6627,6529 5321 6459 5461
6672,6534 5326 6504 5566
6736,6737
6737,6692 5337
7897,7898
7898,6692 5337
8852,8853
8853,6692 5337
6692,6690 5335 6542 5337
6380,6337 5295 6345 5303 6193 5343
6750,6751
6751,6693 5338
7900,7901
7901,6693 5338
8826,8827
8827,6693 5338
6693,6690 5335 6543 5338
6411,6339 5297 6345 5303 6224 5383
6396,6338 5296 6345 5303 6209 5363
6425,6340 5298 6345 5303 6238 5403
6708,6691 5336 6692 5337 6558 5357
6438,6341 5299 6345 5303 6251 5423
6723,6692 5337 6573 5377
6763,6764
6764,6694 5339
7903,7904
7904,6694 5339
8797,8798
8798,6694 5339
6694,6690 5335 6544 5339
6450,6342 5300 6345 5303 6263 5443
6480,6345 5303 6293 5503
6461,6343 5301 6345 5303 6274 5463
6786,6787
6787,6696 5341
7909,7910
7910,6696 5341
8730,8731
8731,6696 5341
6696,6690 5335 6546 5341
6471,6344 5302 6345 5303 6284 5483
6796,6797
6797,6697 5342
7912,7913
7913,6697 5342
8692,8693
8693,6697 5342
6697,6690 5335 6547 5342
6364,6336 5294 6346 5304 6177 5324
6381,6337 5295 6346 5304 6194 5344
6397,6338 5296 6346 5304 6210 5364
6712,6691 5336 6696 5341 6562 5361
6412,6339 5297 6346 5304 6225 5384
6826,6827
6827,6701 5346
7924,7925
7925,6701 5346
8510,8511
8511,6701 5346
6701,6690 5335 6551 5346
6426,6340 5298 6346 5304 6239 5404
6439,6341 5299 6346 5304 6252 5424
6451,6342 5300 6346 5304 6264 5444
6707,6691 5336 6557 5356
6727,6692 5337 6696 5341 6577 5381
6462,6343 5301 6346 5304 6275 5464
6489,6346 5304 6302 5524
6472,6344 5302 6346 5304 6285 5484
6777,6696 5341 6627 5461
6481,6345 5303 6346 5304 6294 5504
6709,6691 5336 6693 5338 6559 5358
6365,6336 5294 6347 5305 6178 5325
6382,6337 5295 6347 5305 6195 5345
6398,6338 5296 6347 5305 6211 5365
6724,6692 5337 6693 5338 6574 5378
6413,6339 5297 6347 5305 6226 5385
6710,6691 5336 6694 5339 6560 5359
6670,6671
6671,6533 5325
7874,7875
7875,6533 5325
8563,8564
8564,6533 5325
6533,6522 5314 6365 5325
6427,6340 5298 6347 5305 6240 5405
6440,6341 5299 6347 5305 6253 5425
6725,6692 5337 6694 5339 6575 5379
6452,6342 5300 6347 5305 6265 5445
6739,6693 5338 6694 5339 6589 5399
6550,6523 5315 6533 5325 6382 5345
6752,6694 5339 6602 5419
6595,6526 5318 6533 5325 6427 5405
6463,6343 5301 6347 5305 6276 5465
6566,6524 5316 6533 5325 6398 5365
6713,6691 5336 6697 5342 6563 5362
6581,6525 5317 6533 5325 6413 5385
6728,6692 5337 6697 5342 6578 5382
6666,6533 5325 6534 5326 6498 5546
6473,6344 5302 6347 5305 6286 5485
6820,6821
6821,6700 5345
7921,7922
7922,6700 5345
8560,8561
8561,6700 5345
6700,6690 5335 6550 5345
6742,6693 5338 6697 5342 6592 5402
6482,6345 5303 6347 5305 6295 5505
6497,6347 5305 6310 5545
6755,6694 5339 6697 5342 6605 5422
6490,6346 5304 6347 5305 6303 5525
6716,6691 5336 6700 5345 6566 5365
6788,6697 5342 6638 5482
6778,6696 5341 6697 5342 6628 5462
6367,6336 5294 6349 5307 6180 5327
6384,6337 5295 6349 5307 6197 5347
6731,6692 5337 6700 5345 6581 5385
6745,6693 5338 6700 5345 6595 5405
6717,6691 5336 6701 5346 6567 5366
6732,6692 5337 6701 5346 6582 5386
6681,6682
6682,6535 5327
7880,7881
7881,6535 5327
8460,8461
8461,6535 5327
6535,6522 5314 6367 5327
6400,6338 5296 6349 5307 6213 5367
6816,6700 5345 6701 5346 6666 5546
6415,6339 5297 6349 5307 6228 5387
6746,6693 5338 6701 5346 6596 5406
6759,6694 5339 6701 5346 6609 5426
6552,6523 5315 6535 5327 6384 5347
6429,6340 5298 6349 5307 6242 5407
6442,6341 5299 6349 5307 6255 5427
6583,6525 5317 6535 5327 6415 5387
6782,6696 5341 6701 5346 6632 5466
6792,6697 5342 6701 5346 6642 5486
6831,6832
6832,6702 5347
7927,7928
7928,6702 5347
8457,8458
8458,6702 5347
6702,6690 5335 6552 5347
6454,6342 5300 6349 5307 6267 5447
6854,6855
6855,6840 5356
7938,7939
7939,6840 5356
8872,8873
8873,6840 5356
6840,6707 5356
6822,6701 5346 6672 5566
6610,6527 5319 6535 5327 6442 5427
6465,6343 5301 6349 5307 6278 5467
6733,6692 5337 6702 5347 6583 5387
6475,6344 5302 6349 5307 6288 5487
6869,6870
6870,6841 5357
7941,7942
7942,6841 5357
8849,8850
8850,6841 5357
6841,6840 5356 6708 5357
6760,6694 5339 6702 5347 6610 5427
6883,6884
6884,6842 5358
7944,7945
7945,6842 5358
8823,8824
8824,6842 5358
6842,6840 5356 6709 5358
6633,6529 5321 6535 5327 6465 5467
6484,6345 5303 6349 5307 6297 5507
6492,6346 5304 6349 5307 6305 5527
6896,6897
6897,6843 5359
7947,7948
7948,6843 5359
8794,8795
8795,6843 5359
6843,6840 5356 6710 5359
6499,6347 5305 6349 5307 6312 5547
6857,6841 5357 6842 5358 6724 5378
6783,6696 5341 6702 5347 6633 5467
6510,6349 5307 6323 5587
6505,6348 5306 6349 5307 6318 5567
6919,6920
6920,6845 5361
7953,7954
7954,6845 5361
8727,8728
8728,6845 5361
6845,6840 5356 6712 5361
6667,6533 5325 6535 5327 6499 5547
6929,6930
6930,6846 5362
7956,7957
7957,6846 5362
8689,8690
8690,6846 5362
6846,6840 5356 6713 5362
6368,6336 5294 6350 5308 6181 5328
6385,6337 5295 6350 5308 6198 5348
6673,6534 5326 6535 5327 6505 5567
6953,6954
6954,6849 5365
7965,7966
7966,6849 5365
8557,8558
8558,6849 5365
6849,6840 5356 6716 5365
6817,6700 5345 6702 5347 6667 5547
6861,6841 5357 6846 5362 6728 5382
6685,6686
6686,6536 5328
7883,7884
7884,6536 5328
8404,8405
8405,6536 5328
6536,6522 5314 6368 5328
6401,6338 5296 6350 5308 6214 5368
6823,6701 5346 6702 5347 6673 5567
6959,6960
6960,6850 5366
7968,7969
7969,6850 5366
8507,8508
8508,6850 5366
6850,6840 5356 6717 5366
6416,6339 5297 6350 5308 6229 5388
6875,6842 5358 6846 5362 6742 5402
6553,6523 5315 6536 5328 6385 5348
6430,6340 5298 6350 5308 6243 5408
6856,6841 5357 6723 5377
6443,6341 5299 6350 5308 6256 5428
6584,6525 5317 6536 5328 6416 5388
6888,6843 5359 6846 5362 6755 5422
6835,6836
6836,6703 5348
7930,7931
7931,6703 5348
8401,8402
8402,6703 5348
6703,6690 5335 6553 5348
6455,6342 5300 6350 5308 6268 5448
6858,6841 5357 6843 5359 6725 5379
6611,6527 5319 6536 5328 6443 5428
6466,6343 5301 6350 5308 6279 5468
6911,6845 5361 6846 5362 6778 5462
6734,6692 5337 6703 5348 6584 5388
6476,6344 5302 6350 5308 6289 5488
6872,6842 5358 6843 5359 6739 5399
6761,6694 5339 6703 5348 6611 5428
6921,6846 5362 6788 5482
6634,6529 5321 6536 5328 6466 5468
6885,6843 5359 6752 5419
6485,6345 5303 6350 5308 6298 5508
6493,6346 5304 6350 5308 6306 5528
6500,6347 5305 6350 5308 6313 5548
6860,6841 5357 6845 5361 6727 5381
6910,6845 5361 6777 5461
6784,6696 5341 6703 5348 6634 5468
6506,6348 5306 6350 5308 6319 5568
6511,6349 5307 6350 5308 6324 5588
6668,6533 5325 6536 5328 6500 5548
6515,6350 5308 6328 5608
6864,6841 5357 6849 5365 6731 5385
6878,6842 5358 6849 5365 6745 5405
6674,6534 5326 6536 5328 6506 5568
6683,6536 5328 6515 5608
6369,6336 5294 6351 5309 6182 5329
6818,6700 5345 6703 5348 6668 5548
6865,6841 5357 6850 5366 6732 5386
6386,6337 5295 6351 5309 6199 5349
6833,6703 5348 6683 5608
6824,6701 5346 6703 5348 6674 5568
6402,6338 5296 6351 5309 6215 5369
6417,6339 5297 6351 5309 6230 5389
6879,6842 5358 6850 5366 6746 5406
6892,6843 5359 6850 5366 6759 5426
6431,6340 5298 6351 5309 6244 5409
6444,6341 5299 6351 5309 6257 5429
6456,6342 5300 6351 5309 6269 5449
6467,6343 5301 6351 5309 6280 5469
6915,6845 5361 6850 5366 6782 5466
6925,6846 5362 6850 5366 6792 5486
6477,6344 5302 6351 5309 6290 5489
6486,6345 5303 6351 5309 6299 5509
6494,6346 5304 6351 5309 6307 5529
6501,6347 5305 6351 5309 6314 5549
7790,6336 5294 7787 5633 7737 5634
7888,7889
7889,7840 5634
7840,6522 5314 7790 5634
7793,6337 5295 7787 5633 7740 5635
7843,6523 5315 7840 5634 7793 5635
7935,7936
7936,7890 5635
7890,6690 5335 7843 5635
6949,6849 5365 6850 5366 6816 5546
6507,6348 5306 6351 5309 6320 5569
7796,6338 5296 7787 5633 7743 5636
7846,6524 5316 7840 5634 7796 5636
7893,6691 5336 7890 5635 7846 5636
7979,7980
7980,7937 5636
7937,6840 5356 7893 5636
6512,6349 5307 6351 5309 6325 5589
7799,6339 5297 7787 5633 7746 5637
7802,6340 5298 7787 5633 7749 5638
7849,6525 5317 7840 5634 7799 5637
6519,6351 5309 6332 5629
7852,6526 5318 7840 5634 7802 5638
7896,6692 5337 7890 5635 7849 5637
7805,6341 5299 7787 5633 7752 5639
7899,6693 5338 7890 5635 7852 5638
7940,6841 5357 7937 5636 7896 5637
7808,6342 5300 7787 5633 7755 5640
7943,6842 5358 7937 5636 7899 5638
6986,6987
6987,6973 5377
7982,7983
7983,6973 5377
8846,8847
8847,6973 5377
6973,6856 5377
7811,6343 5301 7787 5633 7758 5641
7814,6344 5302 7787 5633 7761 5642
7817,6345 5303 7787 5633 7764 5643
7861,6529 5321 7840 5634 7811 5641
7820,6346 5304 7787 5633 7767 5644
7823,6347 5305 7787 5633 7770 5645
7908,6696 5341 7890 5635 7861 5641
7826,6348 5306 7787 5633 7773 5646
6516,6350 5308 6351 5309 6329 5609
7873,6533 5325 7840 5634 7823 5645
7952,6845 5361 7937 5636 7908 5641
6955,6850 5366 6822 5566
7829,6349 5307 7787 5633 7776 5647
7832,6350 5308 7787 5633 7779 5648
7920,6700 5345 7890 5635 7873 5645
8344,7838 7835 7832 7829 7826 7823 7820 7817 7814 7811 7808 7805 7802 7799 7796 7793 7790
7835,6351 5309 7787 5633 7782 5649
7882,6536 5328 7840 5634 7832 5648
7964,6849 5365 7937 5636 7920 5645
7929,6703 5348 7890 5635 7882 5648
6588,6526 5318 6420 5398
7000,7001
7001,6974 5378
7985,7986
7986,6974 5378
8820,8821
8821,6974 5378
6974,6973 5377 6857 5378
6625,6626
6626,6528 5320
7859,7860
7860,6528 5320
8768,8769
8769,6528 5320
6528,6522 5314 6360 5320
6591,6526 5318 6529 5321 6423 5401
6604,6527 5319 6529 5321 6436 5421
6655,6656
6656,6531 5323
7868,7869
7869,6531 5323
8654,8655
8655,6531 5323
6531,6522 5314 6363 5323
6738,6693 5338 6588 5398
6871,6842 5358 6738 5398
7013,7014
7014,6975 5379
7988,7989
7989,6975 5379
8791,8792
8792,6975 5379
6975,6973 5377 6858 5379
6741,6693 5338 6696 5341 6591 5401
6663,6664
6664,6532 5324
7871,7872
7872,6532 5324
8610,8611
8611,6532 5324
6532,6522 5314 6364 5324
6754,6694 5339 6696 5341 6604 5421
6548,6523 5315 6531 5323 6380 5343
6988,6974 5378 6871 5398
7102,7103
7103,7090 5398
8023,8024
8024,7090 5398
8817,8818
8818,7090 5398
7090,6988 5398
7036,7037
7037,6977 5381
7994,7995
7995,6977 5381
8724,8725
8725,6977 5381
6977,6973 5377 6860 5381
6874,6842 5358 6845 5361 6741 5401
6608,6527 5319 6533 5325 6440 5425
6887,6843 5359 6845 5361 6754 5421
6564,6524 5316 6531 5323 6396 5363
6579,6525 5317 6531 5323 6411 5383
7046,7047
7047,6978 5382
7997,7998
7998,6978 5382
8686,8687
8687,6978 5382
6978,6973 5377 6861 5382
6991,6974 5378 6977 5381 6874 5401
6631,6529 5321 6533 5325 6463 5465
7004,6975 5379 6977 5381 6887 5421
6593,6526 5318 6531 5323 6425 5403
6606,6527 5319 6531 5323 6438 5423
7070,7071
7071,6981 5385
8006,8007
8007,6981 5385
8554,8555
8555,6981 5385
6981,6973 5377 6864 5385
7138,7139
7139,7093 5401
8032,8033
8033,7093 5401
8721,8722
8722,7093 5401
7093,7090 5398 6991 5401
6641,6530 5322 6533 5325 6473 5485
6618,6528 5320 6531 5323 6450 5443
6629,6529 5321 6531 5323 6461 5463
6665,6533 5325 6497 5545
6648,6531 5323 6480 5503
6639,6530 5322 6531 5323 6471 5483
7076,7077
7077,6982 5386
8009,8010
8010,6982 5386
8504,8505
8505,6982 5386
6982,6973 5377 6865 5386
8020,8021
8021,7981 5637
7981,6973 5377 7940 5637
6568,6524 5316 6535 5327 6400 5367
6650,6531 5323 6533 5325 6482 5505
6815,6700 5345 6665 5545
6651,6531 5323 6534 5326 6483 5506
7867,6531 5323 7840 5634 7817 5643
6652,6531 5323 6535 5327 6484 5507
6948,6849 5365 6815 5545
6989,6974 5378 6975 5379 6872 5399
6597,6526 5318 6535 5327 6429 5407
6653,6531 5323 6536 5328 6485 5508
7065,6981 5385 6948 5545
7002,6975 5379 6885 5419
6678,6535 5327 6510 5587
6643,6530 5322 6535 5327 6475 5487
6805,6806
6806,6698 5343
7915,7916
7916,6698 5343
8651,8652
8652,6698 5343
6698,6690 5335 6548 5343
6569,6524 5316 6536 5328 6401 5368
7027,6977 5381 6910 5461
6598,6526 5318 6536 5328 6430 5408
6644,6530 5322 6536 5328 6476 5488
6793,6697 5342 6702 5347 6643 5487
6714,6691 5336 6698 5343 6564 5363
6719,6691 5336 6703 5348 6569 5368
6992,6974 5378 6978 5382 6875 5402
6748,6693 5338 6703 5348 6598 5408
6679,6535 5327 6536 5328 6511 5588
7855,6527 5319 7840 5634 7805 5639
6729,6692 5337 6698 5343 6579 5383
7864,6530 5322 7840 5634 7814 5642
6743,6693 5338 6698 5343 6593 5403
7876,6534 5326 7840 5634 7826 5646
7879,6535 5327 7840 5634 7829 5647
6968,6969
6969,6852 5368
7974,7975
7975,6852 5368
8398,8399
8399,6852 5368
6852,6840 5356 6719 5368
7005,6975 5379 6978 5382 6888 5422
6688,6689
6689,6537 5329
7886,7887
7887,6537 5329
8341,8342
8342,6537 5329
6537,6522 5314 6369 5329
6756,6694 5339 6698 5343 6606 5423
6779,6696 5341 6698 5343 6629 5463
6545,6523 5315 6528 5320 6377 5340
6867,6841 5357 6852 5368 6734 5388
7028,6977 5381 6978 5382 6911 5462
6798,6698 5343 6648 5503
6554,6523 5315 6537 5329 6386 5349
6789,6697 5342 6698 5343 6639 5483
7038,6978 5382 6921 5482
6561,6524 5316 6528 5320 6393 5360
6881,6842 5358 6852 5368 6748 5408
6570,6524 5316 6537 5329 6402 5369
6800,6698 5343 6700 5345 6650 5505
6801,6698 5343 6701 5346 6651 5506
6995,6974 5378 6981 5385 6878 5405
6576,6525 5317 6528 5320 6408 5380
6894,6843 5359 6852 5368 6761 5428
6585,6525 5317 6537 5329 6417 5389
6802,6698 5343 6702 5347 6652 5507
7914,6698 5343 7890 5635 7867 5643
6803,6698 5343 6703 5348 6653 5508
6996,6974 5378 6982 5386 6879 5406
6590,6526 5318 6528 5320 6422 5400
6917,6845 5361 6852 5368 6784 5468
6599,6526 5318 6537 5329 6431 5409
6938,6939
6939,6847 5363
7959,7960
7960,6847 5363
8648,8649
8649,6847 5363
6847,6840 5356 6714 5363
6951,6849 5365 6852 5368 6818 5548
7009,6975 5379 6982 5386 6892 5426
6603,6527 5319 6528 5320 6435 5420
6957,6850 5366 6852 5368 6824 5568
6612,6527 5319 6537 5329 6444 5429
6862,6841 5357 6847 5363 6729 5383
6615,6528 5320 6447 5440
6966,6852 5368 6833 5608
6876,6842 5358 6847 5363 6743 5403
7973,6852 5368 7937 5636 7929 5648
7032,6977 5381 6982 5386 6915 5466
6624,6528 5320 6537 5329 6456 5449
6616,6528 5320 6529 5321 6448 5441
6889,6843 5359 6847 5363 6756 5423
6912,6845 5361 6847 5363 6779 5463
7085,7086
7086,6984 5388
8015,8016
8016,6984 5388
8395,8396
8396,6984 5388
6984,6973 5377 6867 5388
7042,6978 5382 6982 5386 6925 5486
6931,6847 5363 6798 5503
6635,6529 5321 6537 5329 6467 5469
6617,6528 5320 6530 5322 6449 5442
6922,6846 5362 6847 5363 6789 5483
6998,6974 5378 6984 5388 6881 5408
7066,6981 5385 6982 5386 6949 5546
6933,6847 5363 6849 5365 6800 5505
6645,6530 5322 6537 5329 6477 5489
7072,6982 5386 6955 5566
6620,6528 5320 6533 5325 6452 5445
6934,6847 5363 6850 5366 6801 5506
7984,6974 5378 7981 5637 7943 5638
7958,6847 5363 7937 5636 7914 5643
7993,6977 5381 7981 5637 7952 5641
8005,6981 5385 7981 5637 7964 5645
7011,6975 5379 6984 5388 6894 5428
6936,6847 5363 6852 5368 6803 5508
6654,6531 5323 6537 5329 6486 5509
6621,6528 5320 6534 5326 6453 5446
7055,7056
7056,6979 5383
8000,8001
8001,6979 5383
8645,8646
8646,6979 5383
6979,6973 5377 6862 5383
7115,7116
7116,7091 5399
8026,8027
8027,7091 5399
8788,8789
8789,7091 5399
7091,7090 5398 6989 5399
7034,6977 5381 6984 5388 6917 5468
7129,7093 5401 7027 5461
7068,6981 5385 6984 5388 6951 5548
6662,6532 5324 6537 5329 6494 5529
6622,6528 5320 6535 5327 6454 5447
6993,6974 5378 6979 5383 6876 5403
7074,6982 5386 6984 5388 6957 5568
7148,7149
7149,7094 5402
8035,8036
8036,7094 5402
8683,8684
8684,7094 5402
7094,7090 5398 6992 5402
7006,6975 5379 6979 5383 6889 5423
6669,6533 5325 6537 5329 6501 5549
7083,6984 5388 6966 5608
8014,6984 5388 7981 5637 7973 5648
6623,6528 5320 6536 5328 6455 5448
7858,6528 5320 7840 5634 7808 5640
7029,6977 5381 6979 5383 6912 5463
7048,6979 5383 6931 5503
7172,7173
7173,7097 5405
8044,8045
8045,7097 5405
8551,8552
8552,7097 5405
7097,7090 5398 6995 5405
7039,6978 5382 6979 5383 6922 5483
6675,6534 5326 6537 5329 6507 5569
7187,7188
7188,7100 5408
8053,8054
8054,7100 5408
8392,8393
8393,7100 5408
7100,7090 5398 6998 5408
6549,6523 5315 6532 5324 6381 5344
7050,6979 5383 6981 5385 6933 5505
7178,7179
7179,7098 5406
8047,8048
8048,7098 5406
8501,8502
8502,7098 5406
7098,7090 5398 6996 5406
7051,6979 5383 6982 5386 6934 5506
6680,6535 5327 6537 5329 6512 5589
8058,8059
8059,8022 5638
8022,7090 5398 7984 5638
7999,6979 5383 7981 5637 7958 5643
7113,7091 5399 7100 5408 7011 5428
6565,6524 5316 6532 5324 6397 5364
7104,7091 5399 7002 5419
7053,6979 5383 6984 5388 6936 5508
6684,6536 5328 6537 5329 6516 5609
7157,7158
7158,7095 5403
8038,8039
8039,7095 5403
8642,8643
8643,7095 5403
7095,7090 5398 6993 5403
7136,7093 5401 7100 5408 7034 5468
6580,6525 5317 6532 5324 6412 5384
6687,6537 5329 6519 5629
7106,7091 5399 7093 5401 7004 5421
7885,6537 5329 7840 5634 7835 5649
7185,7100 5408 7083 5608
7170,7097 5405 7100 5408 7068 5548
7108,7091 5399 7095 5403 7006 5423
6594,6526 5318 6532 5324 6426 5404
7107,7091 5399 7094 5402 7005 5422
6838,6839
6839,6704 5349
7933,7934
7934,6704 5349
8337,8338
8338,6704 5349
6704,6690 5335 6554 5349
6607,6527 5319 6532 5324 6439 5424
6619,6528 5320 6532 5324 6451 5444
7131,7093 5401 7095 5403 7029 5463
6630,6529 5321 6532 5324 6462 5464
7130,7093 5401 7094 5402 7028 5462
6720,6691 5336 6704 5349 6570 5369
6735,6692 5337 6704 5349 6585 5389
6749,6693 5338 6704 5349 6599 5409
7141,7094 5402 7095 5403 7039 5483
7140,7094 5402 7038 5482
6640,6530 5322 6532 5324 6472 5484
6762,6694 5339 6704 5349 6612 5429
7150,7095 5403 7048 5503
6785,6696 5341 6704 5349 6635 5469
7167,7097 5405 7065 5545
6795,6697 5342 6704 5349 6645 5489
6649,6531 5323 6532 5324 6481 5504
6804,6698 5343 6704 5349 6654 5509
7152,7095 5403 7097 5405 7050 5505
6819,6700 5345 6704 5349 6669 5549
6657,6532 5324 6489 5524
7111,7091 5399 7098 5406 7009 5426
6825,6701 5346 6704 5349 6675 5569
6837,6704 5349 6687 5629
7932,6704 5349 7890 5635 7885 5649
6830,6702 5347 6704 5349 6680 5589
7153,7095 5403 7098 5406 7051 5506
6834,6703 5348 6704 5349 6684 5609
7134,7093 5401 7098 5406 7032 5466
6658,6532 5324 6533 5325 6490 5525
6971,6972
6972,6853 5369
7977,7978
7978,6853 5369
8333,8334
8334,6853 5369
6853,6840 5356 6720 5369
6659,6532 5324 6534 5326 6491 5526
7155,7095 5403 7100 5408 7053 5508
6660,6532 5324 6535 5327 6492 5527
8340,7888 7885 7882 7879 7876 7873 7870 7867 7864 7861 7858 7855 7852 7849 7846 7843
7870,6532 5324 7840 5634 7820 5644
8037,7095 5403 8022 5638 7999 5643
6661,6532 5324 6536 5328 6493 5528
7144,7094 5402 7098 5406 7042 5486
6868,6841 5357 6853 5369 6735 5389
6758,6694 5339 6700 5345 6608 5425
6781,6696 5341 6700 5345 6631 5465
6882,6842 5358 6853 5369 6749 5409
6791,6697 5342 6700 5345 6641 5485
7168,7097 5405 7098 5406 7066 5546
7174,7098 5406 7072 5566
6895,6843 5359 6853 5369 6762 5429
6914,6845 5361 6849 5365 6781 5465
6891,6843 5359 6849 5365 6758 5425
6918,6845 5361 6853 5369 6785 5469
6718,6691 5336 6702 5347 6568 5367
7176,7098 5406 7100 5408 7074 5568
8031,7093 5401 8022 5638 7993 5641
8043,7097 5405 8022 5638 8005 5645
6928,6846 5362 6853 5369 6795 5489
8052,7100 5408 8022 5638 8014 5648
7031,6977 5381 6981 5385 6914 5465
7008,6975 5379 6981 5385 6891 5425
6937,6847 5363 6853 5369 6804 5509
6747,6693 5338 6702 5347 6597 5407
7203,7204
7204,7192 5419
8061,8062
8062,7192 5419
8785,8786
8786,7192 5419
7192,7104 5419
6828,6702 5347 6678 5587
6952,6849 5365 6853 5369 6819 5549
6958,6850 5366 6853 5369 6825 5569
7133,7093 5401 7097 5405 7031 5465
7110,7091 5399 7097 5405 7008 5425
7226,7227
7227,7194 5421
8067,8068
8068,7194 5421
8718,8719
8719,7194 5421
7194,7192 5419 7106 5421
6970,6853 5369 6837 5629
7976,6853 5369 7937 5636 7932 5649
6794,6697 5342 6703 5348 6644 5488
7902,6694 5339 7890 5635 7855 5639
7911,6697 5342 7890 5635 7864 5642
7923,6701 5346 7890 5635 7876 5646
6967,6852 5368 6853 5369 6834 5609
6829,6702 5347 6703 5348 6679 5588
7260,7261
7261,7198 5425
7926,6702 5347 7890 5635 7879 5647
8079,8080
8080,7198 5425
8548,8549
8549,7198 5425
7198,7192 5419 7110 5425
7236,7237
7237,7195 5422
8070,8071
8071,7195 5422
8680,8681
8681,7195 5422
7195,7192 5419 7107 5422
7088,7089
7089,6985 5389
8018,8019
8019,6985 5389
8329,8330
8330,6985 5389
6985,6973 5377 6868 5389
6813,6814
6814,6699 5344
7918,7919
6775,6776
7919,6699 5344
6776,6695 5340
8607,8608
8608,6699 5344
7906,7907
6699,6690 5335 6549 5344
7907,6695 5340
8765,8766
8766,6695 5340
6695,6690 5335 6545 5340
7221,7194 5421 7198 5425 7133 5465
6924,6846 5362 6849 5365 6791 5485
7245,7246
7246,7196 5423
8073,8074
8074,7196 5423
8639,8640
8640,7196 5423
7196,7192 5419 7108 5423
7255,7198 5425 7167 5545
6999,6974 5378 6985 5389 6882 5409
6715,6691 5336 6699 5344 6565 5364
6711,6691 5336 6695 5340 6561 5360
6964,6965
6965,6851 5367
7971,7972
7972,6851 5367
8454,8455
8455,6851 5367
6851,6840 5356 6718 5367
7266,7267
7267,7199 5426
8082,8083
8083,7199 5426
8498,8499
8499,7199 5426
7199,7192 5419 7111 5426
6730,6692 5337 6699 5344 6580 5384
7012,6975 5379 6985 5389 6895 5429
6744,6693 5338 6699 5344 6594 5404
6726,6692 5337 6695 5340 6576 5380
6927,6846 5362 6852 5368 6794 5488
7946,6843 5359 7937 5636 7902 5639
7955,6846 5362 7937 5636 7911 5642
7967,6850 5366 7937 5636 7923 5646
7275,7276
7276,7201 5428
8088,8089
8089,7201 5428
8389,8390
8390,7201 5428
7201,7192 5419 7113 5428
6757,6694 5339 6699 5344 6607 5424
7035,6977 5381 6985 5389 6918 5469
6780,6696 5341 6699 5344 6630 5464
6740,6693 5338 6695 5340 6590 5400
7217,7194 5421 7129 5461
7041,6978 5382 6981 5385 6924 5485
6790,6697 5342 6699 5344 6640 5484
7045,6978 5382 6985 5389 6928 5489
6799,6698 5343 6699 5344 6649 5504
6753,6694 5339 6695 5340 6603 5420
7218,7194 5421 7195 5422 7130 5462
6866,6841 5357 6851 5367 6733 5387
6807,6699 5344 6657 5524
6765,6695 5340 6615 5440
7054,6979 5383 6985 5389 6937 5509
7228,7195 5422 7140 5482
6808,6699 5344 6700 5345 6658 5525
6809,6699 5344 6701 5346 6659 5526
6880,6842 5358 6851 5367 6747 5407
7069,6981 5385 6985 5389 6952 5549
6766,6695 5340 6696 5341 6616 5441
7219,7194 5421 7196 5423 7131 5463
6810,6699 5344 6702 5347 6660 5527
6811,6699 5344 6703 5348 6661 5528
6893,6843 5359 6851 5367 6760 5427
7917,6699 5344 7890 5635 7870 5644
7075,6982 5386 6985 5389 6958 5569
6767,6695 5340 6697 5342 6617 5442
7229,7195 5422 7196 5423 7141 5483
6812,6699 5344 6704 5349 6662 5529
6916,6845 5361 6851 5367 6783 5467
6946,6947
6947,6848 5364
7962,7963
7963,6848 5364
8604,8605
8605,6848 5364
6848,6840 5356 6715 5364
7238,7196 5423 7150 5503
7084,6984 5388 6985 5389 6967 5609
6768,6695 5340 6698 5343 6618 5443
6926,6846 5362 6851 5367 6793 5487
6935,6847 5363 6851 5367 6802 5507
7087,6985 5389 6970 5629
6863,6841 5357 6848 5364 6730 5384
8017,6985 5389 7981 5637 7976 5649
7240,7196 5423 7198 5425 7152 5505
6769,6695 5340 6699 5344 6619 5444
6950,6849 5365 6851 5367 6817 5547
6956,6850 5366 6851 5367 6823 5567
6877,6842 5358 6848 5364 6744 5404
7190,7191
7191,7101 5409
8056,8057
8057,7101 5409
8325,8326
8326,7101 5409
7101,7090 5398 6999 5409
7222,7194 5421 7199 5426 7134 5466
6961,6851 5367 6828 5587
6770,6695 5340 6700 5345 6620 5445
6962,6851 5367 6852 5368 6829 5588
6890,6843 5359 6848 5364 6757 5424
7970,6851 5367 7937 5636 7926 5647
7114,7091 5399 7101 5409 7012 5429
7232,7195 5422 7199 5426 7144 5486
6963,6851 5367 6853 5369 6830 5589
7987,6975 5379 7981 5637 7946 5639
8025,7091 5399 8022 5638 7987 5639
8093,8094
8094,8060 5639
8060,7192 5419 8025 5639
6771,6695 5340 6701 5346 6621 5446
8066,7194 5421 8060 5639 8031 5641
8072,7196 5423 8060 5639 8037 5643
8078,7198 5425 8060 5639 8043 5645
8087,7201 5428 8060 5639 8052 5648
7996,6978 5382 7981 5637 7955 5642
8034,7094 5402 8022 5638 7996 5642
8069,7195 5422 8060 5639 8034 5642
8008,6982 5386 7981 5637 7967 5646
8046,7098 5406 8022 5638 8008 5646
8081,7199 5426 8060 5639 8046 5646
6913,6845 5361 6848 5364 6780 5464
7044,6978 5382 6984 5388 6927 5488
7137,7093 5401 7101 5409 7035 5469
7241,7196 5423 7199 5426 7153 5506
6772,6695 5340 6702 5347 6622 5447
7143,7094 5402 7097 5405 7041 5485
6923,6846 5362 6848 5364 6790 5484
7147,7094 5402 7101 5409 7045 5489
7081,7082
7082,6983 5387
8012,8013
8013,6983 5387
8451,8452
8452,6983 5387
6983,6973 5377 6866 5387
7256,7198 5425 7199 5426 7168 5546
6773,6695 5340 6703 5348 6623 5448
7262,7199 5426 7174 5566
7231,7195 5422 7198 5425 7143 5485
6932,6847 5363 6848 5364 6799 5504
7156,7095 5403 7101 5409 7054 5509
7146,7094 5402 7100 5408 7044 5488
6774,6695 5340 6704 5349 6624 5449
8336,7935 7932 7929 7926 7923 7920 7917 7914 7911 7908 7905 7902 7899 7896 7893
7905,6695 5340 7890 5635 7858 5640
6940,6848 5364 6807 5524
7224,7194 5421 7201 5428 7136 5468
6997,6974 5378 6983 5387 6880 5407
7171,7097 5405 7101 5409 7069 5549
7010,6975 5379 6983 5387 6893 5427
6908,6909
6909,6844 5360
7950,7951
7951,6844 5360
8762,8763
8763,6844 5360
6844,6840 5356 6711 5360
6941,6848 5364 6849 5365 6808 5525
7243,7196 5423 7201 5428 7155 5508
7183,7184
7184,7099 5407
8050,8051
8051,7099 5407
8448,8449
8449,7099 5407
7099,7090 5398 6997 5407
7177,7098 5406 7101 5409 7075 5569
7033,6977 5381 6983 5387 6916 5467
6859,6841 5357 6844 5360 6726 5380
6942,6848 5364 6850 5366 6809 5526
7258,7198 5425 7201 5428 7170 5548
7112,7091 5399 7099 5407 7010 5427
7186,7100 5408 7101 5409 7084 5609
7043,6978 5382 6983 5387 6926 5487
6873,6842 5358 6844 5360 6740 5400
6943,6848 5364 6851 5367 6810 5527
7189,7101 5409 7087 5629
8055,7101 5409 8022 5638 8017 5649
7264,7199 5426 7201 5428 7176 5568
7271,7272
7272,7200 5427
8085,8086
8086,7200 5427
8445,8446
8446,7200 5427
7200,7192 5419 7112 5427
7052,6979 5383 6983 5387 6935 5507
7273,7201 5428 7185 5608
6944,6848 5364 6852 5368 6811 5528
6886,6843 5359 6844 5360 6753 5420
7278,7279
7279,7202 5429
8091,8092
8092,7202 5429
8321,8322
8322,7202 5429
7202,7192 5419 7114 5429
6898,6844 5360 6765 5440
7067,6981 5385 6983 5387 6950 5547
7073,6982 5386 6983 5387 6956 5567
6945,6848 5364 6853 5369 6812 5529
6899,6844 5360 6845 5361 6766 5441
7961,6848 5364 7937 5636 7917 5644
7078,6983 5387 6961 5587
7225,7194 5421 7202 5429 7137 5469
7235,7195 5422 7202 5429 7147 5489
7169,7097 5405 7099 5407 7067 5547
6900,6844 5360 6846 5362 6767 5442
7063,7064
7064,6980 5384
8003,8004
8004,6980 5384
8601,8602
8602,6980 5384
6980,6973 5377 6863 5384
7244,7196 5423 7202 5429 7156 5509
7079,6983 5387 6984 5388 6962 5588
7259,7198 5425 7202 5429 7171 5549
7257,7198 5425 7200 5427 7169 5547
8011,6983 5387 7981 5637 7970 5647
8049,7099 5407 8022 5638 8011 5647
8084,7200 5427 8060 5639 8049 5647
6901,6844 5360 6847 5363 6768 5443
6994,6974 5378 6980 5384 6877 5404
7265,7199 5426 7202 5429 7177 5569
7080,6983 5387 6985 5389 6963 5589
7274,7201 5428 7202 5429 7186 5609
8090,7202 5429 8060 5639 8055 5649
7234,7195 5422 7201 5428 7146 5488
7277,7202 5429 7189 5629
6902,6844 5360 6848 5364 6769 5444
7007,6975 5379 6980 5384 6890 5424
7135,7093 5401 7099 5407 7033 5467
6903,6844 5360 6849 5365 6770 5445
7145,7094 5402 7099 5407 7043 5487
6904,6844 5360 6850 5366 6771 5446
7030,6977 5381 6980 5384 6913 5464
6905,6844 5360 6851 5367 6772 5447
8332,7979 7976 7973 7970 7967 7964 7961 7958 7955 7952 7949 7946 7943 7940
7949,6844 5360 7937 5636 7905 5640
7154,7095 5403 7099 5407 7052 5507
6906,6844 5360 6852 5368 6773 5448
7233,7195 5422 7200 5427 7145 5487
6907,6844 5360 6853 5369 6774 5449
7040,6978 5382 6980 5384 6923 5484
7180,7099 5407 7078 5587
7175,7098 5406 7099 5407 7073 5567
7025,7026
7026,6976 5380
7991,7992
7992,6976 5380
8759,8760
8760,6976 5380
6976,6973 5377 6859 5380
7057,6980 5384 6940 5524
7049,6979 5383 6980 5384 6932 5504
7268,7200 5427 7180 5587
7015,6976 5380 6898 5440
7058,6980 5384 6981 5385 6941 5525
7181,7099 5407 7100 5408 7079 5588
6990,6974 5378 6976 5380 6873 5400
7003,6975 5379 6976 5380 6886 5420
7182,7099 5407 7101 5409 7080 5589
7016,6976 5380 6977 5381 6899 5441
7059,6980 5384 6982 5386 6942 5526
7223,7194 5421 7200 5427 7135 5467
7017,6976 5380 6978 5382 6900 5442
7018,6976 5380 6979 5383 6901 5443
7270,7200 5427 7202 5429 7182 5589
7019,6976 5380 6980 5384 6902 5444
7060,6980 5384 6983 5387 6943 5527
7242,7196 5423 7200 5427 7154 5507
7020,6976 5380 6981 5385 6903 5445
7021,6976 5380 6982 5386 6904 5446
7263,7199 5426 7200 5427 7175 5567
7990,6976 5380 7981 5637 7949 5640
7022,6976 5380 6983 5387 6905 5447
7061,6980 5384 6984 5388 6944 5528
8328,8020 8017 8014 8011 8008 8005 8002 7999 7996 7993 7990 7987 7984
8002,6980 5384 7981 5637 7961 5644
7269,7200 5427 7201 5428 7181 5588
7023,6976 5380 6984 5388 6906 5448
7024,6976 5380 6985 5389 6907 5449
7127,7128
7128,7092 5400
8029,8030
8030,7092 5400
8756,8757
8757,7092 5400
7092,7090 5398 6990 5400
7062,6980 5384 6985 5389 6945 5529
7165,7166
7166,7096 5404
8041,8042
8042,7096 5404
8598,8599
8599,7096 5404
7096,7090 5398 6994 5404
7117,7092 5400 7015 5440
7105,7091 5399 7092 5400 7003 5420
7119,7092 5400 7094 5402 7017 5442
7118,7092 5400 7093 5401 7016 5441
7120,7092 5400 7095 5403 7018 5443
7109,7091 5399 7096 5404 7007 5424
7121,7092 5400 7096 5404 7019 5444
7122,7092 5400 7097 5405 7020 5445
7215,7216
7216,7193 5420
8064,8065
8065,7193 5420
8753,8754
8754,7193 5420
7193,7192 5419 7105 5420
7132,7093 5401 7096 5404 7030 5464
7159,7096 5404 7057 5524
7142,7094 5402 7096 5404 7040 5484
7151,7095 5403 7096 5404 7049 5504
7205,7193 5420 7117 5440
7123,7092 5400 7098 5406 7021 5446
7160,7096 5404 7097 5405 7058 5525
7206,7193 5420 7194 5421 7118 5441
7207,7193 5420 7195 5422 7119 5442
7161,7096 5404 7098 5406 7059 5526
7208,7193 5420 7196 5423 7120 5443
7290,7291
7291,7280 5440
8096,8097
8097,7280 5440
8750,8751
8751,7280 5440
7280,7205 5440
7124,7092 5400 7099 5407 7022 5447
7162,7096 5404 7099 5407 7060 5527
8040,7096 5404 8022 5638 8002 5644
7210,7193 5420 7198 5425 7122 5445
7163,7096 5404 7100 5408 7061 5528
7164,7096 5404 7101 5409 7062 5529
8324,8058 8055 8052 8049 8046 8043 8040 8037 8034 8031 8028 8025
8028,7092 5400 8022 5638 7990 5640
8063,7193 5420 8060 5639 8028 5640
8125,8126
8126,8095 5640
8095,7280 5440 8063 5640
7301,7302
7302,7281 5441
8099,8100
8100,7281 5441
8715,8716
8716,7281 5441
7281,7280 5440 7206 5441
7125,7092 5400 7100 5408 7023 5448
7253,7254
7254,7197 5424
8076,8077
8077,7197 5424
8595,8596
8596,7197 5424
7197,7192 5419 7109 5424
7335,7336
7336,7285 5445
8111,8112
8112,7285 5445
8545,8546
8546,7285 5445
7285,7280 5440 7210 5445
7126,7092 5400 7101 5409 7024 5449
7211,7193 5420 7199 5426 7123 5446
7311,7312
7312,7282 5442
8102,8103
8103,7282 5442
8677,8678
8678,7282 5442
7282,7280 5440 7207 5442
7212,7193 5420 7200 5427 7124 5447
7209,7193 5420 7197 5424 7121 5444
7296,7281 5441 7285 5445 7221 5465
7214,7193 5420 7202 5429 7126 5449
7341,7342
7342,7286 5446
8114,8115
8115,7286 5446
8495,8496
8496,7286 5446
7286,7280 5440 7211 5446
7330,7285 5445 7255 5545
7320,7321
7321,7283 5443
8105,8106
8106,7283 5443
8636,8637
8637,7283 5443
7283,7280 5440 7208 5443
8110,7285 5445 8095 5640 8078 5645
8098,7281 5441 8095 5640 8066 5641
7213,7193 5420 7201 5428 7125 5448
7220,7194 5421 7197 5424 7132 5464
7292,7281 5441 7217 5461
7353,7354
7354,7289 5449
8123,8124
8124,7289 5449
8317,8318
8318,7289 5449
7289,7280 5440 7214 5449
7297,7281 5441 7286 5446 7222 5466
7293,7281 5441 7282 5442 7218 5462
7346,7347
7347,7287 5447
8117,8118
8118,7287 5447
8442,8443
8443,7287 5447
7287,7280 5440 7212 5447
7303,7282 5442 7228 5482
8101,7282 5442 8095 5640 8069 5642
7230,7195 5422 7197 5424 7142 5484
7300,7281 5441 7289 5449 7225 5469
7307,7282 5442 7286 5446 7232 5486
7306,7282 5442 7285 5445 7231 5485
7350,7351
7351,7288 5448
8120,8121
8121,7288 5448
8386,8387
8387,7288 5448
7288,7280 5440 7213 5448
7294,7281 5441 7283 5443 7219 5463
7239,7196 5423 7197 5424 7151 5504
7310,7282 5442 7289 5449 7235 5489
7313,7283 5443 7238 5503
7331,7285 5445 7286 5446 7256 5546
7247,7197 5424 7159 5524
7304,7282 5442 7283 5443 7229 5483
7298,7281 5441 7287 5447 7223 5467
7337,7286 5446 7262 5566
8113,7286 5446 8095 5640 8081 5646
7319,7283 5443 7289 5449 7244 5509
7315,7283 5443 7285 5445 7240 5505
8104,7283 5443 8095 5640 8072 5643
7248,7197 5424 7198 5425 7160 5525
7316,7283 5443 7286 5446 7241 5506
7308,7282 5442 7287 5447 7233 5487
7364,7365
7365,7355 5461
8128,8129
8129,7355 5461
8712,8713
8713,7355 5461
7355,7292 5461
7249,7197 5424 7199 5426 7161 5526
7334,7285 5445 7289 5449 7259 5549
7250,7197 5424 7200 5427 7162 5527
8320,8093 8090 8087 8084 8081 8078 8075 8072 8069 8066 8063
8075,7197 5424 8060 5639 8040 5644
7251,7197 5424 7201 5428 7163 5528
7317,7283 5443 7287 5447 7242 5507
7374,7375
7375,7356 5462
8131,8132
8132,7356 5462
8674,8675
8675,7356 5462
7356,7355 5461 7293 5462
7252,7197 5424 7202 5429 7164 5529
7340,7286 5446 7289 5449 7265 5569
8122,7289 5449 8095 5640 8090 5649
7328,7329
7329,7284 5444
8108,8109
8109,7284 5444
8592,8593
8593,7284 5444
7284,7280 5440 7209 5444
7383,7384
7384,7357 5463
8134,8135
8135,7357 5463
8633,8634
8634,7357 5463
7357,7355 5461 7294 5463
7332,7285 5445 7287 5447 7257 5547
7352,7289 5449 7277 5629
7398,7399
7399,7359 5465
8140,8141
8141,7359 5465
8542,8543
8543,7359 5465
7359,7355 5461 7296 5465
7338,7286 5446 7287 5447 7263 5567
7343,7287 5447 7268 5587
8116,7287 5447 8095 5640 8084 5647
7295,7281 5441 7284 5444 7220 5464
7367,7356 5462 7357 5463 7304 5483
7305,7282 5442 7284 5444 7230 5484
7404,7405
7405,7360 5466
8143,8144
8144,7360 5466
8492,8493
8493,7360 5466
7360,7355 5461 7297 5466
7345,7287 5447 7289 5449 7270 5589
7376,7357 5463 7313 5503
7322,7284 5444 7247 5524
7299,7281 5441 7288 5448 7224 5468
7314,7283 5443 7284 5444 7239 5504
7409,7410
7410,7361 5467
8146,8147
8147,7361 5467
8439,8440
8440,7361 5467
7361,7355 5461 7298 5467
8154,8155
8155,8127 5641
8127,7355 5461 8098 5641
7309,7282 5442 7288 5448 7234 5488
7416,7417
7417,7363 5469
8152,8153
8153,7363 5469
8313,8314
8314,7363 5469
7363,7355 5461 7300 5469
7323,7284 5444 7285 5445 7248 5525
7318,7283 5443 7288 5448 7243 5508
7324,7284 5444 7286 5446 7249 5526
7366,7356 5462 7303 5482
7333,7285 5445 7288 5448 7258 5548
7373,7356 5462 7363 5469 7310 5489
7325,7284 5444 7287 5447 7250 5527
7339,7286 5446 7288 5448 7264 5568
7326,7284 5444 7288 5448 7251 5528
7369,7356 5462 7359 5465 7306 5485
8107,7284 5444 8095 5640 8075 5644
7348,7288 5448 7273 5608
7344,7287 5447 7288 5448 7269 5588
8316,8125 8122 8119 8116 8113 8110 8107 8104 8101 8098
8119,7288 5448 8095 5640 8087 5648
7382,7357 5463 7363 5469 7319 5509
7327,7284 5444 7289 5449 7252 5529
7378,7357 5463 7359 5465 7315 5505
7391,7392
7392,7358 5464
8137,8138
8138,7358 5464
8589,8590
8590,7358 5464
7358,7355 5461 7295 5464
7349,7288 5448 7289 5449 7274 5609
7393,7359 5465 7330 5545
7413,7414
7414,7362 5468
8149,8150
8150,7362 5468
8383,8384
8384,7362 5468
7362,7355 5461 7299 5468
7397,7359 5465 7363 5469 7334 5549
7403,7360 5466 7363 5469 7340 5569
7368,7356 5462 7358 5464 7305 5484
7415,7363 5469 7352 5629
8151,7363 5469 8127 5641 8122 5649
7408,7361 5467 7363 5469 7345 5589
7370,7356 5462 7360 5466 7307 5486
7372,7356 5462 7362 5468 7309 5488
7377,7357 5463 7358 5464 7314 5504
7385,7358 5464 7322 5524
7400,7360 5466 7337 5566
7379,7357 5463 7360 5466 7316 5506
7394,7359 5465 7360 5466 7331 5546
7381,7357 5463 7362 5468 7318 5508
7386,7358 5464 7359 5465 7323 5525
7387,7358 5464 7360 5466 7324 5526
7371,7356 5462 7361 5467 7308 5487
7380,7357 5463 7361 5467 7317 5507
7395,7359 5465 7361 5467 7332 5547
8130,7356 5462 8127 5641 8101 5642
8133,7357 5463 8127 5641 8104 5643
7389,7358 5464 7362 5468 7326 5528
8139,7359 5465 8127 5641 8110 5645
7388,7358 5464 7361 5467 7325 5527
7390,7358 5464 7363 5469 7327 5529
8142,7360 5466 8127 5641 8113 5646
8136,7358 5464 8127 5641 8107 5644
8145,7361 5467 8127 5641 8116 5647
7406,7361 5467 7343 5587
7426,7427
7427,7418 5482
8157,8158
8158,7418 5482
8671,8672
8672,7418 5482
7418,7366 5482
7401,7360 5466 7361 5467 7338 5567
7411,7362 5468 7348 5608
8312,8154 8151 8148 8145 8142 8139 8136 8133 8130
8148,7362 5468 8127 5641 8119 5648
7396,7359 5465 7362 5468 7333 5548
7402,7360 5466 7362 5468 7339 5568
7407,7361 5467 7362 5468 7344 5588
7435,7436
7436,7419 5483
8160,8161
8161,7419 5483
8630,8631
8631,7419 5483
7419,7418 5482 7367 5483
7412,7362 5468 7363 5469 7349 5609
7443,7444
7444,7420 5484
8163,8164
8164,7420 5484
8586,8587
8587,7420 5484
7420,7418 5482 7368 5484
7450,7451
7451,7421 5485
8166,8167
8167,7421 5485
8539,8540
8540,7421 5485
7421,7418 5482 7369 5485
7456,7457
7457,7422 5486
8169,8170
8170,7422 5486
8489,8490
8490,7422 5486
7422,7418 5482 7370 5486
7461,7462
7462,7423 5487
8172,8173
8173,7423 5487
8436,8437
8437,7423 5487
7423,7418 5482 7371 5487
7465,7466
7466,7424 5488
8175,8176
8176,7424 5488
8380,8381
8381,7424 5488
7424,7418 5482 7372 5488
8180,8181
8181,8156 5642
8156,7418 5482 8130 5642
7468,7469
7469,7425 5489
8178,8179
8179,7425 5489
8309,8310
8310,7425 5489
7425,7418 5482 7373 5489
7429,7419 5483 7420 5484 7377 5504
7430,7419 5483 7421 5485 7378 5505
7431,7419 5483 7422 5486 7379 5506
7432,7419 5483 7423 5487 7380 5507
7428,7419 5483 7376 5503
7437,7420 5484 7385 5524
7434,7419 5483 7425 5489 7382 5509
7438,7420 5484 7421 5485 7386 5525
7440,7420 5484 7423 5487 7388 5527
7439,7420 5484 7422 5486 7387 5526
7433,7419 5483 7424 5488 7381 5508
7442,7420 5484 7425 5489 7390 5529
7445,7421 5485 7393 5545
7449,7421 5485 7425 5489 7397 5549
7447,7421 5485 7423 5487 7395 5547
7446,7421 5485 7422 5486 7394 5546
7441,7420 5484 7424 5488 7389 5528
7455,7422 5486 7425 5489 7403 5569
7448,7421 5485 7424 5488 7396 5548
7460,7423 5487 7425 5489 7408 5589
7452,7422 5486 7400 5566
7453,7422 5486 7423 5487 7401 5567
7454,7422 5486 7424 5488 7402 5568
7467,7425 5489 7415 5629
8159,7419 5483 8156 5642 8133 5643
8177,7425 5489 8156 5642 8151 5649
7463,7424 5488 7411 5608
8162,7420 5484 8156 5642 8136 5644
8165,7421 5485 8156 5642 8139 5645
8168,7422 5486 8156 5642 8142 5646
8171,7423 5487 8156 5642 8145 5647
8308,8180 8177 8174 8171 8168 8165 8162 8159
8174,7424 5488 8156 5642 8148 5648
7464,7424 5488 7425 5489 7412 5609
7459,7423 5487 7424 5488 7407 5588
7458,7423 5487 7406 5587
7477,7478
7478,7470 5503
8183,8184
8184,7470 5503
8627,8628
8628,7470 5503
7470,7428 5503
7485,7486
7486,7471 5504
8186,8187
8187,7471 5504
8583,8584
8584,7471 5504
7471,7470 5503 7429 5504
7503,7504
7504,7474 5507
8195,8196
8196,7474 5507
8433,8434
8434,7474 5507
7474,7470 5503 7432 5507
7510,7511
7511,7476 5509
8201,8202
8202,7476 5509
8305,8306
8306,7476 5509
7476,7470 5503 7434 5509
7498,7499
7499,7473 5506
8192,8193
8193,7473 5506
8486,8487
8487,7473 5506
7507,7508
7473,7470 5503 7431 5506
7508,7475 5508
7492,7493
7493,7472 5505
8198,8199
8199,7475 5508
8189,8190
8190,7472 5505
8377,8378
8378,7475 5508
8536,8537
7475,7470 5503 7433 5508
8537,7472 5505
7472,7470 5503 7430 5505
8203,8204
8204,8182 5643
8182,7470 5503 8159 5643
7479,7471 5504 7437 5524
7518,7519
7519,7512 5524
8206,8207
8207,7512 5524
8580,8581
8581,7512 5524
7512,7479 5524
7482,7471 5504 7474 5507 7440 5527
7483,7471 5504 7475 5508 7441 5528
7481,7471 5504 7473 5506 7439 5526
7480,7471 5504 7472 5505 7438 5525
7484,7471 5504 7476 5509 7442 5529
7494,7473 5506 7452 5566
7500,7474 5507 7458 5587
7487,7472 5505 7445 5545
7496,7473 5506 7475 5508 7454 5568
7495,7473 5506 7474 5507 7453 5567
7502,7474 5507 7476 5509 7460 5589
7497,7473 5506 7476 5509 7455 5569
7536,7537
7537,7515 5527
8215,8216
8216,7515 5527
8430,8431
8431,7515 5527
7515,7512 5524 7482 5527
7488,7472 5505 7473 5506 7446 5546
7509,7476 5509 7467 5629
8185,7471 5504 8182 5643 8162 5644
8188,7472 5505 8182 5643 8165 5645
8191,7473 5506 8182 5643 8168 5646
8194,7474 5507 8182 5643 8171 5647
8197,7475 5508 8182 5643 8174 5648
8304,8203 8200 8197 8194 8191 8188 8185
8200,7476 5509 8182 5643 8177 5649
7501,7474 5507 7475 5508 7459 5588
7531,7532
7532,7514 5526
8212,8213
8213,7514 5526
8483,8484
8484,7514 5526
7514,7512 5524 7481 5526
7533,7515 5527 7500 5587
7489,7472 5505 7474 5507 7447 5547
7505,7475 5508 7463 5608
7490,7472 5505 7475 5508 7448 5548
7527,7514 5526 7494 5566
7543,7544
7544,7517 5529
8221,8222
8222,7517 5529
8301,8302
8302,7517 5529
7517,7512 5524 7484 5529
8223,8224
8224,8205 5644
8205,7512 5524 8185 5644
7528,7514 5526 7515 5527 7495 5567
7491,7472 5505 7476 5509 7449 5549
7506,7475 5508 7476 5509 7464 5609
7525,7526
7526,7513 5525
8209,8210
8210,7513 5525
8533,8534
8534,7513 5525
7513,7512 5524 7480 5525
8211,7514 5526 8205 5644 8191 5646
7540,7541
7541,7516 5528
8218,8219
8219,7516 5528
8374,8375
8375,7516 5528
7516,7512 5524 7483 5528
8214,7515 5527 8205 5644 8194 5647
8220,7517 5529 8205 5644 8200 5649
7530,7514 5526 7517 5529 7497 5569
7542,7517 5529 7509 5629
7535,7515 5527 7517 5529 7502 5589
7520,7513 5525 7487 5545
7523,7513 5525 7516 5528 7490 5548
8217,7516 5528 8205 5644 8197 5648
7529,7514 5526 7516 5528 7496 5568
7538,7516 5528 7505 5608
8300,8223 8220 8217 8214 8211 8208
8208,7513 5525 8205 5644 8188 5645
7534,7515 5527 7516 5528 7501 5588
7539,7516 5528 7517 5529 7506 5609
7550,7551
7551,7545 5545
8226,8227
8227,7545 5545
8530,8531
8531,7545 5545
7545,7520 5545
8240,8241
8241,8225 5645
8225,7545 5545 8208 5645
7521,7513 5525 7514 5526 7488 5546
7522,7513 5525 7515 5527 7489 5547
7524,7513 5525 7517 5529 7491 5549
7565,7566
7566,7548 5548
8235,8236
8236,7548 5548
8371,8372
8372,7548 5548
7548,7545 5545 7523 5548
7556,7557
7557,7546 5546
8229,8230
8230,7546 5546
8480,8481
8481,7546 5546
7546,7545 5545 7521 5546
8234,7548 5548 8225 5645 8217 5648
8228,7546 5546 8225 5645 8211 5646
7561,7562
7562,7547 5547
8232,8233
8233,7547 5547
8427,8428
8428,7547 5547
7547,7545 5545 7522 5547
7568,7569
7569,7549 5549
8238,8239
8239,7549 5549
8297,8298
8298,7549 5549
7549,7545 5545 7524 5549
7563,7548 5548 7538 5608
7552,7546 5546 7527 5566
7574,7575
7575,7570 5566
7554,7546 5546 7548 5548 7529 5568
8243,8244
8244,7570 5566
8477,8478
8478,7570 5566
7570,7552 5566
8254,8255
8255,8242 5646
8242,7570 5566 8228 5646
8231,7547 5547 8225 5645 8214 5647
7558,7547 5547 7533 5587
7553,7546 5546 7547 5547 7528 5567
7555,7546 5546 7549 5549 7530 5569
7559,7547 5547 7548 5548 7534 5588
8296,8240 8237 8234 8231 8228
8237,7549 5549 8225 5645 8220 5649
7583,7584
7584,7572 5568
8249,8250
8250,7572 5568
8368,8369
8369,7572 5568
7572,7570 5566 7554 5568
7560,7547 5547 7549 5549 7535 5589
7564,7548 5548 7549 5549 7539 5609
8248,7572 5568 8242 5646 8234 5648
7567,7549 5549 7542 5629
7579,7580
7580,7571 5567
8246,8247
8247,7571 5567
8424,8425
8425,7571 5567
7571,7570 5566 7553 5567
8245,7571 5567 8242 5646 8231 5647
7581,7572 5568 7563 5608
7586,7587
7587,7573 5569
8252,8253
8253,7573 5569
8293,8294
8294,7573 5569
7573,7570 5566 7555 5569
8292,8254 8251 8248 8245
8251,7573 5569 8242 5646 8237 5649
7576,7571 5567 7558 5587
7585,7573 5569 7567 5629
7591,7592
7592,7588 5587
8257,8258
8258,7588 5587
8421,8422
8422,7588 5587
7588,7576 5587
7577,7571 5567 7572 5568 7559 5588
8265,8266
8266,8256 5647
8256,7588 5587 8245 5647
7578,7571 5567 7573 5569 7560 5589
7582,7572 5568 7573 5569 7564 5609
7595,7596
7596,7589 5588
8260,8261
8261,7589 5588
8365,8366
8366,7589 5588
7589,7588 5587 7577 5588
8259,7589 5588 8256 5647 8248 5648
7598,7599
7599,7590 5589
8263,8264
8264,7590 5589
8289,8290
8290,7590 5589
7590,7588 5587 7578 5589
8288,8265 8262 8259
8262,7590 5589 8256 5647 8251 5649
7593,7589 5588 7581 5608
7597,7590 5589 7585 5629
7602,7603
7603,7600 5608
8268,8269
8269,7600 5608
8362,8363
8363,7600 5608
7600,7593 5608
8273,8274
8274,8267 5648
8267,7600 5608 8259 5648
7594,7589 5588 7590 5589 7582 5609
7605,7606
7606,7601 5609
8271,8272
8272,7601 5609
8285,8286
8286,7601 5609
7601,7600 5608 7594 5609
8284,8273 8270
8270,7601 5609 8267 5648 8262 5649
7604,7601 5609 7597 5629
7608,7609
7609,7607 5629
8276,8277
8277,7607 5629
8281,8282
8282,7607 5629
7607,7604 5629
8278,8279
8279,8275 5649
8275,7607 5629 8270 5649
8359,8360
8360,8280 5649
8280,7607 5629 8278 5649
8283,7601 5609 8280 5649 8284 5648
8287,7590 5589 8280 5649 8288 5647
8295,7549 5549 8280 5649 8296 5645
8299,7517 5529 8280 5649 8300 5644
8291,7573 5569 8280 5649 8292 5646
8303,7476 5509 8280 5649 8304 5643
8418,8419
8419,8361 5648
8361,7600 5608 8283 5648
8307,7425 5489 8280 5649 8308 5642
8311,7363 5469 8280 5649 8312 5641
8315,7289 5449 8280 5649 8316 5640
8319,7202 5429 8280 5649 8320 5639
8323,7101 5409 8280 5649 8324 5638
8364,7589 5588 8361 5648 8287 5647
8379,7424 5488 8361 5648 8307 5642
8382,7362 5468 8361 5648 8311 5641
8385,7288 5448 8361 5648 8315 5640
8388,7201 5428 8361 5648 8319 5639
8327,6985 5389 8280 5649 8328 5637
8367,7572 5568 8361 5648 8291 5646
8331,6853 5369 8280 5649 8332 5636
8335,6704 5349 8280 5649 8336 5635
8343,6351 5309 8280 5649 8344 5633
8339,6537 5329 8280 5649 8340 5634
8347,6145 5289 8280 5649 8348 5632
8370,7548 5548 8361 5648 8295 5645
8400,6703 5348 8361 5648 8335 5635
8397,6852 5368 8361 5648 8331 5636
8406,6350 5308 8361 5648 8343 5633
8403,6536 5328 8361 5648 8339 5634
8351,5918 5269 8280 5649 8352 5631
8373,7516 5528 8361 5648 8299 5644
8391,7100 5408 8361 5648 8323 5638
8355,5669 5249 8280 5649 8356 5630
8394,6984 5388 8361 5648 8327 5637
8409,6144 5288 8361 5648 8347 5632
8412,5917 5268 8361 5648 8351 5631
8376,7475 5508 8361 5648 8303 5643
8474,8475
8475,8420 5647
8420,7588 5587 8364 5647
8415,5668 5248 8361 5648 8355 5630
8426,7547 5547 8420 5647 8370 5645
8432,7474 5507 8420 5647 8376 5643
8423,7571 5567 8420 5647 8367 5646
8429,7515 5527 8420 5647 8373 5644
8435,7423 5487 8420 5647 8379 5642
8471,5667 5247 8420 5647 8415 5630
8527,8528
8528,8476 5646
8476,7570 5566 8423 5646
8441,7287 5447 8420 5647 8385 5640
8438,7361 5467 8420 5647 8382 5641
8444,7200 5427 8420 5647 8388 5639
8447,7099 5407 8420 5647 8391 5638
8450,6983 5387 8420 5647 8394 5637
8479,7546 5546 8476 5646 8426 5645
8494,7286 5446 8476 5646 8441 5640
8491,7360 5466 8476 5646 8438 5641
8497,7199 5426 8476 5646 8444 5639
8453,6851 5367 8420 5647 8397 5636
8503,6982 5386 8476 5646 8450 5637
8482,7514 5526 8476 5646 8429 5644
8485,7473 5506 8476 5646 8432 5643
8456,6702 5347 8420 5647 8400 5635
8488,7422 5486 8476 5646 8435 5642
8577,8578
8578,8529 5645
8529,7545 5545 8479 5645
8459,6535 5327 8420 5647 8403 5634
8524,5666 5246 8476 5646 8471 5630
8462,6349 5307 8420 5647 8406 5633
8509,6701 5346 8476 5646 8456 5635
8465,6143 5287 8420 5647 8409 5632
8532,7513 5525 8529 5645 8482 5644
8468,5916 5267 8420 5647 8412 5631
8574,5665 5245 8529 5645 8524 5630
8515,6348 5306 8476 5646 8462 5633
8518,6142 5286 8476 5646 8465 5632
8559,6700 5345 8529 5645 8509 5635
8535,7472 5505 8529 5645 8485 5643
8500,7098 5406 8476 5646 8447 5638
8538,7421 5485 8529 5645 8488 5642
8512,6534 5326 8476 5646 8459 5634
8565,6347 5305 8529 5645 8515 5633
8568,6141 5285 8529 5645 8518 5632
8541,7359 5465 8529 5645 8491 5641
8506,6850 5366 8476 5646 8453 5636
8544,7285 5445 8529 5645 8494 5640
8624,8625
8625,8579 5644
8579,7512 5524 8532 5644
8547,7198 5425 8529 5645 8497 5639
8521,5915 5266 8476 5646 8468 5631
8556,6849 5365 8529 5645 8506 5636
8553,6981 5385 8529 5645 8503 5637
8550,7097 5405 8529 5645 8500 5638
8582,7471 5504 8579 5644 8535 5643
8603,6848 5364 8579 5644 8556 5636
8600,6980 5384 8579 5644 8553 5637
8594,7197 5424 8579 5644 8547 5639
8562,6533 5325 8529 5645 8512 5634
8597,7096 5404 8579 5644 8550 5638
8585,7420 5484 8579 5644 8538 5642
8609,6532 5324 8579 5644 8562 5634
8571,5914 5265 8529 5645 8521 5631
8588,7358 5464 8579 5644 8541 5641
8591,7284 5444 8579 5644 8544 5640
8606,6699 5344 8579 5644 8559 5635
8612,6346 5304 8579 5644 8565 5633
8668,8669
8669,8626 5643
8626,7470 5503 8582 5643
8621,5664 5244 8579 5644 8574 5630
8618,5913 5264 8579 5644 8571 5631
8615,6140 5284 8579 5644 8568 5632
8629,7419 5483 8626 5643 8585 5642
8632,7357 5463 8626 5643 8588 5641
8635,7283 5443 8626 5643 8591 5640
8662,5912 5263 8626 5643 8618 5631
8665,5663 5243 8626 5643 8621 5630
8659,6139 5283 8626 5643 8615 5632
8709,8710
8710,8670 5642
8670,7418 5482 8629 5642
8638,7196 5423 8626 5643 8594 5639
8641,7095 5403 8626 5643 8597 5638
8644,6979 5383 8626 5643 8600 5637
8647,6847 5363 8626 5643 8603 5636
8650,6698 5343 8626 5643 8606 5635
8673,7356 5462 8670 5642 8632 5641
8679,7195 5422 8670 5642 8638 5639
8653,6531 5323 8626 5643 8609 5634
8685,6978 5382 8670 5642 8644 5637
8691,6697 5342 8670 5642 8650 5635
8688,6846 5362 8670 5642 8647 5636
8676,7282 5442 8670 5642 8635 5640
8682,7094 5402 8670 5642 8641 5638
8656,6345 5303 8626 5643 8612 5633
8694,6530 5322 8670 5642 8653 5634
8703,5911 5262 8670 5642 8662 5631
8700,6138 5282 8670 5642 8659 5632
8706,5662 5242 8670 5642 8665 5630
8747,8748
8748,8711 5641
8711,7355 5461 8673 5641
8697,6344 5302 8670 5642 8656 5633
8720,7093 5401 8711 5641 8682 5638
8717,7194 5421 8711 5641 8679 5639
8714,7281 5441 8711 5641 8676 5640
8723,6977 5381 8711 5641 8685 5637
8726,6845 5361 8711 5641 8688 5636
8735,6343 5301 8711 5641 8697 5633
8782,8783
8783,8749 5640
8749,7280 5440 8714 5640
8741,5910 5261 8711 5641 8703 5631
8729,6696 5341 8711 5641 8691 5635
8732,6529 5321 8711 5641 8694 5634
8738,6137 5281 8711 5641 8700 5632
8744,5661 5241 8711 5641 8706 5630
8752,7193 5420 8749 5640 8717 5639
8773,6136 5280 8749 5640 8738 5632
8776,5909 5260 8749 5640 8741 5631
8764,6695 5340 8749 5640 8729 5635
8767,6528 5320 8749 5640 8732 5634
8779,5660 5240 8749 5640 8744 5630
8755,7092 5400 8749 5640 8720 5638
8814,8815
8815,8784 5639
8784,7192 5419 8752 5639
8761,6844 5360 8749 5640 8726 5636
8770,6342 5300 8749 5640 8735 5633
8758,6976 5380 8749 5640 8723 5637
8796,6694 5339 8784 5639 8764 5635
8787,7091 5399 8784 5639 8755 5638
8799,6527 5319 8784 5639 8767 5634
8793,6843 5359 8784 5639 8761 5636
8790,6975 5379 8784 5639 8758 5637
8802,6341 5299 8784 5639 8770 5633
8843,8844
8844,8816 5638
8816,7090 5398 8787 5638
8805,6135 5279 8784 5639 8773 5632
8808,5908 5259 8784 5639 8776 5631
8811,5659 5239 8784 5639 8779 5630
8819,6974 5378 8816 5638 8790 5637
8822,6842 5358 8816 5638 8793 5636
8825,6693 5338 8816 5638 8796 5635
8837,5907 5258 8816 5638 8808 5631
8834,6134 5278 8816 5638 8805 5632
8869,8870
8870,8845 5637
8845,6973 5377 8819 5637
8840,5658 8816 5638 8811 5630
8828,6526 5318 8816 5638 8799 5634
8831,6340 5298 8816 5638 8802 5633
8851,6692 5337 8845 5637 8825 5635
8848,6841 5357 8845 5637 8822 5636
8860,6133 5277 8845 5637 8834 5632
8866,5657 8845 5637 8840 5630
8854,6525 5317 8845 5637 8828 5634
8857,6339 5297 8845 5637 8831 5633
8892,8893
8893,8871 5636
8871,6840 5356 8848 5636
8863,5906 5257 8845 5637 8837 5631
8874,6691 5336 8871 5636 8851 5635
8880,6338 5296 8871 5636 8857 5633
8877,6524 5316 8871 5636 8854 5634
8883,6132 5276 8871 5636 8860 5632
8889,5656 8871 5636 8866 5630
8886,5905 5256 8871 5636 8863 5631
8912,8913
8913,8894 5635
8894,6690 5335 8874 5635
8903,6131 5275 8894 5635 8883 5632
8897,6523 5315 8894 5635 8877 5634
8900,6337 5295 8894 5635 8880 5633
8906,5904 5255 8894 5635 8886 5631
8909,5655 8894 5635 8889 5630
8929,8930
8930,8914 5634
8914,6522 5314 8897 5634
8923,5903 5254 8914 5634 8906 5631
8926,5654 8914 5634 8909 5630
8920,6130 5274 8914 5634 8903 5632
8917,6336 5294 8914 5634 8900 5633
8943,8944
8944,8931 5633
8931,6335 5293 8917 5633
8934,6129 5273 8931 5633 8920 5632
8940,5653 8931 5633 8926 5630
8937,5902 5253 8931 5633 8923 5631
8954,8955
8955,8945 5632
8945,6128 5272 8934 5632
8951,5652 8945 5632 8940 5630
8948,5901 5252 8945 5632 8937 5631
8962,8963
8963,8956 5631
8956,5900 5251 8948 5631
8959,5651 8956 5631 8951 5630
8967,8968
8968,8964 5630
8964,5650 8959 5630
8970,5650
8969,8970
8972,5250
8971,8972
8974,5270
8973,8974
8976,5290
8975,8976
8978,5310
8977,8978
8980,5330
8979,8980
8982,5350
8981,8982
8984,5370
8983,8984
8986,5390
8985,8986
8988,5410
8987,8988
8990,5430
8989,8990
8992,5450
8991,8992
8994,5470
8993,8994
8996,5490
8995,8996
8998,5510
8997,8998
9000,5530
8999,9000
9002,5550
9001,9002
9004,5570
9003,9004
9006,5590
9005,9006
9008,5610
9007,9008
9010,5651
9009,9010
9012,5900
9011,9012
9014,5271
9013,9014
9016,5291
9015,9016
9018,5311
9017,9018
9020,5331
9019,9020
9022,5351
9021,9022
9024,5371
9023,9024
9026,5391
9025,9026
9028,5411
9027,9028
9030,5431
9029,9030
9032,5451
9031,9032
9034,5471
9033,9034
9036,5491
9035,9036
9038,5511
9037,9038
9040,5531
9039,9040
9042,5551
9041,9042
9044,5571
9043,9044
9046,5591
9045,9046
9048,5611
9047,9048
9050,5652
9049,9050
9052,5901
9051,9052
9054,6128
9053,9054
9056,5292
9055,9056
9058,5312
9057,9058
9060,5332
9059,9060
9062,5352
9061,9062
9064,5372
9063,9064
9066,5392
9065,9066
9068,5412
9067,9068
9070,5432
9069,9070
9072,5452
9071,9072
9074,5472
9073,9074
9076,5492
9075,9076
9078,5512
9077,9078
9080,5532
9079,9080
9082,5552
9081,9082
9084,5572
9083,9084
9086,5592
9085,9086
9088,5612
9087,9088
9090,5653
9089,9090
9092,5902
9091,9092
9094,6129
9093,9094
9096,6335
9095,9096
9098,5313
9097,9098
9100,5333
9099,9100
9102,5353
9101,9102
9104,5373
9103,9104
9106,5393
9105,9106
9108,5413
9107,9108
9110,5433
9109,9110
9112,5453
9111,9112
9114,5473
9113,9114
9116,5493
9115,9116
9118,5513
9117,9118
9120,5533
9119,9120
9122,5553
9121,9122
9124,5573
9123,9124
9126,5593
9125,9126
9128,5613
9127,9128
9130,5654
9129,9130
9132,5903
9131,9132
9134,6130
9133,9134
9136,6336
9135,9136
9138,6522
9137,9138
9140,5334
9139,9140
9142,5354
9141,9142
9144,5374
9143,9144
9146,5394
9145,9146
9148,5414
9147,9148
9150,5434
9149,9150
9152,5454
9151,9152
9154,5474
9153,9154
9156,5494
9155,9156
9158,5514
9157,9158
9160,5534
9159,9160
9162,5554
9161,9162
9164,5574
9163,9164
9166,5594
9165,9166
9168,5614
9167,9168
9170,5655
9169,9170
9172,5904
9171,9172
9174,6131
9173,9174
9176,6337
9175,9176
9178,6523
9177,9178
9180,6690
9179,9180
9182,5355
9181,9182
9184,5375
9183,9184
9186,5395
9185,9186
9188,5415
9187,9188
9190,5435
9189,9190
9192,5455
9191,9192
9194,5475
9193,9194
9196,5495
9195,9196
9198,5515
9197,9198
9200,5535
9199,9200
9202,5555
9201,9202
9204,5575
9203,9204
9206,5595
9205,9206
9208,5615
9207,9208
9210,5656
9209,9210
9212,5905
9211,9212
9214,6132
9213,9214
9216,6338
9215,9216
9218,6524
9217,9218
9220,6691
9219,9220
9222,6840
9221,9222
9224,5376
9223,9224
9226,5396
9225,9226
9228,5416
9227,9228
9230,5436
9229,9230
9232,5456
9231,9232
9234,5476
9233,9234
9236,5496
9235,9236
9238,5516
9237,9238
9240,5536
9239,9240
9242,5556
9241,9242
9244,5576
9243,9244
9246,5596
9245,9246
9248,5616
9247,9248
9250,5657
9249,9250
9252,5906
9251,9252
9254,6133
9253,9254
9256,6339
9255,9256
9258,6525
9257,9258
9260,6692
9259,9260
9262,6841
9261,9262
9264,6973
9263,9264
9266,5397
9265,9266
9268,5417
9267,9268
9270,5437
9269,9270
9272,5457
9271,9272
9274,5477
9273,9274
9276,5497
9275,9276
9278,5517
9277,9278
9280,5537
9279,9280
9282,5557
9281,9282
9284,5577
9283,9284
9286,5597
9285,9286
9288,5617
9287,9288
9290,5658
9289,9290
9292,5907
9291,9292
9294,6134
9293,9294
9296,6340
9295,9296
9298,6526
9297,9298
9300,6693
9299,9300
9302,6842
9301,9302
9304,6974
9303,9304
9306,7090
9305,9306
9308,5418
9307,9308
9310,5438
9309,9310
9312,5458
9311,9312
9314,5478
9313,9314
9316,5498
9315,9316
9318,5518
9317,9318
9320,5538
9319,9320
9322,5558
9321,9322
9324,5578
9323,9324
9326,5598
9325,9326
9328,5618
9327,9328
9330,5659
9329,9330
9332,5908
9331,9332
9334,6135
9333,9334
9336,6341
9335,9336
9338,6527
9337,9338
9340,6694
9339,9340
9342,6843
9341,9342
9344,6975
9343,9344
9346,7091
9345,9346
9348,7192
9347,9348
9350,5439
9349,9350
9352,5459
9351,9352
9354,5479
9353,9354
9356,5499
9355,9356
9358,5519
9357,9358
9360,5539
9359,9360
9362,5559
9361,9362
9364,5579
9363,9364
9366,5599
9365,9366
9368,5619
9367,9368
9370,5660
9369,9370
9372,5909
9371,9372
9374,6136
9373,9374
9376,6342
9375,9376
9378,6528
9377,9378
9380,6695
9379,9380
9382,6844
9381,9382
9384,6976
9383,9384
9386,7092
9385,9386
9388,7193
9387,9388
9390,7280
9389,9390
9392,5460
9391,9392
9394,5480
9393,9394
9396,5500
9395,9396
9398,5520
9397,9398
9400,5540
9399,9400
9402,5560
9401,9402
9404,5580
9403,9404
9406,5600
9405,9406
9408,5620
9407,9408
9410,5661
9409,9410
9412,5910
9411,9412
9414,6137
9413,9414
9416,6343
9415,9416
9418,6529
9417,9418
9420,6696
9419,9420
9422,6845
9421,9422
9424,6977
9423,9424
9426,7093
9425,9426
9428,7194
9427,9428
9430,7281
9429,9430
9432,7355
9431,9432
9434,5481
9433,9434
9436,5501
9435,9436
9438,5521
9437,9438
9440,5541
9439,9440
9442,5561
9441,9442
9444,5581
9443,9444
9446,5601
9445,9446
9448,5621
9447,9448
9450,5662
9449,9450
9452,5911
9451,9452
9454,6138
9453,9454
9456,6344
9455,9456
9458,6530
9457,9458
9460,6697
9459,9460
9462,6846
9461,9462
9464,6978
9463,9464
9466,7094
9465,9466
9468,7195
9467,9468
9470,7282
9469,9470
9472,7356
9471,9472
9474,7418
9473,9474
9476,5502
9475,9476
9478,5522
9477,9478
9480,5542
9479,9480
9482,5562
9481,9482
9484,5582
9483,9484
9486,5602
9485,9486
9488,5622
9487,9488
9490,5663
9489,9490
9492,5912
9491,9492
9494,6139
9493,9494
9496,6345
9495,9496
9498,6531
9497,9498
9500,6698
9499,9500
9502,6847
9501,9502
9504,6979
9503,9504
9506,7095
9505,9506
9508,7196
9507,9508
9510,7283
9509,9510
9512,7357
9511,9512
9514,7419
9513,9514
9516,7470
9515,9516
9518,5523
9517,9518
9520,5543
9519,9520
9522,5563
9521,9522
9524,5583
9523,9524
9526,5603
9525,9526
9528,5623
9527,9528
9530,5664
9529,9530
9532,5913
9531,9532
9534,6140
9533,9534
9536,6346
9535,9536
9538,6532
9537,9538
9540,6699
9539,9540
9542,6848
9541,9542
9544,6980
9543,9544
9546,7096
9545,9546
9548,7197
9547,9548
9550,7284
9549,9550
9552,7358
9551,9552
9554,7420
9553,9554
9556,7471
9555,9556
9558,7512
9557,9558
9560,5544
9559,9560
9562,5564
9561,9562
9564,5584
9563,9564
9566,5604
9565,9566
9568,5624
9567,9568
9570,5665
9569,9570
9572,5914
9571,9572
9574,6141
9573,9574
9576,6347
9575,9576
9578,6533
9577,9578
9580,6700
9579,9580
9582,6849
9581,9582
9584,6981
9583,9584
9586,7097
9585,9586
9588,7198
9587,9588
9590,7285
9589,9590
9592,7359
9591,9592
9594,7421
9593,9594
9596,7472
9595,9596
9598,7513
9597,9598
9600,7545
9599,9600
9602,5565
9601,9602
9604,5585
9603,9604
9606,5605
9605,9606
9608,5625
9607,9608
9610,5666
9609,9610
9612,5915
9611,9612
9614,6142
9613,9614
9616,6348
9615,9616
9618,6534
9617,9618
9620,6701
9619,9620
9622,6850
9621,9622
9624,6982
9623,9624
9626,7098
9625,9626
9628,7199
9627,9628
9630,7286
9629,9630
9632,7360
9631,9632
9634,7422
9633,9634
9636,7473
9635,9636
9638,7514
9637,9638
9640,7546
9639,9640
9642,7570
9641,9642
9644,5586
9643,9644
9646,5606
9645,9646
9648,5626
9647,9648
9650,5667
9649,9650
9652,5916
9651,9652
9654,6143
9653,9654
9656,6349
9655,9656
9658,6535
9657,9658
9660,6702
9659,9660
9662,6851
9661,9662
9664,6983
9663,9664
9666,7099
9665,9666
9668,7200
9667,9668
9670,7287
9669,9670
9672,7361
9671,9672
9674,7423
9673,9674
9676,7474
9675,9676
9678,7515
9677,9678
9680,7547
9679,9680
9682,7571
9681,9682
9684,7588
9683,9684
9686,5607
9685,9686
9688,5627
9687,9688
9690,5668
9689,9690
9692,5917
9691,9692
9694,6144
9693,9694
9696,6350
9695,9696
9698,6536
9697,9698
9700,6703
9699,9700
9702,6852
9701,9702
9704,6984
9703,9704
9706,7100
9705,9706
9708,7201
9707,9708
9710,7288
9709,9710
9712,7362
9711,9712
9714,7424
9713,9714
9716,7475
9715,9716
9718,7516
9717,9718
9720,7548
9719,9720
9722,7572
9721,9722
9724,7589
9723,9724
9726,7600
9725,9726
9728,5628
9727,9728
9730,5669
9729,9730
9732,5918
9731,9732
9734,6145
9733,9734
9736,6351
9735,9736
9738,6537
9737,9738
9740,6704
9739,9740
9742,6853
9741,9742
9744,6985
9743,9744
9746,7101
9745,9746
9748,7202
9747,9748
9750,7289
9749,9750
9752,7363
9751,9752
9754,7425
9753,9754
9756,7476
9755,9756
9758,7517
9757,9758
9760,7549
9759,9760
9762,7573
9761,9762
9764,7590
9763,9764
9766,7601
9765,9766
9768,7607
9767,9768
9770,8964
9769,9770
9772,8956
9771,9772
9774,8945
9773,9774
9776,8931
9775,9776
9778,8914
9777,9778
9780,8894
9779,9780
9782,8871
9781,9782
9784,8845
9783,9784
9786,8816
9785,9786
9788,8784
9787,9788
9790,8749
9789,9790
9792,8711
9791,9792
9794,8670
9793,9794
9796,8626
9795,9796
9798,8579
9797,9798
9800,8529
9799,9800
9802,8476
9801,9802
9804,8420
9803,9804
9806,8361
9805,9806
9808,8280
9807,9808
