355,356
356,350 320
416,417
417,350 320
525,526
526,350 320
350,320
430,431
431,415 345
415,350 320 345
361,362
362,351 321
419,420
420,351 321
520,521
521,351 321
351,350 320 321
366,367
367,352 322
422,423
423,352 322
512,513
513,352 322
352,350 320 322
370,371
371,353 323
425,426
426,353 323
501,502
502,353 323
353,350 320 323
373,374
374,354 324
428,429
429,354 324
487,488
488,354 324
354,350 320 324
418,351 321 415 345 346
357,351 321 326
363,352 322 332
421,352 322 415 345 347
379,380
380,375 326
433,434
434,375 326
517,518
518,375 326
375,357 326
444,445
445,432 346
432,375 326 418 346
359,351 321 353 323 328
358,351 321 352 322 327
424,353 323 415 345 348
360,351 321 354 324 329
364,352 322 353 323 333
368,353 323 338
486,430 427 424 421 418
427,354 324 415 345 349
372,354 324 344
384,385
385,376 327
436,437
437,376 327
509,510
510,376 327
376,375 326 358 327
388,389
389,377 328
439,440
440,377 328
498,499
499,377 328
377,375 326 359 328
435,376 327 432 346 421 347
365,352 322 354 324 334
369,353 323 354 324 339
438,377 328 432 346 424 348
391,392
392,378 329
442,443
443,378 329
483,484
484,378 329
378,375 326 360 329
381,376 327 363 332
386,377 328 368 338
482,444 441 438 435
441,378 329 432 346 427 349
390,378 329 372 344
396,397
397,393 332
447,448
448,393 332
506,507
507,393 332
393,381 332
455,456
456,446 347
446,393 332 435 347
382,376 327 377 328 364 333
387,377 328 378 329 369 339
383,376 327 378 329 365 334
400,401
401,394 333
450,451
451,394 333
495,496
496,394 333
394,393 332 382 333
449,394 333 446 347 438 348
403,404
404,395 334
453,454
454,395 334
479,480
480,395 334
395,393 332 383 334
478,455 452 449
452,395 334 446 347 441 349
398,394 333 386 338
402,395 334 390 344
407,408
408,405 338
458,459
459,405 338
492,493
493,405 338
405,398 338
463,464
464,457 348
457,405 338 449 348
399,394 333 395 334 387 339
410,411
411,406 339
461,462
462,406 339
475,476
476,406 339
406,405 338 399 339
474,463 460
460,406 339 457 348 452 349
409,406 339 402 344
413,414
414,412 344
466,467
467,412 344
471,472
472,412 344
412,409 344
468,469
469,465 349
465,412 344 460 349
489,490
490,470 349
470,412 344 468 349
473,406 339 470 349 474 348
477,395 334 470 349 478 347
481,378 329 470 349 482 346
485,354 324 470 349 486 345
503,504
504,491 348
491,405 338 473 348
494,394 333 491 348 477 347
500,353 323 491 348 485 345
497,377 328 491 348 481 346
514,515
515,505 347
505,393 332 494 347
511,352 322 505 347 500 345
508,376 327 505 347 497 346
522,523
523,516 346
516,375 326 508 346
519,351 321 516 346 511 345
527,528
528,524 345
524,350 320 519 345
530,350
529,530
532,325
531,532
534,330
533,534
536,335
535,536
538,340
537,538
540,351
539,540
542,375
541,542
544,331
543,544
546,336
545,546
548,341
547,548
550,352
549,550
552,376
551,552
554,393
553,554
556,337
555,556
558,342
557,558
560,353
559,560
562,377
561,562
564,394
563,564
566,405
565,566
568,343
567,568
570,354
569,570
572,378
571,572
574,395
573,574
576,406
575,576
578,412
577,578
580,524
579,580
582,516
581,582
584,505
583,584
586,491
585,586
588,470
587,588
