3827
3828,3829
3829,3276
3831
3826,3276 3816
3832,3833
3833,3277
3835
3836,3837
3837,3278
3830,3277 3826 3816 3817
3839
3834,3278 3826 3818
3840,3841
3841,3279
3843
3844,3845
3838,3279 3826 3819
3845,3280
3847
3842,3280 3826 3820
3848,3849
3849,3281
3851
3846,3281 3826 3821
3852,3853
3853,3282
3855
3856,3857
3857,3283
3850,3282 3826 3822
3859
3854,3283 3826 3823
3860,3861
3861,3284
3863
3858,3284 3826 3824
3864,3865
3865,3285
3866
3867,3868
3868,3826
3862,3285 3826 3825
3870
3871,3872
3872,3351
3874
3869,3351 3830
3875,3876
3876,3352
3878
3879,3880
3880,3353
3873,3352 3869 3830 3834
3882
3877,3353 3869 3838
3883,3884
3884,3354
3886
3887,3888
3881,3354 3869 3842
3888,3355
3890
3885,3355 3869 3846
3891,3892
3892,3356
3894
3889,3356 3869 3850
3895,3896
3896,3357
3898
3893,3357 3869 3854
3899,3900
3900,3358
3902
3897,3358 3869 3858
3903,3904
3904,3359
3905
3906,3907
3907,3869
3901,3359 3869 3862
3909
3910,3911
3911,3414
3913
3908,3414 3873
3914,3915
3915,3415
3917
3918,3919
3919,3416
3912,3415 3908 3873 3877
3921
3916,3416 3908 3881
3922,3923
3923,3417
3925
3920,3417 3908 3885
3926,3927
3927,3418
3929
3924,3418 3908 3889
3930,3931
3931,3419
3933
3928,3419 3908 3893
3934,3935
3935,3420
3937
3932,3420 3908 3897
3938,3939
3939,3421
3940
3941,3942
3942,3908
3936,3421 3908 3901
3944
3945,3946
3946,3466
3943,3466 3912
3948
3949,3950
3950,3467
3952
3947,3467 3943 3912 3916
3953,3954
3954,3468
3956
3951,3468 3943 3920
3957,3958
3958,3469
3960
3955,3469 3943 3924
3961,3962
3962,3470
3964
3959,3470 3943 3928
3965,3966
3966,3471
3968
3969,3970
3963,3471 3943 3932
3970,3472
3971
3972,3973
3973,3943
3967,3472 3943 3936
3975
3976,3977
3977,3508
3974,3508 3947
3979
3980,3981
3981,3509
3983
3978,3509 3974 3947 3951
3984,3985
3985,3510
3987
3982,3510 3974 3955
3988,3989
3989,3511
3991
3986,3511 3974 3959
3992,3993
3993,3512
3995
3996,3997
3990,3512 3974 3963
3997,3513
3998
3999,4000
4000,3974
3994,3513 3974 3967
4002
4003,4004
4004,3541
4006
4001,3541 3978
4007,4008
4008,3542
4010
4011,4012
4005,3542 4001 3978 3982
4012,3543
4014
4009,3543 4001 3986
4015,4016
4016,3544
4018
4013,3544 4001 3990
4019,4020
4020,3545
4021
4022,4023
4023,4001
4017,3545 4001 3994
4025
4026,4027
4027,3566
4029
4024,3566 4005
4030,4031
4031,3567
4033
4034,4035
4035,3568
4028,3567 4024 4005 4009
4037
4032,3568 4024 4013
4038,4039
4039,3569
4040
4041,4042
4042,4024
4036,3569 4024 4017
4044
4045,4046
4046,3584
4048
4043,3584 4028
4049,4050
4050,3585
4052
4053,4054
4054,3586
4055
4047,3585 4043 4028 4032
4056,4057
4057,4043
4051,3586 4043 4036
4059
4060,4061
4061,3596
4058,3596 4047
4063
4064,4065
4065,3597
4066
4067,4068
4068,4058
4070
4062,3597 4058 4047 4051
4071,4072
4072,3603
4073
4077
4074,4075
4078,4079
4079,3603
4075,4069 4062
4069,3603 4062 4051
4081,4062 4067
4082
4076,3603 4074 4062
4083,4084
4084,3597
4086,4051 4056 4047
4087
4080,3597 4076 4074 4081 4058
4088,4089
4089,3586
4091,4036 4041 4032 4028
4085,3586 4076 4086 4043
4092
4093,4094
4094,3569
4090,3569 4076 4091 4024
4096,4017 4022 4013 4009 4005
4097
4098,4099
4099,3545
4101,3994 3999 3990 3986 3982 3978
4095,3545 4076 4096 4001
4102
4103,4104
4104,3513
4100,3513 4076 4101 3974
4106,3967 3972 3963 3959 3955 3951 3947
4107
4108,4109
4109,3472
4105,3472 4076 4106 3943
4111,3936 3941 3932 3928 3924 3920 3916 3912
4112
4113,4114
4114,3421
4116,3901 3906 3897 3893 3889 3885 3881 3877 3873
4110,3421 4076 4111 3908
4117
4118,4119
4119,3359
4115,3359 4076 4116 3869
4121,3862 3867 3858 3854 3850 3846 3842 3838 3834 3830
4122
4123,4124
4124,3285
4125
4126,4127
4127,4076
4120,3285 4076 4121 3826
4129
4130,4131
4131,3596
4133
4128,3596 4080
4134,4135
4135,3585
4137
4138,4139
4132,3585 4128 4080 4085
4139,3568
4141
4136,3568 4128 4090
4142,4143
4143,3544
4140,3544 4128 4095
4145
4146,4147
4147,3512
4149
4144,3512 4128 4100
4150,4151
4151,3471
4153
4148,3471 4128 4105
4154,4155
4155,3420
4157
4152,3420 4128 4110
4158,4159
4159,3358
4161
4156,3358 4128 4115
4162,4163
4163,3284
4164
4165,4166
4166,4128
4160,3284 4128 4120
4168
4169,4170
4170,3584
4167,3584 4132
4172
4173,4174
4174,3567
4176
4171,3567 4167 4132 4136
4177,4178
4178,3543
4180
4175,3543 4167 4140
4181,4182
4182,3511
4184
4179,3511 4167 4144
4185,4186
4186,3470
4188
4183,3470 4167 4148
4189,4190
4190,3419
4192
4187,3419 4167 4152
4193,4194
4194,3357
4196
4191,3357 4167 4156
4197,4198
4198,3283
4199
4200,4201
4201,4167
4195,3283 4167 4160
4203
4204,4205
4205,3566
4202,3566 4171
4207
4208,4209
4209,3542
4211
4206,3542 4202 4171 4175
4212,4213
4213,3510
4215
4210,3510 4202 4179
4216,4217
4217,3469
4219
4214,3469 4202 4183
4220,4221
4221,3418
4223
4218,3418 4202 4187
4224,4225
4225,3356
4227
4228,4229
4222,3356 4202 4191
4229,3282
4230
4231,4232
4232,4202
4226,3282 4202 4195
4234
4235,4236
4236,3541
4233,3541 4206
4238
4239,4240
4240,3509
4242
4237,3509 4233 4206 4210
4243,4244
4244,3468
4246
4241,3468 4233 4214
4247,4248
4248,3417
4250
4245,3417 4233 4218
4251,4252
4252,3355
4254
4249,3355 4233 4222
4255,4256
4256,3281
4257
4258,4259
4259,4233
4253,3281 4233 4226
4261
4262,4263
4263,3508
4265
4260,3508 4237
4266,4267
4267,3467
4269
4270,4271
4264,3467 4260 4237 4241
4271,3416
4273
4268,3416 4260 4245
4274,4275
4275,3354
4277
4272,3354 4260 4249
4278,4279
4279,3280
4280
4281,4282
4282,4260
4276,3280 4260 4253
4284
4285,4286
4286,3466
4288
4289,4290
4283,3466 4264
4290,3415
4292
4293,4294
4294,3353
4287,3415 4283 4264 4268
4296
4291,3353 4283 4272
4297,4298
4298,3279
4299
4300,4301
4301,4283
4295,3279 4283 4276
4303
4304,4305
4305,3414
4307
4302,3414 4287
4308,4309
4309,3352
4311
4312,4313
4306,3352 4302 4287 4291
4313,3278
4314
4315,4316
4316,4302
4310,3278 4302 4295
4318
4319,4320
4320,3351
4322
4317,3351 4306
4323,4324
4324,3277
4325
4326,4327
4327,4317
4329
4321,3277 4317 4306 4310
4330,4331
4331,3276
4332
4333,4334
4334,4328 4321
4328,3276 4321 4310
4336,3276
4335,4336
4338,3086
4337,4338
4340,3096
4339,4340
4342,3106
4341,4342
4344,3116
4343,4344
4346,3126
4345,4346
4348,3136
4347,4348
4350,3146
4349,4350
4352,3156
4351,4352
4354,3166
4353,4354
4356,3277
4355,4356
4358,3351
4357,4358
4360,3097
4359,4360
4362,3107
4361,4362
4364,3117
4363,4364
4366,3127
4365,4366
4368,3137
4367,4368
4370,3147
4369,4370
4372,3157
4371,4372
4374,3167
4373,4374
4376,3278
4375,4376
4378,3352
4377,4378
4380,3414
4379,4380
4382,3108
4381,4382
4384,3118
4383,4384
4386,3128
4385,4386
4388,3138
4387,4388
4390,3148
4389,4390
4392,3158
4391,4392
4394,3168
4393,4394
4396,3279
4395,4396
4398,3353
4397,4398
4400,3415
4399,4400
4402,3466
4401,4402
4404,3119
4403,4404
4406,3129
4405,4406
4408,3139
4407,4408
4410,3149
4409,4410
4412,3159
4411,4412
4414,3169
4413,4414
4416,3280
4415,4416
4418,3354
4417,4418
4420,3416
4419,4420
4422,3467
4421,4422
4424,3508
4423,4424
4426,3130
4425,4426
4428,3140
4427,4428
4430,3150
4429,4430
4432,3160
4431,4432
4434,3170
4433,4434
4436,3281
4435,4436
4438,3355
4437,4438
4440,3417
4439,4440
4442,3468
4441,4442
4444,3509
4443,4444
4446,3541
4445,4446
4448,3141
4447,4448
4450,3151
4449,4450
4452,3161
4451,4452
4454,3171
4453,4454
4456,3282
4455,4456
4458,3356
4457,4458
4460,3418
4459,4460
4462,3469
4461,4462
4464,3510
4463,4464
4466,3542
4465,4466
4468,3566
4467,4468
4470,3152
4469,4470
4472,3162
4471,4472
4474,3172
4473,4474
4476,3283
4475,4476
4478,3357
4477,4478
4480,3419
4479,4480
4482,3470
4481,4482
4484,3511
4483,4484
4486,3543
4485,4486
4488,3567
4487,4488
4490,3584
4489,4490
4492,3163
4491,4492
4494,3173
4493,4494
4496,3284
4495,4496
4498,3358
4497,4498
4500,3420
4499,4500
4502,3471
4501,4502
4504,3512
4503,4504
4506,3544
4505,4506
4508,3568
4507,4508
4510,3585
4509,4510
4512,3596
4511,4512
4514,3174
4513,4514
4516,3285
4515,4516
4518,3359
4517,4518
4520,3421
4519,4520
4522,3472
4521,4522
4524,3513
4523,4524
4526,3545
4525,4526
4528,3569
4527,4528
4530,3586
4529,4530
4532,3597
4531,4532
4534,3603
4533,4534
4536,4328
4535,4536
4538,4317
4537,4538
4540,4302
4539,4540
4542,4283
4541,4542
4544,4260
4543,4544
4546,4233
4545,4546
4548,4202
4547,4548
4550,4167
4549,4550
4552,4128
4551,4552
4554,4076
4553,4554
