17205,17206
17206,13494
17208,17209
17209,13495
17211,17212
17212,13496
17204,13494 17184
17214,17215
17215,13497
17217,17218
17218,13498
17220,17221
17221,13499
17207,13495 17204 17184 17185
17223,17224
17210,13496 17204 17184 17186
17224,13500
17216,13498 17204 17188
17226,17227
17227,13501
17219,13499 17204 17189
17229,17230
17230,13502
17213,13497 17204 17187
17232,17233
17233,13503
17222,13500 17204 17190
17225,13501 17204 17191
17235,17236
17236,13504
17228,13502 17204 17192
17238,17239
17239,13505
17231,13503 17204 17193
17241,17242
17242,13506
17244,17245
17245,13507
17234,13504 17204 17194
17247,17248
17248,13508
17237,13505 17204 17195
17250,17251
17251,13509
17240,13506 17204 17196
17243,13507 17204 17197
17253,17254
17254,13510
17256,17257
17257,13511
17246,13508 17204 17198
17259,17260
17260,13512
17249,13509 17204 17199
17262,17263
17263,13513
17252,13510 17204 17200
17264,17265
17265,17204
17255,13511 17204 17201
17267,17268
17268,13894
17270,17271
17271,13895
17258,13512 17204 17202
17273,17274
17274,13896
17261,13513 17204 17203
17266,13894 17207
17276,17277
17277,13897
17279,17280
17280,13898
17282,17283
17283,13899
17275,13897 17266 17216
17285,17286
17286,13900
17269,13895 17266 17207 17210
17272,13896 17266 17207 17213
17288,17289
17289,13901
17278,13898 17266 17219
17291,17292
17292,13902
17294,17295
17295,13903
17284,13900 17266 17225
17297,17298
17298,13904
17287,13901 17266 17228
17290,13902 17266 17231
17281,13899 17266 17222
17300,17301
17301,13905
17293,13903 17266 17234
17303,17304
17304,13906
17296,13904 17266 17237
17306,17307
17307,13907
17299,13905 17266 17240
17309,17310
17310,13908
17302,13906 17266 17243
17312,17313
17313,13909
17305,13907 17266 17246
17315,17316
17316,13910
17318,17319
17319,13911
17308,13908 17266 17249
17321,17322
17322,13912
17311,13909 17266 17252
17323,17324
17324,17266
17326,17327
17327,14255
17314,13910 17266 17255
17317,13911 17266 17258
17329,17330
17330,14256
17320,13912 17266 17261
17332,17333
17325,14255 17269
17333,14257
17335,17336
17336,14258
17338,17339
17339,14259
17331,14257 17325 17269 17275
17328,14256 17325 17269 17272
17341,17342
17342,14260
17334,14258 17325 17278
17344,17345
17345,14261
17347,17348
17348,14262
17337,14259 17325 17281
17350,17351
17351,14263
17353,17354
17354,14264
17343,14261 17325 17287
17346,14262 17325 17290
17356,17357
17357,14265
17340,14260 17325 17284
17359,17360
17349,14263 17325 17293
17360,14266
17352,14264 17325 17296
17362,17363
17363,14267
17355,14265 17325 17299
17365,17366
17366,14268
17358,14266 17325 17302
17368,17369
17369,14269
17361,14267 17325 17305
17371,17372
17372,14270
17374,17375
17364,14268 17325 17308
17375,14271
17377,17378
17378,14272
17367,14269 17325 17311
17379,17380
17380,17325
17370,14270 17325 17314
17382,17383
17383,14579
17373,14271 17325 17317
17385,17386
17386,14580
17376,14272 17325 17320
17388,17389
17389,14581
17381,14579 17328
17391,17392
17392,14582
17394,17395
17395,14583
17384,14580 17381 17328 17331
17397,17398
17398,14584
17387,14581 17381 17328 17334
17400,17401
17401,14585
17390,14582 17381 17337
17393,14583 17381 17340
17403,17404
17404,14586
17406,17407
17407,14587
17409,17410
17410,14588
17402,14586 17381 17349
17399,14585 17381 17346
17412,17413
17413,14589
17415,17416
17416,14590
17396,14584 17381 17343
17405,14587 17381 17352
17408,14588 17381 17355
17418,17419
17419,14591
17411,14589 17381 17358
17421,17422
17422,14592
17424,17425
17414,14590 17381 17361
17425,14593
17417,14591 17381 17364
17427,17428
17428,14594
17420,14592 17381 17367
17430,17431
17431,14595
17423,14593 17381 17370
17432,17433
17433,17381
17426,14594 17381 17373
17435,17436
17436,14868
17438,17439
17439,14869
17441,17442
17442,14870
17434,14868 17384
17444,17445
17445,14871
17447,17448
17448,14872
17429,14595 17381 17376
17450,17451
17451,14873
17453,17454
17437,14869 17434 17384 17387
17454,14874
17443,14871 17434 17393
17440,14870 17434 17384 17390
17456,17457
17457,14875
17446,14872 17434 17396
17459,17460
17460,14876
17449,14873 17434 17399
17462,17463
17463,14877
17452,14874 17434 17402
17455,14875 17434 17405
17465,17466
17466,14878
17468,17469
17458,14876 17434 17408
17469,14879
17461,14877 17434 17411
17471,17472
17472,14880
17464,14878 17434 17414
17474,17475
17475,14881
17467,14879 17434 17417
17477,17478
17478,14882
17470,14880 17434 17420
17480,17481
17481,14883
17482,17483
17483,17434
17473,14881 17434 17423
17476,14882 17434 17426
17485,17486
17486,15124
17479,14883 17434 17429
17488,17489
17489,15125
17491,17492
17484,15124 17437
17492,15126
17494,17495
17495,15127
17497,17498
17498,15128
17500,17501
17501,15129
17487,15125 17484 17437 17440
17503,17504
17504,15130
17493,15127 17484 17446
17506,17507
17496,15128 17484 17449
17507,15131
17509,17510
17510,15132
17490,15126 17484 17443
17499,15129 17484 17452
17512,17513
17513,15133
17502,15130 17484 17455
17515,17516
17516,15134
17505,15131 17484 17458
17518,17519
17519,15135
17508,15132 17484 17461
17521,17522
17522,15136
17524,17525
17525,15137
17514,15134 17484 17467
17517,15135 17484 17470
17527,17528
17528,15138
17529,17530
17530,17484
17511,15133 17484 17464
17532,17533
17533,15349
17520,15136 17484 17473
17523,15137 17484 17476
17535,17536
17536,15350
17526,15138 17484 17479
17538,17539
17539,15351
17531,15349 17487
17541,17542
17542,15352
17544,17545
17545,15353
17534,15350 17531 17487 17490
17547,17548
17548,15354
17537,15351 17531 17487 17493
17540,15352 17531 17496
17550,17551
17551,15355
17543,15353 17531 17499
17553,17554
17554,15356
17546,15354 17531 17502
17556,17557
17557,15357
17549,15355 17531 17505
17559,17560
17560,15358
17552,15356 17531 17508
17562,17563
17563,15359
17555,15357 17531 17511
17565,17566
17566,15360
17558,15358 17531 17514
17568,17569
17569,15361
17561,15359 17531 17517
17571,17572
17572,15362
17573,17574
17574,17531
17564,15360 17531 17520
17576,17577
17577,15545
17567,15361 17531 17523
17579,17580
17580,15546
17570,15362 17531 17526
17582,17583
17583,15547
17575,15545 17534
17585,17586
17586,15548
17588,17589
17589,15549
17591,17592
17592,15550
17578,15546 17575 17534 17537
17581,15547 17575 17534 17540
17594,17595
17595,15551
17584,15548 17575 17543
17597,17598
17598,15552
17587,15549 17575 17546
17590,15550 17575 17549
17600,17601
17601,15553
17593,15551 17575 17552
17603,17604
17604,15554
17606,17607
17607,15555
17599,15553 17575 17558
17609,17610
17610,15556
17612,17613
17613,15557
17602,15554 17575 17561
17614,17615
17596,15552 17575 17555
17615,17575
17605,15555 17575 17564
17608,15556 17575 17567
17617,17618
17618,15714
17620,17621
17611,15557 17575 17570
17621,15715
17623,17624
17624,15716
17616,15714 17578
17626,17627
17627,15717
17629,17630
17630,15718
17632,17633
17633,15719
17622,15716 17616 17578 17584
17619,15715 17616 17578 17581
17635,17636
17636,15720
17628,15718 17616 17590
17638,17639
17639,15721
17631,15719 17616 17593
17625,15717 17616 17587
17641,17642
17642,15722
17644,17645
17634,15720 17616 17596
17645,15723
17637,15721 17616 17599
17647,17648
17648,15724
17650,17651
17651,15725
17640,15722 17616 17602
17643,15723 17616 17605
17652,17653
17653,17616
17655,17656
17656,15858
17658,17659
17646,15724 17616 17608
17659,15859
17649,15725 17616 17611
17661,17662
17654,15858 17619
17662,15860
17664,17665
17665,15861
17667,17668
17668,15862
17657,15859 17654 17619 17622
17660,15860 17654 17619 17625
17670,17671
17671,15863
17673,17674
17674,15864
17663,15861 17654 17628
17676,17677
17677,15865
17666,15862 17654 17631
17679,17680
17680,15866
17682,17683
17683,15867
17672,15864 17654 17637
17669,15863 17654 17634
17685,17686
17686,15868
17675,15865 17654 17640
17687,17688
17678,15866 17654 17643
17688,17654
17690,17691
17691,15979
17681,15867 17654 17646
17693,17694
17694,15980
17684,15868 17654 17649
17696,17697
17697,15981
17689,15979 17657
17699,17700
17700,15982
17702,17703
17703,15983
17705,17706
17706,15984
17698,15982 17689 17666
17708,17709
17692,15980 17689 17657 17660
17709,15985
17701,15983 17689 17669
17711,17712
17695,15981 17689 17657 17663
17712,15986
17714,17715
17715,15987
17704,15984 17689 17672
17707,15985 17689 17675
17717,17718
17718,15988
17710,15986 17689 17678
17719,17720
17720,17689
17722,17723
17723,16079
17713,15987 17689 17681
17725,17726
17726,16080
17728,17729
17716,15988 17689 17684
17729,16081
17721,16079 17692
17731,17732
17732,16082
17734,17735
17735,16083
17724,16080 17721 17692 17695
17727,16081 17721 17692 17698
17737,17738
17738,16084
17730,16082 17721 17701
17740,17741
17741,16085
17743,17744
17744,16086
17733,16083 17721 17704
17746,17747
17747,16087
17739,16085 17721 17710
17748,17749
17749,17721
17736,16084 17721 17707
17751,17752
17742,16086 17721 17713
17752,16160
17754,17755
17755,16161
17757,17758
17758,16162
17750,16160 17724
17745,16087 17721 17716
17760,17761
17761,16163
17763,17764
17764,16164
17753,16161 17750 17724 17727
17756,16162 17750 17724 17730
17766,17767
17767,16165
17769,17770
17770,16166
17762,16164 17750 17736
17772,17773
17773,16167
17759,16163 17750 17733
17774,17775
17775,17750
17777,17778
17765,16165 17750 17739
17778,16224
17780,17781
17768,16166 17750 17742
17781,16225
17776,16224 17753
17771,16167 17750 17745
17783,17784
17784,16226
17786,17787
17787,16227
17789,17790
17790,16228
17792,17793
17793,16229
17779,16225 17776 17753 17756
17782,16226 17776 17759
17785,16227 17776 17762
17795,17796
17796,16230
17788,16228 17776 17765
17797,17798
17798,17776
17791,16229 17776 17768
17800,17801
17801,16273
17794,16230 17776 17771
17803,17804
17804,16274
17806,17807
17807,16275
17809,17810
17799,16273 17779
17810,16276
17812,17813
17813,16277
17815,17816
17816,16278
17817,17818
17818,17799
17808,16276 17799 17788
17820,17821
17821,16309
17811,16277 17799 17791
17805,16275 17799 17779 17785
17802,16274 17799 17779 17782
17823,17824
17824,16310
17814,16278 17799 17794
17826,17827
17827,16311
17829,17830
17830,16312
17819,16309 17802 17782
17832,17833
17833,16313
17834,17835
17835,17819
17837,17838
17838,16334
17822,16310 17819 17802 17805
17840,17841
17828,16312 17819 17802 17811
17841,16335
17825,16311 17819 17802 17808
17843,17844
17844,16336
17846,17847
17836,16334 17822 17805
17847,16337
17848,17849
17831,16313 17819 17814
17849,17836
17851,17852
17852,16350
17854,17855
17855,16351
17839,16335 17836 17805 17825 17808
17842,16336 17836 17805 17828
17857,17858
17845,16337 17836 17805 17831 17814
17858,16352
17862,17863
17863,16359
17865,17866
17859,17860
17866,16360
17860,17850 17825
17850,16350 17839 17825
17870,17871
17871,16363
17875,17876
17876,16363
17856,16352 17850 17825 17845 17831
17879,17880
17880,16361
17853,16351 17850 17825 17842 17828
17882,17853 17856 17859
17883,17884
17884,16356
17886,17845 17842 17839 17848
17867,17868
17868,17861 17842
17887,17888
17861,16359 17853 17842
17888,16346
17890,17831 17825 17828 17822 17834
17891,17892
17892,16329
17894,17814 17805 17811 17802 17808 17817
17895,17896
17896,16303
17898,17794 17791 17797 17788 17785 17782 17779
17878,17867 17864
17864,16360 17861 17842 17856 17845
17899,17900
17900,16266
17902,17771 17768 17765 17774 17759 17762 17756 17753
17903,17904
17872,17873
17904,16216
17873,17869 17845
17869,16363 17864 17845
17906,17745 17742 17736 17748 17739 17733 17730 17727 17724
17907,17908
17908,16151
17910,17716 17713 17719 17710 17707 17704 17695 17701 17692 17698
17911,17912
17912,16069
17914,17684 17681 17687 17678 17675 17669 17672 17666 17663 17660 17657
17874,16363 17872 17845
17915,17916
17916,15968
17918,17649 17646 17643 17652 17640 17637 17634 17625 17631 17628 17619 17622
17919,17920
17920,15846
17885,16346 17874 17845 17886 17836
17881,16356 17874 17845 17882 17850
17877,16361 17874 17845 17878 17842
17922,17611 17608 17605 17596 17614 17602 17599 17593 17590 17587 17584 17581 17578
17923,17924
17897,16266 17874 17845 17898 17776
17889,16329 17874 17845 17890 17819
17924,15701
17901,16216 17874 17845 17902 17750
17913,15968 17874 17914 17654
17905,16151 17874 17845 17906 17721
17909,16069 17874 17845 17910 17689
17926,17570 17567 17564 17573 17561 17558 17555 17552 17549 17546 17543 17540 17537 17534
17927,17928
17928,15531
17917,15846 17874 17918 17616
17930,17526 17523 17520 17511 17529 17517 17514 17508 17505 17502 17499 17490 17496 17493 17487
17921,15701 17874 17922 17575
17893,16303 17874 17845 17894 17799
17931,17932
17932,15334
17934,17479 17476 17473 17482 17470 17467 17464 17461 17458 17455 17452 17449 17446 17440 17443 17437
17925,15531 17874 17926 17531
17935,17936
17936,15108
17938,17429 17426 17432 17423 17420 17417 17414 17411 17408 17405 17396 17399 17402 17393 17390 17387 17384
17929,15334 17874 17930 17484
17939,17940
17940,14851
17942,17376 17373 17370 17379 17367 17364 17361 17358 17355 17352 17349 17340 17346 17343 17337 17334 17331 17328
17933,15108 17874 17934 17434
17943,17944
17944,14561
17946,17320 17317 17314 17323 17311 17308 17305 17302 17299 17296 17293 17281 17290 17287 17284 17278 17272 17269 17275
17947,17948
17948,14236
17950,17261 17258 17255 17264 17252 17249 17246 17243 17240 17237 17234 17231 17228 17225 17222 17213 17219 17216 17210 17207
17937,14851 17874 17938 17381
17941,14561 17874 17942 17325
17951,17952
17952,13874
17953,17954
17954,17874
17945,14236 17874 17946 17266
17956,17957
17957,16359
17959,17960
17960,16353
17949,13874 17874 17950 17204
17962,17963
17963,16342
17955,16359 17877
17965,17966
17966,16324
17968,17969
17969,16297
17971,17972
17958,16353 17955 17877 17881
17961,16342 17955 17877 17885
17972,16259
17964,16324 17955 17889
17974,17975
17975,16208
17967,16297 17955 17893
17977,17978
17978,16142
17980,17981
17970,16259 17955 17897
17981,16059
17983,17984
17984,15957
17976,16142 17955 17905
17986,17987
17987,15834
17989,17990
17990,15688
17979,16059 17955 17909
17982,15957 17955 17913
17973,16208 17955 17901
17992,17993
17993,15517
17985,15834 17955 17917
17988,15688 17955 17921
17995,17996
17996,15319
17991,15517 17955 17925
17998,17999
17999,15092
18001,18002
18002,14834
18004,18005
18005,14543
17994,15319 17955 17929
18007,18008
17997,15092 17955 17933
18008,14217
18010,18011
18011,13854
18003,14543 17955 17941
18012,18013
18000,14834 17955 17937
18013,17955
18015,18016
18006,14217 17955 17945
18016,16350
18018,18019
18019,16338
18009,13854 17955 17949
18021,18022
18022,16319
18014,16350 17958
18024,18025
18025,16291
18027,18028
18028,16252
18030,18031
18031,16200
18033,18034
18017,16338 18014 17958 17961
18020,16319 18014 17958 17964
18034,16133
18023,16291 18014 17967
18036,18037
18037,16049
18026,16252 18014 17970
18029,16200 18014 17973
18039,18040
18040,15946
18032,16133 18014 17976
18042,18043
18043,15822
18045,18046
18035,16049 18014 17979
18046,15675
18038,15946 18014 17982
18048,18049
18049,15503
18051,18052
18052,15304
18044,15675 18014 17988
18054,18055
18041,15822 18014 17985
18055,15076
18057,18058
18058,14817
18047,15503 18014 17991
18060,18061
18050,15304 18014 17994
18061,14525
18053,15076 18014 17997
18063,18064
18064,14198
18056,14817 18014 18000
18066,18067
18067,13834
18059,14525 18014 18003
18068,18069
18069,18014
18071,18072
18062,14198 18014 18006
18072,16334
18074,18075
18075,16314
18065,13834 18014 18009
18077,18078
18078,16285
18070,16334 18017
18080,18081
18081,16245
18083,18084
18084,16192
18086,18087
18087,16124
18076,16285 18070 18017 18023
18079,16245 18070 18026
18089,18090
18073,16314 18070 18017 18020
18090,16039
18082,16192 18070 18029
18092,18093
18093,15935
18095,18096
18096,15810
18085,16124 18070 18032
18088,16039 18070 18035
18098,18099
18099,15662
18101,18102
18102,15489
18094,15810 18070 18041
18104,18105
18105,15289
18091,15935 18070 18038
18097,15662 18070 18044
18107,18108
18108,15060
18110,18111
18111,14800
18100,15489 18070 18047
18113,18114
18103,15289 18070 18050
18114,14507
18116,18117
18106,15060 18070 18053
18117,14179
18119,18120
18120,13814
18109,14800 18070 18056
18121,18122
18112,14507 18070 18059
18122,18070
18124,18125
18115,14179 18070 18062
18125,16309
18127,18128
18128,16279
18130,18131
18131,16238
18123,16309 18073
18118,13814 18070 18065
18133,18134
18134,16184
18136,18137
18137,16115
18126,16279 18123 18073 18076
18139,18140
18140,16029
18129,16238 18123 18073 18079
18142,18143
18143,15924
18132,16184 18123 18082
18145,18146
18146,15798
18138,16029 18123 18088
18135,16115 18123 18085
18148,18149
18149,15649
18141,15924 18123 18091
18151,18152
18152,15475
18144,15798 18123 18094
18154,18155
18155,15274
18147,15649 18123 18097
18157,18158
18158,15044
18160,18161
18150,15475 18123 18100
18161,14783
18163,18164
18164,14489
18153,15274 18123 18103
18156,15044 18123 18106
18166,18167
18167,14160
18159,14783 18123 18109
18169,18170
18170,13794
18171,18172
18172,18123
18162,14489 18123 18112
18174,18175
18175,16273
18177,18178
18178,16231
18180,18181
18165,14160 18123 18115
18181,16176
18168,13794 18123 18118
18173,16273 18126
18183,18184
18184,16106
18186,18187
18187,16019
18189,18190
18190,15913
18176,16231 18173 18126 18129
18179,16176 18173 18126 18132
18182,16106 18173 18135
18192,18193
18193,15786
18185,16019 18173 18138
18195,18196
18196,15636
18188,15913 18173 18141
18198,18199
18199,15461
18201,18202
18202,15259
18191,15786 18173 18144
18204,18205
18205,15028
18194,15636 18173 18147
18197,15461 18173 18150
18207,18208
18208,14766
18200,15259 18173 18153
18210,18211
18211,14471
18203,15028 18173 18156
18213,18214
18214,14141
18216,18217
18217,13774
18206,14766 18173 18159
18218,18219
18219,18173
18221,18222
18222,16224
18209,14471 18173 18162
18212,14141 18173 18165
18224,18225
18225,16168
18227,18228
18228,16097
18220,16224 18176
18230,18231
18231,16009
18233,18234
18234,15902
18215,13774 18173 18168
18236,18237
18237,15774
18239,18240
18240,15623
18223,16168 18220 18176 18179
18226,16097 18220 18176 18182
18229,16009 18220 18185
18232,15902 18220 18188
18242,18243
18243,15447
18235,15774 18220 18191
18245,18246
18246,15244
18238,15623 18220 18194
18248,18249
18249,15012
18241,15447 18220 18197
18251,18252
18252,14749
18254,18255
18244,15244 18220 18200
18255,14453
18247,15012 18220 18203
18257,18258
18258,14122
18250,14749 18220 18206
18260,18261
18261,13754
18253,14453 18220 18209
18262,18263
18263,18220
18256,14122 18220 18212
18265,18266
18266,16160
18268,18269
18269,16088
18271,18272
18272,15999
18259,13754 18220 18215
18264,16160 18223
18274,18275
18275,15891
18277,18278
18278,15762
18280,18281
18281,15610
18267,16088 18264 18223 18226
18270,15999 18264 18223 18229
18283,18284
18284,15433
18276,15762 18264 18235
18286,18287
18287,15229
18273,15891 18264 18232
18279,15610 18264 18238
18289,18290
18290,14996
18292,18293
18282,15433 18264 18241
18293,14732
18295,18296
18296,14435
18285,15229 18264 18244
18298,18299
18288,14996 18264 18247
18299,14103
18291,14732 18264 18250
18301,18302
18302,13734
18303,18304
18304,18264
18294,14435 18264 18253
18297,14103 18264 18256
18306,18307
18307,16079
18309,18310
18310,15989
18312,18313
18300,13734 18264 18259
18313,15880
18315,18316
18316,15750
18305,16079 18267
18318,18319
18319,15597
18321,18322
18322,15419
18324,18325
18325,15214
18317,15597 18305 18279
18308,15989 18305 18267 18270
18311,15880 18305 18267 18273
18314,15750 18305 18267 18276
18327,18328
18328,14980
18320,15419 18305 18282
18330,18331
18331,14715
18323,15214 18305 18285
18333,18334
18334,14417
18326,14980 18305 18288
18336,18337
18337,14084
18339,18340
18329,14715 18305 18291
18340,13714
18332,14417 18305 18294
18341,18342
18342,18305
18335,14084 18305 18297
18344,18345
18345,15979
18347,18348
18348,15869
18338,13714 18305 18300
18350,18351
18351,15738
18353,18354
18354,15584
18343,15979 18308
18356,18357
18357,15405
18359,18360
18360,15199
18346,15869 18343 18308 18311
18349,15738 18343 18308 18314
18362,18363
18363,14964
18352,15584 18343 18317
18355,15405 18343 18320
18365,18366
18366,14698
18368,18369
18358,15199 18343 18323
18369,14399
18371,18372
18372,14065
18361,14964 18343 18326
18374,18375
18364,14698 18343 18329
18375,13694
18367,14399 18343 18332
18376,18377
18377,18343
18379,18380
18370,14065 18343 18335
18380,15858
18373,13694 18343 18338
18382,18383
18383,15726
18385,18386
18386,15571
18378,15858 18346
18388,18389
18389,15391
18391,18392
18392,15184
18394,18395
18395,14948
18387,15391 18378 18355
18381,15726 18378 18346 18349
18397,18398
18384,15571 18378 18346 18352
18398,14681
18400,18401
18401,14381
18393,14948 18378 18361
18390,15184 18378 18358
18403,18404
18404,14046
18396,14681 18378 18364
18406,18407
18407,13674
18408,18409
18399,14381 18378 18367
18409,18378
18411,18412
18412,15714
18402,14046 18378 18370
18405,13674 18378 18373
18414,18415
18415,15558
18417,18418
18418,15377
18410,15714 18381
18420,18421
18421,15169
18423,18424
18424,14932
18426,18427
18427,14664
18416,15377 18410 18381 18387
18419,15169 18410 18390
18413,15558 18410 18381 18384
18429,18430
18430,14363
18422,14932 18410 18393
18432,18433
18433,14027
18425,14664 18410 18396
18428,14363 18410 18399
18435,18436
18436,13654
18437,18438
18438,18410
18440,18441
18441,15545
18431,14027 18410 18402
18443,18444
18434,13654 18410 18405
18444,15363
18446,18447
18447,15154
18439,15545 18413
18449,18450
18450,14916
18452,18453
18453,14647
18455,18456
18456,14345
18442,15363 18439 18413 18416
18445,15154 18439 18413 18419
18448,14916 18439 18422
18458,18459
18459,14008
18451,14647 18439 18425
18461,18462
18462,13634
18454,14345 18439 18428
18463,18464
18464,18439
18466,18467
18467,15349
18457,14008 18439 18431
18469,18470
18470,15139
18460,13634 18439 18434
18472,18473
18473,14900
18465,15349 18442
18475,18476
18476,14630
18478,18479
18479,14327
18481,18482
18482,13989
18468,15139 18465 18442 18445
18471,14900 18465 18442 18448
18474,14630 18465 18451
18484,18485
18485,13614
18477,14327 18465 18454
18486,18487
18487,18465
18480,13989 18465 18457
18489,18490
18490,15124
18492,18493
18493,14884
18483,13614 18465 18460
18495,18496
18496,14613
18498,18499
18499,14309
18501,18502
18502,13970
18488,15124 18468
18504,18505
18505,13594
18506,18507
18507,18488
18509,18510
18510,14868
18512,18513
18494,14613 18488 18468 18474
18513,14596
18497,14309 18488 18468 18477
18491,14884 18488 18468 18471
18503,13594 18488 18483
18500,13970 18488 18468 18480
18515,18516
18516,14291
18518,18519
18519,13951
18521,18522
18522,13574
18508,14868 18491 18471
18523,18524
18524,18508
18526,18527
18527,14579
18529,18530
18530,14273
18511,14596 18508 18471 18494 18474
18514,14291 18508 18471 18497
18532,18533
18533,13932
18520,13574 18508 18503
18517,13951 18508 18471 18500
18535,18536
18536,13554
18540,18541
18537,18538
18541,14255
18538,18525 18494
18525,14579 18511 18494
18543,18544
18544,13913
18546,18547
18547,13534
18531,13932 18525 18494 18517 18500
18534,13554 18525 18494 18520
18528,14273 18525 18494 18514 18497
18551,18552
18552,13894
18554,18555
18555,13514
18548,18549
18549,18539 18514
18539,14255 18528 18514
18559,18560
18560,13494
18542,13913 18539 18514 18531 18517
18545,13534 18539 18514 18534 18520
18556,18557
18557,18550 18531
18550,13894 18542 18531
18553,13514 18550 18531 18545 18534
18561,18562
18562,18558 18534
18558,13494 18553 18534
18564,13494
18563,18564
18566,13495
18565,18566
18568,13496
18567,18568
18570,13497
18569,18570
18572,13498
18571,18572
18574,13499
18573,18574
18576,13500
18575,18576
18578,13501
18577,18578
18580,13502
18579,18580
18582,13503
18581,18582
18584,13504
18583,18584
18586,13505
18585,18586
18588,13506
18587,18588
18590,13507
18589,18590
18592,13508
18591,18592
18594,13509
18593,18594
18596,13510
18595,18596
18598,13511
18597,18598
18600,13512
18599,18600
18602,13513
18601,18602
18604,13514
18603,18604
18606,13894
18605,18606
18608,13895
18607,18608
18610,13896
18609,18610
18612,13897
18611,18612
18614,13898
18613,18614
18616,13899
18615,18616
18618,13900
18617,18618
18620,13901
18619,18620
18622,13902
18621,18622
18624,13903
18623,18624
18626,13904
18625,18626
18628,13905
18627,18628
18630,13906
18629,18630
18632,13907
18631,18632
18634,13908
18633,18634
18636,13909
18635,18636
18638,13910
18637,18638
18640,13911
18639,18640
18642,13912
18641,18642
18644,13534
18643,18644
18646,13913
18645,18646
18648,14255
18647,18648
18650,14256
18649,18650
18652,14257
18651,18652
18654,14258
18653,18654
18656,14259
18655,18656
18658,14260
18657,18658
18660,14261
18659,18660
18662,14262
18661,18662
18664,14263
18663,18664
18666,14264
18665,18666
18668,14265
18667,18668
18670,14266
18669,18670
18672,14267
18671,18672
18674,14268
18673,18674
18676,14269
18675,18676
18678,14270
18677,18678
18680,14271
18679,18680
18682,14272
18681,18682
18684,13554
18683,18684
18686,13932
18685,18686
18688,14273
18687,18688
18690,14579
18689,18690
18692,14580
18691,18692
18694,14581
18693,18694
18696,14582
18695,18696
18698,14583
18697,18698
18700,14584
18699,18700
18702,14585
18701,18702
18704,14586
18703,18704
18706,14587
18705,18706
18708,14588
18707,18708
18710,14589
18709,18710
18712,14590
18711,18712
18714,14591
18713,18714
18716,14592
18715,18716
18718,14593
18717,18718
18720,14594
18719,18720
18722,14595
18721,18722
18724,13574
18723,18724
18726,13951
18725,18726
18728,14291
18727,18728
18730,14596
18729,18730
18732,14868
18731,18732
18734,14869
18733,18734
18736,14870
18735,18736
18738,14871
18737,18738
18740,14872
18739,18740
18742,14873
18741,18742
18744,14874
18743,18744
18746,14875
18745,18746
18748,14876
18747,18748
18750,14877
18749,18750
18752,14878
18751,18752
18754,14879
18753,18754
18756,14880
18755,18756
18758,14881
18757,18758
18760,14882
18759,18760
18762,14883
18761,18762
18764,13594
18763,18764
18766,13970
18765,18766
18768,14309
18767,18768
18770,14613
18769,18770
18772,14884
18771,18772
18774,15124
18773,18774
18776,15125
18775,18776
18778,15126
18777,18778
18780,15127
18779,18780
18782,15128
18781,18782
18784,15129
18783,18784
18786,15130
18785,18786
18788,15131
18787,18788
18790,15132
18789,18790
18792,15133
18791,18792
18794,15134
18793,18794
18796,15135
18795,18796
18798,15136
18797,18798
18800,15137
18799,18800
18802,15138
18801,18802
18804,13614
18803,18804
18806,13989
18805,18806
18808,14327
18807,18808
18810,14630
18809,18810
18812,14900
18811,18812
18814,15139
18813,18814
18816,15349
18815,18816
18818,15350
18817,18818
18820,15351
18819,18820
18822,15352
18821,18822
18824,15353
18823,18824
18826,15354
18825,18826
18828,15355
18827,18828
18830,15356
18829,18830
18832,15357
18831,18832
18834,15358
18833,18834
18836,15359
18835,18836
18838,15360
18837,18838
18840,15361
18839,18840
18842,15362
18841,18842
18844,13634
18843,18844
18846,14008
18845,18846
18848,14345
18847,18848
18850,14647
18849,18850
18852,14916
18851,18852
18854,15154
18853,18854
18856,15363
18855,18856
18858,15545
18857,18858
18860,15546
18859,18860
18862,15547
18861,18862
18864,15548
18863,18864
18866,15549
18865,18866
18868,15550
18867,18868
18870,15551
18869,18870
18872,15552
18871,18872
18874,15553
18873,18874
18876,15554
18875,18876
18878,15555
18877,18878
18880,15556
18879,18880
18882,15557
18881,18882
18884,13654
18883,18884
18886,14027
18885,18886
18888,14363
18887,18888
18890,14664
18889,18890
18892,14932
18891,18892
18894,15169
18893,18894
18896,15377
18895,18896
18898,15558
18897,18898
18900,15714
18899,18900
18902,15715
18901,18902
18904,15716
18903,18904
18906,15717
18905,18906
18908,15718
18907,18908
18910,15719
18909,18910
18912,15720
18911,18912
18914,15721
18913,18914
18916,15722
18915,18916
18918,15723
18917,18918
18920,15724
18919,18920
18922,15725
18921,18922
18924,13674
18923,18924
18926,14046
18925,18926
18928,14381
18927,18928
18930,14681
18929,18930
18932,14948
18931,18932
18934,15184
18933,18934
18936,15391
18935,18936
18938,15571
18937,18938
18940,15726
18939,18940
18942,15858
18941,18942
18944,15859
18943,18944
18946,15860
18945,18946
18948,15861
18947,18948
18950,15862
18949,18950
18952,15863
18951,18952
18954,15864
18953,18954
18956,15865
18955,18956
18958,15866
18957,18958
18960,15867
18959,18960
18962,15868
18961,18962
18964,13694
18963,18964
18966,14065
18965,18966
18968,14399
18967,18968
18970,14698
18969,18970
18972,14964
18971,18972
18974,15199
18973,18974
18976,15405
18975,18976
18978,15584
18977,18978
18980,15738
18979,18980
18982,15869
18981,18982
18984,15979
18983,18984
18986,15980
18985,18986
18988,15981
18987,18988
18990,15982
18989,18990
18992,15983
18991,18992
18994,15984
18993,18994
18996,15985
18995,18996
18998,15986
18997,18998
19000,15987
18999,19000
19002,15988
19001,19002
19004,13714
19003,19004
19006,14084
19005,19006
19008,14417
19007,19008
19010,14715
19009,19010
19012,14980
19011,19012
19014,15214
19013,19014
19016,15419
19015,19016
19018,15597
19017,19018
19020,15750
19019,19020
19022,15880
19021,19022
19024,15989
19023,19024
19026,16079
19025,19026
19028,16080
19027,19028
19030,16081
19029,19030
19032,16082
19031,19032
19034,16083
19033,19034
19036,16084
19035,19036
19038,16085
19037,19038
19040,16086
19039,19040
19042,16087
19041,19042
19044,13734
19043,19044
19046,14103
19045,19046
19048,14435
19047,19048
19050,14732
19049,19050
19052,14996
19051,19052
19054,15229
19053,19054
19056,15433
19055,19056
19058,15610
19057,19058
19060,15762
19059,19060
19062,15891
19061,19062
19064,15999
19063,19064
19066,16088
19065,19066
19068,16160
19067,19068
19070,16161
19069,19070
19072,16162
19071,19072
19074,16163
19073,19074
19076,16164
19075,19076
19078,16165
19077,19078
19080,16166
19079,19080
19082,16167
19081,19082
19084,13754
19083,19084
19086,14122
19085,19086
19088,14453
19087,19088
19090,14749
19089,19090
19092,15012
19091,19092
19094,15244
19093,19094
19096,15447
19095,19096
19098,15623
19097,19098
19100,15774
19099,19100
19102,15902
19101,19102
19104,16009
19103,19104
19106,16097
19105,19106
19108,16168
19107,19108
19110,16224
19109,19110
19112,16225
19111,19112
19114,16226
19113,19114
19116,16227
19115,19116
19118,16228
19117,19118
19120,16229
19119,19120
19122,16230
19121,19122
19124,13774
19123,19124
19126,14141
19125,19126
19128,14471
19127,19128
19130,14766
19129,19130
19132,15028
19131,19132
19134,15259
19133,19134
19136,15461
19135,19136
19138,15636
19137,19138
19140,15786
19139,19140
19142,15913
19141,19142
19144,16019
19143,19144
19146,16106
19145,19146
19148,16176
19147,19148
19150,16231
19149,19150
19152,16273
19151,19152
19154,16274
19153,19154
19156,16275
19155,19156
19158,16276
19157,19158
19160,16277
19159,19160
19162,16278
19161,19162
19164,13794
19163,19164
19166,14160
19165,19166
19168,14489
19167,19168
19170,14783
19169,19170
19172,15044
19171,19172
19174,15274
19173,19174
19176,15475
19175,19176
19178,15649
19177,19178
19180,15798
19179,19180
19182,15924
19181,19182
19184,16029
19183,19184
19186,16115
19185,19186
19188,16184
19187,19188
19190,16238
19189,19190
19192,16279
19191,19192
19194,16309
19193,19194
19196,16310
19195,19196
19198,16311
19197,19198
19200,16312
19199,19200
19202,16313
19201,19202
19204,13814
19203,19204
19206,14179
19205,19206
19208,14507
19207,19208
19210,14800
19209,19210
19212,15060
19211,19212
19214,15289
19213,19214
19216,15489
19215,19216
19218,15662
19217,19218
19220,15810
19219,19220
19222,15935
19221,19222
19224,16039
19223,19224
19226,16124
19225,19226
19228,16192
19227,19228
19230,16245
19229,19230
19232,16285
19231,19232
19234,16314
19233,19234
19236,16334
19235,19236
19238,16335
19237,19238
19240,16336
19239,19240
19242,16337
19241,19242
19244,13834
19243,19244
19246,14198
19245,19246
19248,14525
19247,19248
19250,14817
19249,19250
19252,15076
19251,19252
19254,15304
19253,19254
19256,15503
19255,19256
19258,15675
19257,19258
19260,15822
19259,19260
19262,15946
19261,19262
19264,16049
19263,19264
19266,16133
19265,19266
19268,16200
19267,19268
19270,16252
19269,19270
19272,16291
19271,19272
19274,16319
19273,19274
19276,16338
19275,19276
19278,16350
19277,19278
19280,16351
19279,19280
19282,16352
19281,19282
19284,13854
19283,19284
19286,14217
19285,19286
19288,14543
19287,19288
19290,14834
19289,19290
19292,15092
19291,19292
19294,15319
19293,19294
19296,15517
19295,19296
19298,15688
19297,19298
19300,15834
19299,19300
19302,15957
19301,19302
19304,16059
19303,19304
19306,16142
19305,19306
19308,16208
19307,19308
19310,16259
19309,19310
19312,16297
19311,19312
19314,16324
19313,19314
19316,16342
19315,19316
19318,16353
19317,19318
19320,16359
19319,19320
19322,16360
19321,19322
19324,13874
19323,19324
19326,14236
19325,19326
19328,14561
19327,19328
19330,14851
19329,19330
19332,15108
19331,19332
19334,15334
19333,19334
19336,15531
19335,19336
19338,15701
19337,19338
19340,15846
19339,19340
19342,15968
19341,19342
19344,16069
19343,19344
19346,16151
19345,19346
19348,16216
19347,19348
19350,16266
19349,19350
19352,16303
19351,19352
19354,16329
19353,19354
19356,16346
19355,19356
19358,16356
19357,19358
19360,16361
19359,19360
19362,16363
19361,19362
19364,18558
19363,19364
19366,18550
19365,19366
19368,18539
19367,19368
19370,18525
19369,19370
19372,18508
19371,19372
19374,18488
19373,19374
19376,18465
19375,19376
19378,18439
19377,19378
19380,18410
19379,19380
19382,18378
19381,19382
19384,18343
19383,19384
19386,18305
19385,19386
19388,18264
19387,19388
19390,18220
19389,19390
19392,18173
19391,19392
19394,18123
19393,19394
19396,18070
19395,19396
19398,18014
19397,19398
19400,17955
19399,19400
19402,17874
19401,19402
