0 15.9451484356 1.09966540935172413793 
1 16.3021384375 40.75534609375000000000 0
2 6.90568951172 23.01896503906666666666 0
3 11.6866221837 29.21655545925000000000 0
4 10.7040871479 21.40817429580000000000 0
5 7.95530756863 39.77653784315000000000 0
6 7.58468090152 15.16936180304000000000 0
7 13.9800963199 .59489771574042553191 0
8 11.9928003946 1.04285220822608695652 0
9 7.30927524488 .16998314522976744186 0
10 6.63634311746 .73737145749555555555 0
11 7.94985091599 .20384233117923076923 0
12 7.45118780267 .18627969506675000000 0
13 11.7493615869 .42724951225090909090 0
14 12.7051432033 .35292064453611111111 0
15 6.02348839486 .14008112546186046511 0
16 7.42422494175 .38072948419230769230 0
17 9.64503051085 .21920523888295454545 0
18 13.6566638149 .75870354527222222222 0
19 9.38405233834 .25362303617135135135 0
20 8.78146075438 .76360528298956521739 0
21 7.80257072517 1.20039549618000000000 0
22 12.6397051215 .26332719003125000000 0
23 10.8669216687 1.35836520858750000000 0
24 12.570419582 .26188374129166666666 0
25 11.6104230202 .27318642400470588235 0
26 9.06529488339 2.01450997408666666666 0
27 9.1271936566 .45635968283000000000 0
28 7.46153306918 .45221412540484848484 0
29 9.00092063386 .42861526827904761904 0
30 10.2367593954 .24666890109397590361 0
31 5.55699718681 .15018911315702702702 0
32 8.27140431863 1.18162918837571428571 0
33 5.75282823008 .95880470501333333333 0
34 7.57145193476 1.26190865579333333333 0
35 12.9269747803 .68036709370000000000 0
36 11.4967771702 .58957831642051282051 0
37 7.5593496338 3.02373985352000000000 0
38 8.91357726751 1.04865614911882352941 0
39 5.59073724187 .15110100653702702702 0
40 7.54778175877 .60382254070160000000 0
41 7.10241702082 .30880074003565217391 0
42 7.31936413253 .38522969118578947368 0
43 5.85559243491 11.71118486982000000000 0
44 11.3536373317 .26100315705057471264 0
45 10.4247265305 .22418766732258064516 0
46 7.75919560687 .36948550508904761904 0
47 11.5170790102 1.27967544557777777777 0
48 11.603147079 2.90078676975000000000 0
49 10.5246503222 2.63116258055000000000 0
50 8.84429590951 .28077129871460317460 0
51 7.88985005609 .38487073444341463414 0
52 11.4744326443 .22948865288600000000 0
53 7.77073632731 .51804908848733333333 0
54 6.24209500688 .15041192787662650602 0
55 11.4079125605 .24533145291397849462 0
56 6.47088601955 .15225614163647058823 0
57 8.04807643469 .80480764346900000000 0
58 8.34787161111 .45123630330324324324 0
59 7.51181451317 .27315689138800000000 0
60 13.3582536499 .62131412325116279069 0
61 13.6215310575 1.60253306558823529411 0
62 12.2136271768 .26551363427826086956 0
63 9.9527219235 .58545423079411764705 0
64 6.06378689778 .17576193906608695652 0
65 10.608458752 .40031919818867924528 0
66 13.3061212659 .48385895512363636363 0
67 8.98121861161 .17962437223220000000 0
68 11.8465955376 .67694831643428571428 0
69 14.6015274808 .40559798557777777777 0
70 10.8915606694 .21783121338800000000 0
71 8.22865206237 .18916441522689655172 0
72 11.7541333914 .75833118654193548387 0
73 11.3444074334 4.53776297336000000000 0
74 14.7142268824 .32698281960888888888 0
75 7.8403072666 .25705925464262295081 0
76 12.3267035956 .31606932296410256410 0
77 6.06902954542 .16858415403944444444 0
78 8.91043902876 .61451303646620689655 0
79 13.2764380117 .48277956406181818181 0
80 8.0474359968 .23668929402352941176 0
81 12.2469635679 .34991324479714285714 0
82 9.13957794071 .19868647697195652173 0
83 8.82010875514 .29400362517133333333 0
84 6.6201112153 .17421345303421052631 0
85 7.08734185357 .24024887639220338983 0
86 7.26312124564 .22348065371200000000 0
87 8.71382553328 .27230704791500000000 0
88 14.4025992253 .41746664421159420289 0
89 11.7769244636 .84120889025714285714 0
90 11.5228267631 .60646456647894736842 0
91 10.7699829532 .23413006420000000000 0
92 16.4593686077 1.26610527751538461538 0
93 10.778190624 .25971543672289156626 0
94 5.78957850859 1.65416528816857142857 0
95 12.4266007528 1.30806323713684210526 0
96 12.1448995362 .38555236622857142857 0
97 7.76031172984 .24635910253460317460 0
98 12.2930504947 .35123001413428571428 0
99 7.26879424757 .22365520761753846153 0
100 6.28134485648 .13958544125511111111 0
101 12.3083988305 1.64111984406666666666 1,2,3,4,5,6,7,8,9,10,11,12,13,14,15,16,17,18,19,20,21,22,23,24,25,26,27,28,29,30,31,32,33,34,35,36,37,38,39,40,41,42,43,44,45,46,47,48,49,50,51,52,53,54,55,56,57,58,59,60,61,62,63,64,65,66,67,68,69,70,71,72,73,74,75,76,77,78,79,80,81,82,83,84,85,86,87,88,89,90,91,92,93,94,95,96,97,98,99,100
102 13.1591318404 43.86377280133333333333 101
103 8.28713059183 41.43565295915000000000 101
104 9.50655991362 95.06559913620000000000 101
105 6.94605620236 34.73028101180000000000 101
106 12.3822952581 30.95573814525000000000 101
107 8.94783851334 .18449151573896907216 101
108 10.9587924313 .31764615742898550724 101
109 12.3422953657 1.12202685142727272727 101
110 12.6795438053 .48767476174230769230 101
111 8.26252931619 .39345377696142857142 101
112 11.3432899647 1.74512153303076923076 101
113 7.94990502134 .29999641589962264150 101
114 14.9933925179 29.98678503580000000000 101
115 3.5161647683 .63930268514545454545 101
116 10.3652080726 .24105135052558139534 101
117 11.6312512623 .26738508648965517241 101
118 10.1442907042 .32723518400645161290 101
119 10.0588205551 .33529401850333333333 101
120 9.67251383326 .21258272161010989010 101
121 11.5212378259 .54863037266190476190 101
122 12.2085377267 1.06161197623478260869 101
123 8.78094831857 .48783046214277777777 101
124 10.3513293328 .23525748483636363636 101
125 13.5037299047 .31043057252183908045 101
126 7.45473876314 .42598507217942857142 101
127 8.95265272248 .24196358709405405405 101
128 14.4783797554 .41366799301142857142 101
129 9.01221972371 .39183564016130434782 101
130 9.32930777717 .51829487650944444444 101
131 8.31767215417 .33949682261918367346 101
132 6.25429785254 .44673556089571428571 101
133 10.9632112774 .34803845325079365079 101
134 8.59952568846 .20721748646891566265 101
135 11.1294231134 1.23660256815555555555 101
136 10.5152406514 .22613420755698924731 101
137 5.94822123097 .13518684615840909090 101
138 9.44606968071 .42936680366863636363 101
139 13.7070598775 .35146307378205128205 101
140 6.66517265666 .15148119674227272727 101
141 9.46735813038 .35064289371777777777 101
142 6.80382848555 .75598094283888888888 101
143 10.1091741866 .63182338666250000000 101
144 8.00551279213 .27137331498745762711 101
145 6.85803075264 .13716061505280000000 101
146 10.2311145375 .88966213369565217391 101
147 12.4103418161 .53958007896086956521 101
148 12.999503195 .64997515975000000000 101
149 11.4408671521 .22881734304200000000 101
150 7.84331188647 .17429581969933333333 101
151 5.93157622084 .24210515187102040816 101
152 16.2161166641 .32759831644646464646 101
153 12.438922704 6.21946135200000000000 101
154 8.01725860599 .24668488018430769230 101
155 11.44640073 .84788153555555555555 101
156 8.88247511022 2.22061877755500000000 101
157 8.59996391396 5.73330927597333333333 101
158 11.0235464527 .61241924737222222222 101
159 4.74995696836 .11309421353238095238 101
160 9.69391905503 .69242278964500000000 101
161 6.85626155974 .34281307798700000000 101
162 7.10154972179 .48976204977862068965 101
163 13.3039853305 .34112782898717948717 101
164 13.18747549 .37147818281690140845 101
165 4.49020456528 .09163682786285714285 101
166 13.8612500524 .74925675958918918918 101
167 8.64262259905 .21880057212784810126 101
168 5.59537142617 .16702601272149253731 101
169 8.53279521042 .28442650701400000000 101
170 13.0574312603 .68723322422631578947 101
171 9.91841242088 1.32245498945066666666 101
172 8.69385568475 .24489734323239436619 101
173 10.3849694055 .22095679586170212765 101
174 7.55979016757 .18899475418925000000 101
175 8.1490884855 .18733536748275862068 101
176 10.6855709589 .97141554171818181818 101
177 12.2038676008 1.43574912950588235294 101
178 10.8380302199 4.33521208796000000000 101
179 12.6397380387 25.27947607740000000000 101
180 8.3086296173 .44911511444864864864 101
181 11.5264465527 7.68429770180000000000 101
182 6.90950958337 .76772328704111111111 101
183 5.85717722824 1.95239240941333333333 101
184 6.47137692203 .92448241743285714285 101
185 10.2552219759 .31076430230000000000 101
186 3.97731592258 1.98865796129000000000 101
187 9.98293190788 .68847806261241379310 101
188 8.28424379066 .20972769090278481012 101
189 10.1934193947 .39974193704705882352 101
190 10.5516204205 .34037485227419354838 101
191 11.4324858223 .28943002081772151898 101
192 7.75136198657 .20670298630853333333 101
193 10.3153295804 .55758538272432432432 101
194 10.9301933726 .35258688298709677419 101
195 8.59149946334 .49094282647657142857 101
196 7.3416547162 .97888729549333333333 101
197 9.48525785195 .33281606498070175438 101
198 13.9369482553 .63349764796818181818 101
199 8.151971058 .22963298754929577464 101
200 11.8651919952 .32958866653333333333 101
201 11.8253984374 .25430964381505376344 101
202 10.4283200024 .61343058837647058823 102,103,104,105,106,107,108,109,110,111,112,113,114,115,116,117,118,119,120,121,122,123,124,125,126,127,128,129,130,131,132,133,134,135,136,137,138,139,140,141,142,143,144,145,146,147,148,149,150,151,152,153,154,155,156,157,158,159,160,161,162,163,164,165,166,167,168,169,170,171,172,173,174,175,176,177,178,179,180,181,182,183,184,185,186,187,188,189,190,191,192,193,194,195,196,197,198,199,200,201
203 9.42851587922 23.57128969805000000000 202
204 10.6659313867 35.55310462233333333333 202
205 7.59400392369 15.18800784738000000000 202
206 6.70131602146 22.33772007153333333333 202
207 11.25636471 37.52121570000000000000 202
208 8.94818496497 .41619464953348837209 202
209 12.0161295827 .33848252345633802816 202
210 7.40150456109 .19737345496240000000 202
211 9.56343378339 .36782437628423076923 202
212 12.4046540421 .30255253761219512195 202
213 8.8628039844 .68175415264615384615 202
214 11.6547462778 .29883964814871794871 202
215 11.6291528416 .30205591796363636363 202
216 13.2954713577 .39687974202089552238 202
217 10.1727165603 .67818110402000000000 202
218 10.0887088663 .20801461580000000000 202
219 12.999215546 .39997586295384615384 202
220 8.68903772671 .51111986627705882352 202
221 7.13878197159 .89234774644875000000 202
222 6.42481686962 12.84963373924000000000 202
223 14.6045438597 .54090903184074074074 202
224 10.6616631145 .38077368266071428571 202
225 6.31608813523 .22967593219018181818 202
226 7.03217455768 .38011754365837837837 202
227 14.5201878034 .74462501555897435897 202
228 9.12193097592 1.82438619518400000000 202
229 10.6084931584 1.63207587052307692307 202
230 10.2525216477 .66145300952903225806 202
231 11.1786984599 .31489291436338028169 202
232 8.42486040114 .20059191431285714285 202
233 9.87878484818 .28634158980231884057 202
234 11.4242258975 .26262588270114942528 202
235 10.5169152961 .44752831047234042553 202
236 6.21224790773 .18271317375676470588 202
237 11.3810446044 .81293175745714285714 202
238 10.0891757478 .77609044213846153846 202
239 8.18835641072 .65506851285760000000 202
240 15.7598582598 1.05065721732000000000 202
241 11.1748896035 .42169394730188679245 202
242 9.07477761798 2.01661724844000000000 202
243 7.0606929477 .50433521055000000000 202
244 8.75649821852 .30194821443172413793 202
245 15.092250725 .32809240706521739130 202
246 10.4696561018 .33773084199354838709 202
247 9.50049534394 .27942633364529411764 202
248 8.95860519501 1.27980074214428571428 202
249 8.77107808583 .23389541562213333333 202
250 8.05642911136 .25176340973000000000 202
251 10.0393502479 1.18110002916470588235 202
252 7.50657476427 .83406386269666666666 202
253 9.6547330076 .45974919083809523809 202
254 9.99170235332 .51239499247794871794 202
255 11.9189524221 .29429512153333333333 202
256 8.59160259336 .30684294976285714285 202
257 10.5145923506 .45715618915652173913 202
258 6.87219619167 4.58146412778000000000 202
259 8.68940084175 .51114122598529411764 202
260 8.28019887905 .44757831778648648648 202
261 5.63938065178 .80562580739714285714 202
262 9.50790003099 .36568846273038461538 202
263 14.3353195515 1.19460996262500000000 202
264 13.3838236883 .63732493753809523809 202
265 12.1113299391 24.22265987820000000000 202
266 9.89141734217 1.41305962031000000000 202
267 12.8393743328 .35176368035068493150 202
268 10.583653078 .34700501895081967213 202
269 9.01735836333 .26917487651731343283 202
270 11.9034902853 .42512465304642857142 202
271 10.3970439568 .69313626378666666666 202
272 10.3577734983 .23540394314318181818 202
273 13.1359375816 8.75729172106666666666 202
274 6.60601280359 .77717797689294117647 202
275 10.8179149037 1.20199054485555555555 202
276 16.2002908364 .68937407814468085106 202
277 13.1750449035 .82344030646875000000 202
278 12.9208169322 .56177464922608695652 202
279 13.9156114884 1.11324891907200000000 202
280 9.50384544748 .21599648744272727272 202
281 13.5444783395 .31869360798823529411 202
282 9.10554887785 1.21407318371333333333 202
283 4.49044889184 .33262584384000000000 202
284 11.3203226059 .40429723592500000000 202
285 8.48060212557 .31409637502111111111 202
286 9.93070221294 .52266853752315789473 202
287 8.91607988301 .40527635831863636363 202
288 10.6524648288 .25363011497142857142 202
289 7.37987735196 .16219510663648351648 202
290 7.83020365868 1.30503394311333333333 202
291 8.3019817113 .44875576817837837837 202
292 9.06192027092 .39399653351826086956 202
293 6.02901145784 1.33978032396444444444 202
294 4.12331960961 .16169880822000000000 202
295 9.95324947753 .79625995820240000000 202
296 11.2634905988 .27811087898271604938 202
297 10.3569137929 .71426991675172413793 202
298 8.68519866473 .18677846590817204301 202
299 11.8043958088 .26828172292727272727 202
300 9.35929161018 .23998183615846153846 202
301 5.98684814153 .92105356023538461538 202
302 10.9478086518 .38413363690526315789 202
303 8.03486736976 .34934205955478260869 203,204,205,206,207,208,209,210,211,212,213,214,215,216,217,218,219,220,221,222,223,224,225,226,227,228,229,230,231,232,233,234,235,236,237,238,239,240,241,242,243,244,245,246,247,248,249,250,251,252,253,254,255,256,257,258,259,260,261,262,263,264,265,266,267,268,269,270,271,272,273,274,275,276,277,278,279,280,281,282,283,284,285,286,287,288,289,290,291,292,293,294,295,296,297,298,299,300,301,302
304 10.1955901458 33.98530048600000000000 303
305 12.0733757655 24.14675153100000000000 303
306 7.70583781474 77.05837814740000000000 303
307 11.9129591369 59.56479568450000000000 303
308 9.29214760271 18.58429520542000000000 303
309 6.43025401326 .35723633407000000000 303
310 13.2052228717 .73362349287222222222 303
311 8.12458486315 .28015809872931034482 303
312 12.1725498629 .60862749314500000000 303
313 10.0064283953 .30789010447076923076 303
314 11.4171258851 .99279355522608695652 303
315 7.88341608044 .26723444340474576271 303
316 12.9757195384 .29490271678181818181 303
317 13.1340606032 .48644668900740740740 303
318 9.32961390688 .20965424509842696629 303
319 7.72028774191 .19062438868913580246 303
320 15.89670616 .41833437263157894736 303
321 5.74075599357 .44159661489000000000 303
322 11.5174381675 1.91957302791666666666 303
323 8.16392774247 .45355154124833333333 303
324 14.6072088093 1.62302320103333333333 303
325 9.6206105828 .40085877428333333333 303
326 9.75869123482 .25680766407421052631 303
327 12.5129471194 .33818775998378378378 303
328 8.83154960178 .21806295313037037037 303
329 11.4160749554 .49635108501739130434 303
330 10.5144842027 .45715148707391304347 303
331 16.155411059 .40388527647500000000 303
332 14.20717712 .81183869257142857142 303
333 10.0012474129 .22730107756590909090 303
334 5.60169379802 .14181503286126582278 303
335 9.91943007209 .90176637019000000000 303
336 10.092748161 3.36424938700000000000 303
337 7.91244023614 .23977091624666666666 303
338 10.777972684 .40671595033962264150 303
339 8.47132882582 .49831346034235294117 303
340 10.7915630177 .38541296491785714285 303
341 7.14399044509 .89299880563625000000 303
342 8.11763307164 2.31932373475428571428 303
343 10.5581250486 .58656250270000000000 303
344 13.8108555025 2.76217110050000000000 303
345 5.97917335654 .37369833478375000000 303
346 15.5998076825 .55713598866071428571 303
347 11.5911642316 .79939063666206896551 303
348 13.7439245249 .74291483918378378378 303
349 9.2322136077 1.02580151196666666666 303
350 9.25067923391 .28908372605968750000 303
351 6.79456846238 .19139629471492957746 303
352 9.64207088766 .41922047337652173913 303
353 9.71749437913 .27373223603183098591 303
354 13.3020648035 .46673911591228070175 303
355 13.8151914432 .27630382886400000000 303
356 10.8756691647 1.97739439358181818181 303
357 9.97222754726 2.21605056605777777777 303
358 8.17054032521 .22695945347805555555 303
359 9.04024939468 .20089443099288888888 303
360 8.84188486514 5.89458991009333333333 303
361 14.4424306604 .34386739667619047619 303
362 9.65805506677 6.43870337784666666666 303
363 12.7389765809 .34429666434864864864 303
364 9.94258700004 .23394322353035294117 303
365 11.8197285734 .52532126992888888888 303
366 10.7691975947 3.58973253156666666666 303
367 8.09951622083 .16873992126729166666 303
368 8.99537897893 1.79907579578600000000 303
369 10.7217902731 .57955623097837837837 303
370 11.9950378856 .39327993067540983606 303
371 10.6068510316 2.35707800702222222222 303
372 10.6948315343 .68998913124516129032 303
373 7.82021945527 .19073705988463414634 303
374 9.89337409076 1.41333915582285714285 303
375 12.319300284 .53562175147826086956 303
376 8.22399231099 .21642085028921052631 303
377 12.3561789317 2.24657798758181818181 303
378 6.39378541009 .17760515028027777777 303
379 12.8501366717 .44310816109310344827 303
380 10.5985689953 .31637519388955223880 303
381 7.61228921874 .18124498139857142857 303
382 11.782413771 .31006352028947368421 303
383 8.7828385151 .97587094612222222222 303
384 11.0483757456 .30269522590684931506 303
385 15.3584286248 .41509266553513513513 303
386 8.58458534574 .57230568971600000000 303
387 6.1441120373 .23185328442641509433 303
388 8.98908659645 .32103880701607142857 303
389 9.79600019209 .52951352389675675675 303
390 8.47704259498 .30275152124928571428 303
391 6.35949213919 .66942022517789473684 303
392 12.9068945732 2.86819879404444444444 303
393 7.2026320309 .26191389203272727272 303
394 6.94059032799 .34702951639950000000 303
395 6.14100571647 .29242884364142857142 303
396 10.3625889617 1.48036985167142857142 303
397 10.587255032 .27861197452631578947 303
398 8.205532357 2.73517745233333333333 303
399 9.66090435771 .46004306465285714285 303
400 10.4324780887 .26411336933417721518 303
401 13.6504243338 .37398422832328767123 303
402 10.7344779369 .30669936962571428571 303
403 10.0573632758 .36572230093818181818 303
404 12.5441360391 .83627573594000000000 304,305,306,307,308,309,310,311,312,313,314,315,316,317,318,319,320,321,322,323,324,325,326,327,328,329,330,331,332,333,334,335,336,337,338,339,340,341,342,343,344,345,346,347,348,349,350,351,352,353,354,355,356,357,358,359,360,361,362,363,364,365,366,367,368,369,370,371,372,373,374,375,376,377,378,379,380,381,382,383,384,385,386,387,388,389,390,391,392,393,394,395,396,397,398,399,400,401,402,403
405 4.02197262826 8.04394525652000000000 404
406 13.398720977 33.49680244250000000000 404
407 8.34722129657 20.86805324142500000000 404
408 11.5077952557 57.53897627850000000000 404
409 9.71105039527 97.11050395270000000000 404
410 12.9970395014 1.23781328584761904761 404
411 18.0005972873 .70590577597254901960 404
412 6.90743578124 1.15123929687333333333 404
413 6.55726565999 .18735044742828571428 404
414 7.91252896203 .26375096540100000000 404
415 10.0371480509 .52827095004736842105 404
416 9.54913344511 .27283238414600000000 404
417 11.0593942885 .67026632051515151515 404
418 9.27306210265 .19318879380520833333 404
419 12.0547734091 .35455215909117647058 404
420 9.65247232098 .24131180802450000000 404
421 7.59873546459 .21404888632647887323 404
422 9.52795992921 .48861332970307692307 404
423 6.92911969116 .69291196911600000000 404
424 8.77814344576 .19506985435022222222 404
425 7.08029600624 .61567791358608695652 404
426 10.0426826863 .23629841614823529411 404
427 15.2981625711 .51858178207118644067 404
428 6.93799726689 .38544429260500000000 404
429 8.39125776992 4.19562888496000000000 404
430 9.79712812107 .81642734342250000000 404
431 7.41679145016 .20602198472666666666 404
432 13.7158464413 .33866287509382716049 404
433 10.3770628537 .25004970731807228915 404
434 7.37860447055 .16581133641685393258 404
435 11.4609835028 .37576995091147540983 404
436 10.5250783747 1.31563479683750000000 404
437 10.3447044348 1.88085535178181818181 404
438 6.94237228903 .25712489959370370370 404
439 9.64408706107 .41038668344978723404 404
440 15.0386110639 .46995659574687500000 404
441 10.4264212677 .28565537719726027397 404
442 7.11341667415 .18969111131066666666 404
443 10.7685153961 1.53835934230000000000 404
444 14.0432058441 .48424847738275862068 404
445 9.40797463745 .21381760539659090909 404
446 7.55282022262 .24363936202000000000 404
447 7.84528116157 .50614717171419354838 404
448 11.8220564785 .63903007991891891891 404
449 7.12638425067 .24157234748033898305 404
450 12.0228777076 .28625899303809523809 404
451 9.3028538575 .25142848263513513513 404
452 9.90276211292 .26764221926810810810 404
453 7.47246780453 .53374770032357142857 404
454 12.4104962841 .99283970272800000000 404
455 4.75871792215 .17304428807818181818 404
456 11.0710360362 1.84517267270000000000 404
457 4.10602910875 .10138343478395061728 404
458 9.01871104861 .42946243088619047619 404
459 7.80081760899 .17335150242200000000 404
460 7.75588271152 .91245678959058823529 404
461 12.2461437259 .54427305448444444444 404
462 11.108221673 .49369874102222222222 404
463 8.43480130361 1.20497161480142857142 404
464 5.82612209715 .22847537635882352941 404
465 7.9704303368 .37954430175238095238 404
466 8.69000680242 .24828590864057142857 404
467 12.9287488582 12.92874885820000000000 404
468 7.39828116824 2.11379461949714285714 404
469 6.94649418272 .21049982371878787878 404
470 10.6161929101 .29085460027671232876 404
471 13.0847669067 1.04678135253600000000 404
472 9.81116376475 1.09012930719444444444 404
473 10.8555149474 .25846464160476190476 404
474 10.9408482348 .62519132770285714285 404
475 7.57655663078 .28590779738792452830 404
476 9.12906866513 .32031819877649122807 404
477 11.2741186179 .46016810685306122448 404
478 10.8308772202 .23292209075698924731 404
479 12.0230390243 .85878850173571428571 404
480 6.78341228636 .15416846105363636363 404
481 8.88286129071 .53835522974000000000 404
482 10.0623972871 .22869084743409090909 404
483 8.53280219191 .20316195695023809523 404
484 12.2825250503 3.50929287151428571428 404
485 9.59191305732 .20627770015741935483 404
486 10.6927004641 5.34635023205000000000 404
487 12.685845096 .30204393085714285714 404
488 11.8169407786 .49237253244166666666 404
489 8.7059480158 .82913790626666666666 404
490 10.1249083054 .31640338454375000000 404
491 5.90740091104 .12055920226612244897 404
492 11.0025352663 .59473163601621621621 404
493 12.4373612079 .32729897915526315789 404
494 9.90331438024 .30471736554584615384 404
495 3.93172015919 .12890885767836065573 404
496 12.2765295803 .32737412214133333333 404
497 7.20334613012 .33503935488930232558 404
498 10.2118180327 .60069517839411764705 404
499 12.9777704444 1.85396720634285714285 404
500 7.37517851949 .98335713593200000000 404
501 6.27997763809 .54608501200782608695 404
502 9.51547049235 4.75773524617500000000 404
503 12.7026610887 .29201519744137931034 404
504 9.08974566819 .21903001610096385542 404
505 6.78692982479 .23813788858912280701 405,406,407,408,409,410,411,412,413,414,415,416,417,418,419,420,421,422,423,424,425,426,427,428,429,430,431,432,433,434,435,436,437,438,439,440,441,442,443,444,445,446,447,448,449,450,451,452,453,454,455,456,457,458,459,460,461,462,463,464,465,466,467,468,469,470,471,472,473,474,475,476,477,478,479,480,481,482,483,484,485,486,487,488,489,490,491,492,493,494,495,496,497,498,499,500,501,502,503,504
506 7.14137653106 71.41376531060000000000 505
507 11.0988968658 36.99632288600000000000 505
508 9.2580157455 92.58015745500000000000 505
509 11.7226148147 117.22614814700000000000 505
510 8.74802786094 21.87006965235000000000 505
511 12.4005164314 1.77150234734285714285 505
512 10.6031705499 .34203775967419354838 505
513 8.70024164777 .75654275198000000000 505
514 10.2064214305 .27584922785135135135 505
515 10.1655089774 .63534431108750000000 505
516 12.741919399 .77223753933333333333 505
517 9.22002819764 1.84400563952800000000 505
518 11.6962657171 .29610799283797468354 505
519 10.1316419707 1.26645524633750000000 505
520 12.75500431 .82290350387096774193 505
521 10.2586005057 .37304001838909090909 505
522 7.57702625556 .27552822747490909090 505
523 9.95286140308 .35545933582428571428 505
524 9.8626385018 .73056581494814814814 505
525 7.95688487647 .33859084580723404255 505
526 7.38556147658 .61546345638166666666 505
527 11.3672156835 .28777761224050632911 505
528 8.4568053241 .40270501543333333333 505
529 12.3744527096 .60363183949268292682 505
530 8.05687742467 16.11375484934000000000 505
531 11.5172875152 .52351306887272727272 505
532 9.69430594732 .20409065152252631578 505
533 8.79950933494 .73329244457833333333 505
534 10.6480087296 .25970752999024390243 505
535 11.0589255313 .27305988966172839506 505
536 12.343945146 .24687890292000000000 505
537 11.7461332091 2.61025182424444444444 505
538 11.5320080271 .49072374583404255319 505
539 8.9286827732 .89286827732000000000 505
540 8.80686395722 .97854043969111111111 505
541 9.18641297511 .21615089353200000000 505
542 12.093060452 .37790813912500000000 505
543 9.30700666616 .19189704466309278350 505
544 11.0259342963 1.00235766330000000000 505
545 9.97046380732 .31652266054984126984 505
546 11.4396925033 1.75995269281538461538 505
547 7.87544060678 .65628671723166666666 505
548 12.7679129886 .34507872942162162162 505
549 6.14275796297 .34126433127611111111 505
550 9.9268566304 1.16786548592941176470 505
551 7.53102522043 .57930963234076923076 505
552 10.6789505881 .29663751633611111111 505
553 10.615839318 .66348995737500000000 505
554 10.7822674615 .23187671960215053763 505
555 13.0243184435 .65121592217500000000 505
556 9.96226253105 .33770381461186440677 505
557 10.5320713714 .38298441350545454545 505
558 11.8613762129 .32948267258055555555 505
559 7.62261285286 .84695698365111111111 505
560 8.75958448125 .42729680396341463414 505
561 6.70932498561 .17203397399000000000 505
562 8.42243820866 .27614551503803278688 505
563 8.68310479783 .31011088563678571428 505
564 6.64372013332 .18201972968000000000 505
565 6.91599627804 .20341165523647058823 505
566 9.03745359378 .69518873798307692307 505
567 14.6179895547 4.17656844420000000000 505
568 9.04207572755 .27400229477424242424 505
569 9.91350953047 .73433403929407407407 505
570 13.8134706092 1.72668382615000000000 505
571 7.10256400687 .24921277217087719298 505
572 8.88131534631 .18502740304812500000 505
573 9.56705866819 .25856915319432432432 505
574 10.9265973923 1.04062832307619047619 505
575 12.8602085604 .64301042802000000000 505
576 8.96773114562 .19709299221142857142 505
577 8.84638399432 .23590357318186666666 505
578 10.3600493695 6.90669957966666666666 505
579 10.2479760742 .89112835427826086956 505
580 9.43405293124 .85764117556727272727 505
581 11.6844739045 1.55792985393333333333 505
582 13.0581282963 .28387235426739130434 505
583 12.3896165863 .25545601208865979381 505
584 6.66217756237 .17304357304857142857 505
585 11.4816506357 .62062976409189189189 505
586 13.2315967605 .52926387042000000000 505
587 8.45602609447 .84560260944700000000 505
588 6.43777649555 .19508413622878787878 505
589 12.2111864438 1.74445520625714285714 505
590 4.69263417697 .11307552233662650602 505
591 13.6591794601 .75884330333888888888 505
592 7.20454657869 .17572064826073170731 505
593 8.0027210531 4.00136052655000000000 505
594 12.1169282653 .44877512093703703703 505
595 10.9998349666 .32835328258507462686 505
596 9.4828787274 .49909888038947368421 505
597 10.8241365757 .23030077820638297872 505
598 8.60858338014 .57390555867600000000 505
599 11.9234768171 .49681153404583333333 505
600 10.3311465714 .20662293142800000000 505
601 7.71155467912 .39546434251897435897 505
602 8.67580441646 .43379022082300000000 505
603 11.9577107188 1.99295178646666666666 505
604 13.3303176568 1.21184705970909090909 505
605 6.3640919681 .63640919681000000000 505
606 8.74065195406 .31216614121642857142 506,507,508,509,510,511,512,513,514,515,516,517,518,519,520,521,522,523,524,525,526,527,528,529,530,531,532,533,534,535,536,537,538,539,540,541,542,543,544,545,546,547,548,549,550,551,552,553,554,555,556,557,558,559,560,561,562,563,564,565,566,567,568,569,570,571,572,573,574,575,576,577,578,579,580,581,582,583,584,585,586,587,588,589,590,591,592,593,594,595,596,597,598,599,600,601,602,603,604,605
607 12.2282476947 30.57061923675000000000 606
608 9.40472942241 31.34909807470000000000 606
609 11.3983524385 56.99176219250000000000 606
610 7.96323149415 26.54410498050000000000 606
611 12.5344318052 62.67215902600000000000 606
612 9.03500739428 .21258840927717647058 606
613 14.6028580124 .47105993588387096774 606
614 7.62887273055 .23473454555538461538 606
615 9.29450583829 .21615129856488372093 606
616 5.51518493102 1.83839497700666666666 606
617 11.0929597768 .32626352284705882352 606
618 14.8797721959 .50439905748813559322 606
619 3.84744329931 .10398495403540540540 606
620 5.56758722314 .25307214650636363636 606
621 12.8047382089 .36069685095492957746 606
622 8.9881084669 .23345736277662337662 606
623 9.63551752864 .60221984554000000000 606
624 9.70505360099 3.23501786699666666666 606
625 11.0311035431 .23722803318494623655 606
626 6.5728448043 .15285685591395348837 606
627 9.56654276339 .46666062260439024390 606
628 10.1539975482 .25071598884444444444 606
629 8.69728581679 1.24246940239857142857 606
630 7.30091330324 .91261416290500000000 606
631 10.1915995377 .23162726222045454545 606
632 10.6672916275 .28830517912162162162 606
633 11.0502074721 .71291661110322580645 606
634 10.9736986571 .23855866645869565217 606
635 10.6165995104 .41633723570196078431 606
636 12.6222465876 .32364734840000000000 606
637 10.1873183983 .22389710765494505494 606
638 9.74533014967 .22663558487604651162 606
639 12.718165452 1.81688077885714285714 606
640 7.77974554374 .18746374804192771084 606
641 12.4695775676 .37786598689696969696 606
642 7.05871786468 14.11743572936000000000 606
643 12.6705740367 .53917336326382978723 606
644 8.51772459 .63094256222222222222 606
645 10.3114225566 .22662467157362637362 606
646 9.93489454975 1.52844531534615384615 606
647 10.7888875179 3.08253929082857142857 606
648 15.7588455687 .43774571024166666666 606
649 11.1455471145 .22516256796969696969 606
650 12.3341385583 .88100989702142857142 606
651 12.8234686827 .40709424389523809523 606
652 5.13961377231 1.46846107780285714285 606
653 9.14443897236 1.82888779447200000000 606
654 8.43884886389 .23441246844138888888 606
655 9.65997934972 1.01683993154947368421 606
656 5.80782858795 .16834285762173913043 606
657 9.52847226585 4.76423613292500000000 606
658 6.31243128276 .38257159289454545454 606
659 9.75358649894 .46445649994952380952 606
660 11.2550293284 7.50335288560000000000 606
661 10.6260247684 .51834267162926829268 606
662 11.5526362391 .37266568513225806451 606
663 9.31210997929 .47754410150205128205 606
664 8.99662045735 .62045658326551724137 606
665 10.7543443237 .35260145323606557377 606
666 12.9403232898 .31951415530370370370 606
667 9.78990965057 .81582580421416666666 606
668 9.94944444359 .90449494941727272727 606
669 10.8240672003 2.70601680007500000000 606
670 12.6641750059 .52767395857916666666 606
671 12.105519027 1.15290657400000000000 606
672 7.39576548064 .87009005654588235294 606
673 13.195515743 2.03007934507692307692 606
674 12.6471678293 .29073949032873563218 606
675 8.93912742136 .89391274213600000000 606
676 9.01278498308 .22253790081679012345 606
677 10.7263417787 1.53233453981428571428 606
678 6.65805074156 .18494585393222222222 606
679 9.62013170646 .19240263412920000000 606
680 11.4300366057 .29307786168461538461 606
681 8.57422412903 1.55894984164181818181 606
682 7.8346747387 .23741438602121212121 606
683 9.24156604591 .30805220153033333333 606
684 7.18352869915 .38829884860270270270 606
685 6.9196797708 .17742768643076923076 606
686 7.98901853481 .38042945403857142857 606
687 13.7415765929 .98154118520714285714 606
688 8.81776570557 .30406088639896551724 606
689 7.35726447221 .19884498573540540540 606
690 15.6748944602 3.91872361505000000000 606
691 12.8906315924 .26307411413061224489 606
692 10.4677173856 1.30846467320000000000 606
693 11.1221677095 .67407077027272727272 606
694 10.4301574832 .22923423040000000000 606
695 9.76608504579 .72341370709555555555 606
696 13.2051995891 .36681109969722222222 606
697 3.83578545806 .40376689032210526315 606
698 6.75545717819 .37530317656611111111 606
699 5.19355484768 .16229858899000000000 606
700 9.81130463092 .25819222712947368421 606
701 12.2630608291 2.04384347151666666666 606
702 7.16516400791 .19107104021093333333 606
703 10.2395302144 .37924185979259259259 606
704 8.14524268949 .19866445584121951219 606
705 7.27982635453 3.63991317726500000000 606
706 11.9720549499 .35737477462388059701 606
707 6.78798033655 .21212438551718750000 607,608,609,610,611,612,613,614,615,616,617,618,619,620,621,622,623,624,625,626,627,628,629,630,631,632,633,634,635,636,637,638,639,640,641,642,643,644,645,646,647,648,649,650,651,652,653,654,655,656,657,658,659,660,661,662,663,664,665,666,667,668,669,670,671,672,673,674,675,676,677,678,679,680,681,682,683,684,685,686,687,688,689,690,691,692,693,694,695,696,697,698,699,700,701,702,703,704,705,706
708 11.9849114944 29.96227873600000000000 707
709 8.86070709154 17.72141418308000000000 707
710 8.59486792273 28.64955974243333333333 707
711 14.2557300103 35.63932502575000000000 707
712 9.65647132985 48.28235664925000000000 707
713 10.5548517673 .39829629310566037735 707
714 8.58232897866 .20193715243905882352 707
715 10.319248368 .73708916914285714285 707
716 11.6576703439 .34799015951940298507 707
717 9.43890158154 .58993134884625000000 707
718 10.2020335215 2.04040670430000000000 707
719 9.39763577081 .32974160599333333333 707
720 11.252077411 .25572903206818181818 707
721 13.9505145369 1.21308822060000000000 707
722 10.27417063 .22580594791208791208 707
723 13.2210343127 2.64420686254000000000 707
724 12.3945260867 .38137003343692307692 707
725 12.8847191112 .42244980692459016393 707
726 10.1798393766 .52204304495384615384 707
727 10.8754874519 1.14478815283157894736 707
728 11.0823870845 .27705967711250000000 707
729 11.9337935995 .35623264476119402985 707
730 12.1219561614 2.69376803586666666666 707
731 10.9442596718 1.68373225720000000000 707
732 7.36937055538 1.84234263884500000000 707
733 10.0924077376 4.03696309504000000000 707
734 8.30815390327 .33910832258244897959 707
735 12.1889338377 1.21889338377000000000 707
736 9.12805417477 .53694436322176470588 707
737 10.4684487614 .41052740240784313725 707
738 7.6441197439 .44965410258235294117 707
739 10.9614420616 .27403605154000000000 707
740 6.1115000112 .22223636404363636363 707
741 8.25714821769 .78639506835142857142 707
742 11.278693774 .72765766283870967741 707
743 12.1852360068 .54156604474666666666 707
744 5.6438774576 .20523190754909090909 707
745 8.29596994049 .39504618764238095238 707
746 11.6684963102 3.33385608862857142857 707
747 11.1375274566 .31821507018857142857 707
748 11.3962479764 7.59749865093333333333 707
749 12.8761610248 .73578062998857142857 707
750 8.43339252657 .23105185004301369863 707
751 10.3882712741 .30110931229275362318 707
752 9.81277876974 1.22659734621750000000 707
753 6.3603101188 1.15642002160000000000 707
754 7.14383556128 .24216391733152542372 707
755 10.9517035759 .23808051251956521739 707
756 6.78362986222 .67836298622200000000 707
757 8.27475017098 .41373750854900000000 707
758 7.27090773358 .15980016996879120879 707
759 10.0787168359 .28390751650422535211 707
760 7.92066227169 .18858719694500000000 707
761 7.58677334403 .20504792821702702702 707
762 6.91057486944 .30713666086400000000 707
763 7.36468523622 .15029969869836734693 707
764 7.8137306682 .36342933340465116279 707
765 5.97164136498 .12440919510375000000 707
766 8.16750178367 .29169649227392857142 707
767 7.88837395154 .20758878819842105263 707
768 11.7756732949 .28037317368809523809 707
769 11.494667439 .27046276327058823529 707
770 5.87401748203 2.93700874101500000000 707
771 11.1641797693 .26581380403095238095 707
772 15.5142632431 .43095175675277777777 707
773 14.4737497465 .46689515311290322580 707
774 9.97142202363 1.24642775295375000000 707
775 9.42191893374 1.57031982229000000000 707
776 6.84650454499 .36034234447315789473 707
777 11.4555435608 .26954220143058823529 707
778 11.6736407592 .35918894643692307692 707
779 7.60044800343 .31668533347625000000 707
780 5.97468987334 .85352712476285714285 707
781 8.0542312074 1.46440567407272727272 707
782 7.79148813181 .17911466969678160919 707
783 2.24468872308 .05755612110461538461 707
784 13.0323268986 .78983799385454545454 707
785 12.576313726 .93157879451851851851 707
786 10.6531863854 2.13063727708000000000 707
787 9.45729857049 .19910102253663157894 707
788 12.6997525559 .74704426799411764705 707
789 9.57736176662 .26239347305808219178 707
790 14.409013871 1.51673830221052631578 707
791 12.7957445361 2.32649900656363636363 707
792 15.8416594241 1.58416594241000000000 707
793 7.83811956642 .44789254665257142857 707
794 10.88408127 .58832871729729729729 707
795 6.76820763789 .14875181621736263736 707
796 9.84530163932 .59668494783757575757 707
797 12.3943495728 .34428748813333333333 707
798 8.57942580648 .26810705645250000000 707
799 6.14663616987 .18348167671253731343 707
800 4.54500312777 .16833344917666666666 707
801 11.3847368503 .30769559054864864864 707
802 11.4902143807 .99914907658260869565 707
803 10.8928157269 1.36160196586250000000 707
804 9.72118027733 4.86059013866500000000 707
805 6.9777745454 .14846328820000000000 707
806 7.02000899276 .27000034587538461538 707
807 14.1583837072 .64356289578181818181 707
808 13.288695939 5.31547837560000000000 708,709,710,711,712,713,714,715,716,717,718,719,720,721,722,723,724,725,726,727,728,729,730,731,732,733,734,735,736,737,738,739,740,741,742,743,744,745,746,747,748,749,750,751,752,753,754,755,756,757,758,759,760,761,762,763,764,765,766,767,768,769,770,771,772,773,774,775,776,777,778,779,780,781,782,783,784,785,786,787,788,789,790,791,792,793,794,795,796,797,798,799,800,801,802,803,804,805,806,807
809 11.3273973737 56.63698686850000000000 808
810 11.6112362531 58.05618126550000000000 808
811 9.39733382848 18.79466765696000000000 808
812 11.8194705409 23.63894108180000000000 808
813 9.60550135904 48.02750679520000000000 808
814 12.6301451474 1.26301451474000000000 808
815 13.9533463455 .33222253203571428571 808
816 11.2900805828 1.25445339808888888888 808
817 12.4937204286 .46273038624444444444 808
818 13.9636784337 1.21423290727826086956 808
819 10.1422381408 2.53555953520000000000 808
820 14.0539236796 .53033674262641509433 808
821 12.415247914 1.91003814061538461538 808
822 17.5627310876 .52426062948059701492 808
823 11.4996098715 .47915041131250000000 808
824 13.731353554 .30514119008888888888 808
825 9.53330016232 19.06660032464000000000 808
826 13.7335619367 1.37335619367000000000 808
827 9.06923218632 .69763324510153846153 808
828 12.3994940608 1.54993675760000000000 808
829 6.7421252427 1.12368754045000000000 808
830 10.6068548125 .29463485590277777777 808
831 4.77862254488 .22226151371534883720 808
832 13.1062942513 .38547924268529411764 808
833 15.9182868743 1.87273963227058823529 808
834 7.91889483151 .24746546348468750000 808
835 9.73550056008 .67141383172965517241 808
836 11.1776405204 .57321233437948717948 808
837 10.1775023078 .20560610722828282828 808
838 11.3338586509 .33832413883283582089 808
839 13.9154803363 .89777292492258064516 808
840 12.6169427452 1.80242039217142857142 808
841 10.7633123626 5.38165618130000000000 808
842 10.9739149779 .30065520487397260273 808
843 8.77491458871 .53181300537636363636 808
844 12.0181044171 3.43374411917142857142 808
845 10.9944057574 .99949143249090909090 808
846 7.95430938417 1.13632991202428571428 808
847 7.93379801702 .19589624733382716049 808
848 12.7360898255 .31063633720731707317 808
849 13.8333728382 .35930838540779220779 808
850 17.2184249221 .47173766909863013698 808
851 11.3053408006 .26917478096666666666 808
852 6.24278921482 .46242883072740740740 808
853 12.635502237 .30446993342168674698 808
854 13.0501571692 .26100314338400000000 808
855 12.0025925808 .53344855914666666666 808
856 11.2090950206 .34489523140307692307 808
857 5.53482461792 .85151147968000000000 808
858 7.89061480409 .20495103387246753246 808
859 9.55491735918 1.73725770166909090909 808
860 10.0874666286 .26545964812105263157 808
861 11.5591487861 .37287576729354838709 808
862 9.43579269069 .52421070503833333333 808
863 6.38574687768 .28381097234133333333 808
864 11.0293350455 .31512385844285714285 808
865 11.8277934234 .87613284617777777777 808
866 10.7058907722 .23273675591739130434 808
867 12.0859947937 .52547803450869565217 808
868 8.96624328853 .74718694071083333333 808
869 10.2634508812 .50065614054634146341 808
870 11.5872155077 23.17443101540000000000 808
871 7.09077658352 .15757281296711111111 808
872 12.0288282823 1.60384377097333333333 808
873 11.2650442827 1.32529932737647058823 808
874 7.51602854135 2.50534284711666666666 808
875 10.9047000877 .31607826341159420289 808
876 13.0142382518 .36659826061408450704 808
877 7.50641727643 .68240157058454545454 808
878 12.784759539 .79904747118750000000 808
879 11.09997729 1.38749716125000000000 808
880 8.96256946613 5.97504631075333333333 808
881 8.26187452951 .41309372647550000000 808
882 13.9544743079 .52658393614716981132 808
883 10.91679831 .31190852314285714285 808
884 10.6457097077 1.06457097077000000000 808
885 8.04285626538 .20622708372769230769 808
886 10.5092156751 .95538324319090909090 808
887 9.69843466456 .25862492438826666666 808
888 10.3554808191 .47070367359545454545 808
889 10.7591193609 5.37955968045000000000 808
890 9.44818431775 .21972521669186046511 808
891 11.2095815156 .24910181145777777777 808
892 8.07292645828 1.34548774304666666666 808
893 11.2247875614 .97606848360000000000 808
894 13.6023844461 3.02275209913333333333 808
895 12.0029655824 .24495848127346938775 808
896 9.86260551435 9.86260551435000000000 808
897 6.90693327567 .98670475366714285714 808
898 8.22495780746 .35760686119391304347 808
899 12.0473943731 .29746652773086419753 808
900 8.71627255092 .40540802562418604651 808
901 10.4041166724 .83232933379200000000 808
902 9.24188184616 .24004887912103896103 808
903 7.85137044173 .18259001027279069767 808
904 8.68819700141 .22277428208743589743 808
905 7.57157406016 .43266137486628571428 808
906 11.5959211454 .50417048458260869565 808
907 12.7582728291 .72904416166285714285 808
908 11.7934678597 .25919709581758241758 808
909 8.30826598409 .19099462032390804597 809,810,811,812,813,814,815,816,817,818,819,820,821,822,823,824,825,826,827,828,829,830,831,832,833,834,835,836,837,838,839,840,841,842,843,844,845,846,847,848,849,850,851,852,853,854,855,856,857,858,859,860,861,862,863,864,865,866,867,868,869,870,871,872,873,874,875,876,877,878,879,880,881,882,883,884,885,886,887,888,889,890,891,892,893,894,895,896,897,898,899,900,901,902,903,904,905,906,907,908
910 8.45594108799 16.91188217598000000000 909
911 7.36959738948 24.56532463160000000000 909
912 11.7205149463 23.44102989260000000000 909
913 8.92120923353 22.30302308382500000000 909
914 9.25026569329 92.50265693290000000000 909
915 8.75401138862 .17684871492161616161 909
916 11.8802857546 .76647004868387096774 909
917 10.7276956826 .44698732010833333333 909
918 8.09885276394 .23820155188058823529 909
919 12.1644021313 .27646368480227272727 909
920 8.9209393635 17.84187872700000000000 909
921 13.2251485582 .27552392829583333333 909
922 7.39966289909 .19732434397573333333 909
923 14.0016428902 .43081978123692307692 909
924 6.43839065885 .14150309140329670329 909
925 11.2169451318 .38023542819661016949 909
926 10.5504735447 .21314087969090909090 909
927 7.93566174501 .38710545097609756097 909
928 15.4915107426 1.93643884282500000000 909
929 13.8889144075 .30864254238888888888 909
930 11.8494448968 .65830249426666666666 909
931 9.72608041308 .26646795652273972602 909
932 8.61986361933 .29219876675694915254 909
933 10.9697614019 .28867793162894736842 909
934 14.0089800447 28.01796008940000000000 909
935 10.8082041673 .22057559525102040816 909
936 11.1957534212 .38606046280000000000 909
937 8.22346096794 .27876138874372881355 909
938 9.54544215949 2.12120936877555555555 909
939 12.04105629 .25619268702127659574 909
940 6.11075653239 .37034888075090909090 909
941 6.83793673451 .15028432383538461538 909
942 9.22122610066 .28373003386646153846 909
943 16.3366571593 .39845505266585365853 909
944 10.0428053268 2.51070133170000000000 909
945 7.65383268316 .63781939026333333333 909
946 16.5110008336 .47174288096000000000 909
947 10.2999008372 .26075698322025316455 909
948 8.04162493861 1.46211362520181818181 909
949 11.7263942262 1.56351923016000000000 909
950 13.0819473647 1.53905263114117647058 909
951 13.9734310274 .28229153590707070707 909
952 9.42535776074 .43838873305767441860 909
953 9.96893479409 .32157854174483870967 909
954 7.92343307963 .22966472694579710144 909
955 10.8646858571 .24415024397977528089 909
956 9.9187519943 .38897066644313725490 909
957 9.44199409311 .21705733547379310344 909
958 12.0631368846 .34466105384571428571 909
959 8.44689430595 .60334959328214285714 909
960 11.6543631899 .31078301839733333333 909
961 11.0254758208 1.47006344277333333333 909
962 10.3256642012 .62579783037575757575 909
963 10.1224781927 .63265488704375000000 909
964 10.8368149866 3.09623285331428571428 909
965 6.5588021055 1.00904647776923076923 909
966 11.841148179 .44683578033962264150 909
967 7.56256029998 7.56256029998000000000 909
968 13.3573185646 .83483241028750000000 909
969 11.0915338489 .34661043277812500000 909
970 10.7040998006 .21845101633877551020 909
971 7.17410516384 .30528107080170212765 909
972 9.67976675227 .21510592782822222222 909
973 10.6831969938 .59351094410000000000 909
974 11.5230113688 .37780365143606557377 909
975 7.88074719571 .30904890963568627450 909
976 10.3677929036 .25287299764878048780 909
977 10.7799380796 .33687306498750000000 909
978 9.68561116587 2.42140279146750000000 909
979 7.5403089475 .19842918282894736842 909
980 11.8343319783 .33336146417746478873 909
981 8.95529234932 .30880318445931034482 909
982 11.6438278304 .80302260899310344827 909
983 9.51789513284 .42301756145955555555 909
984 9.66708033252 .26853000923666666666 909
985 11.5278067069 .32936590591142857142 909
986 6.79426402555 .15441509148977272727 909
987 7.02218056414 .30531219844086956521 909
988 8.03281068632 .17274861691010752688 909
989 12.2256398113 .26577477850652173913 909
990 12.2771187447 .28223261482068965517 909
991 8.72785226068 .17632024769050505050 909
992 9.45071841352 .21978414915162790697 909
993 7.39235477032 .64281345828869565217 909
994 10.4607723989 .48654755343720930232 909
995 10.0052040091 .52658968468947368421 909
996 10.2937990283 .34312663427666666666 909
997 12.4568919295 .46136636775925925925 909
998 7.45240173778 .41402231876555555555 909
999 12.8681025966 .69557311332972972972 909
1000 13.5507512243 .43018257854920634920 909
1001 10.6664274802 .41829127373333333333 909
1002 6.18508052273 .13159745793042553191 909
1003 11.063359729 1.84389328816666666666 909
1004 7.83967262904 .19357216368000000000 909
1005 7.5124764288 .21775293996521739130 909
1006 12.5920601835 .27674857546153846153 909
1007 8.30881237426 1.38480206237666666666 909
1008 7.8874920868 .39437460434000000000 909
1009 11.314906049 1.19104274200000000000 909
1010 10.4329446084 1.09820469562105263157 910,911,912,913,914,915,916,917,918,919,920,921,922,923,924,925,926,927,928,929,930,931,932,933,934,935,936,937,938,939,940,941,942,943,944,945,946,947,948,949,950,951,952,953,954,955,956,957,958,959,960,961,962,963,964,965,966,967,968,969,970,971,972,973,974,975,976,977,978,979,980,981,982,983,984,985,986,987,988,989,990,991,992,993,994,995,996,997,998,999,1000,1001,1002,1003,1004,1005,1006,1007,1008,1009
