5270,4870
5276,5270 4990
5272,5270 4870 4910
5271,5270 4870 4890
5273,5270 4870 4930
5277,5270 5010
5274,5270 4870 4950
5275,5270 4870 4970
5278,5270 5030
5279,5270 5050
5280,5270 5070
5281,5270 5090
5282,5270 5110
5283,5270 5130
5284,5270 5150
5285,5270 5170
5287,5270 5210
5286,5270 5190
5288,5270 5230
5289,5270 5250
5290,5270 4871
5291,5271 5290 4871 4891
5294,5274 5290 4951
5292,5272 5290 4871 4911
5293,5273 5290 4871 4931
5295,5275 5290 4971
5296,5276 5290 4991
5297,5277 5290 5011
5299,5279 5290 5051
5298,5278 5290 5031
5300,5280 5290 5071
5301,5281 5290 5091
5302,5282 5290 5111
5303,5283 5290 5131
5304,5284 5290 5151
5305,5285 5290 5171
5306,5286 5290 5191
5307,5287 5290 5211
5308,5288 5290 5231
5309,5289 5290 5251
5310,5270 4872
5311,5271 5310 4872 4892
5317,5277 5310 5012
5312,5272 5310 4872 4912
5313,5273 5310 4872 4932
5314,5274 5310 4872 4952
5318,5278 5310 5032
5316,5276 5310 4872 4992
5315,5275 5310 4872 4972
5319,5279 5310 5052
5320,5280 5310 5072
5321,5281 5310 5092
5322,5282 5310 5112
5323,5283 5310 5132
5324,5284 5310 5152
5325,5285 5310 5172
5326,5286 5310 5192
5327,5287 5310 5212
5329,5289 5310 5252
5328,5288 5310 5232
5330,5270 4873
5331,5271 5330 4873 4893
5332,5272 5330 4873 4913
5333,5273 5330 4873 4933
5335,5275 5330 4973
5334,5274 5330 4873 4953
5336,5276 5330 4993
5337,5277 5330 5013
5338,5278 5330 5033
5339,5279 5330 5053
5340,5280 5330 5073
5341,5281 5330 5093
5342,5282 5330 5113
5343,5283 5330 5133
5344,5284 5330 5153
5345,5285 5330 5173
5346,5286 5330 5193
5347,5287 5330 5213
5348,5288 5330 5233
5349,5289 5330 5253
5350,5270 4874
5356,5276 5350 4994
5351,5271 5350 4874 4894
5352,5272 5350 4874 4914
5353,5273 5350 4874 4934
5354,5274 5350 4874 4954
5355,5275 5350 4874 4974
5357,5277 5350 5014
5358,5278 5350 5034
5359,5279 5350 5054
5360,5280 5350 5074
5361,5281 5350 5094
5362,5282 5350 5114
5363,5283 5350 5134
5364,5284 5350 5154
5365,5285 5350 5174
5366,5286 5350 5194
5367,5287 5350 5214
5368,5288 5350 5234
5369,5289 5350 5254
5370,5270 4875
5371,5271 5370 4875 4895
5372,5272 5370 4875 4915
5374,5274 5370 4955
5375,5275 5370 4975
5373,5273 5370 4875 4935
5376,5276 5370 4995
5377,5277 5370 5015
5378,5278 5370 5035
5379,5279 5370 5055
5380,5280 5370 5075
5381,5281 5370 5095
5382,5282 5370 5115
5383,5283 5370 5135
5384,5284 5370 5155
5385,5285 5370 5175
5386,5286 5370 5195
5387,5287 5370 5215
5388,5288 5370 5235
5389,5289 5370 5255
5390,5270 4876
5391,5271 5390 4876 4896
5392,5272 5390 4876 4916
5393,5273 5390 4876 4936
5394,5274 5390 4956
5395,5275 5390 4976
5396,5276 5390 4996
5397,5277 5390 5016
5398,5278 5390 5036
5399,5279 5390 5056
5400,5280 5390 5076
5401,5281 5390 5096
5402,5282 5390 5116
5403,5283 5390 5136
5404,5284 5390 5156
5405,5285 5390 5176
5406,5286 5390 5196
5407,5287 5390 5216
5408,5288 5390 5236
5409,5289 5390 5256
5410,5270 4877
5411,5271 5410 4877 4897
5412,5272 5410 4877 4917
5415,5275 5410 4977
5413,5273 5410 4877 4937
5414,5274 5410 4877 4957
5416,5276 5410 4997
5417,5277 5410 5017
5418,5278 5410 5037
5419,5279 5410 5057
5420,5280 5410 5077
5421,5281 5410 5097
5422,5282 5410 5117
5423,5283 5410 5137
5424,5284 5410 5157
5425,5285 5410 5177
5426,5286 5410 5197
5427,5287 5410 5217
5428,5288 5410 5237
5429,5289 5410 5257
5430,5270 4878
5431,5271 5430 4878 4898
5432,5272 5430 4878 4918
5433,5273 5430 4878 4938
5435,5275 5430 4978
5434,5274 5430 4878 4958
5436,5276 5430 4998
5437,5277 5430 5018
5438,5278 5430 5038
5439,5279 5430 5058
5440,5280 5430 5078
5441,5281 5430 5098
5442,5282 5430 5118
5443,5283 5430 5138
5444,5284 5430 5158
5445,5285 5430 5178
5446,5286 5430 5198
5447,5287 5430 5218
5448,5288 5430 5238
5449,5289 5430 5258
5450,5270 4879
5451,5271 5450 4879 4899
5452,5272 5450 4879 4919
5453,5273 5450 4879 4939
5454,5274 5450 4959
5455,5275 5450 4979
5456,5276 5450 4999
5457,5277 5450 5019
5458,5278 5450 5039
5459,5279 5450 5059
5461,5281 5450 5099
5460,5280 5450 5079
5462,5282 5450 5119
5463,5283 5450 5139
5465,5285 5450 5179
5464,5284 5450 5159
5466,5286 5450 5199
5467,5287 5450 5219
5468,5288 5450 5239
5469,5289 5450 5259
5470,5270 4880
5471,5271 5470 4880 4900
5472,5272 5470 4880 4920
5476,5276 5470 5000
5473,5273 5470 4880 4940
5474,5274 5470 4880 4960
5477,5277 5470 5020
5475,5275 5470 4880 4980
5478,5278 5470 5040
5479,5279 5470 5060
5480,5280 5470 5080
5481,5281 5470 5100
5482,5282 5470 5120
5483,5283 5470 5140
5484,5284 5470 5160
5485,5285 5470 5180
5486,5286 5470 5200
5487,5287 5470 5220
5488,5288 5470 5240
5489,5289 5470 5260
5490,5270 4881
5491,5271 5490 4881 4901
5492,5272 5490 4881 4921
5493,5273 5490 4881 4941
5495,5275 5490 4981
5494,5274 5490 4881 4961
5496,5276 5490 5001
5497,5277 5490 5021
5498,5278 5490 5041
5499,5279 5490 5061
5500,5280 5490 5081
5501,5281 5490 5101
5502,5282 5490 5121
5503,5283 5490 5141
5505,5285 5490 5181
5504,5284 5490 5161
5506,5286 5490 5201
5507,5287 5490 5221
5509,5289 5490 5261
5508,5288 5490 5241
5510,5270 4882
5516,5276 5510 5002
5511,5271 5510 4882 4902
5512,5272 5510 4882 4922
5513,5273 5510 4882 4942
5515,5275 5510 4882 4982
5514,5274 5510 4882 4962
5517,5277 5510 5022
5518,5278 5510 5042
5519,5279 5510 5062
5520,5280 5510 5082
5521,5281 5510 5102
5522,5282 5510 5122
5524,5284 5510 5162
5523,5283 5510 5142
5525,5285 5510 5182
5526,5286 5510 5202
5527,5287 5510 5222
5528,5288 5510 5242
5529,5289 5510 5262
5530,5270 4883
5531,5271 5530 4883 4903
5533,5273 5530 4883 4943
5532,5272 5530 4883 4923
5536,5276 5530 5003
5534,5274 5530 4883 4963
5535,5275 5530 4883 4983
5537,5277 5530 5023
5538,5278 5530 5043
5539,5279 5530 5063
5540,5280 5530 5083
5541,5281 5530 5103
5542,5282 5530 5123
5543,5283 5530 5143
5544,5284 5530 5163
5545,5285 5530 5183
5546,5286 5530 5203
5547,5287 5530 5223
5548,5288 5530 5243
5549,5289 5530 5263
5550,5270 4884
5551,5271 5550 4884 4904
5552,5272 5550 4884 4924
5555,5275 5550 4984
5553,5273 5550 4884 4944
5554,5274 5550 4884 4964
5556,5276 5550 5004
5557,5277 5550 5024
5558,5278 5550 5044
5559,5279 5550 5064
5560,5280 5550 5084
5561,5281 5550 5104
5562,5282 5550 5124
5563,5283 5550 5144
5564,5284 5550 5164
5565,5285 5550 5184
5566,5286 5550 5204
5567,5287 5550 5224
5568,5288 5550 5244
5569,5289 5550 5264
5570,5270 4885
5571,5271 5570 4885 4905
5574,5274 5570 4965
5573,5273 5570 4885 4945
5575,5275 5570 4985
5572,5272 5570 4885 4925
5576,5276 5570 5005
5577,5277 5570 5025
5578,5278 5570 5045
5579,5279 5570 5065
5580,5280 5570 5085
5581,5281 5570 5105
5582,5282 5570 5125
5583,5283 5570 5145
5584,5284 5570 5165
5585,5285 5570 5185
5586,5286 5570 5205
5587,5287 5570 5225
5588,5288 5570 5245
5589,5289 5570 5265
5590,5270 4886
5591,5271 5590 4886 4906
5595,5275 5590 4986
5592,5272 5590 4886 4926
5593,5273 5590 4886 4946
5594,5274 5590 4886 4966
5596,5276 5590 5006
5597,5277 5590 5026
5598,5278 5590 5046
5599,5279 5590 5066
5600,5280 5590 5086
5601,5281 5590 5106
5602,5282 5590 5126
5603,5283 5590 5146
5605,5285 5590 5186
5604,5284 5590 5166
5606,5286 5590 5206
5607,5287 5590 5226
5608,5288 5590 5246
5609,5289 5590 5266
5610,5270 4887
5611,5271 5610 4887 4907
5612,5272 5610 4887 4927
5613,5273 5610 4887 4947
5614,5274 5610 4887 4967
5616,5276 5610 5007
5615,5275 5610 4887 4987
5617,5277 5610 5027
5618,5278 5610 5047
5619,5279 5610 5067
5620,5280 5610 5087
5621,5281 5610 5107
5622,5282 5610 5127
5623,5283 5610 5147
5624,5284 5610 5167
5626,5286 5610 5207
5625,5285 5610 5187
5627,5287 5610 5227
5628,5288 5610 5247
5629,5289 5610 5267
5630,5270 4888
5632,5272 5630 4888 4928
5636,5276 5630 5008
5631,5271 5630 4888 4908
5633,5273 5630 4888 4948
5637,5277 5630 5028
5635,5275 5630 4888 4988
5634,5274 5630 4888 4968
5638,5278 5630 5048
5639,5279 5630 5068
5640,5280 5630 5088
5641,5281 5630 5108
5642,5282 5630 5128
5643,5283 5630 5148
5644,5284 5630 5168
5645,5285 5630 5188
5646,5286 5630 5208
5647,5287 5630 5228
5648,5288 5630 5248
5649,5289 5630 5268
5650,5270 4889
5651,5271 5650 4889 4909
5652,5272 5650 4889 4929
5653,5273 5650 4889 4949
5655,5275 5650 4989
5654,5274 5650 4889 4969
5656,5276 5650 5009
5657,5277 5650 5029
5658,5278 5650 5049
5659,5279 5650 5069
5660,5280 5650 5089
5661,5281 5650 5109
5662,5282 5650 5129
5663,5283 5650 5149
5664,5284 5650 5169
5665,5285 5650 5189
5666,5286 5650 5209
5667,5287 5650 5229
5668,5288 5650 5249
5669,5289 5650 5269
5670,5291
5671,5670 5291 5292
5677,5670 5298
5672,5670 5291 5293
5678,5670 5299
5673,5670 5291 5294
5674,5670 5291 5295
5675,5670 5291 5296
5676,5670 5291 5297
5679,5670 5300
5680,5670 5301
5681,5670 5302
5682,5670 5303
5683,5670 5304
5684,5670 5305
5685,5670 5306
5686,5670 5307
5688,5670 5309
5687,5670 5308
5689,5670 5311
5693,5674 5689 5315
5691,5672 5689 5311 5313
5692,5673 5689 5311 5314
5690,5671 5689 5311 5312
5694,5675 5689 5316
5695,5676 5689 5317
5696,5677 5689 5318
5697,5678 5689 5319
5698,5679 5689 5320
5699,5680 5689 5321
5700,5681 5689 5322
5701,5682 5689 5323
5702,5683 5689 5324
5703,5684 5689 5325
5704,5685 5689 5326
5705,5686 5689 5327
5706,5687 5689 5328
5707,5688 5689 5329
5708,5670 5331
5712,5674 5708 5331 5335
5713,5675 5708 5336
5709,5671 5708 5331 5332
5711,5673 5708 5331 5334
5710,5672 5708 5331 5333
5714,5676 5708 5337
5715,5677 5708 5338
5716,5678 5708 5339
5717,5679 5708 5340
5718,5680 5708 5341
5719,5681 5708 5342
5720,5682 5708 5343
5721,5683 5708 5344
5722,5684 5708 5345
5723,5685 5708 5346
5724,5686 5708 5347
5725,5687 5708 5348
5726,5688 5708 5349
5727,5670 5351
5728,5671 5727 5351 5352
5732,5675 5727 5356
5729,5672 5727 5351 5353
5730,5673 5727 5351 5354
5731,5674 5727 5351 5355
5733,5676 5727 5357
5734,5677 5727 5358
5735,5678 5727 5359
5736,5679 5727 5360
5737,5680 5727 5361
5738,5681 5727 5362
5739,5682 5727 5363
5740,5683 5727 5364
5741,5684 5727 5365
5742,5685 5727 5366
5743,5686 5727 5367
5744,5687 5727 5368
5745,5688 5727 5369
5746,5670 5371
5747,5671 5746 5371 5372
5748,5672 5746 5371 5373
5749,5673 5746 5371 5374
5750,5674 5746 5375
5751,5675 5746 5376
5752,5676 5746 5377
5753,5677 5746 5378
5754,5678 5746 5379
5755,5679 5746 5380
5756,5680 5746 5381
5757,5681 5746 5382
5758,5682 5746 5383
5759,5683 5746 5384
5760,5684 5746 5385
5761,5685 5746 5386
5762,5686 5746 5387
5763,5687 5746 5388
5764,5688 5746 5389
5765,5670 5391
5767,5672 5765 5391 5393
5766,5671 5765 5391 5392
5769,5674 5765 5395
5768,5673 5765 5391 5394
5770,5675 5765 5396
5771,5676 5765 5397
5772,5677 5765 5398
5773,5678 5765 5399
5774,5679 5765 5400
5775,5680 5765 5401
5776,5681 5765 5402
5777,5682 5765 5403
5778,5683 5765 5404
5779,5684 5765 5405
5781,5686 5765 5407
5780,5685 5765 5406
5782,5687 5765 5408
5783,5688 5765 5409
5784,5670 5411
5785,5671 5784 5411 5412
5786,5672 5784 5411 5413
5788,5674 5784 5411 5415
5787,5673 5784 5411 5414
5789,5675 5784 5416
5790,5676 5784 5417
5791,5677 5784 5418
5792,5678 5784 5419
5793,5679 5784 5420
5794,5680 5784 5421
5795,5681 5784 5422
5796,5682 5784 5423
5798,5684 5784 5425
5797,5683 5784 5424
5799,5685 5784 5426
5800,5686 5784 5427
5801,5687 5784 5428
5802,5688 5784 5429
5803,5670 5431
5804,5671 5803 5431 5432
5810,5677 5803 5438
5805,5672 5803 5431 5433
5806,5673 5803 5431 5434
5807,5674 5803 5431 5435
5811,5678 5803 5439
5808,5675 5803 5431 5436
5809,5676 5803 5431 5437
5812,5679 5803 5440
5813,5680 5803 5441
5814,5681 5803 5442
5815,5682 5803 5443
5816,5683 5803 5444
5817,5684 5803 5445
5818,5685 5803 5446
5819,5686 5803 5447
5820,5687 5803 5448
5821,5688 5803 5449
5822,5670 5451
5827,5675 5822 5456
5823,5671 5822 5451 5452
5824,5672 5822 5451 5453
5826,5674 5822 5451 5455
5825,5673 5822 5451 5454
5828,5676 5822 5457
5829,5677 5822 5458
5830,5678 5822 5459
5831,5679 5822 5460
5832,5680 5822 5461
5833,5681 5822 5462
5834,5682 5822 5463
5835,5683 5822 5464
5837,5685 5822 5466
5836,5684 5822 5465
5838,5686 5822 5467
5839,5687 5822 5468
5840,5688 5822 5469
5841,5670 5471
5842,5671 5841 5471 5472
5843,5672 5841 5471 5473
5845,5674 5841 5475
5844,5673 5841 5471 5474
5846,5675 5841 5476
5847,5676 5841 5477
5848,5677 5841 5478
5849,5678 5841 5479
5850,5679 5841 5480
5851,5680 5841 5481
5852,5681 5841 5482
5853,5682 5841 5483
5854,5683 5841 5484
5855,5684 5841 5485
5856,5685 5841 5486
5857,5686 5841 5487
5858,5687 5841 5488
5859,5688 5841 5489
5860,5670 5491
5861,5671 5860 5491 5492
5864,5674 5860 5495
5862,5672 5860 5491 5493
5863,5673 5860 5491 5494
5865,5675 5860 5496
5866,5676 5860 5497
5867,5677 5860 5498
5868,5678 5860 5499
5869,5679 5860 5500
5870,5680 5860 5501
5871,5681 5860 5502
5872,5682 5860 5503
5873,5683 5860 5504
5874,5684 5860 5505
5875,5685 5860 5506
5876,5686 5860 5507
5877,5687 5860 5508
5878,5688 5860 5509
5879,5670 5511
5884,5675 5879 5516
5880,5671 5879 5511 5512
5881,5672 5879 5511 5513
5883,5674 5879 5511 5515
5885,5676 5879 5517
5882,5673 5879 5511 5514
5886,5677 5879 5518
5887,5678 5879 5519
5888,5679 5879 5520
5889,5680 5879 5521
5890,5681 5879 5522
5891,5682 5879 5523
5892,5683 5879 5524
5893,5684 5879 5525
5894,5685 5879 5526
5895,5686 5879 5527
5896,5687 5879 5528
5897,5688 5879 5529
5898,5670 5531
5903,5675 5898 5536
5899,5671 5898 5531 5532
5901,5673 5898 5531 5534
5902,5674 5898 5531 5535
5900,5672 5898 5531 5533
5904,5676 5898 5537
5905,5677 5898 5538
5906,5678 5898 5539
5907,5679 5898 5540
5908,5680 5898 5541
5909,5681 5898 5542
5910,5682 5898 5543
5911,5683 5898 5544
5912,5684 5898 5545
5913,5685 5898 5546
5914,5686 5898 5547
5915,5687 5898 5548
5916,5688 5898 5549
5917,5670 5551
5918,5671 5917 5551 5552
5919,5672 5917 5551 5553
5922,5675 5917 5556
5920,5673 5917 5551 5554
5921,5674 5917 5551 5555
5923,5676 5917 5557
5924,5677 5917 5558
5925,5678 5917 5559
5926,5679 5917 5560
5927,5680 5917 5561
5928,5681 5917 5562
5929,5682 5917 5563
5930,5683 5917 5564
5931,5684 5917 5565
5932,5685 5917 5566
5933,5686 5917 5567
5934,5687 5917 5568
5935,5688 5917 5569
5936,5670 5571
5937,5671 5936 5571 5572
5938,5672 5936 5571 5573
5939,5673 5936 5571 5574
5940,5674 5936 5571 5575
5943,5677 5936 5578
5941,5675 5936 5571 5576
5942,5676 5936 5577
5944,5678 5936 5579
5945,5679 5936 5580
5946,5680 5936 5581
5947,5681 5936 5582
5948,5682 5936 5583
5949,5683 5936 5584
5950,5684 5936 5585
5951,5685 5936 5586
5952,5686 5936 5587
5953,5687 5936 5588
5954,5688 5936 5589
5955,5670 5591
5956,5671 5955 5591 5592
5957,5672 5955 5591 5593
5961,5676 5955 5597
5958,5673 5955 5591 5594
5959,5674 5955 5591 5595
5962,5677 5955 5598
5960,5675 5955 5591 5596
5963,5678 5955 5599
5964,5679 5955 5600
5965,5680 5955 5601
5966,5681 5955 5602
5967,5682 5955 5603
5968,5683 5955 5604
5969,5684 5955 5605
5970,5685 5955 5606
5971,5686 5955 5607
5972,5687 5955 5608
5973,5688 5955 5609
5974,5670 5611
5976,5672 5974 5611 5613
5978,5674 5974 5611 5615
5977,5673 5974 5611 5614
5975,5671 5974 5611 5612
5979,5675 5974 5616
5980,5676 5974 5617
5981,5677 5974 5618
5982,5678 5974 5619
5983,5679 5974 5620
5984,5680 5974 5621
5985,5681 5974 5622
5986,5682 5974 5623
5987,5683 5974 5624
5988,5684 5974 5625
5989,5685 5974 5626
5990,5686 5974 5627
5991,5687 5974 5628
5992,5688 5974 5629
5993,5670 5631
5994,5671 5993 5631 5632
5999,5676 5993 5637
5995,5672 5993 5631 5633
5996,5673 5993 5631 5634
5998,5675 5993 5631 5636
5997,5674 5993 5631 5635
6000,5677 5993 5638
6001,5678 5993 5639
6002,5679 5993 5640
6003,5680 5993 5641
6004,5681 5993 5642
6005,5682 5993 5643
6006,5683 5993 5644
6007,5684 5993 5645
6008,5685 5993 5646
6009,5686 5993 5647
6010,5687 5993 5648
6011,5688 5993 5649
6012,5670 5651
6013,5671 6012 5651 5652
6017,5675 6012 5656
6015,5673 6012 5651 5654
6014,5672 6012 5651 5653
6016,5674 6012 5651 5655
6018,5676 6012 5657
6019,5677 6012 5658
6020,5678 6012 5659
6021,5679 6012 5660
6022,5680 6012 5661
6023,5681 6012 5662
6024,5682 6012 5663
6025,5683 6012 5664
6026,5684 6012 5665
6027,5685 6012 5666
6028,5686 6012 5667
6029,5687 6012 5668
6030,5688 6012 5669
6031,5690
6032,6031 5690 5691
6033,6031 5690 5692
6036,6031 5695
6034,6031 5690 5693
6035,6031 5690 5694
6037,6031 5696
6038,6031 5697
6039,6031 5698
6040,6031 5699
6041,6031 5700
6042,6031 5701
6043,6031 5702
6044,6031 5703
6045,6031 5704
6046,6031 5705
6047,6031 5706
6048,6031 5707
6049,6031 5709
6050,6032 6049 5709 5710
6054,6036 6049 5714
6051,6033 6049 5709 5711
6052,6034 6049 5709 5712
6055,6037 6049 5715
6056,6038 6049 5716
6053,6035 6049 5709 5713
6057,6039 6049 5717
6058,6040 6049 5718
6059,6041 6049 5719
6060,6042 6049 5720
6061,6043 6049 5721
6062,6044 6049 5722
6063,6045 6049 5723
6065,6047 6049 5725
6064,6046 6049 5724
6066,6048 6049 5726
6067,6031 5728
6068,6032 6067 5728 5729
6069,6033 6067 5728 5730
6071,6035 6067 5732
6070,6034 6067 5728 5731
6072,6036 6067 5733
6073,6037 6067 5734
6074,6038 6067 5735
6075,6039 6067 5736
6077,6041 6067 5738
6076,6040 6067 5737
6078,6042 6067 5739
6079,6043 6067 5740
6080,6044 6067 5741
6081,6045 6067 5742
6082,6046 6067 5743
6083,6047 6067 5744
6084,6048 6067 5745
6085,6031 5747
6086,6032 6085 5747 5748
6087,6033 6085 5747 5749
6088,6034 6085 5747 5750
6090,6036 6085 5752
6089,6035 6085 5747 5751
6091,6037 6085 5753
6092,6038 6085 5754
6093,6039 6085 5755
6094,6040 6085 5756
6095,6041 6085 5757
6096,6042 6085 5758
6097,6043 6085 5759
6099,6045 6085 5761
6098,6044 6085 5760
6100,6046 6085 5762
6101,6047 6085 5763
6102,6048 6085 5764
6103,6031 5766
6104,6032 6103 5766 5767
6108,6036 6103 5771
6105,6033 6103 5766 5768
6106,6034 6103 5766 5769
6107,6035 6103 5766 5770
6109,6037 6103 5772
6110,6038 6103 5773
6111,6039 6103 5774
6112,6040 6103 5775
6113,6041 6103 5776
6114,6042 6103 5777
6115,6043 6103 5778
6116,6044 6103 5779
6117,6045 6103 5780
6118,6046 6103 5781
6119,6047 6103 5782
6120,6048 6103 5783
6121,6031 5785
6122,6032 6121 5785 5786
6123,6033 6121 5785 5787
6126,6036 6121 5790
6124,6034 6121 5785 5788
6125,6035 6121 5785 5789
6127,6037 6121 5791
6128,6038 6121 5792
6129,6039 6121 5793
6130,6040 6121 5794
6131,6041 6121 5795
6132,6042 6121 5796
6133,6043 6121 5797
6134,6044 6121 5798
6135,6045 6121 5799
6136,6046 6121 5800
6137,6047 6121 5801
6138,6048 6121 5802
6139,6031 5804
6140,6032 6139 5804 5805
6144,6036 6139 5809
6142,6034 6139 5804 5807
6143,6035 6139 5804 5808
6141,6033 6139 5804 5806
6145,6037 6139 5810
6146,6038 6139 5811
6147,6039 6139 5812
6148,6040 6139 5813
6149,6041 6139 5814
6150,6042 6139 5815
6151,6043 6139 5816
6152,6044 6139 5817
6153,6045 6139 5818
6154,6046 6139 5819
6155,6047 6139 5820
6156,6048 6139 5821
6157,6031 5823
6158,6032 6157 5823 5824
6159,6033 6157 5823 5825
6161,6035 6157 5827
6160,6034 6157 5823 5826
6162,6036 6157 5828
6163,6037 6157 5829
6164,6038 6157 5830
6165,6039 6157 5831
6166,6040 6157 5832
6167,6041 6157 5833
6168,6042 6157 5834
6169,6043 6157 5835
6170,6044 6157 5836
6171,6045 6157 5837
6172,6046 6157 5838
6173,6047 6157 5839
6174,6048 6157 5840
6175,6031 5842
6176,6032 6175 5842 5843
6180,6036 6175 5847
6179,6035 6175 5842 5846
6178,6034 6175 5842 5845
6181,6037 6175 5848
6177,6033 6175 5842 5844
6182,6038 6175 5849
6183,6039 6175 5850
6184,6040 6175 5851
6185,6041 6175 5852
6186,6042 6175 5853
6187,6043 6175 5854
6189,6045 6175 5856
6188,6044 6175 5855
6190,6046 6175 5857
6191,6047 6175 5858
6192,6048 6175 5859
6193,6031 5861
6194,6032 6193 5861 5862
6195,6033 6193 5861 5863
6200,6038 6193 5868
6196,6034 6193 5861 5864
6201,6039 6193 5869
6198,6036 6193 5861 5866
6197,6035 6193 5861 5865
6199,6037 6193 5861 5867
6202,6040 6193 5870
6203,6041 6193 5871
6204,6042 6193 5872
6205,6043 6193 5873
6206,6044 6193 5874
6207,6045 6193 5875
6208,6046 6193 5876
6209,6047 6193 5877
6210,6048 6193 5878
6211,6031 5880
6215,6035 6211 5884
6214,6034 6211 5880 5883
6216,6036 6211 5885
6212,6032 6211 5880 5881
6213,6033 6211 5880 5882
6217,6037 6211 5886
6218,6038 6211 5887
6219,6039 6211 5888
6220,6040 6211 5889
6221,6041 6211 5890
6222,6042 6211 5891
6223,6043 6211 5892
6224,6044 6211 5893
6225,6045 6211 5894
6226,6046 6211 5895
6227,6047 6211 5896
6228,6048 6211 5897
6229,6031 5899
6230,6032 6229 5899 5900
6232,6034 6229 5899 5902
6233,6035 6229 5899 5903
6231,6033 6229 5899 5901
6234,6036 6229 5904
6235,6037 6229 5905
6236,6038 6229 5906
6237,6039 6229 5907
6238,6040 6229 5908
6239,6041 6229 5909
6240,6042 6229 5910
6241,6043 6229 5911
6242,6044 6229 5912
6243,6045 6229 5913
6244,6046 6229 5914
6245,6047 6229 5915
6246,6048 6229 5916
6247,6031 5918
6248,6032 6247 5918 5919
6249,6033 6247 5918 5920
6250,6034 6247 5918 5921
6251,6035 6247 5922
6252,6036 6247 5923
6253,6037 6247 5924
6254,6038 6247 5925
6255,6039 6247 5926
6256,6040 6247 5927
6257,6041 6247 5928
6258,6042 6247 5929
6259,6043 6247 5930
6260,6044 6247 5931
6261,6045 6247 5932
6262,6046 6247 5933
6263,6047 6247 5934
6264,6048 6247 5935
6265,6031 5937
6266,6032 6265 5937 5938
6270,6036 6265 5942
6268,6034 6265 5937 5940
6267,6033 6265 5937 5939
6269,6035 6265 5937 5941
6271,6037 6265 5943
6272,6038 6265 5944
6273,6039 6265 5945
6274,6040 6265 5946
6275,6041 6265 5947
6276,6042 6265 5948
6277,6043 6265 5949
6278,6044 6265 5950
6279,6045 6265 5951
6280,6046 6265 5952
6281,6047 6265 5953
6282,6048 6265 5954
6283,6031 5956
6285,6033 6283 5956 5958
6284,6032 6283 5956 5957
6286,6034 6283 5956 5959
6287,6035 6283 5956 5960
6288,6036 6283 5961
6289,6037 6283 5962
6290,6038 6283 5963
6291,6039 6283 5964
6292,6040 6283 5965
6293,6041 6283 5966
6294,6042 6283 5967
6295,6043 6283 5968
6296,6044 6283 5969
6297,6045 6283 5970
6298,6046 6283 5971
6299,6047 6283 5972
6300,6048 6283 5973
6301,6031 5975
6302,6032 6301 5975 5976
6303,6033 6301 5975 5977
6304,6034 6301 5975 5978
6306,6036 6301 5980
6305,6035 6301 5975 5979
6307,6037 6301 5981
6308,6038 6301 5982
6309,6039 6301 5983
6310,6040 6301 5984
6311,6041 6301 5985
6312,6042 6301 5986
6313,6043 6301 5987
6314,6044 6301 5988
6315,6045 6301 5989
6316,6046 6301 5990
6317,6047 6301 5991
6318,6048 6301 5992
6319,6031 5994
6321,6033 6319 5994 5996
6323,6035 6319 5998
6320,6032 6319 5994 5995
6322,6034 6319 5994 5997
6324,6036 6319 5999
6325,6037 6319 6000
6326,6038 6319 6001
6327,6039 6319 6002
6328,6040 6319 6003
6329,6041 6319 6004
6330,6042 6319 6005
6331,6043 6319 6006
6332,6044 6319 6007
6333,6045 6319 6008
6334,6046 6319 6009
6335,6047 6319 6010
6336,6048 6319 6011
6337,6031 6013
6338,6032 6337 6013 6014
6339,6033 6337 6013 6015
6340,6034 6337 6013 6016
6341,6035 6337 6013 6017
6344,6038 6337 6020
6342,6036 6337 6013 6018
6343,6037 6337 6019
6345,6039 6337 6021
6346,6040 6337 6022
6347,6041 6337 6023
6348,6042 6337 6024
6349,6043 6337 6025
6350,6044 6337 6026
6351,6045 6337 6027
6352,6046 6337 6028
6353,6047 6337 6029
6354,6048 6337 6030
6355,6050
6360,6355 6055
6356,6355 6050 6051
6358,6355 6050 6053
6357,6355 6050 6052
6359,6355 6050 6054
6361,6355 6056
6363,6355 6058
6362,6355 6057
6364,6355 6059
6365,6355 6060
6366,6355 6061
6367,6355 6062
6368,6355 6063
6369,6355 6064
6371,6355 6066
6370,6355 6065
6372,6355 6068
6376,6359 6372 6072
6375,6358 6372 6068 6071
6374,6357 6372 6068 6070
6377,6360 6372 6073
6373,6356 6372 6068 6069
6378,6361 6372 6074
6379,6362 6372 6075
6380,6363 6372 6076
6381,6364 6372 6077
6382,6365 6372 6078
6383,6366 6372 6079
6384,6367 6372 6080
6385,6368 6372 6081
6386,6369 6372 6082
6387,6370 6372 6083
6388,6371 6372 6084
6389,6355 6086
6390,6356 6389 6086 6087
6393,6359 6389 6090
6391,6357 6389 6086 6088
6392,6358 6389 6086 6089
6394,6360 6389 6091
6395,6361 6389 6092
6396,6362 6389 6093
6397,6363 6389 6094
6398,6364 6389 6095
6399,6365 6389 6096
6400,6366 6389 6097
6401,6367 6389 6098
6402,6368 6389 6099
6403,6369 6389 6100
6404,6370 6389 6101
6405,6371 6389 6102
6406,6355 6104
6407,6356 6406 6104 6105
6408,6357 6406 6104 6106
6409,6358 6406 6104 6107
6410,6359 6406 6108
6411,6360 6406 6109
6412,6361 6406 6110
6413,6362 6406 6111
6414,6363 6406 6112
6415,6364 6406 6113
6416,6365 6406 6114
6417,6366 6406 6115
6418,6367 6406 6116
6419,6368 6406 6117
6420,6369 6406 6118
6421,6370 6406 6119
6422,6371 6406 6120
6423,6355 6122
6424,6356 6423 6122 6123
6426,6358 6423 6122 6125
6428,6360 6423 6127
6427,6359 6423 6122 6126
6425,6357 6423 6122 6124
6429,6361 6423 6128
6430,6362 6423 6129
6431,6363 6423 6130
6432,6364 6423 6131
6434,6366 6423 6133
6433,6365 6423 6132
6435,6367 6423 6134
6436,6368 6423 6135
6437,6369 6423 6136
6438,6370 6423 6137
6439,6371 6423 6138
6440,6355 6140
6445,6360 6440 6145
6441,6356 6440 6140 6141
6442,6357 6440 6140 6142
6443,6358 6440 6140 6143
6446,6361 6440 6146
6444,6359 6440 6140 6144
6447,6362 6440 6147
6448,6363 6440 6148
6449,6364 6440 6149
6450,6365 6440 6150
6451,6366 6440 6151
6452,6367 6440 6152
6453,6368 6440 6153
6454,6369 6440 6154
6455,6370 6440 6155
6456,6371 6440 6156
6457,6355 6158
6459,6357 6457 6158 6160
6462,6360 6457 6163
6458,6356 6457 6158 6159
6461,6359 6457 6158 6162
6460,6358 6457 6158 6161
6463,6361 6457 6164
6464,6362 6457 6165
6465,6363 6457 6166
6466,6364 6457 6167
6467,6365 6457 6168
6469,6367 6457 6170
6468,6366 6457 6169
6470,6368 6457 6171
6471,6369 6457 6172
6472,6370 6457 6173
6473,6371 6457 6174
6475,6356 6474 6176 6177
6483,6364 6474 6185
6474,6355 6176
6476,6357 6474 6176 6178
6477,6358 6474 6176 6179
6478,6359 6474 6176 6180
6484,6365 6474 6186
6479,6360 6474 6176 6181
6485,6366 6474 6187
6482,6363 6474 6176 6184
6481,6362 6474 6176 6183
6480,6361 6474 6176 6182
6486,6367 6474 6188
6487,6368 6474 6189
6488,6369 6474 6190
6489,6370 6474 6191
6490,6371 6474 6192
6491,6355 6194
6492,6356 6491 6194 6195
6493,6357 6491 6194 6196
6494,6358 6491 6194 6197
6495,6359 6491 6194 6198
6496,6360 6491 6199
6497,6361 6491 6200
6498,6362 6491 6201
6499,6363 6491 6202
6500,6364 6491 6203
6501,6365 6491 6204
6502,6366 6491 6205
6503,6367 6491 6206
6504,6368 6491 6207
6505,6369 6491 6208
6506,6370 6491 6209
6507,6371 6491 6210
6508,6355 6212
6509,6356 6508 6212 6213
6512,6359 6508 6216
6510,6357 6508 6212 6214
6511,6358 6508 6212 6215
6513,6360 6508 6217
6514,6361 6508 6218
6515,6362 6508 6219
6516,6363 6508 6220
6517,6364 6508 6221
6519,6366 6508 6223
6518,6365 6508 6222
6520,6367 6508 6224
6521,6368 6508 6225
6522,6369 6508 6226
6523,6370 6508 6227
6524,6371 6508 6228
6525,6355 6230
6527,6357 6525 6230 6232
6526,6356 6525 6230 6231
6528,6358 6525 6230 6233
6530,6360 6525 6235
6531,6361 6525 6236
6529,6359 6525 6230 6234
6532,6362 6525 6237
6533,6363 6525 6238
6534,6364 6525 6239
6535,6365 6525 6240
6536,6366 6525 6241
6537,6367 6525 6242
6538,6368 6525 6243
6539,6369 6525 6244
6540,6370 6525 6245
6541,6371 6525 6246
6542,6355 6248
6543,6356 6542 6248 6249
6546,6359 6542 6252
6545,6358 6542 6248 6251
6544,6357 6542 6248 6250
6547,6360 6542 6253
6548,6361 6542 6254
6549,6362 6542 6255
6550,6363 6542 6256
6551,6364 6542 6257
6552,6365 6542 6258
6553,6366 6542 6259
6554,6367 6542 6260
6555,6368 6542 6261
6556,6369 6542 6262
6557,6370 6542 6263
6558,6371 6542 6264
6559,6355 6266
6560,6356 6559 6266 6267
6561,6357 6559 6266 6268
6562,6358 6559 6266 6269
6563,6359 6559 6270
6564,6360 6559 6271
6565,6361 6559 6272
6566,6362 6559 6273
6567,6363 6559 6274
6568,6364 6559 6275
6569,6365 6559 6276
6570,6366 6559 6277
6571,6367 6559 6278
6572,6368 6559 6279
6573,6369 6559 6280
6574,6370 6559 6281
6575,6371 6559 6282
6576,6355 6284
6580,6359 6576 6288
6578,6357 6576 6284 6286
6577,6356 6576 6284 6285
6581,6360 6576 6289
6579,6358 6576 6284 6287
6582,6361 6576 6290
6583,6362 6576 6291
6584,6363 6576 6292
6585,6364 6576 6293
6586,6365 6576 6294
6587,6366 6576 6295
6588,6367 6576 6296
6589,6368 6576 6297
6590,6369 6576 6298
6591,6370 6576 6299
6592,6371 6576 6300
6593,6355 6302
6594,6356 6593 6302 6303
6595,6357 6593 6302 6304
6598,6360 6593 6307
6596,6358 6593 6302 6305
6597,6359 6593 6302 6306
6599,6361 6593 6308
6600,6362 6593 6309
6601,6363 6593 6310
6602,6364 6593 6311
6603,6365 6593 6312
6604,6366 6593 6313
6605,6367 6593 6314
6606,6368 6593 6315
6607,6369 6593 6316
6608,6370 6593 6317
6609,6371 6593 6318
6610,6355 6320
6611,6356 6610 6320 6321
6612,6357 6610 6320 6322
6613,6358 6610 6320 6323
6614,6359 6610 6324
6615,6360 6610 6325
6616,6361 6610 6326
6617,6362 6610 6327
6618,6363 6610 6328
6619,6364 6610 6329
6620,6365 6610 6330
6621,6366 6610 6331
6622,6367 6610 6332
6623,6368 6610 6333
6624,6369 6610 6334
6625,6370 6610 6335
6626,6371 6610 6336
6627,6355 6338
6628,6356 6627 6338 6339
6629,6357 6627 6338 6340
6631,6359 6627 6342
6630,6358 6627 6338 6341
6632,6360 6627 6343
6633,6361 6627 6344
6634,6362 6627 6345
6635,6363 6627 6346
6636,6364 6627 6347
6637,6365 6627 6348
6638,6366 6627 6349
6639,6367 6627 6350
6640,6368 6627 6351
6641,6369 6627 6352
6642,6370 6627 6353
6643,6371 6627 6354
6644,6373
6645,6644 6373 6374
6649,6644 6378
6646,6644 6373 6375
6647,6644 6373 6376
6648,6644 6373 6377
6650,6644 6379
6651,6644 6380
6652,6644 6381
6653,6644 6382
6654,6644 6383
6655,6644 6384
6656,6644 6385
6657,6644 6386
6658,6644 6387
6659,6644 6388
6660,6644 6390
6665,6649 6660 6395
6663,6647 6660 6390 6393
6662,6646 6660 6390 6392
6664,6648 6660 6390 6394
6661,6645 6660 6390 6391
6666,6650 6660 6396
6667,6651 6660 6397
6668,6652 6660 6398
6669,6653 6660 6399
6670,6654 6660 6400
6671,6655 6660 6401
6672,6656 6660 6402
6673,6657 6660 6403
6674,6658 6660 6404
6675,6659 6660 6405
6676,6644 6407
6677,6645 6676 6407 6408
6680,6648 6676 6411
6681,6649 6676 6412
6679,6647 6676 6407 6410
6678,6646 6676 6407 6409
6682,6650 6676 6413
6683,6651 6676 6414
6684,6652 6676 6415
6686,6654 6676 6417
6685,6653 6676 6416
6687,6655 6676 6418
6688,6656 6676 6419
6689,6657 6676 6420
6690,6658 6676 6421
6691,6659 6676 6422
6692,6644 6424
6693,6645 6692 6424 6425
6694,6646 6692 6424 6426
6697,6649 6692 6429
6695,6647 6692 6424 6427
6698,6650 6692 6430
6696,6648 6692 6424 6428
6699,6651 6692 6431
6700,6652 6692 6432
6701,6653 6692 6433
6702,6654 6692 6434
6703,6655 6692 6435
6704,6656 6692 6436
6705,6657 6692 6437
6706,6658 6692 6438
6707,6659 6692 6439
6708,6644 6441
6709,6645 6708 6441 6442
6710,6646 6708 6441 6443
6712,6648 6708 6445
6711,6647 6708 6441 6444
6713,6649 6708 6446
6714,6650 6708 6447
6715,6651 6708 6448
6716,6652 6708 6449
6717,6653 6708 6450
6718,6654 6708 6451
6719,6655 6708 6452
6720,6656 6708 6453
6721,6657 6708 6454
6722,6658 6708 6455
6723,6659 6708 6456
6724,6644 6458
6725,6645 6724 6458 6459
6726,6646 6724 6458 6460
6730,6650 6724 6464
6727,6647 6724 6458 6461
6728,6648 6724 6458 6462
6729,6649 6724 6458 6463
6731,6651 6724 6465
6732,6652 6724 6466
6733,6653 6724 6467
6734,6654 6724 6468
6735,6655 6724 6469
6736,6656 6724 6470
6737,6657 6724 6471
6738,6658 6724 6472
6739,6659 6724 6473
6740,6644 6475
6744,6648 6740 6479
6742,6646 6740 6475 6477
6743,6647 6740 6475 6478
6745,6649 6740 6480
6741,6645 6740 6475 6476
6746,6650 6740 6481
6747,6651 6740 6482
6748,6652 6740 6483
6749,6653 6740 6484
6750,6654 6740 6485
6751,6655 6740 6486
6752,6656 6740 6487
6753,6657 6740 6488
6754,6658 6740 6489
6755,6659 6740 6490
6756,6644 6492
6757,6645 6756 6492 6493
6758,6646 6756 6492 6494
6759,6647 6756 6492 6495
6760,6648 6756 6492 6496
6761,6649 6756 6497
6762,6650 6756 6498
6763,6651 6756 6499
6764,6652 6756 6500
6765,6653 6756 6501
6766,6654 6756 6502
6767,6655 6756 6503
6768,6656 6756 6504
6769,6657 6756 6505
6770,6658 6756 6506
6771,6659 6756 6507
6772,6644 6509
6773,6645 6772 6509 6510
6774,6646 6772 6509 6511
6777,6649 6772 6514
6776,6648 6772 6509 6513
6775,6647 6772 6509 6512
6778,6650 6772 6515
6779,6651 6772 6516
6780,6652 6772 6517
6781,6653 6772 6518
6782,6654 6772 6519
6783,6655 6772 6520
6784,6656 6772 6521
6785,6657 6772 6522
6786,6658 6772 6523
6787,6659 6772 6524
6788,6644 6526
6789,6645 6788 6526 6527
6793,6649 6788 6531
6791,6647 6788 6526 6529
6790,6646 6788 6526 6528
6792,6648 6788 6530
6794,6650 6788 6532
6795,6651 6788 6533
6796,6652 6788 6534
6797,6653 6788 6535
6798,6654 6788 6536
6799,6655 6788 6537
6800,6656 6788 6538
6801,6657 6788 6539
6802,6658 6788 6540
6803,6659 6788 6541
6804,6644 6543
6805,6645 6804 6543 6544
6809,6649 6804 6548
6806,6646 6804 6543 6545
6807,6647 6804 6543 6546
6808,6648 6804 6543 6547
6810,6650 6804 6549
6811,6651 6804 6550
6812,6652 6804 6551
6813,6653 6804 6552
6814,6654 6804 6553
6815,6655 6804 6554
6816,6656 6804 6555
6817,6657 6804 6556
6818,6658 6804 6557
6819,6659 6804 6558
6820,6644 6560
6821,6645 6820 6560 6561
6822,6646 6820 6560 6562
6824,6648 6820 6564
6823,6647 6820 6560 6563
6825,6649 6820 6565
6826,6650 6820 6566
6827,6651 6820 6567
6828,6652 6820 6568
6829,6653 6820 6569
6830,6654 6820 6570
6831,6655 6820 6571
6832,6656 6820 6572
6833,6657 6820 6573
6834,6658 6820 6574
6835,6659 6820 6575
6836,6644 6577
6837,6645 6836 6577 6578
6838,6646 6836 6577 6579
6840,6648 6836 6581
6839,6647 6836 6577 6580
6841,6649 6836 6582
6842,6650 6836 6583
6843,6651 6836 6584
6844,6652 6836 6585
6845,6653 6836 6586
6846,6654 6836 6587
6847,6655 6836 6588
6848,6656 6836 6589
6849,6657 6836 6590
6850,6658 6836 6591
6851,6659 6836 6592
6852,6644 6594
6856,6648 6852 6598
6853,6645 6852 6594 6595
6855,6647 6852 6594 6597
6857,6649 6852 6599
6854,6646 6852 6594 6596
6858,6650 6852 6600
6859,6651 6852 6601
6860,6652 6852 6602
6861,6653 6852 6603
6862,6654 6852 6604
6863,6655 6852 6605
6864,6656 6852 6606
6865,6657 6852 6607
6866,6658 6852 6608
6867,6659 6852 6609
6868,6644 6611
6869,6645 6868 6611 6612
6872,6648 6868 6615
6870,6646 6868 6611 6613
6873,6649 6868 6616
6871,6647 6868 6611 6614
6874,6650 6868 6617
6875,6651 6868 6618
6876,6652 6868 6619
6877,6653 6868 6620
6879,6655 6868 6622
6878,6654 6868 6621
6880,6656 6868 6623
6881,6657 6868 6624
6882,6658 6868 6625
6883,6659 6868 6626
6884,6644 6628
6886,6646 6884 6628 6630
6885,6645 6884 6628 6629
6888,6648 6884 6632
6889,6649 6884 6633
6887,6647 6884 6628 6631
6890,6650 6884 6634
6891,6651 6884 6635
6892,6652 6884 6636
6893,6653 6884 6637
6894,6654 6884 6638
6895,6655 6884 6639
6896,6656 6884 6640
6897,6657 6884 6641
6898,6658 6884 6642
6899,6659 6884 6643
6900,6661
6901,6900 6661 6662
6905,6900 6666
6902,6900 6661 6663
6906,6900 6667
6903,6900 6661 6664
6904,6900 6661 6665
6907,6900 6668
6908,6900 6669
6909,6900 6670
6910,6900 6671
6911,6900 6672
6912,6900 6673
6913,6900 6674
6914,6900 6675
6915,6900 6677
6916,6901 6915 6677 6678
6917,6902 6915 6677 6679
6919,6904 6915 6677 6681
6920,6905 6915 6682
6921,6906 6915 6683
6918,6903 6915 6677 6680
6922,6907 6915 6684
6923,6908 6915 6685
6924,6909 6915 6686
6925,6910 6915 6687
6926,6911 6915 6688
6927,6912 6915 6689
6928,6913 6915 6690
6929,6914 6915 6691
6930,6900 6693
6934,6904 6930 6697
6932,6902 6930 6693 6695
6931,6901 6930 6693 6694
6933,6903 6930 6693 6696
6935,6905 6930 6698
6936,6906 6930 6699
6937,6907 6930 6700
6938,6908 6930 6701
6939,6909 6930 6702
6940,6910 6930 6703
6942,6912 6930 6705
6941,6911 6930 6704
6943,6913 6930 6706
6944,6914 6930 6707
6945,6900 6709
6947,6902 6945 6709 6711
6948,6903 6945 6709 6712
6946,6901 6945 6709 6710
6949,6904 6945 6709 6713
6950,6905 6945 6714
6951,6906 6945 6715
6952,6907 6945 6716
6953,6908 6945 6717
6954,6909 6945 6718
6955,6910 6945 6719
6956,6911 6945 6720
6957,6912 6945 6721
6958,6913 6945 6722
6959,6914 6945 6723
6960,6900 6725
6961,6901 6960 6725 6726
6962,6902 6960 6725 6727
6963,6903 6960 6725 6728
6964,6904 6960 6725 6729
6965,6905 6960 6730
6966,6906 6960 6731
6967,6907 6960 6732
6968,6908 6960 6733
6969,6909 6960 6734
6970,6910 6960 6735
6971,6911 6960 6736
6972,6912 6960 6737
6973,6913 6960 6738
6974,6914 6960 6739
6975,6900 6741
6976,6901 6975 6741 6742
6977,6902 6975 6741 6743
6979,6904 6975 6745
6978,6903 6975 6741 6744
6980,6905 6975 6746
6981,6906 6975 6747
6982,6907 6975 6748
6983,6908 6975 6749
6984,6909 6975 6750
6985,6910 6975 6751
6986,6911 6975 6752
6987,6912 6975 6753
6988,6913 6975 6754
6989,6914 6975 6755
6990,6900 6757
6994,6904 6990 6761
6991,6901 6990 6757 6758
6992,6902 6990 6757 6759
6993,6903 6990 6757 6760
6995,6905 6990 6762
6996,6906 6990 6763
6997,6907 6990 6764
6998,6908 6990 6765
6999,6909 6990 6766
7000,6910 6990 6767
7001,6911 6990 6768
7002,6912 6990 6769
7003,6913 6990 6770
7004,6914 6990 6771
7005,6900 6773
7006,6901 7005 6773 6774
7007,6902 7005 6773 6775
7010,6905 7005 6778
7009,6904 7005 6773 6777
7008,6903 7005 6773 6776
7011,6906 7005 6779
7012,6907 7005 6780
7013,6908 7005 6781
7014,6909 7005 6782
7015,6910 7005 6783
7016,6911 7005 6784
7017,6912 7005 6785
7018,6913 7005 6786
7019,6914 7005 6787
7020,6900 6789
7021,6901 7020 6789 6790
7024,6904 7020 6789 6793
7023,6903 7020 6789 6792
7025,6905 7020 6794
7022,6902 7020 6789 6791
7026,6906 7020 6795
7027,6907 7020 6796
7028,6908 7020 6797
7029,6909 7020 6798
7030,6910 7020 6799
7031,6911 7020 6800
7032,6912 7020 6801
7033,6913 7020 6802
7034,6914 7020 6803
7035,6900 6805
7039,6904 7035 6809
7036,6901 7035 6805 6806
7037,6902 7035 6805 6807
7040,6905 7035 6810
7038,6903 7035 6805 6808
7041,6906 7035 6811
7042,6907 7035 6812
7043,6908 7035 6813
7044,6909 7035 6814
7045,6910 7035 6815
7046,6911 7035 6816
7047,6912 7035 6817
7048,6913 7035 6818
7049,6914 7035 6819
7050,6900 6821
7051,6901 7050 6821 6822
7052,6902 7050 6821 6823
7055,6905 7050 6826
7056,6906 7050 6827
7054,6904 7050 6821 6825
7053,6903 7050 6821 6824
7057,6907 7050 6828
7058,6908 7050 6829
7060,6910 7050 6831
7059,6909 7050 6830
7061,6911 7050 6832
7062,6912 7050 6833
7063,6913 7050 6834
7064,6914 7050 6835
7065,6900 6837
7066,6901 7065 6837 6838
7067,6902 7065 6837 6839
7068,6903 7065 6837 6840
7070,6905 7065 6842
7069,6904 7065 6837 6841
7071,6906 7065 6843
7072,6907 7065 6844
7073,6908 7065 6845
7074,6909 7065 6846
7075,6910 7065 6847
7076,6911 7065 6848
7077,6912 7065 6849
7078,6913 7065 6850
7079,6914 7065 6851
7080,6900 6853
7081,6901 7080 6853 6854
7084,6904 7080 6857
7083,6903 7080 6853 6856
7082,6902 7080 6853 6855
7085,6905 7080 6858
7086,6906 7080 6859
7087,6907 7080 6860
7088,6908 7080 6861
7089,6909 7080 6862
7091,6911 7080 6864
7090,6910 7080 6863
7092,6912 7080 6865
7093,6913 7080 6866
7094,6914 7080 6867
7095,6900 6869
7096,6901 7095 6869 6870
7097,6902 7095 6869 6871
7100,6905 7095 6874
7098,6903 7095 6869 6872
7099,6904 7095 6869 6873
7101,6906 7095 6875
7102,6907 7095 6876
7103,6908 7095 6877
7104,6909 7095 6878
7105,6910 7095 6879
7106,6911 7095 6880
7108,6913 7095 6882
7107,6912 7095 6881
7109,6914 7095 6883
7110,6900 6885
7111,6901 7110 6885 6886
7115,6905 7110 6890
7112,6902 7110 6885 6887
7114,6904 7110 6885 6889
7113,6903 7110 6885 6888
7116,6906 7110 6891
7117,6907 7110 6892
7118,6908 7110 6893
7119,6909 7110 6894
7120,6910 7110 6895
7121,6911 7110 6896
7122,6912 7110 6897
7123,6913 7110 6898
7124,6914 7110 6899
7125,6916
7126,7125 6916 6917
7127,7125 6916 6918
7131,7125 6922
7128,7125 6916 6919
7130,7125 6916 6921
7129,7125 6916 6920
7132,7125 6923
7133,7125 6924
7134,7125 6925
7135,7125 6926
7136,7125 6927
7137,7125 6928
7138,7125 6929
7139,7125 6931
7140,7126 7139 6931 6932
7141,7127 7139 6931 6933
7142,7128 7139 6931 6934
7143,7129 7139 6931 6935
7144,7130 7139 6936
7145,7131 7139 6937
7146,7132 7139 6938
7147,7133 7139 6939
7148,7134 7139 6940
7149,7135 7139 6941
7150,7136 7139 6942
7151,7137 7139 6943
7152,7138 7139 6944
7153,7125 6946
7154,7126 7153 6946 6947
7155,7127 7153 6946 6948
7158,7130 7153 6951
7156,7128 7153 6946 6949
7157,7129 7153 6946 6950
7159,7131 7153 6952
7160,7132 7153 6953
7161,7133 7153 6954
7162,7134 7153 6955
7163,7135 7153 6956
7164,7136 7153 6957
7165,7137 7153 6958
7166,7138 7153 6959
7167,7125 6961
7168,7126 7167 6961 6962
7169,7127 7167 6961 6963
7171,7129 7167 6961 6965
7170,7128 7167 6961 6964
7172,7130 7167 6966
7173,7131 7167 6967
7174,7132 7167 6968
7175,7133 7167 6969
7176,7134 7167 6970
7177,7135 7167 6971
7178,7136 7167 6972
7179,7137 7167 6973
7180,7138 7167 6974
7181,7125 6976
7182,7126 7181 6976 6977
7183,7127 7181 6976 6978
7184,7128 7181 6976 6979
7185,7129 7181 6980
7186,7130 7181 6981
7187,7131 7181 6982
7188,7132 7181 6983
7189,7133 7181 6984
7190,7134 7181 6985
7191,7135 7181 6986
7192,7136 7181 6987
7193,7137 7181 6988
7194,7138 7181 6989
7195,7125 6991
7197,7127 7195 6991 6993
7198,7128 7195 6991 6994
7199,7129 7195 6991 6995
7200,7130 7195 6996
7196,7126 7195 6991 6992
7201,7131 7195 6997
7202,7132 7195 6998
7203,7133 7195 6999
7204,7134 7195 7000
7205,7135 7195 7001
7206,7136 7195 7002
7207,7137 7195 7003
7208,7138 7195 7004
7209,7125 7006
7210,7126 7209 7006 7007
7213,7129 7209 7010
7211,7127 7209 7006 7008
7212,7128 7209 7006 7009
7214,7130 7209 7011
7215,7131 7209 7012
7216,7132 7209 7013
7217,7133 7209 7014
7218,7134 7209 7015
7219,7135 7209 7016
7220,7136 7209 7017
7221,7137 7209 7018
7222,7138 7209 7019
7223,7125 7021
7224,7126 7223 7021 7022
7225,7127 7223 7021 7023
7228,7130 7223 7026
7226,7128 7223 7021 7024
7227,7129 7223 7021 7025
7229,7131 7223 7027
7230,7132 7223 7028
7231,7133 7223 7029
7232,7134 7223 7030
7233,7135 7223 7031
7234,7136 7223 7032
7235,7137 7223 7033
7236,7138 7223 7034
7237,7125 7036
7240,7128 7237 7036 7039
7238,7126 7237 7036 7037
7239,7127 7237 7036 7038
7242,7130 7237 7041
7241,7129 7237 7036 7040
7243,7131 7237 7042
7244,7132 7237 7043
7245,7133 7237 7044
7246,7134 7237 7045
7247,7135 7237 7046
7248,7136 7237 7047
7249,7137 7237 7048
7250,7138 7237 7049
7251,7125 7051
7252,7126 7251 7051 7052
7253,7127 7251 7051 7053
7254,7128 7251 7051 7054
7255,7129 7251 7055
7256,7130 7251 7056
7257,7131 7251 7057
7258,7132 7251 7058
7259,7133 7251 7059
7260,7134 7251 7060
7261,7135 7251 7061
7262,7136 7251 7062
7263,7137 7251 7063
7264,7138 7251 7064
7266,7126 7265 7066 7067
7267,7127 7265 7066 7068
7265,7125 7066
7268,7128 7265 7066 7069
7274,7134 7265 7075
7269,7129 7265 7066 7070
7275,7135 7265 7076
7271,7131 7265 7066 7072
7273,7133 7265 7066 7074
7270,7130 7265 7066 7071
7272,7132 7265 7066 7073
7277,7137 7265 7078
7276,7136 7265 7077
7278,7138 7265 7079
7279,7125 7081
7284,7130 7279 7086
7282,7128 7279 7081 7084
7280,7126 7279 7081 7082
7281,7127 7279 7081 7083
7285,7131 7279 7087
7283,7129 7279 7081 7085
7286,7132 7279 7088
7287,7133 7279 7089
7288,7134 7279 7090
7289,7135 7279 7091
7290,7136 7279 7092
7291,7137 7279 7093
7292,7138 7279 7094
7293,7125 7096
7299,7131 7293 7102
7295,7127 7293 7096 7098
7294,7126 7293 7096 7097
7296,7128 7293 7096 7099
7300,7132 7293 7103
7297,7129 7293 7096 7100
7298,7130 7293 7096 7101
7301,7133 7293 7104
7302,7134 7293 7105
7303,7135 7293 7106
7304,7136 7293 7107
7305,7137 7293 7108
7306,7138 7293 7109
7307,7125 7111
7308,7126 7307 7111 7112
7309,7127 7307 7111 7113
7311,7129 7307 7115
7310,7128 7307 7111 7114
7312,7130 7307 7116
7313,7131 7307 7117
7314,7132 7307 7118
7315,7133 7307 7119
7316,7134 7307 7120
7317,7135 7307 7121
7318,7136 7307 7122
7319,7137 7307 7123
7320,7138 7307 7124
7321,7140
7326,7321 7145
7323,7321 7140 7142
7324,7321 7140 7143
7325,7321 7140 7144
7322,7321 7140 7141
7327,7321 7146
7328,7321 7147
7329,7321 7148
7330,7321 7149
7331,7321 7150
7332,7321 7151
7333,7321 7152
7334,7321 7154
7339,7326 7334 7159
7335,7322 7334 7154 7155
7336,7323 7334 7154 7156
7337,7324 7334 7154 7157
7338,7325 7334 7154 7158
7340,7327 7334 7160
7341,7328 7334 7161
7342,7329 7334 7162
7343,7330 7334 7163
7344,7331 7334 7164
7345,7332 7334 7165
7346,7333 7334 7166
7347,7321 7168
7348,7322 7347 7168 7169
7349,7323 7347 7168 7170
7351,7325 7347 7172
7350,7324 7347 7168 7171
7352,7326 7347 7173
7353,7327 7347 7174
7354,7328 7347 7175
7355,7329 7347 7176
7356,7330 7347 7177
7357,7331 7347 7178
7358,7332 7347 7179
7359,7333 7347 7180
7360,7321 7182
7361,7322 7360 7182 7183
7366,7327 7360 7188
7362,7323 7360 7182 7184
7363,7324 7360 7182 7185
7364,7325 7360 7182 7186
7365,7326 7360 7182 7187
7367,7328 7360 7189
7368,7329 7360 7190
7369,7330 7360 7191
7370,7331 7360 7192
7371,7332 7360 7193
7372,7333 7360 7194
7373,7321 7196
7374,7322 7373 7196 7197
7375,7323 7373 7196 7198
7376,7324 7373 7196 7199
7378,7326 7373 7201
7377,7325 7373 7196 7200
7379,7327 7373 7202
7380,7328 7373 7203
7381,7329 7373 7204
7382,7330 7373 7205
7383,7331 7373 7206
7384,7332 7373 7207
7385,7333 7373 7208
7386,7321 7210
7387,7322 7386 7210 7211
7391,7326 7386 7215
7389,7324 7386 7210 7213
7388,7323 7386 7210 7212
7390,7325 7386 7210 7214
7392,7327 7386 7216
7393,7328 7386 7217
7394,7329 7386 7218
7395,7330 7386 7219
7396,7331 7386 7220
7397,7332 7386 7221
7398,7333 7386 7222
7399,7321 7224
7400,7322 7399 7224 7225
7401,7323 7399 7224 7226
7404,7326 7399 7229
7403,7325 7399 7224 7228
7405,7327 7399 7230
7402,7324 7399 7224 7227
7406,7328 7399 7231
7407,7329 7399 7232
7408,7330 7399 7233
7409,7331 7399 7234
7410,7332 7399 7235
7411,7333 7399 7236
7412,7321 7238
7414,7323 7412 7238 7240
7413,7322 7412 7238 7239
7415,7324 7412 7238 7241
7417,7326 7412 7243
7416,7325 7412 7238 7242
7418,7327 7412 7244
7419,7328 7412 7245
7420,7329 7412 7246
7421,7330 7412 7247
7422,7331 7412 7248
7423,7332 7412 7249
7424,7333 7412 7250
7425,7321 7252
7426,7322 7425 7252 7253
7427,7323 7425 7252 7254
7431,7327 7425 7258
7428,7324 7425 7252 7255
7432,7328 7425 7259
7429,7325 7425 7252 7256
7430,7326 7425 7252 7257
7433,7329 7425 7260
7434,7330 7425 7261
7435,7331 7425 7262
7436,7332 7425 7263
7437,7333 7425 7264
7438,7321 7266
7439,7322 7438 7266 7267
7443,7326 7438 7271
7440,7323 7438 7266 7268
7441,7324 7438 7266 7269
7444,7327 7438 7272
7442,7325 7438 7266 7270
7445,7328 7438 7273
7446,7329 7438 7274
7447,7330 7438 7275
7448,7331 7438 7276
7449,7332 7438 7277
7450,7333 7438 7278
7451,7321 7280
7452,7322 7451 7280 7281
7453,7323 7451 7280 7282
7456,7326 7451 7285
7455,7325 7451 7280 7284
7454,7324 7451 7280 7283
7457,7327 7451 7286
7458,7328 7451 7287
7459,7329 7451 7288
7460,7330 7451 7289
7461,7331 7451 7290
7462,7332 7451 7291
7463,7333 7451 7292
7464,7321 7294
7465,7322 7464 7294 7295
7468,7325 7464 7298
7467,7324 7464 7294 7297
7469,7326 7464 7299
7466,7323 7464 7294 7296
7470,7327 7464 7300
7471,7328 7464 7301
7472,7329 7464 7302
7473,7330 7464 7303
7474,7331 7464 7304
7475,7332 7464 7305
7476,7333 7464 7306
7477,7321 7308
7478,7322 7477 7308 7309
7482,7326 7477 7313
7481,7325 7477 7308 7312
7480,7324 7477 7308 7311
7479,7323 7477 7308 7310
7483,7327 7477 7314
7484,7328 7477 7315
7485,7329 7477 7316
7486,7330 7477 7317
7487,7331 7477 7318
7488,7332 7477 7319
7489,7333 7477 7320
7490,7335
7491,7490 7335 7336
7492,7490 7335 7337
7497,7490 7342
7493,7490 7335 7338
7494,7490 7335 7339
7498,7490 7343
7495,7490 7335 7340
7496,7490 7335 7341
7499,7490 7344
7500,7490 7345
7501,7490 7346
7502,7490 7348
7503,7491 7502 7348 7349
7505,7493 7502 7348 7351
7504,7492 7502 7348 7350
7509,7497 7502 7355
7506,7494 7502 7348 7352
7510,7498 7502 7356
7508,7496 7502 7348 7354
7507,7495 7502 7348 7353
7511,7499 7502 7357
7512,7500 7502 7358
7513,7501 7502 7359
7514,7490 7361
7515,7491 7514 7361 7362
7516,7492 7514 7361 7363
7519,7495 7514 7366
7517,7493 7514 7361 7364
7518,7494 7514 7361 7365
7520,7496 7514 7367
7521,7497 7514 7368
7522,7498 7514 7369
7523,7499 7514 7370
7524,7500 7514 7371
7525,7501 7514 7372
7526,7490 7374
7527,7491 7526 7374 7375
7528,7492 7526 7374 7376
7529,7493 7526 7374 7377
7530,7494 7526 7378
7531,7495 7526 7379
7532,7496 7526 7380
7533,7497 7526 7381
7534,7498 7526 7382
7535,7499 7526 7383
7536,7500 7526 7384
7537,7501 7526 7385
7538,7490 7387
7539,7491 7538 7387 7388
7543,7495 7538 7392
7540,7492 7538 7387 7389
7541,7493 7538 7387 7390
7542,7494 7538 7387 7391
7544,7496 7538 7393
7545,7497 7538 7394
7546,7498 7538 7395
7548,7500 7538 7397
7547,7499 7538 7396
7549,7501 7538 7398
7550,7490 7400
7551,7491 7550 7400 7401
7552,7492 7550 7400 7402
7555,7495 7550 7405
7553,7493 7550 7400 7403
7554,7494 7550 7400 7404
7556,7496 7550 7406
7557,7497 7550 7407
7559,7499 7550 7409
7558,7498 7550 7408
7560,7500 7550 7410
7561,7501 7550 7411
7562,7490 7413
7566,7494 7562 7417
7563,7491 7562 7413 7414
7565,7493 7562 7413 7416
7564,7492 7562 7413 7415
7567,7495 7562 7418
7568,7496 7562 7419
7569,7497 7562 7420
7570,7498 7562 7421
7571,7499 7562 7422
7572,7500 7562 7423
7573,7501 7562 7424
7574,7490 7426
7575,7491 7574 7426 7427
7578,7494 7574 7430
7576,7492 7574 7426 7428
7579,7495 7574 7431
7577,7493 7574 7426 7429
7580,7496 7574 7432
7581,7497 7574 7433
7582,7498 7574 7434
7583,7499 7574 7435
7584,7500 7574 7436
7585,7501 7574 7437
7586,7490 7439
7588,7492 7586 7439 7441
7587,7491 7586 7439 7440
7592,7496 7586 7445
7590,7494 7586 7439 7443
7589,7493 7586 7439 7442
7591,7495 7586 7439 7444
7593,7497 7586 7446
7594,7498 7586 7447
7595,7499 7586 7448
7596,7500 7586 7449
7597,7501 7586 7450
7598,7490 7452
7599,7491 7598 7452 7453
7600,7492 7598 7452 7454
7605,7497 7598 7459
7602,7494 7598 7452 7456
7601,7493 7598 7452 7455
7603,7495 7598 7452 7457
7606,7498 7598 7460
7604,7496 7598 7452 7458
7607,7499 7598 7461
7608,7500 7598 7462
7609,7501 7598 7463
7610,7490 7465
7611,7491 7610 7465 7466
7615,7495 7610 7470
7613,7493 7610 7465 7468
7614,7494 7610 7465 7469
7612,7492 7610 7465 7467
7616,7496 7610 7471
7617,7497 7610 7472
7618,7498 7610 7473
7619,7499 7610 7474
7620,7500 7610 7475
7621,7501 7610 7476
7622,7490 7478
7623,7491 7622 7478 7479
7626,7494 7622 7482
7625,7493 7622 7478 7481
7624,7492 7622 7478 7480
7627,7495 7622 7483
7628,7496 7622 7484
7629,7497 7622 7485
7630,7498 7622 7486
7631,7499 7622 7487
7632,7500 7622 7488
7633,7501 7622 7489
7634,7503
7635,7634 7503 7504
7636,7634 7503 7505
7640,7634 7509
7637,7634 7503 7506
7638,7634 7503 7507
7641,7634 7510
7639,7634 7503 7508
7642,7634 7511
7643,7634 7512
7644,7634 7513
7645,7634 7515
7646,7635 7645 7515 7516
7649,7638 7645 7519
7647,7636 7645 7515 7517
7648,7637 7645 7515 7518
7650,7639 7645 7520
7651,7640 7645 7521
7652,7641 7645 7522
7653,7642 7645 7523
7654,7643 7645 7524
7655,7644 7645 7525
7656,7634 7527
7657,7635 7656 7527 7528
7662,7640 7656 7533
7660,7638 7656 7527 7531
7658,7636 7656 7527 7529
7659,7637 7656 7527 7530
7661,7639 7656 7527 7532
7663,7641 7656 7534
7664,7642 7656 7535
7665,7643 7656 7536
7666,7644 7656 7537
7667,7634 7539
7668,7635 7667 7539 7540
7669,7636 7667 7539 7541
7671,7638 7667 7543
7670,7637 7667 7539 7542
7672,7639 7667 7544
7673,7640 7667 7545
7674,7641 7667 7546
7675,7642 7667 7547
7676,7643 7667 7548
7677,7644 7667 7549
7678,7634 7551
7679,7635 7678 7551 7552
7682,7638 7678 7555
7681,7637 7678 7551 7554
7680,7636 7678 7551 7553
7683,7639 7678 7556
7684,7640 7678 7557
7685,7641 7678 7558
7686,7642 7678 7559
7687,7643 7678 7560
7688,7644 7678 7561
7689,7634 7563
7690,7635 7689 7563 7564
7691,7636 7689 7563 7565
7692,7637 7689 7563 7566
7693,7638 7689 7567
7694,7639 7689 7568
7695,7640 7689 7569
7696,7641 7689 7570
7697,7642 7689 7571
7698,7643 7689 7572
7699,7644 7689 7573
7700,7634 7575
7702,7636 7700 7575 7577
7701,7635 7700 7575 7576
7703,7637 7700 7575 7578
7705,7639 7700 7580
7704,7638 7700 7575 7579
7706,7640 7700 7581
7707,7641 7700 7582
7708,7642 7700 7583
7709,7643 7700 7584
7710,7644 7700 7585
7711,7634 7587
7712,7635 7711 7587 7588
7716,7639 7711 7592
7713,7636 7711 7587 7589
7714,7637 7711 7587 7590
7717,7640 7711 7593
7715,7638 7711 7587 7591
7718,7641 7711 7594
7719,7642 7711 7595
7720,7643 7711 7596
7721,7644 7711 7597
7722,7634 7599
7723,7635 7722 7599 7600
7727,7639 7722 7604
7724,7636 7722 7599 7601
7725,7637 7722 7599 7602
7726,7638 7722 7599 7603
7728,7640 7722 7605
7729,7641 7722 7606
7730,7642 7722 7607
7731,7643 7722 7608
7732,7644 7722 7609
7733,7634 7611
7734,7635 7733 7611 7612
7735,7636 7733 7611 7613
7736,7637 7733 7611 7614
7737,7638 7733 7611 7615
7738,7639 7733 7616
7739,7640 7733 7617
7740,7641 7733 7618
7741,7642 7733 7619
7742,7643 7733 7620
7743,7644 7733 7621
7744,7634 7623
7745,7635 7744 7623 7624
7749,7639 7744 7628
7746,7636 7744 7623 7625
7748,7638 7744 7623 7627
7747,7637 7744 7623 7626
7750,7640 7744 7629
7751,7641 7744 7630
7752,7642 7744 7631
7753,7643 7744 7632
7754,7644 7744 7633
7755,7646
7756,7755 7646 7647
7757,7755 7646 7648
7758,7755 7646 7649
7759,7755 7646 7650
7760,7755 7651
7761,7755 7652
7762,7755 7653
7763,7755 7654
7764,7755 7655
7765,7755 7657
7766,7756 7765 7657 7658
7767,7757 7765 7657 7659
7769,7759 7765 7661
7768,7758 7765 7657 7660
7770,7760 7765 7662
7771,7761 7765 7663
7772,7762 7765 7664
7773,7763 7765 7665
7774,7764 7765 7666
7775,7755 7668
7776,7756 7775 7668 7669
7780,7760 7775 7673
7777,7757 7775 7668 7670
7778,7758 7775 7668 7671
7779,7759 7775 7668 7672
7781,7761 7775 7674
7782,7762 7775 7675
7783,7763 7775 7676
7784,7764 7775 7677
7785,7755 7679
7792,7762 7785 7686
7786,7756 7785 7679 7680
7787,7757 7785 7679 7681
7788,7758 7785 7679 7682
7789,7759 7785 7679 7683
7790,7760 7785 7679 7684
7791,7761 7785 7679 7685
7793,7763 7785 7687
7794,7764 7785 7688
7795,7755 7690
7796,7756 7795 7690 7691
7799,7759 7795 7694
7797,7757 7795 7690 7692
7798,7758 7795 7690 7693
7800,7760 7795 7695
7801,7761 7795 7696
7802,7762 7795 7697
7803,7763 7795 7698
7804,7764 7795 7699
7805,7755 7701
7806,7756 7805 7701 7702
7809,7759 7805 7705
7808,7758 7805 7701 7704
7807,7757 7805 7701 7703
7810,7760 7805 7706
7811,7761 7805 7707
7812,7762 7805 7708
7813,7763 7805 7709
7814,7764 7805 7710
7816,7756 7815 7712 7713
7815,7755 7712
7817,7757 7815 7712 7714
7822,7762 7815 7719
7818,7758 7815 7712 7715
7819,7759 7815 7712 7716
7823,7763 7815 7720
7820,7760 7815 7712 7717
7821,7761 7815 7712 7718
7824,7764 7815 7721
7825,7755 7723
7826,7756 7825 7723 7724
7827,7757 7825 7723 7725
7829,7759 7825 7727
7828,7758 7825 7723 7726
7830,7760 7825 7728
7831,7761 7825 7729
7832,7762 7825 7730
7833,7763 7825 7731
7834,7764 7825 7732
7835,7755 7734
7836,7756 7835 7734 7735
7839,7759 7835 7738
7837,7757 7835 7734 7736
7838,7758 7835 7734 7737
7840,7760 7835 7739
7841,7761 7835 7740
7842,7762 7835 7741
7843,7763 7835 7742
7844,7764 7835 7743
7845,7755 7745
7846,7756 7845 7745 7746
7847,7757 7845 7745 7747
7850,7760 7845 7750
7848,7758 7845 7745 7748
7849,7759 7845 7745 7749
7851,7761 7845 7751
7852,7762 7845 7752
7853,7763 7845 7753
7854,7764 7845 7754
7855,7766
7856,7855 7766 7767
7860,7855 7771
7857,7855 7766 7768
7859,7855 7766 7770
7858,7855 7766 7769
7861,7855 7772
7862,7855 7773
7863,7855 7774
7864,7855 7776
7865,7856 7864 7776 7777
7866,7857 7864 7776 7778
7869,7860 7864 7781
7867,7858 7864 7776 7779
7870,7861 7864 7782
7868,7859 7864 7776 7780
7871,7862 7864 7783
7872,7863 7864 7784
7873,7855 7786
7874,7856 7873 7786 7787
7875,7857 7873 7786 7788
7876,7858 7873 7786 7789
7877,7859 7873 7790
7878,7860 7873 7791
7879,7861 7873 7792
7880,7862 7873 7793
7881,7863 7873 7794
7882,7855 7796
7883,7856 7882 7796 7797
7884,7857 7882 7796 7798
7885,7858 7882 7796 7799
7886,7859 7882 7796 7800
7887,7860 7882 7801
7888,7861 7882 7802
7889,7862 7882 7803
7890,7863 7882 7804
7891,7855 7806
7897,7861 7891 7812
7894,7858 7891 7806 7809
7892,7856 7891 7806 7807
7898,7862 7891 7813
7895,7859 7891 7806 7810
7893,7857 7891 7806 7808
7896,7860 7891 7806 7811
7899,7863 7891 7814
7900,7855 7816
7901,7856 7900 7816 7817
7902,7857 7900 7816 7818
7903,7858 7900 7816 7819
7904,7859 7900 7820
7905,7860 7900 7821
7906,7861 7900 7822
7907,7862 7900 7823
7908,7863 7900 7824
7909,7855 7826
7910,7856 7909 7826 7827
7913,7859 7909 7830
7911,7857 7909 7826 7828
7912,7858 7909 7826 7829
7914,7860 7909 7831
7915,7861 7909 7832
7916,7862 7909 7833
7917,7863 7909 7834
7918,7855 7836
7919,7856 7918 7836 7837
7921,7858 7918 7836 7839
7923,7860 7918 7836 7841
7925,7862 7918 7843
7922,7859 7918 7836 7840
7926,7863 7918 7844
7920,7857 7918 7836 7838
7924,7861 7918 7836 7842
7927,7855 7846
7928,7856 7927 7846 7847
7931,7859 7927 7850
7929,7857 7927 7846 7848
7930,7858 7927 7846 7849
7932,7860 7927 7851
7933,7861 7927 7852
7934,7862 7927 7853
7935,7863 7927 7854
7936,7865
7937,7936 7865 7866
7938,7936 7865 7867
7942,7936 7871
7939,7936 7865 7868
7940,7936 7865 7869
7941,7936 7865 7870
7943,7936 7872
7944,7936 7874
7945,7937 7944 7874 7875
7946,7938 7944 7874 7876
7948,7940 7944 7878
7947,7939 7944 7874 7877
7949,7941 7944 7879
7950,7942 7944 7880
7951,7943 7944 7881
7952,7936 7883
7957,7941 7952 7888
7953,7937 7952 7883 7884
7954,7938 7952 7883 7885
7955,7939 7952 7883 7886
7956,7940 7952 7883 7887
7958,7942 7952 7889
7959,7943 7952 7890
7960,7936 7892
7961,7937 7960 7892 7893
7962,7938 7960 7892 7894
7963,7939 7960 7892 7895
7964,7940 7960 7896
7965,7941 7960 7897
7966,7942 7960 7898
7967,7943 7960 7899
7969,7937 7968 7901 7902
7968,7936 7901
7970,7938 7968 7901 7903
7974,7942 7968 7907
7971,7939 7968 7901 7904
7972,7940 7968 7901 7905
7975,7943 7968 7908
7973,7941 7968 7901 7906
7976,7936 7910
7977,7937 7976 7910 7911
7978,7938 7976 7910 7912
7979,7939 7976 7910 7913
7981,7941 7976 7915
7980,7940 7976 7910 7914
7982,7942 7976 7916
7983,7943 7976 7917
7984,7936 7919
7989,7941 7984 7924
7985,7937 7984 7919 7920
7987,7939 7984 7919 7922
7986,7938 7984 7919 7921
7988,7940 7984 7919 7923
7990,7942 7984 7925
7991,7943 7984 7926
7993,7937 7992 7928 7929
7992,7936 7928
7994,7938 7992 7928 7930
7999,7943 7992 7935
7995,7939 7992 7928 7931
7996,7940 7992 7928 7932
7997,7941 7992 7928 7933
7998,7942 7992 7928 7934
8000,7945
8001,8000 7945 7946
8002,8000 7945 7947
8004,8000 7949
8003,8000 7945 7948
8005,8000 7950
8006,8000 7951
8007,8000 7953
8008,8001 8007 7953 7954
8011,8004 8007 7957
8010,8003 8007 7953 7956
8009,8002 8007 7953 7955
8012,8005 8007 7958
8013,8006 8007 7959
8014,8000 7961
8015,8001 8014 7961 7962
8016,8002 8014 7961 7963
8019,8005 8014 7966
8017,8003 8014 7961 7964
8018,8004 8014 7961 7965
8020,8006 8014 7967
8021,8000 7969
8022,8001 8021 7969 7970
8023,8002 8021 7969 7971
8026,8005 8021 7974
8025,8004 8021 7969 7973
8027,8006 8021 7975
8024,8003 8021 7969 7972
8028,8000 7977
8029,8001 8028 7977 7978
8032,8004 8028 7981
8030,8002 8028 7977 7979
8031,8003 8028 7977 7980
8033,8005 8028 7982
8034,8006 8028 7983
8035,8000 7985
8036,8001 8035 7985 7986
8039,8004 8035 7989
8037,8002 8035 7985 7987
8038,8003 8035 7985 7988
8040,8005 8035 7990
8041,8006 8035 7991
8043,8001 8042 7993 7994
8042,8000 7993
8044,8002 8042 7993 7995
8045,8003 8042 7993 7996
8047,8005 8042 7993 7998
8048,8006 8042 7993 7999
8046,8004 8042 7993 7997
8049,8008
8050,8049 8008 8009
8051,8049 8008 8010
8053,8049 8008 8012
8052,8049 8008 8011
8054,8049 8013
8055,8049 8015
8056,8050 8009 8055 8015 8016
8057,8051 8010 8055 8015 8017
8060,8054 8055 8020
8058,8052 8011 8055 8015 8018
8059,8053 8055 8015 8019
8061,8049 8022
8062,8050 8061 8022 8023
8063,8051 8061 8022 8024
8065,8053 8061 8026
8064,8052 8061 8022 8025
8066,8054 8061 8027
8067,8049 8029
8068,8050 8067 8029 8030
8069,8051 8067 8029 8031
8070,8052 8067 8029 8032
8071,8053 8067 8033
8072,8054 8067 8034
8073,8049 8036
8074,8050 8073 8036 8037
8075,8051 8073 8036 8038
8077,8053 8073 8040
8076,8052 8073 8036 8039
8078,8054 8073 8041
8079,8049 8043
8081,8051 8079 8043 8045
8080,8050 8079 8043 8044
8082,8052 8079 8043 8046
8084,8054 8079 8048
8083,8053 8079 8043 8047
8085,8056
8086,8085 8056 8057
8087,8085 8056 8058
8088,8085 8056 8059
8089,8085 8056 8060
8090,8085 8062
8091,8086 8057 8090 8062 8063
8092,8087 8058 8090 8062 8064
8093,8088 8059 8090 8062 8065
8094,8089 8060 8090 8062 8066
8095,8085 8068
8098,8088 8095 8068 8071
8096,8086 8095 8068 8069
8097,8087 8095 8068 8070
8099,8089 8095 8068 8072
8100,8085 8074
8101,8086 8100 8074 8075
8104,8089 8100 8078
8102,8087 8100 8074 8076
8103,8088 8100 8074 8077
8105,8085 8080
8106,8086 8105 8080 8081
8107,8087 8105 8080 8082
8108,8088 8105 8080 8083
8110,8091
8109,8089 8105 8080 8084
8111,8110 8091 8092
8113,8110 8091 8094
8112,8110 8091 8093
8114,8110 8096
8115,8111 8092 8114 8096 8097
8116,8112 8093 8114 8096 8098
8117,8113 8094 8114 8096 8099
8118,8110 8101
8119,8111 8118 8101 8102
8120,8112 8118 8101 8103
8121,8113 8118 8101 8104
8122,8110 8106
8123,8111 8122 8106 8107
8124,8112 8122 8106 8108
8125,8113 8122 8106 8109
8126,8115
8127,8126 8115 8116
8128,8126 8115 8117
8129,8126 8115 8119
8132,8126 8123
8131,8128 8117 8129 8119 8121
8130,8127 8116 8129 8119 8120
8133,8127 8116 8132 8123 8124
8134,8128 8117 8132 8123 8125
8135,8130 8120
8137,8135 8120 8133 8124
8136,8135 8120 8131 8121
8138,8136 8121 8137 8124 8134 8125
8139,8138 8125
8141,5270
8140,8141
8143,5271
8142,8143
8145,5272
8144,8145
8147,5273
8146,8147
8149,5274
8148,8149
8151,5275
8150,8151
8153,5276
8152,8153
8155,5277
8154,8155
8157,5278
8156,8157
8159,5279
8158,8159
8161,5280
8160,8161
8163,5281
8162,8163
8165,5282
8164,8165
8167,5283
8166,8167
8169,5284
8168,8169
8171,5285
8170,8171
8173,5286
8172,8173
8175,5287
8174,8175
8177,5288
8176,8177
8179,5289
8178,8179
8181,5290
8180,8181
8183,5670
8182,8183
8185,5671
8184,8185
8187,5672
8186,8187
8189,5673
8188,8189
8191,5674
8190,8191
8193,5675
8192,8193
8195,5676
8194,8195
8197,5677
8196,8197
8199,5678
8198,8199
8201,5679
8200,8201
8203,5680
8202,8203
8205,5681
8204,8205
8207,5682
8206,8207
8209,5683
8208,8209
8211,5684
8210,8211
8213,5685
8212,8213
8215,5686
8214,8215
8217,5687
8216,8217
8219,5688
8218,8219
8221,5310
8220,8221
8223,5689
8222,8223
8225,6031
8224,8225
8227,6032
8226,8227
8229,6033
8228,8229
8231,6034
8230,8231
8233,6035
8232,8233
8235,6036
8234,8235
8237,6037
8236,8237
8239,6038
8238,8239
8241,6039
8240,8241
8243,6040
8242,8243
8245,6041
8244,8245
8247,6042
8246,8247
8249,6043
8248,8249
8251,6044
8250,8251
8253,6045
8252,8253
8255,6046
8254,8255
8257,6047
8256,8257
8259,6048
8258,8259
8261,5330
8260,8261
8263,5708
8262,8263
8265,6049
8264,8265
8267,6355
8266,8267
8269,6356
8268,8269
8271,6357
8270,8271
8273,6358
8272,8273
8275,6359
8274,8275
8277,6360
8276,8277
8279,6361
8278,8279
8281,6362
8280,8281
8283,6363
8282,8283
8285,6364
8284,8285
8287,6365
8286,8287
8289,6366
8288,8289
8291,6367
8290,8291
8293,6368
8292,8293
8295,6369
8294,8295
8297,6370
8296,8297
8299,6371
8298,8299
8301,5350
8300,8301
8303,5727
8302,8303
8305,6067
8304,8305
8307,6372
8306,8307
8309,6644
8308,8309
8311,6645
8310,8311
8313,6646
8312,8313
8315,6647
8314,8315
8317,6648
8316,8317
8319,6649
8318,8319
8321,6650
8320,8321
8323,6651
8322,8323
8325,6652
8324,8325
8327,6653
8326,8327
8329,6654
8328,8329
8331,6655
8330,8331
8333,6656
8332,8333
8335,6657
8334,8335
8337,6658
8336,8337
8339,6659
8338,8339
8341,5370
8340,8341
8343,5746
8342,8343
8345,6085
8344,8345
8347,6389
8346,8347
8349,6660
8348,8349
8351,6900
8350,8351
8353,6901
8352,8353
8355,6902
8354,8355
8357,6903
8356,8357
8359,6904
8358,8359
8361,6905
8360,8361
8363,6906
8362,8363
8365,6907
8364,8365
8367,6908
8366,8367
8369,6909
8368,8369
8371,6910
8370,8371
8373,6911
8372,8373
8375,6912
8374,8375
8377,6913
8376,8377
8379,6914
8378,8379
8381,5390
8380,8381
8383,5765
8382,8383
8385,6103
8384,8385
8387,6406
8386,8387
8389,6676
8388,8389
8391,6915
8390,8391
8393,7125
8392,8393
8395,7126
8394,8395
8397,7127
8396,8397
8399,7128
8398,8399
8401,7129
8400,8401
8403,7130
8402,8403
8405,7131
8404,8405
8407,7132
8406,8407
8409,7133
8408,8409
8411,7134
8410,8411
8413,7135
8412,8413
8415,7136
8414,8415
8417,7137
8416,8417
8419,7138
8418,8419
8421,5410
8420,8421
8423,5784
8422,8423
8425,6121
8424,8425
8427,6423
8426,8427
8429,6692
8428,8429
8431,6930
8430,8431
8433,7139
8432,8433
8435,7321
8434,8435
8437,7322
8436,8437
8439,7323
8438,8439
8441,7324
8440,8441
8443,7325
8442,8443
8445,7326
8444,8445
8447,7327
8446,8447
8449,7328
8448,8449
8451,7329
8450,8451
8453,7330
8452,8453
8455,7331
8454,8455
8457,7332
8456,8457
8459,7333
8458,8459
8461,5430
8460,8461
8463,5803
8462,8463
8465,6139
8464,8465
8467,6440
8466,8467
8469,6708
8468,8469
8471,6945
8470,8471
8473,7153
8472,8473
8475,7334
8474,8475
8477,7490
8476,8477
8479,7491
8478,8479
8481,7492
8480,8481
8483,7493
8482,8483
8485,7494
8484,8485
8487,7495
8486,8487
8489,7496
8488,8489
8491,7497
8490,8491
8493,7498
8492,8493
8495,7499
8494,8495
8497,7500
8496,8497
8499,7501
8498,8499
8501,5450
8500,8501
8503,5822
8502,8503
8505,6157
8504,8505
8507,6457
8506,8507
8509,6724
8508,8509
8511,6960
8510,8511
8513,7167
8512,8513
8515,7347
8514,8515
8517,7502
8516,8517
8519,7634
8518,8519
8521,7635
8520,8521
8523,7636
8522,8523
8525,7637
8524,8525
8527,7638
8526,8527
8529,7639
8528,8529
8531,7640
8530,8531
8533,7641
8532,8533
8535,7642
8534,8535
8537,7643
8536,8537
8539,7644
8538,8539
8541,5470
8540,8541
8543,5841
8542,8543
8545,6175
8544,8545
8547,6474
8546,8547
8549,6740
8548,8549
8551,6975
8550,8551
8553,7181
8552,8553
8555,7360
8554,8555
8557,7514
8556,8557
8559,7645
8558,8559
8561,7755
8560,8561
8563,7756
8562,8563
8565,7757
8564,8565
8567,7758
8566,8567
8569,7759
8568,8569
8571,7760
8570,8571
8573,7761
8572,8573
8575,7762
8574,8575
8577,7763
8576,8577
8579,7764
8578,8579
8581,5490
8580,8581
8583,5860
8582,8583
8585,6193
8584,8585
8587,6491
8586,8587
8589,6756
8588,8589
8591,6990
8590,8591
8593,7195
8592,8593
8595,7373
8594,8595
8597,7526
8596,8597
8599,7656
8598,8599
8601,7765
8600,8601
8603,7855
8602,8603
8605,7856
8604,8605
8607,7857
8606,8607
8609,7858
8608,8609
8611,7859
8610,8611
8613,7860
8612,8613
8615,7861
8614,8615
8617,7862
8616,8617
8619,7863
8618,8619
8621,5510
8620,8621
8623,5879
8622,8623
8625,6211
8624,8625
8627,6508
8626,8627
8629,6772
8628,8629
8631,7005
8630,8631
8633,7209
8632,8633
8635,7386
8634,8635
8637,7538
8636,8637
8639,7667
8638,8639
8641,7775
8640,8641
8643,7864
8642,8643
8645,7936
8644,8645
8647,7937
8646,8647
8649,7938
8648,8649
8651,7939
8650,8651
8653,7940
8652,8653
8655,7941
8654,8655
8657,7942
8656,8657
8659,7943
8658,8659
8661,5530
8660,8661
8663,5898
8662,8663
8665,6229
8664,8665
8667,6525
8666,8667
8669,6788
8668,8669
8671,7020
8670,8671
8673,7223
8672,8673
8675,7399
8674,8675
8677,7550
8676,8677
8679,7678
8678,8679
8681,7785
8680,8681
8683,7873
8682,8683
8685,7944
8684,8685
8687,8000
8686,8687
8689,8001
8688,8689
8691,8002
8690,8691
8693,8003
8692,8693
8695,8004
8694,8695
8697,8005
8696,8697
8699,8006
8698,8699
8701,5550
8700,8701
8703,5917
8702,8703
8705,6247
8704,8705
8707,6542
8706,8707
8709,6804
8708,8709
8711,7035
8710,8711
8713,7237
8712,8713
8715,7412
8714,8715
8717,7562
8716,8717
8719,7689
8718,8719
8721,7795
8720,8721
8723,7882
8722,8723
8725,7952
8724,8725
8727,8007
8726,8727
8729,8049
8728,8729
8731,8050
8730,8731
8733,8051
8732,8733
8735,8052
8734,8735
8737,8053
8736,8737
8739,8054
8738,8739
8741,5570
8740,8741
8743,5936
8742,8743
8745,6265
8744,8745
8747,6559
8746,8747
8749,6820
8748,8749
8751,7050
8750,8751
8753,7251
8752,8753
8755,7425
8754,8755
8757,7574
8756,8757
8759,7700
8758,8759
8761,7805
8760,8761
8763,7891
8762,8763
8765,7960
8764,8765
8767,8014
8766,8767
8769,8055
8768,8769
8771,8085
8770,8771
8773,8086
8772,8773
8775,8087
8774,8775
8777,8088
8776,8777
8779,8089
8778,8779
8781,5590
8780,8781
8783,5955
8782,8783
8785,6283
8784,8785
8787,6576
8786,8787
8789,6836
8788,8789
8791,7065
8790,8791
8793,7265
8792,8793
8795,7438
8794,8795
8797,7586
8796,8797
8799,7711
8798,8799
8801,7815
8800,8801
8803,7900
8802,8803
8805,7968
8804,8805
8807,8021
8806,8807
8809,8061
8808,8809
8811,8090
8810,8811
8813,8110
8812,8813
8815,8111
8814,8815
8817,8112
8816,8817
8819,8113
8818,8819
8821,5610
8820,8821
8823,5974
8822,8823
8825,6301
8824,8825
8827,6593
8826,8827
8829,6852
8828,8829
8831,7080
8830,8831
8833,7279
8832,8833
8835,7451
8834,8835
8837,7598
8836,8837
8839,7722
8838,8839
8841,7825
8840,8841
8843,7909
8842,8843
8845,7976
8844,8845
8847,8028
8846,8847
8849,8067
8848,8849
8851,8095
8850,8851
8853,8114
8852,8853
8855,8126
8854,8855
8857,8127
8856,8857
8859,8128
8858,8859
8861,5630
8860,8861
8863,5993
8862,8863
8865,6319
8864,8865
8867,6610
8866,8867
8869,6868
8868,8869
8871,7095
8870,8871
8873,7293
8872,8873
8875,7464
8874,8875
8877,7610
8876,8877
8879,7733
8878,8879
8881,7835
8880,8881
8883,7918
8882,8883
8885,7984
8884,8885
8887,8035
8886,8887
8889,8073
8888,8889
8891,8100
8890,8891
8893,8118
8892,8893
8895,8129
8894,8895
8897,8135
8896,8897
8899,8136
8898,8899
8901,5650
8900,8901
8903,6012
8902,8903
8905,6337
8904,8905
8907,6627
8906,8907
8909,6884
8908,8909
8911,7110
8910,8911
8913,7307
8912,8913
8915,7477
8914,8915
8917,7622
8916,8917
8919,7744
8918,8919
8921,7845
8920,8921
8923,7927
8922,8923
8925,7992
8924,8925
8927,8042
8926,8927
8929,8079
8928,8929
8931,8105
8930,8931
8933,8122
8932,8933
8935,8132
8934,8935
8937,8137
8936,8937
8939,8139
8938,8939
