985,885
986,985 885 895
987,985 885 905
991,985 885 945
990,985 885 935
1015,985 885 888
1005,985 885 887
1035,985 890
992,985 885 955
989,985 885 925
994,985 885 975
993,985 885 965
988,985 885 915
1025,985 885 889
1045,985 891
1055,985 892
1065,985 893
995,985 885 886
1075,985 894
1016,986 895 1015 888 898
1007,987 905 1005 887 907
1021,991 945 1015 888 948
1017,987 905 1015 888 908
1010,990 935 1005 887 937
1011,991 945 1005 887 947
1036,986 895 1035 890 900
1006,986 895 1005 887 897
1020,990 935 1015 888 938
1014,994 975 1005 887 977
1046,986 895 1045 891 901
1009,989 925 1005 887 927
1012,992 955 1005 887 957
1008,988 915 1005 887 917
1013,993 965 1005 887 967
1026,986 895 1025 889 899
1066,986 895 1065 893 903
1056,986 895 1055 892 902
1076,986 895 1075 894 904
1067,987 905 1065 893 913
1047,987 905 1045 891 911
1037,987 905 1035 890 910
1068,988 915 1065 893 923
1040,990 935 1035 890 940
1069,989 925 1065 893 933
1041,991 945 1035 890 950
1048,988 915 1045 891 921
996,986 895 995 886 896
1024,994 975 1015 888 978
1023,993 965 1015 888 968
1022,992 955 1015 888 958
1044,994 975 1035 890 980
1043,993 965 1035 890 970
1018,988 915 1015 888 918
1019,989 925 1015 888 928
1027,987 905 1025 889 909
1070,990 935 1065 893 943
1057,987 905 1055 892 912
1077,987 905 1075 894 914
1071,991 945 1065 893 953
1049,989 925 1045 891 931
1078,988 915 1075 894 924
1072,992 955 1065 893 963
1079,989 925 1075 894 934
1073,993 965 1065 893 973
1080,990 935 1075 894 944
1050,990 935 1045 891 941
1038,988 915 1035 890 920
1039,989 925 1035 890 930
998,988 915 995 886 916
1074,994 975 1065 893 983
997,987 905 995 886 906
1042,992 955 1035 890 960
1000,990 935 995 886 936
999,989 925 995 886 926
1028,988 915 1025 889 919
1085,996 896
1081,991 945 1075 894 954
1058,988 915 1055 892 922
1082,992 955 1075 894 964
1051,991 945 1045 891 951
1083,993 965 1075 894 974
1084,994 975 1075 894 984
1052,992 955 1045 891 961
1053,993 965 1045 891 971
1054,994 975 1045 891 981
1029,989 925 1025 889 929
1030,990 935 1025 889 939
1086,1085 896 997 906
1002,992 955 995 886 956
1001,991 945 995 886 946
1003,993 965 995 886 966
1034,994 975 1025 889 979
1032,992 955 1025 889 959
1031,991 945 1025 889 949
1004,994 975 995 886 976
1033,993 965 1025 889 969
1059,989 925 1055 892 932
1060,990 935 1055 892 942
1061,991 945 1055 892 952
1087,1085 896 998 916
1103,1085 896 1016 898
1063,993 965 1055 892 972
1062,992 955 1055 892 962
1064,994 975 1055 892 982
1094,1085 896 1006 897
1088,1085 896 999 926
1112,1085 896 1026 899
1089,1085 896 1000 936
1091,1085 896 1002 956
1093,1085 896 1004 976
1090,1085 896 1001 946
1092,1085 896 1003 966
1139,1085 896 1056 902
1130,1085 896 1046 901
1121,1085 896 1036 900
1148,1085 896 1066 903
1157,1085 896 1076 904
1105,1087 916 1103 898 1018 918
1104,1086 906 1103 898 1017 908
1096,1087 916 1094 897 1008 917
1106,1088 926 1103 898 1019 928
1095,1086 906 1094 897 1007 907
1097,1088 926 1094 897 1009 927
1113,1086 906 1112 899 1027 909
1114,1087 916 1112 899 1028 919
1098,1089 936 1094 897 1010 937
1115,1088 926 1112 899 1029 929
1102,1093 976 1094 897 1014 977
1107,1089 936 1103 898 1020 938
1100,1091 956 1094 897 1012 957
1099,1090 946 1094 897 1011 947
1101,1092 966 1094 897 1013 967
1140,1086 906 1139 902 1057 912
1131,1086 906 1130 901 1047 911
1122,1086 906 1121 900 1037 910
1149,1086 906 1148 903 1067 913
1158,1086 906 1157 904 1077 914
1166,1095 1007
1111,1093 976 1103 898 1024 978
1120,1093 976 1112 899 1034 979
1150,1087 916 1148 903 1068 923
1151,1088 926 1148 903 1069 933
1152,1089 936 1148 903 1070 943
1153,1090 946 1148 903 1071 953
1154,1091 956 1148 903 1072 963
1155,1092 966 1148 903 1073 973
1159,1087 916 1157 904 1078 924
1156,1093 976 1148 903 1074 983
1167,1166 1007 1096 1008
1116,1089 936 1112 899 1030 939
1174,1166 1007 1104 1017
1110,1092 966 1103 898 1023 968
1109,1091 956 1103 898 1022 958
1108,1090 946 1103 898 1021 948
1168,1166 1007 1097 1009
1123,1087 916 1121 900 1038 920
1161,1089 936 1157 904 1080 944
1141,1087 916 1139 902 1058 922
1132,1087 916 1130 901 1048 921
1160,1088 926 1157 904 1079 934
1182,1166 1007 1113 909
1190,1166 1007 1122 910
1169,1166 1007 1098 1010
1170,1166 1007 1099 1011
1198,1166 1007 1131 911
1171,1166 1007 1100 1012
1206,1166 1007 1140 912
1172,1166 1007 1101 1013
1162,1090 946 1157 904 1081 954
1133,1088 926 1130 901 1049 931
1175,1167 1008 1174 1017 1105 918
1176,1168 1009 1174 1017 1106 928
1119,1092 966 1112 899 1033 969
1183,1167 1008 1182 909 1114 919
1118,1091 956 1112 899 1032 959
1117,1090 946 1112 899 1031 949
1177,1169 1010 1174 1017 1107 1020
1191,1167 1008 1190 910 1123 920
1142,1088 926 1139 902 1059 932
1163,1091 956 1157 904 1082 964
1124,1088 926 1121 900 1039 930
1134,1089 936 1130 901 1050 941
1164,1092 966 1157 904 1083 974
1178,1170 1011 1174 1017 1108 1021
1199,1167 1008 1198 911 1132 921
1179,1171 1012 1174 1017 1109 958
1207,1167 1008 1206 912 1141 922
1230,1175 918
1214,1166 1007 1149 1067
1165,1093 976 1157 904 1084 984
1200,1168 1009 1198 911 1133 931
1185,1169 1010 1182 909 1116 939
1173,1166 1007 1102 1014
1222,1166 1007 1158 914
1184,1168 1009 1182 909 1115 929
1188,1172 1013 1182 909 1119 969
1186,1170 1011 1182 909 1117 949
1187,1171 1012 1182 909 1118 959
1180,1172 1013 1174 1017 1110 968
1145,1091 956 1139 902 1062 962
1135,1090 946 1130 901 1051 951
1143,1089 936 1139 902 1060 942
1125,1089 936 1121 900 1040 940
1144,1090 946 1139 902 1061 952
1208,1168 1009 1206 912 1142 932
1146,1092 966 1139 902 1063 972
1231,1230 918 1176 928
1147,1093 976 1139 902 1064 982
1215,1167 1008 1214 1067 1150 1068
1237,1230 918 1183 919
1126,1090 946 1121 900 1041 950
1181,1173 1014 1174 1017 1111 978
1136,1091 956 1130 901 1052 961
1223,1167 1008 1222 914 1159 924
1189,1173 1014 1182 909 1120 979
1235,1230 918 1180 968
1201,1169 1010 1198 911 1134 941
1232,1230 918 1177 1020
1211,1171 1012 1206 912 1145 962
1192,1168 1009 1190 910 1124 930
1137,1092 966 1130 901 1053 971
1212,1172 1013 1206 912 1146 972
1265,1230 918 1215 1068
1213,1173 1014 1206 912 1147 982
1202,1170 1011 1198 911 1135 951
1209,1169 1010 1206 912 1143 942
1210,1170 1011 1206 912 1144 952
1127,1091 956 1121 900 1042 960
1193,1169 1010 1190 910 1125 940
1238,1231 928 1237 919 1184 929
1236,1230 918 1181 978
1272,1230 918 1223 924
1194,1170 1011 1190 910 1126 950
1203,1171 1012 1198 911 1136 961
1221,1173 1014 1214 1067 1156 983
1242,1235 968 1237 919 1188 969
1244,1230 918 1191 920
1233,1230 918 1178 1021
1224,1168 1009 1222 914 1160 934
1138,1093 976 1130 901 1054 981
1279,1238 929
1225,1169 1010 1222 914 1161 944
1128,1092 966 1121 900 1043 970
1204,1172 1013 1198 911 1137 971
1216,1168 1009 1214 1067 1151 1069
1129,1093 976 1121 900 1044 980
1195,1171 1012 1190 910 1127 960
1219,1171 1012 1214 1067 1154 963
1217,1169 1010 1214 1067 1152 943
1218,1170 1011 1214 1067 1153 953
1243,1236 978 1237 919 1189 979
1226,1170 1011 1222 914 1162 954
1220,1172 1013 1214 1067 1155 973
1271,1236 978 1265 1068 1221 983
1251,1230 918 1199 921
1234,1230 918 1179 958
1258,1230 918 1207 922
1240,1233 1021 1237 919 1186 949
1283,1279 929 1242 969
1273,1231 928 1272 924 1224 934
1274,1232 1020 1272 924 1225 944
1205,1173 1014 1198 911 1138 981
1266,1231 928 1265 1068 1216 1069
1196,1172 1013 1190 910 1128 970
1247,1233 1021 1244 920 1194 950
1197,1173 1014 1190 910 1129 980
1284,1279 929 1243 979
1267,1232 1020 1265 1068 1217 943
1268,1233 1021 1265 1068 1218 953
1239,1232 1020 1237 919 1185 939
1245,1231 928 1244 920 1192 930
1227,1171 1012 1222 914 1163 964
1246,1232 1020 1244 920 1193 940
1241,1234 958 1237 919 1187 959
1270,1235 968 1265 1068 1220 973
1252,1231 928 1251 921 1200 931
1259,1231 928 1258 922 1208 932
1281,1279 929 1240 949
1309,1279 929 1273 934
1248,1234 958 1244 920 1195 960
1228,1172 1013 1222 914 1164 974
1303,1279 929 1266 1069
1257,1236 978 1251 921 1205 981
1249,1235 968 1244 920 1196 970
1260,1232 1020 1258 922 1209 942
1253,1232 1020 1251 921 1201 941
1285,1279 929 1245 930
1280,1279 929 1239 939
1250,1236 978 1244 920 1197 980
1256,1235 968 1251 921 1204 971
1254,1233 1021 1251 921 1202 951
1229,1173 1014 1222 914 1165 984
1282,1279 929 1241 959
1297,1279 929 1259 932
1255,1234 958 1251 921 1203 961
1291,1279 929 1252 931
1275,1233 1021 1272 924 1226 954
1261,1233 1021 1258 922 1210 952
1269,1234 958 1265 1068 1219 963
1262,1234 958 1258 922 1211 962
1277,1235 968 1272 924 1228 974
1305,1281 949 1303 1069 1268 953
1263,1235 968 1258 922 1212 972
1307,1283 969 1303 1069 1270 973
1308,1284 979 1303 1069 1271 983
1276,1234 958 1272 924 1227 964
1289,1283 969 1285 930 1249 970
1286,1280 939 1285 930 1246 940
1287,1281 949 1285 930 1247 950
1290,1284 979 1285 930 1250 980
1304,1280 939 1303 1069 1267 943
1310,1280 939 1309 934 1274 944
1288,1282 959 1285 930 1248 960
1298,1280 939 1297 932 1260 942
1264,1236 978 1258 922 1213 982
1292,1280 939 1291 931 1253 941
1299,1281 949 1297 932 1261 952
1311,1281 949 1309 934 1275 954
1306,1282 959 1303 1069 1269 963
1300,1282 959 1297 932 1262 962
1313,1283 969 1309 934 1277 974
1278,1236 978 1272 924 1229 984
1301,1283 969 1297 932 1263 972
1315,1286 940
1293,1281 949 1291 931 1254 951
1312,1282 959 1309 934 1276 964
1294,1282 959 1291 931 1255 961
1295,1283 969 1291 931 1256 971
1296,1284 979 1291 931 1257 981
1302,1284 979 1297 932 1264 982
1314,1284 979 1309 934 1278 984
1325,1315 940 1298 942
1318,1315 940 1289 970
1319,1315 940 1290 980
1317,1315 940 1288 960
1316,1315 940 1287 950
1335,1315 940 1310 944
1330,1315 940 1304 943
1320,1315 940 1292 941
1328,1318 970 1325 942 1301 972
1329,1319 980 1325 942 1302 982
1327,1317 960 1325 942 1300 962
1326,1316 950 1325 942 1299 952
1339,1319 980 1335 944 1314 984
1321,1316 950 1320 941 1293 951
1323,1318 970 1320 941 1295 971
1324,1319 980 1320 941 1296 981
1334,1319 980 1330 943 1308 983
1337,1317 960 1335 944 1312 964
1338,1318 970 1335 944 1313 974
1336,1316 950 1335 944 1311 954
1333,1318 970 1330 943 1307 973
1332,1317 960 1330 943 1306 963
1331,1316 950 1330 943 1305 953
1322,1317 960 1320 941 1294 961
1340,1321 951
1342,1340 951 1323 971
1352,1340 951 1336 954
1344,1340 951 1326 952
1348,1340 951 1331 953
1341,1340 951 1322 961
1343,1340 951 1324 981
1354,1342 971 1352 954 1338 974
1346,1342 971 1344 952 1328 972
1350,1342 971 1348 953 1333 973
1351,1343 981 1348 953 1334 983
1353,1341 961 1352 954 1337 964
1345,1341 961 1344 952 1327 962
1355,1343 981 1352 954 1339 984
1347,1343 981 1344 952 1329 982
1349,1341 961 1348 953 1332 963
1356,1345 962
1362,1356 962 1353 964
1359,1356 962 1349 963
1357,1356 962 1346 972
1358,1356 962 1347 982
1361,1358 982 1359 963 1351 983
1360,1357 972 1359 963 1350 973
1364,1358 982 1362 964 1355 984
1363,1357 972 1362 964 1354 974
1365,1360 973
1366,1365 973 1361 983
1367,1365 973 1363 974
1368,1366 983 1367 974 1364 984
1369,1368 984
1371,985
1370,1371
1373,986
1372,1373
1375,987
1374,1375
1377,988
1376,1377
1379,989
1378,1379
1381,990
1380,1381
1383,991
1382,1383
1385,992
1384,1385
1387,993
1386,1387
1389,994
1388,1389
1391,995
1390,1391
1393,1085
1392,1393
1395,1086
1394,1395
1397,1087
1396,1397
1399,1088
1398,1399
1401,1089
1400,1401
1403,1090
1402,1403
1405,1091
1404,1405
1407,1092
1406,1407
1409,1093
1408,1409
1411,1005
1410,1411
1413,1094
1412,1413
1415,1166
1414,1415
1417,1167
1416,1417
1419,1168
1418,1419
1421,1169
1420,1421
1423,1170
1422,1423
1425,1171
1424,1425
1427,1172
1426,1427
1429,1173
1428,1429
1431,1015
1430,1431
1433,1103
1432,1433
1435,1174
1434,1435
1437,1230
1436,1437
1439,1231
1438,1439
1441,1232
1440,1441
1443,1233
1442,1443
1445,1234
1444,1445
1447,1235
1446,1447
1449,1236
1448,1449
1451,1025
1450,1451
1453,1112
1452,1453
1455,1182
1454,1455
1457,1237
1456,1457
1459,1279
1458,1459
1461,1280
1460,1461
1463,1281
1462,1463
1465,1282
1464,1465
1467,1283
1466,1467
1469,1284
1468,1469
1471,1035
1470,1471
1473,1121
1472,1473
1475,1190
1474,1475
1477,1244
1476,1477
1479,1285
1478,1479
1481,1315
1480,1481
1483,1316
1482,1483
1485,1317
1484,1485
1487,1318
1486,1487
1489,1319
1488,1489
1491,1045
1490,1491
1493,1130
1492,1493
1495,1198
1494,1495
1497,1251
1496,1497
1499,1291
1498,1499
1501,1320
1500,1501
1503,1340
1502,1503
1505,1341
1504,1505
1507,1342
1506,1507
1509,1343
1508,1509
1511,1055
1510,1511
1513,1139
1512,1513
1515,1206
1514,1515
1517,1258
1516,1517
1519,1297
1518,1519
1521,1325
1520,1521
1523,1344
1522,1523
1525,1356
1524,1525
1527,1357
1526,1527
1529,1358
1528,1529
1531,1065
1530,1531
1533,1148
1532,1533
1535,1214
1534,1535
1537,1265
1536,1537
1539,1303
1538,1539
1541,1330
1540,1541
1543,1348
1542,1543
1545,1359
1544,1545
1547,1365
1546,1547
1549,1366
1548,1549
1551,1075
1550,1551
1553,1157
1552,1553
1555,1222
1554,1555
1557,1272
1556,1557
1559,1309
1558,1559
1561,1335
1560,1561
1563,1352
1562,1563
1565,1362
1564,1565
1567,1367
1566,1567
1569,1369
1568,1569
