1325 0.156878 -1
1326 0.219741 0.488275 1325
1327 0.218086 0.470256 1325
1328 0.211563 0.117955 1325
1329 0.213413 0.489403 1325
1330 0.317828 0.489012 1325
1331 0.208005 0.088453 1325
1332 0.210692 0.090787 1325
1333 0.214748 0.012183 1325
1334 0.213437 0.086186 1325
1337 0.102392 0.065996 1326
1338 0.151404 0.330274 1326,1327
1339 0.154881 0.049168 1328,1326
1340 0.150020 0.259329 1329,1326
1341 0.141871 0.029917 1326,1330
1342 0.156707 0.043098 1331,1326
1343 0.156808 0.073159 1326,1332
1344 0.149856 0.030253 1326,1333
1345 0.147940 0.045911 1334,1326
1348 0.111429 0.410683 1327
1349 0.167496 0.053868 1328,1327
1350 0.160855 0.108478 1329,1327
1351 0.143240 0.052379 1327,1330
1352 0.148512 0.110262 1331,1327
1353 0.148580 0.076693 1327,1332
1354 0.149279 0.167670 1327,1333
1355 0.140961 0.035354 1334,1327
1358 0.100711 0.076568 1328
1359 0.145222 0.044126 1328,1329
1360 0.138171 0.109151 1328,1330
1361 0.134877 0.041716 1328,1331
1362 0.140547 0.033528 1328,1332
1363 0.139656 0.030524 1328,1333
1364 0.136775 0.151401 1334,1328
1367 0.093621 0.092693 1329
1368 0.220380 0.140092 1329,1330
1369 0.141860 0.029447 1329,1331
1370 0.141248 0.047836 1329,1332
1371 0.136270 0.072474 1329,1333
1372 0.135252 0.032632 1334,1329
1375 0.093636 0.046121 1330
1376 0.139626 0.032598 1331,1330
1377 0.137679 0.031463 1330,1332
1378 0.152583 0.033415 1330,1333
1379 0.233892 0.131525 1334,1330
1382 0.108490 0.066119 1331
1383 0.148802 0.031141 1331,1332
1384 0.141832 0.050928 1331,1333
1385 0.150050 0.030937 1334,1331
1388 0.144792 0.043827 1332
1389 0.143860 0.029224 1333,1332
1390 0.154505 0.030464 1334,1332
1393 0.091233 0.070799 1333
1394 0.138258 0.116894 1334,1333
1397 0.142422 0.039739 1334
1400 0.154089 -1 1337
1401 0.211625 0.166809 1337,1400,1338
1402 0.205737 0.167090 1337,1400,1339
1403 0.222982 0.167770 1340,1337,1400
1404 0.214268 0.168463 1341,1337,1400
1405 0.209100 0.166094 1337,1400,1342
1406 0.209516 0.159771 1343,1337,1400
1407 0.207992 0.157714 1337,1400,1344
1408 0.233270 0.164580 1337,1400,1345
1411 0.095361 0.036126 1348,1401,1338
1412 0.158864 0.052470 1402,1401,1339,1338,1349
1413 0.165128 0.045468 1403,1340,1401,1350,1338
1414 0.165484 0.031773 1341,1401,1351,1338,1404
1415 0.157348 0.053801 1342,1401,1338,1405,1352
1416 0.154528 0.033709 1353,1401,1343,1338,1406
1417 0.159704 0.030497 1344,1401,1407,1338,1354
1418 0.164598 0.033345 1401,1408,1338,1355,1345
1421 0.104204 0.043519 1402,1358,1339
1422 0.163057 0.029577 1403,1402,1359,1339,1340
1423 0.147718 0.040734 1402,1341,1339,1360,1404
1424 0.146972 0.029758 1402,1342,1339,1405,1361
1425 0.144948 0.048600 1402,1343,1339,1406,1362
1426 0.178520 0.042256 1402,1407,1339,1363,1344
1427 0.143896 0.030814 1402,1364,1408,1339,1345
1430 0.150218 0.037341 1403,1340,1367
1431 0.140191 0.076634 1403,1340,1341,1368,1404
1432 0.154093 0.080310 1403,1340,1342,1405,1369
1433 0.162461 0.045764 1403,1370,1406
1434 0.137737 0.019162 1403,1371,1407
1435 0.139321 0.030922 1403,1372,1408
1438 0.090122 0.046521 1375,1404
1439 0.141541 0.033437 1376,1405,1404
1440 0.143151 0.031833 1406,1377,1404
1441 0.134528 0.033285 1378,1407,1404
1442 0.139672 0.030077 1379,1408,1404
1445 0.091492 0.034310 1382,1405
1446 0.139644 0.030940 1406,1405,1383
1447 0.137908 0.035444 1384,1407,1405
1448 0.136556 0.063538 1385,1408,1405
1451 0.096674 0.045725 1388,1406
1452 0.217373 0.084606 1407,1406,1389
1453 0.137142 0.037664 1408,1406,1390
1456 0.093586 0.037452 1393,1407
1457 0.135009 0.020479 1408,1407,1394
1460 0.090733 0.039919 1397,1408
1463 0.150783 -1 1411
1464 0.210333 0.529526 1411,1412,1463
1465 0.209844 0.462332 1411,1413,1463
1466 0.211819 0.466728 1411,1414,1463
1467 0.216526 0.481647 1411,1415,1463
1468 0.205857 0.175415 1411,1416,1463
1469 0.209323 0.054568 1411,1463,1417
1470 0.206013 0.082130 1418,1411,1463
1473 0.102308 0.063609 1421,1464,1412
1474 0.163592 0.068032 1465,1464,1412,1413,1422
1475 0.146234 0.036997 1464,1412,1466,1414,1423
1476 0.166635 0.169578 1464,1412,1424,1467,1415
1477 0.160078 0.029971 1464,1412,1425,1468,1416
1478 0.158592 0.043641 1464,1412,1426,1469,1417
1479 0.154057 0.073917 1418,1464,1412,1470,1427
1482 0.115787 0.305709 1465,1413,1430
1483 0.171607 0.031103 1465,1466,1413,1414,1431
1484 0.236902 0.034015 1465,1467,1413,1432,1415
1485 0.170544 0.113787 1465,1413,1468,1416,1433
1486 0.156598 0.035490 1465,1434,1413,1469,1417
1487 0.149876 0.071332 1465,1418,1470,1413,1435
1490 0.117789 0.103400 1466,1414,1438
1491 0.157258 0.036654 1467,1466,1414,1415,1439
1492 0.143906 0.285241 1466,1414,1468,1416,1440
1493 0.143870 0.081886 1469,1466,1414,1441,1417
1494 0.138741 0.084861 1418,1470,1466,1414,1442
1497 0.109863 0.357207 1467,1445
1498 0.143239 0.287732 1446,1467,1468
1499 0.135788 0.029285 1447,1467,1469
1500 0.145578 0.029190 1467,1470,1448
1503 0.091779 0.182258 1468,1451
1504 0.138737 0.100381 1469,1468,1452
1505 0.140472 0.047994 1470,1468,1453
1508 0.096485 0.073157 1456,1469
1509 0.141032 0.020376 1470,1457,1469
1512 0.091864 0.047216 1470,1460
1515 0.151501 -1 1473
1516 0.208679 0.169818 1515,1473,1474
1517 0.208211 0.169298 1515,1473,1475
1518 0.204636 0.057871 1515,1473,1476
1519 0.205154 0.215535 1515,1473,1477
1520 0.205375 0.122937 1515,1473,1478
1521 0.208256 0.097620 1515,1473,1479
1524 0.102367 0.364012 1482,1516,1474
1525 0.149641 0.039618 1483,1517,1516,1474,1475
1526 0.147255 0.083965 1516,1476,1518,1474,1484
1527 0.158081 0.044804 1485,1516,1519,1477,1474
1528 0.152607 0.324617 1478,1516,1520,1486,1474
1529 0.156746 0.042119 1516,1487,1521,1474,1479
1532 0.109228 0.096117 1490,1517,1475
1533 0.159630 0.356035 1491,1517,1476,1518,1475
1534 0.160878 0.087154 1517,1492,1519,1477,1475
1535 0.147778 0.070292 1517,1493,1520,1478,1475
1536 0.154362 0.031349 1517,1479,1494,1521,1475
1539 0.110668 0.034956 1476,1518,1497
1540 0.241408 0.055229 1498,1519,1476,1518,1477
1541 0.150516 0.018929 1520,1478,1476,1518,1499
1542 0.150675 0.019438 1500,1479,1476,1518,1521
1545 0.101431 0.038789 1503,1519,1477
1546 0.144364 0.109386 1520,1478,1519,1477,1504
1547 0.147761 0.013015 1505,1479,1519,1477,1521
1550 0.094211 0.041325 1478,1520,1508
1551 0.136964 0.058510 1478,1509,1520,1521
1554 0.088928 0.031959 1521,1512
1557 0.151267 -1 1524
1558 0.208955 0.422176 1524,1525,1557
1559 0.313423 0.534234 1524,1526,1557
1560 0.207883 0.120615 1524,1527,1557
1561 0.205371 0.217646 1524,1528,1557
1562 0.206426 0.095196 1524,1529,1557
1565 0.091726 0.045539 1558,1532,1525
1566 0.144836 0.308279 1559,1558,1526,1533,1525
1567 0.149955 0.019082 1560,1558,1534,1527,1525
1568 0.151143 0.063607 1558,1535,1528,1561,1525
1569 0.142743 0.028909 1558,1562,1536,1529,1525
1572 0.091163 0.054164 1559,1526,1539
1573 0.141200 0.309130 1559,1560,1526,1527,1540
1574 0.147707 0.322614 1559,1561,1526,1528,1541
1575 0.151085 0.044069 1559,1526,1542,1562,1529
1578 0.099751 0.114933 1560,1545,1527
1579 0.143835 0.379611 1560,1561,1527,1528,1546
1580 0.139565 0.032307 1560,1547,1562,1527,1529
1583 0.104454 0.372420 1561,1528,1550
1584 0.139334 0.013910 1551,1561,1562,1528,1529
1587 0.102205 0.020510 1562,1554
1590 0.155626 -1 1565,1532
1591 0.316510 0.161760 1533,1590,1566,1532
1592 0.208720 0.217663 1534,1567,1590,1532
1593 0.207650 0.215892 1568,1535,1590,1532
1594 0.205337 0.215738 1569,1536,1590,1532
1597 0.089521 0.305604 1533,1591,1539,1572
1598 0.142282 0.060158 1540,1533,1592,1573,1591,1567
1599 0.139155 0.030376 1541,1568,1533,1593,1591,1574
1600 0.146920 0.028363 1542,1594,1569,1533,1591,1575
1603 0.094792 0.065634 1567,1578,1592
1604 0.150198 0.030712 1568,1579,1567,1593,1592
1605 0.155254 0.019511 1594,1580,1567,1569,1592
1608 0.105216 0.325969 1568,1583,1593
1609 0.155865 0.351714 1568,1594,1584,1593,1569
1612 0.115758 0.059567 1594,1587,1569
1615 0.163507 -1 1572,1597
1616 0.209669 0.583455 1573,1572,1615,1598
1617 0.209639 0.530703 1572,1615,1599,1574
1618 0.210604 0.090214 1572,1615,1575,1600
1621 0.093480 0.042541 1616,1573,1603,1578
1622 0.143436 0.034858 1616,1617,1604,1579,1573,1574
1623 0.151844 0.029378 1618,1616,1580,1605,1573,1575
1626 0.095602 0.064482 1617,1608,1583,1574
1627 0.158724 0.310542 1609,1618,1617,1584,1575,1574
1630 0.092334 0.307379 1612,1575,1618,1587
1633 0.156511 -1 1621,1578
1634 0.215372 0.161492 1622,1579,1633,1578
1635 0.205951 0.214136 1623,1580,1633,1578
1638 0.097508 0.061397 1608,1579,1634,1626
1639 0.238145 0.024287 1627,1635,1580,1584,1579,1634
1642 0.097364 0.059578 1630,1580,1612,1635
1645 0.152387 -1 1638,1608
1646 0.207035 0.217876 1645,1608,1584,1639
1649 0.098032 0.068452 1646,1612,1584,1642
1652 0.150092 -1 1612,1649
1655 0.019906 0.421198 1325
1658 0.024993 0.029377 1326,1655
1661 0.021458 0.013037 1327,1655
1664 0.022057 0.030629 1328,1655
1667 0.023446 0.032469 1329,1655
1670 0.023556 0.011606 1330,1655
1673 0.023322 0.035253 1331,1655
1676 0.021457 0.012962 1655,1332
1679 0.030744 0.077587 1333,1655
1682 0.023763 0.059238 1334,1655
1687 0.020371 0.057324 1658,1400
1690 0.026274 0.053680 1661,1401,1658,1687
1693 0.023639 0.052340 1402,1664,1687
1696 0.022888 0.011478 1403,1667,1687
1699 0.032303 0.011716 1670,1687,1404
1702 0.021944 0.013490 1687,1405,1673
1705 0.022207 0.053689 1676,1406,1687
1708 0.025252 0.052336 1407,1679,1687
1711 0.025923 0.054486 1408,1687,1682
1716 0.019759 0.051468 1690,1463
1719 0.026581 0.053393 1464,1716,1690,1693
1722 0.023882 0.049707 1465,1696,1716
1725 0.026247 0.054412 1466,1716,1699
1728 0.026141 0.035362 1467,1702,1716
1731 0.026638 0.100566 1468,1705,1716
1734 0.028345 0.068608 1708,1469,1716
1737 0.023567 0.057434 1470,1716,1711
1742 0.026032 0.159916 1515,1719
1745 0.026642 0.011839 1719,1516,1722,1742
1748 0.023315 0.032302 1517,1725,1742
1751 0.023892 0.011886 1728,1518,1742
1754 0.022797 0.067682 1731,1519,1742
1757 0.026187 0.093364 1520,1734,1742
1760 0.033435 0.011879 1737,1521,1742
1765 0.025519 0.053810 1745,1557
1768 0.021904 0.090933 1558,1745,1748,1765
1771 0.023394 0.046996 1559,1751,1765
1774 0.033712 0.049897 1560,1754,1765
1777 0.021959 0.033753 1757,1561,1765
1780 0.022767 0.011661 1562,1760,1765
1785 0.020456 0.026142 1768,1590
1788 0.026888 0.012882 1771,1768,1591,1785
1791 0.024672 0.029937 1774,1785,1592
1794 0.033611 0.011194 1777,1785,1593
1797 0.022526 0.053482 1780,1594,1785
1802 0.024647 0.440049 1788,1615
1805 0.033732 0.381341 1616,1788,1791,1802
1808 0.022924 0.049051 1617,1802,1794
1811 0.032108 0.296714 1797,1802,1618
1816 0.019337 0.056187 1805,1633
1819 0.021396 0.053861 1816,1634,1805,1808
1822 0.030823 0.053034 1816,1635,1811
1827 0.024616 0.363696 1645,1819
1830 0.025094 0.068117 1827,1646,1819,1822
1835 0.024219 0.113918 1652,1830
1840 0.016963 0.086713 1652,1830,1835
1843 0.024496 0.059096 1830,1646,1835,1827,1840
1847 0.023916 0.062415 1822,1816,1840,1635,1819
1851 0.025378 0.060513 1802,1805,1811,1618,1840,1808
1855 0.017527 0.051681 1788,1594,1791,1840,1797,1785,1794
1859 0.019566 0.050812 1774,1777,1771,1780,1840,1768,1562,1765
1863 0.023541 0.050519 1840,1748,1521,1751,1757,1745,1760,1754,1742
1867 0.032746 0.051842 1725,1716,1728,1731,1719,1840,1722,1734,1737,1470
1871 0.018886 0.059814 1711,1705,1708,1840,1702,1696,1408,1693,1690,1687,1699
1875 0.018588 0.051337 1334,1840,1658,1682,1679,1667,1673,1676,1664,1670,1661,1655
1881 0.024062 0.094501 1645,1843
1884 0.016889 0.053412 1843,1847,1634,1881
1887 0.022491 0.051169 1617,1881,1851
1890 0.018823 0.038324 1881,1593,1855
1893 0.020937 0.049609 1561,1881,1859
1896 0.023368 0.052508 1863,1520,1881
1899 0.032890 0.088597 1469,1867,1881
1902 0.023420 0.033076 1407,1881,1871
1905 0.022080 0.013004 1875,1881,1333
1910 0.025580 0.038380 1633,1884
1913 0.021944 0.052284 1616,1910,1884,1887
1916 0.027474 0.012999 1910,1890,1592
1919 0.017944 0.050908 1560,1910,1893
1922 0.025950 0.300163 1910,1896,1519
1925 0.018360 0.049310 1910,1468,1899
1928 0.019878 0.052194 1910,1902,1406
1931 0.019958 0.050320 1910,1905,1332
1936 0.022997 0.086160 1913,1615
1939 0.020371 0.051451 1913,1591,1936,1916
1942 0.020035 0.052142 1559,1919,1936
1945 0.025538 0.052056 1922,1518,1936
1948 0.021187 0.035372 1467,1936,1925
1951 0.021452 0.050661 1928,1936,1405
1954 0.018188 0.012631 1931,1331,1936
1959 0.018455 0.090608 1939,1590
1962 0.025172 0.053395 1942,1558,1939,1959
1965 0.020593 0.296509 1517,1959,1945
1968 0.017426 0.051022 1948,1466,1959
1971 0.019688 0.050771 1951,1959,1404
1974 0.017029 0.050123 1954,1959,1330
1979 0.019390 0.084840 1962,1557
1982 0.017447 0.049749 1965,1516,1962,1979
1985 0.023002 0.052534 1465,1968,1979
1988 0.022038 0.050986 1403,1971,1979
1991 0.016450 0.011685 1329,1979,1974
1996 0.014975 0.405737 1515,1982
1999 0.015760 0.311014 1464,1985,1996
2002 0.021149 0.319234 1402,1988,1996
2005 0.022500 0.300195 1991,1328,1996
2010 0.020091 0.085586 1999,1463
2013 0.020542 0.050592 1999,2002,1401,2010
2016 0.019026 0.051816 2005,1327,2010
2021 0.017102 0.087643 1400,2013
2024 0.021793 0.052343 2016,1326,2021,2013
2029 0.019065 0.085894 2024,1325
