3826 0.160635 0.144362 0.255409
3830 0.388457 0.154769 0.175511 3826
3834 0.390063 0.122222 0.139543 3826
3838 0.381543 0.160634 0.143524 3826
3842 0.384336 0.134444 0.153092 3826
3846 0.326298 0.138844 0.135911 3826
3850 0.395930 0.131371 0.152044 3826
3854 0.444191 0.126133 0.100921 3826
3858 0.301784 0.095752 0.090724 3826
3862 0.326298 0.106508 0.099245 3826
3869 0.161194 0.043581 0.156026 3830
3873 0.366318 0.102387 0.094286 3834,3869
3877 0.300038 0.083600 0.126692 3869,3838
3881 0.294311 0.077035 0.100361 3869,3842
3885 0.311562 0.105391 0.099385 3869,3846
3889 0.277619 0.132209 0.104902 3869,3850
3893 0.318407 0.093378 0.078571 3869,3854
3897 0.310793 0.091283 0.086324 3869,3858
3901 0.308838 0.086673 0.102388 3862,3869
3908 0.179352 0.040508 0.137937 3834,3873
3912 0.303320 0.121105 0.119079 3834,3838,3908,3877
3916 0.292426 0.121175 0.101340 3834,3881,3842,3908
3920 0.297803 0.090235 0.085206 3834,3885,3908
3924 0.310584 0.088768 0.091771 3834,3889,3908,3850
3928 0.299409 0.099943 0.091283 3834,3893,3854,3908
3932 0.300387 0.100432 0.107276 3834,3908,3897
3936 0.363315 0.104482 0.099314 3834,3908,3901
3943 0.152952 0.041626 0.134724 3838,3912
3947 0.371695 0.128788 0.121664 3916,3943,3838,3842
3951 0.320781 0.096311 0.098685 3920,3943,3838
3955 0.312609 0.101759 0.106996 3943,3838,3850,3924
3959 0.307720 0.095752 0.101409 3928,3943,3838,3854
3963 0.283277 0.099384 0.097359 3943,3838,3932
3967 0.316940 0.117683 0.107905 3936,3943,3838
3974 0.141289 0.042045 0.131790 3842,3947
3978 0.301295 0.119220 0.127251 3951,3842,3974
3982 0.304228 0.095264 0.091701 3842,3850,3974,3955
3986 0.292705 0.092749 0.084089 3959,3842,3854,3974
3990 0.350184 0.108184 0.092330 3842,3974,3963
3994 0.277899 0.100851 0.085206 3967,3842,3974
4001 0.145967 0.047143 0.149879 3978
4005 0.340756 0.110070 0.120686 4001,3850,3982
4009 0.272940 0.091283 0.093727 4001,3986,3854
4013 0.285581 0.088210 0.086185 4001,3990
4017 0.284883 0.107626 0.098477 4001,3994
4024 0.138914 0.042673 0.145969 4005,3850
4028 0.291029 0.124597 0.102876 4009,4024,3854,3850
4032 0.281949 0.096731 0.090095 4013,4024,3850
4036 0.290051 0.103854 0.087162 4024,4017,3850
4043 0.144221 0.059016 0.134025 3854,4028
4047 0.278457 0.114120 0.128019 3854,4032,4043
4051 0.278666 0.097847 0.103016 3854,4036,4043
4058 0.143873 0.037574 0.149041 4047
4062 0.270914 0.073962 0.072496 4051,4058
4069 0.138565 0.122083 0.242349 4062
4076 0.148901 0.097708 0.217555 4069
4080 0.275315 0.055803 0.118241 4062,4076,4058
4085 0.283695 0.108463 0.094286 3854,4076,4047,4051,4043
4090 0.294590 0.089257 0.085137 4024,4032,3850,4036,4076,4028
4095 0.320013 0.088628 0.085626 4009,4013,4001,4076,4017,4005
4100 0.376654 0.080108 0.090654 4076,3842,3974,3978,3986,3994,3982,3990
4105 0.387689 0.092121 0.074451 3959,3943,3951,4076,3838,3955,3947,3967,3963
4110 0.389016 0.084648 0.088768 3834,3916,3920,3936,3912,3924,3928,4076,3908,3932
4115 0.382940 0.094775 0.084089 3885,3869,3873,3881,3901,4076,3889,3877,3893,3897
4120 0.388737 0.089187 0.099733 3834,3826,3830,3862,4076,3838,3854,3842,3850,3846,3858
4128 0.159098 0.037016 0.128717 4080
4132 0.340057 0.099384 0.110489 3854,4128,4085
4136 0.364571 0.083181 0.101270 4128,3850,4090
4140 0.383708 0.072495 0.073054 4128,4095
4144 0.390203 0.084158 0.108743 4100,4128,3842
4148 0.382240 0.089676 0.090724 3943,4128,4105
4152 0.393556 0.088838 0.084089 3834,3916,3920,4128,3912,3924,3928,3936,3908,3932,4110
4156 0.384406 0.085207 0.092750 3885,3869,4128,3881,3901,3873,3889,3877,4115,3893,3897
4160 0.399282 0.091282 0.088209 3834,3826,4128,3830,3862,4120,3838,3854,3842,3850,3846,3858
4167 0.207149 0.032336 0.117683 4132,3854
4171 0.372882 0.144990 0.122572 4167,3854,3850,4136
4175 0.382451 0.090794 0.088698 4167,3854,4140
4179 0.383289 0.078572 0.071447 4167,4144,3854,3842
4183 0.379937 0.088699 0.087580 4167,3854,3943,4148
4187 0.389365 0.077524 0.089188 4167,4152,3920,3912,3924,3916,3928,3936,3908,3932,3854,3834
4191 0.388317 0.078083 0.078641 4167,3885,3869,4156,3901,3873,3889,3877,3854,3893,3881,3897
4195 0.390063 0.095334 0.095264 4167,3834,3830,4160,3826,3862,3838,3854,3842,3850,3846,3858
4202 0.189339 0.038482 7.077572 4171,3850
4206 0.407314 0.116565 0.101480 4202,4175,3850
4210 0.399213 0.083041 0.081155 4202,3842,4179,3850
4214 0.390762 0.087651 0.080527 4202,4183,3943,3850
4218 0.383917 0.085137 0.093308 3834,3916,3920,3912,3924,3928,3936,3908,4187,3932,3850,4202
4222 0.397676 0.089607 0.080108 3885,3869,3881,3901,3873,3889,4191,3850,4202,3893,3877,3897
4226 0.408153 0.113072 0.095542 3834,3826,3830,3862,4195,3838,3854,3842,3850,3846,4202,3858
4233 0.187664 0.042534 0.122990 4206
4237 0.408222 0.111606 0.109372 3842,4233,4210
4241 0.410806 0.088209 0.091283 4214,3943,4233
4245 0.395301 0.077594 0.089188 3834,3916,3920,3912,3924,3928,3936,3908,4218,3932,4233
4249 0.394533 0.084578 0.095752 3885,3869,3881,3901,3873,3889,3877,3893,4233,3897,4222
4253 0.391879 0.105809 0.087791 3834,3826,3830,3862,3838,3854,3842,3850,3846,4226,4233,3858
4260 0.185359 0.039949 0.112026 4237,3842
4264 0.396140 0.115029 0.114540 4260,3842,3943,4241
4268 0.400750 0.090724 0.095753 4260,3834,3920,3936,3912,3924,3916,3928,4245,3908,3932,3842
4272 0.400121 0.085765 0.086603 4260,3885,3869,3881,3901,4249,3873,3889,3877,3842,3893,3897
4276 0.399143 0.088280 0.110140 4260,3834,3830,3826,3862,4253,3838,3854,3842,3850,3846,3858
4283 0.189269 0.041067 0.116495 3943,4264
4287 0.389784 0.126901 0.105460 3834,4283,3920,3936,3912,3924,3916,4268,3928,3943,3908,3932
4291 0.397327 0.088210 0.085207 3885,4283,3869,3873,3881,3901,4272,3943,3889,3877,3893,3897
4295 0.375187 0.093308 0.098337 3834,4283,3830,4276,3826,3862,3943,3838,3854,3842,3850,3846,3858
4302 0.187593 0.042603 0.109581 3834,3916,3920,4287,3924,3928,3936,3908,3932,3912
4306 0.369949 0.122502 0.118172 3834,4302,3920,3873,3885,3912,3924,3916,3908,3928,3936,4291,3869,3932,3889,3893,3881,3877,3897,3901
4310 0.382730 0.090724 0.085625 3834,4302,3920,3830,3912,3924,3916,4295,3862,3928,3936,3908,3826,3932,3854,3838,3850,3846,3842,3858
4317 0.195625 0.040019 0.114470 3885,3869,3881,4306,3873,3889,3877,3893,3897,3901
4321 0.380006 0.071448 0.074520 3885,4310,3869,3881,3901,4317,3826,3862,3873,3889,3877,3830,3854,3838,3850,3846,3834,3893,3842,3897,3858
4328 0.193879 0.087790 0.219720 3834,3826,3830,4321,3862,3838,3854,3842,3850,3846,3858
