1070,1071
1071,944
1073,1074
1074,945
1076,1077
1077,946
1079,1080
1080,947
1082,1083
1083,948
1087,1088
1088,969
1090,1091
1091,970
1093,1094
1094,971
1096,1097
1097,972
1101,1102
1102,987
1104,1105
1105,988
1107,1108
1108,989
1112,1113
1084,1085
1113,999
1085,1069 1064
1069,944 1064
1115,1116
1116,1000
1120,1121
1121,1006
1125,1126
1126,1006
1129,1130
1130,1000
1133,1134
1134,989
1137,1138
1138,972
1141,1142
1142,948
1146,1147
1147,999
1149,1150
1150,988
1152,1153
1153,971
1155,1156
1156,947
1160,1161
1161,987
1163,1164
1164,970
1166,1167
1167,946
1171,1172
1172,969
1174,1175
1175,945
1179,1180
1180,944
1078,947 1069 1064 1067
1075,946 1069 1064 1066
1072,945 1069 1064 1065
1140,1081 1078 1075 1072 1084
1081,948 1069 1064 1068
1098,1099
1099,1086 1065
1086,969 1072 1065
1092,971 1086 1065 1078 1067
1095,972 1086 1065 1081 1068
1136,1098 1095 1092 1089
1089,970 1086 1065 1075 1066
1109,1110
1110,1100 1066
1100,987 1089 1066
1132,1109 1106 1103
1106,989 1100 1066 1095 1068
1103,988 1100 1066 1092 1067
1117,1118
1118,1111 1067
1111,999 1103 1067
1128,1117 1114
1114,1000 1111 1067 1106 1068
1122,1123
1123,1119 1068
1119,1006 1114 1068
1143,1144
1144,1124 1068
1124,1006 1122 1068
1127,1000 1124 1068 1128 1067
1131,989 1124 1068 1132 1066
1135,972 1124 1068 1136 1065
1139,948 1124 1068 1140 1069
1157,1158
1158,1145 1067
1145,999 1127 1067
1151,971 1145 1067 1135 1065
1154,947 1145 1067 1139 1069
1148,988 1145 1067 1131 1066
1168,1169
1169,1159 1066
1159,987 1148 1066
1162,970 1159 1066 1151 1065
1165,946 1159 1066 1154 1069
1176,1177
1177,1170 1065
1170,969 1162 1065
1173,945 1170 1065 1165 1069
1181,1182
1182,1178 1069
1178,944 1173 1069
1184,944
1183,1184
1186,899
1185,1186
1188,904
1187,1188
1190,909
1189,1190
1192,914
1191,1192
1194,945
1193,1194
1196,969
1195,1196
1198,905
1197,1198
1200,910
1199,1200
1202,915
1201,1202
1204,946
1203,1204
1206,970
1205,1206
1208,987
1207,1208
1210,911
1209,1210
1212,916
1211,1212
1214,947
1213,1214
1216,971
1215,1216
1218,988
1217,1218
1220,999
1219,1220
1222,917
1221,1222
1224,948
1223,1224
1226,972
1225,1226
1228,989
1227,1228
1230,1000
1229,1230
1232,1006
1231,1232
1234,1178
1233,1234
1236,1170
1235,1236
1238,1159
1237,1238
1240,1145
1239,1240
1242,1124
1241,1242
