5650 7.958689 -1 -1
5651 20.126292 1.458774 2.386405 5650
5652 19.895467 1.240032 2.211663 5650
5653 19.894629 1.301771 2.247981 5650
5654 20.015035 1.308056 2.245256 5650
5655 28.488804 1.311478 2.240787 5650
5656 19.790565 1.312247 2.364336 5650
5657 20.104362 1.295136 2.278500 5650
5658 20.193829 1.295625 2.238691 5650
5659 20.200533 1.305193 2.232406 5650
5660 20.166730 1.293530 2.395764 5650
5661 20.124057 1.322933 2.247282 5650
5662 20.128038 1.302330 2.243092 5650
5663 20.066858 1.301422 0.108603 5650
5664 20.193340 1.314551 2.257479 5650
5665 20.188032 1.307917 2.241066 5650
5666 20.164706 1.315669 2.363847 5650
5667 20.157581 1.306171 14.399728 5650
5668 20.051912 1.320908 2.238062 5650
5669 20.028166 13.558421 2.223396 5650
5672 13.286041 0.509492 0.798705 5651
5673 22.831523 0.577658 1.021218 5652,5651
5674 22.825936 0.553282 1.019612 5653,5651
5675 22.767828 0.890965 1.015422 5654,5651
5676 23.816564 0.995587 1.049574 5655,5651
5677 22.409542 0.114331 13.496193 5656,5651
5678 22.422602 0.954800 8.721915 5657,5651
5679 22.557536 0.097917 13.963081 5658,5651
5680 22.572901 0.539524 1.243593 5659,5651
5681 22.268673 0.515358 1.105587 5660,5651
5682 22.521428 0.139334 0.993562 5661,5651
5683 22.517517 0.130463 0.905841 5662,5651
5684 22.481478 0.500203 0.976800 5663,5651
5685 22.678989 0.500133 1.012837 5664,5651
5686 22.550551 0.515359 1.087149 5665,5651
5687 22.332508 0.552305 1.020800 5666,5651
5688 22.496844 0.554748 1.091619 5667,5651
5689 22.497683 0.556635 1.013047 5668,5651
5690 22.529180 0.572837 1.058584 5669,5651
5693 12.953107 0.486724 0.630527 5652
5694 22.362260 0.419397 10.701285 5652,5653
5695 22.572692 0.406126 0.953403 5654,5652
5696 22.467371 0.972888 1.037561 5655,5652
5697 22.459339 0.914851 1.083238 5656,5652
5698 22.713352 0.946698 1.207555 5657,5652
5699 22.537212 0.961295 1.016748 5652,5658
5700 22.482317 0.890196 1.032254 5652,5659
5701 22.219644 0.937549 1.317555 5660,5652
5702 22.477289 0.851994 1.288920 5661,5652
5703 22.978050 0.915479 13.175201 5662,5652
5704 22.432311 0.532190 1.086171 5663,5652
5705 22.344870 0.844591 1.028762 5652,5664
5706 22.424698 0.092051 1.113060 5652,5665
5707 22.460107 0.623263 1.314272 5652,5666
5708 22.682412 0.503695 0.999987 5667,5652
5709 22.475403 0.508723 1.244850 5668,5652
5710 22.736330 0.513613 1.094482 5669,5652
5713 13.230447 0.400888 0.965067 5653
5714 22.681225 0.472965 0.910031 5654,5653
5715 22.757561 0.429524 0.900603 5655,5653
5716 22.711257 0.942927 1.199174 5656,5653
5717 22.501943 0.915689 1.113269 5657,5653
5718 22.447676 0.864775 1.110965 5653,5658
5719 22.867840 0.868057 1.127447 5653,5659
5720 22.432939 0.901022 1.127587 5660,5653
5721 22.396482 0.953962 1.110057 5661,5653
5722 22.530368 13.105291 1.040914 5662,5653
5723 22.786965 0.937550 1.026526 5663,5653
5724 22.658946 9.898321 1.028063 5653,5664
5725 22.487276 0.969606 1.116901 5653,5665
5726 22.568571 0.858489 0.160984 5653,5666
5727 22.375809 0.508165 1.060400 5667,5653
5728 22.469886 0.513404 1.275860 5668,5653
5729 22.506622 0.522552 1.276209 5669,5653
5732 13.289881 0.396978 0.688704 5654
5733 22.270489 0.333562 0.865124 5654,5655
5734 22.563403 0.382381 0.782921 5656,5654
5735 22.512419 1.008158 1.133663 5657,5654
5736 22.862672 0.981200 1.061518 5654,5658
5737 22.324826 1.017936 1.150635 5654,5659
5738 22.460527 0.923371 1.134152 5654,5660
5739 22.854641 0.897180 1.058864 5654,5661
5740 22.454660 0.963321 1.060958 5662,5654
5741 22.704971 0.962901 1.262870 5663,5654
5742 22.332018 0.988253 1.013397 5654,5664
5743 22.364425 0.948095 13.641811 5654,5665
5744 22.842000 0.539663 1.097905 5654,5666
5745 22.467930 0.521155 1.072971 5654,5667
5746 22.560329 0.508514 0.097359 5654,5668
5747 22.842349 13.140282 1.274673 5654,5669
5750 13.253774 0.394813 0.841028 5655
5751 22.531206 0.358355 0.761619 5656,5655
5752 22.476241 0.355702 0.747581 5657,5655
5753 22.750787 0.919949 1.081701 5655,5658
5754 22.666419 0.902768 1.164184 5655,5659
5755 22.459409 0.967232 1.056768 5660,5655
5756 22.492793 0.899067 0.266584 5661,5655
5757 22.936565 0.942368 1.085613 5662,5655
5758 22.383492 0.952565 0.113352 5663,5655
5759 22.329364 0.963810 1.107472 5655,5664
5760 22.461784 0.510540 1.260285 5655,5665
5761 22.505854 0.504114 1.164742 5655,5666
5762 22.720336 0.512216 13.160256 5655,5667
5763 22.489231 0.545461 1.120253 5668,5655
5764 22.581421 0.535613 1.270622 5669,5655
5767 13.223952 0.414368 0.698553 5656
5768 22.482107 0.359404 0.659441 5656,5657
5769 22.451098 0.365409 0.838654 5656,5658
5770 22.404794 1.000755 1.249530 5656,5659
5771 22.673333 0.936222 16.933220 5656,5660
5772 22.525200 0.983155 1.123467 5656,5661
5773 22.505434 0.964787 13.462040 5656,5662
5774 22.370013 0.882863 1.074019 5656,5663
5775 22.408704 0.545530 1.068571 5656,5664
5776 22.519333 0.557054 1.165092 5656,5665
5777 22.451796 0.514311 1.048527 5656,5666
5778 22.369174 0.513961 1.100908 5656,5667
5779 22.865396 0.509142 1.085682 5656,5668
5780 22.854640 0.507187 1.120254 5656,5669
5783 13.156345 0.136679 0.178025 5657
5784 22.517797 0.367435 0.783339 5657,5658
5785 22.340539 0.347879 0.683955 5657,5659
5786 22.345707 0.926654 1.039866 5657,5660
5787 22.943479 0.928400 1.148051 5657,5661
5788 22.534349 0.845009 1.093365 5657,5662
5789 22.338445 0.499575 1.177174 5663,5657
5790 22.642673 0.545809 1.061028 5657,5664
5791 22.486298 0.543086 1.075555 5657,5665
5792 22.841231 0.535823 1.057886 5657,5666
5793 22.548457 0.521015 1.080793 5657,5667
5794 22.472958 0.516825 1.259796 5657,5668
5795 22.395365 0.544691 1.091479 5657,5669
5798 13.357278 0.384965 0.634788 5658
5799 22.330343 0.345155 0.346134 5658,5659
5800 22.354298 0.370508 0.638489 5660,5658
5801 22.472190 0.953333 1.206717 5661,5658
5802 22.363308 0.507467 1.111384 5662,5658
5803 22.742824 0.537219 1.004318 5663,5658
5804 22.470933 0.111188 1.003269 5658,5664
5805 22.510464 0.586387 1.237937 5665,5658
5806 22.436152 0.509422 1.291574 5666,5658
5807 22.364984 0.505930 1.065707 5667,5658
5808 22.548806 0.534705 1.095390 5668,5658
5809 22.807009 0.513054 1.022616 5669,5658
5812 13.259012 0.327277 0.633460 5659
5813 22.578628 0.344737 0.730819 5660,5659
5814 22.526735 0.536590 1.438869 5661,5659
5815 22.769016 0.537707 1.116203 5662,5659
5816 22.671447 8.159553 1.002781 5663,5659
5817 22.402279 0.525415 1.051949 5664,5659
5818 22.389847 0.568438 1.085333 5665,5659
5819 22.728088 0.521365 1.077930 5666,5659
5820 22.710768 0.085556 1.046781 5667,5659
5821 22.453542 0.096870 1.091270 5668,5659
5822 22.904158 0.501879 1.000406 5669,5659
5825 13.106409 0.327835 0.156933 5660
5826 22.932444 0.523041 1.121860 5661,5660
5827 22.852196 0.545042 1.027295 5662,5660
5828 22.418761 0.540572 1.012349 5663,5660
5829 22.522616 0.420445 0.905562 5660,5664
5830 22.482875 0.506768 1.151193 5660,5665
5831 22.453194 13.527271 1.175149 5660,5666
5832 22.474354 13.290370 0.990069 5660,5667
5833 22.870704 0.517943 0.992863 5668,5660
5834 22.530228 0.540082 13.693145 5669,5660
5837 13.133926 0.097988 0.160076 5661
5838 22.353530 0.438464 13.580212 5662,5661
5839 22.400603 0.632762 0.947536 5663,5661
5840 22.549853 0.505860 1.098253 5661,5664
5841 22.591270 0.532469 1.013815 5661,5665
5842 22.913796 0.553842 0.104623 5661,5666
5843 22.443485 0.506977 1.019333 5661,5667
5844 22.413244 0.531632 1.014653 5661,5668
5845 22.931117 0.614114 13.852523 5661,5669
5848 13.027838 0.224191 0.629968 5662
5849 22.345777 0.528978 1.286545 5663,5662
5850 22.446977 0.409410 13.210542 5662,5664
5851 22.535466 0.554818 13.479221 5662,5665
5852 22.509486 0.498946 1.026876 5662,5666
5853 22.456126 0.494546 1.093854 5662,5667
5854 22.468698 0.496921 1.283891 5662,5668
5855 22.585751 0.516406 1.087917 5662,5669
5858 13.098517 0.246749 0.638768 5663
5859 22.506901 0.403613 0.955428 5663,5664
5860 22.452635 0.120127 0.133327 5663,5665
5861 22.507669 0.503276 1.036373 5663,5666
5862 22.565847 0.536521 1.178921 5663,5667
5863 22.422742 0.515847 1.083796 5663,5668
5864 22.908419 0.591625 1.038260 5663,5669
5867 13.189799 0.252127 13.482364 5664
5868 22.392989 0.080947 1.118229 5665,5664
5869 22.875873 0.405707 0.955009 5666,5664
5870 22.810850 0.622495 1.038400 5667,5664
5871 22.798907 0.508235 1.017308 5668,5664
5872 22.512279 0.513124 1.112501 5669,5664
5875 13.105081 0.252336 0.509771 5665
5876 22.427631 0.414717 10.636194 5666,5665
5877 22.499428 0.487562 0.156445 5667,5665
5878 22.418133 0.525625 1.063892 5668,5665
5879 22.854641 0.537079 1.151333 5669,5665
5882 13.149151 0.268190 0.739129 5666
5883 22.501593 0.532540 1.157759 5667,5666
5884 22.728578 0.426311 0.981410 5668,5666
5885 22.485390 0.531352 0.098406 5669,5666
5888 13.161444 0.134025 0.560475 5667
5889 22.432241 0.432877 0.991815 5668,5667
5890 22.916032 0.134514 0.135352 5669,5667
5893 12.950732 0.271333 0.152394 5668
5894 22.443904 0.563968 1.039099 5669,5668
5897 13.285622 0.242210 0.522274 5669
5900 8.341141 -1 -1 5672
5901 20.027397 1.396546 2.205936 5900,5673
5902 19.896305 1.242266 2.125688 5900,5674
5903 19.910343 1.311898 2.193225 5900,5675
5904 20.185727 1.291225 2.128832 5900,5676
5905 20.178603 1.286406 0.146737 5900,5677
5906 20.184680 1.302540 0.129695 5678,5900
5907 20.140610 1.290596 14.741112 5679,5900
5908 20.266394 13.110948 2.108856 5900,5680
5909 20.234895 1.308825 2.432361 5900,5681
5910 20.007143 1.315739 2.494380 5900,5682
5911 20.169175 1.304146 2.236876 5900,5683
5912 20.150597 1.285358 2.210406 5684,5900
5913 20.603797 1.293320 2.212850 5685,5900
5914 20.162121 14.030547 2.201746 5900,5686
5915 20.064483 1.272997 23.810068 5900,5687
5916 20.257454 1.281307 2.217110 5900,5688
5917 20.203955 1.279841 14.134332 5900,5689
5918 20.370248 1.326634 2.234082 5900,5690
5921 13.269000 0.293822 0.609644 5693,5901
5922 22.588964 0.416464 1.301073 5902,5901,5694
5923 22.586380 0.448731 0.950190 5903,5901,5695
5924 22.866374 13.237780 1.141694 5901,5696,5904
5925 22.413803 0.508793 1.110825 5901,5697,5905
5926 22.864209 0.568926 0.137447 5698,5901,5906
5927 22.453752 0.499225 0.992165 5901,5699,5907
5928 22.488114 0.542317 13.842814 5908,5901,5700
5929 22.504457 0.501111 1.274812 5909,5901,5701
5930 22.464438 0.551675 0.137936 5901,5910,5702
5931 22.546920 0.542387 1.177662 5901,5911,5703
5932 22.583796 0.424845 13.911608 5704,5901,5912
5933 22.843187 0.419467 0.982387 5705,5901,5913
5934 22.586101 0.121663 0.999918 5914,5706,5901
5935 22.562634 0.529886 1.126679 5915,5707,5901
5936 22.512838 0.423797 0.127809 5708,5901,5916
5937 22.934609 0.446984 1.088406 5917,5901,5709
5938 22.622488 0.129346 1.037771 5901,5918,5710
5941 13.231773 0.354165 0.170343 5902,5713
5942 22.731300 0.864285 1.146374 5902,5903,5714
5943 22.617111 0.924139 1.152101 5902,5715,5904
5944 22.448444 0.514520 13.741894 5902,5716,5905
5945 22.896615 0.489028 13.491723 5902,5717,5906
5946 22.459339 0.546019 1.211886 5902,5907,5718
5947 22.319238 0.548463 0.952704 5902,5908,5719
5948 22.805612 0.509702 1.151962 5902,5720,5909
5949 22.540774 0.546018 1.015492 5902,5721,5910
5950 22.576882 0.541479 6.870912 5902,5722,5911
5951 22.511930 0.087581 1.093853 5902,5723,5912
5952 22.841860 0.538477 1.298349 5902,5724,5913
5953 22.820838 0.517943 1.080723 5902,5914,5725
5954 22.486717 0.509142 1.258819 5902,5915,5726
5955 22.600418 0.537777 1.043987 5902,5916,5727
5956 22.395364 0.503765 1.102514 5902,5917,5728
5957 22.807079 0.507048 1.146025 5902,5729,5918
5960 13.236104 0.377422 0.624241 5903,5732
5961 22.399625 0.544901 1.168653 5903,5733,5904
5962 22.744640 0.813650 1.135968 5903,5734,5905
5963 22.895219 0.546438 1.099091 5735,5903,5906
5964 22.396132 0.526673 1.074927 5903,5736,5907
5965 22.588615 0.498457 0.134794 5903,5908,5737
5966 22.523593 0.506070 1.019403 5903,5909,5738
5967 22.357301 0.494546 1.022406 5903,5739,5910
5968 22.548318 0.514661 1.055860 5740,5903,5911
5969 22.937263 0.516685 1.032393 5903,5741,5912
5970 22.938171 0.507257 1.072273 5903,5742,5913
5971 22.515561 0.513403 1.095669 5903,5743,5914
5972 22.512349 0.509562 1.038190 5915,5903,5744
5973 22.524431 0.500832 1.071923 5903,5916,5745
5974 22.418133 0.546647 1.093714 5903,5917,5746
5975 22.549086 0.507606 1.276628 5903,5918,5747
5978 13.311882 0.397466 0.690241 5750,5904
5979 22.638971 0.555727 1.141905 5751,5904,5905
5980 22.923923 0.535403 0.149670 5752,5906,5904
5981 22.529879 0.495663 13.927672 5753,5907,5904
5982 22.729765 0.516965 0.999359 5908,5904,5754
5983 22.853663 0.521644 1.101606 5909,5755,5904
5984 22.615435 0.531491 1.025340 5910,5904,5756
5985 22.560818 0.519339 1.087638 5757,5911,5904
5986 22.421276 0.515428 1.013955 5758,5904,5912
5987 22.735492 0.512355 1.106774 5759,5913,5904
5988 22.577860 0.511517 1.003409 5914,5760,5904
5989 22.503270 0.508584 0.959898 5915,5904,5761
5990 22.448095 0.498038 1.098813 5916,5762,5904
5991 22.498241 0.507467 1.204063 5917,5763,5904
5992 22.692539 0.511727 0.108184 5764,5918,5904
5995 13.325780 0.393346 0.698622 5767,5905
5996 22.978399 0.533307 1.030157 5906,5768,5905
5997 22.484482 0.531422 1.020172 5769,5907,5905
5998 22.312673 0.512775 1.080444 5770,5908,5905
5999 22.605657 0.502718 1.178082 5771,5909,5905
6000 22.542101 0.535822 1.181085 5772,5910,5905
6001 22.536584 0.502857 13.127361 5773,5911,5905
6002 22.880831 0.515289 1.093993 5912,5774,5905
6003 22.556559 0.516406 1.039028 5775,5913,5905
6004 22.534488 0.510679 0.095334 5914,5776,5905
6005 22.544825 0.517454 1.095251 5915,5777,5905
6006 22.481968 0.549650 1.087289 5778,5916,5905
6007 22.434615 0.508654 13.982218 5779,5917,5905
6008 22.411917 0.581009 1.000546 5780,5918,5905
6011 13.263552 0.123270 0.591136 5906,5783
6012 22.460806 0.529816 1.108869 5784,5906,5907
6013 22.749878 0.539244 1.129543 5785,5908,5906
6014 22.924202 0.521085 1.103632 5786,5909,5906
6015 22.371199 0.512146 1.036654 5787,5906,5910
6016 22.533370 0.539733 1.267619 5911,5906,5788
6017 22.505505 0.504394 0.976660 5906,5789,5912
6018 22.908767 0.502927 13.883672 5906,5913,5790
6019 22.803098 0.507676 1.089733 5914,5906,5791
6020 22.965479 0.504604 0.998590 5915,5906,5792
6021 22.903739 0.505860 1.259168 5793,5916,5906
6022 22.975466 0.519479 1.067384 5917,5794,5906
6023 22.912330 0.525556 1.048178 5795,5906,5918
6026 12.964352 0.310235 0.579962 5907,5798
6027 22.392781 0.525067 1.288641 5908,5907,5799
6028 22.553974 0.540362 1.069270 5909,5800,5907
6029 22.577860 0.514171 0.108114 5801,5907,5910
6030 22.521149 0.514241 1.066476 5802,5911,5907
6031 22.474495 0.513821 1.196171 5803,5907,5912
6032 22.551180 0.525626 1.010463 5907,5913,5804
6033 22.586101 0.518222 1.057466 5914,5907,5805
6034 22.514304 0.559778 1.100139 5915,5907,5806
6035 22.512908 0.502997 1.143371 5916,5807,5907
6036 22.512559 0.510819 0.996426 5917,5808,5907
6037 22.454799 0.605454 1.278723 5809,5907,5918
6040 13.328922 0.141359 0.625568 5908,5812
6041 22.697498 0.571371 22.298983 5813,5908,5909
6042 22.651193 0.540502 1.062565 5908,5814,5910
6043 22.534140 0.547765 1.078279 5908,5911,5815
6044 22.490000 0.550977 0.114750 5908,5816,5912
6045 22.571155 0.506139 1.004108 5908,5913,5817
6046 22.576114 0.521086 1.146793 5818,5914,5908
6047 22.495867 0.548393 1.197428 5915,5819,5908
6048 22.736539 0.511238 1.105238 5820,5908,5916
6049 22.544686 0.542038 1.260634 5821,5908,5917
6050 22.703364 0.518291 1.073180 5908,5822,5918
6053 13.314675 0.267910 0.654482 5909,5825
6054 22.448583 0.094216 1.061168 5909,5910,5826
6055 22.535815 0.514730 13.421252 5909,5911,5827
6056 22.487136 0.516895 0.105600 5828,5909,5912
6057 22.526527 0.503486 1.114876 5829,5909,5913
6058 22.564660 0.524369 1.089523 5914,5909,5830
6059 22.917008 0.516057 1.077092 5915,5909,5831
6060 22.489510 0.529258 1.092736 5832,5909,5916
6061 22.591548 0.528070 1.062006 5917,5909,5833
6062 22.760076 0.511727 1.088616 5834,5909,5918
6065 13.191615 0.273988 0.654134 5837,5910
6066 22.422533 0.509282 14.311100 5911,5910,5838
6067 22.536165 0.522342 1.053416 5839,5910,5912
6068 22.487066 0.536381 1.115993 5910,5913,5840
6069 22.542100 0.514800 1.042799 5914,5910,5841
6070 22.515003 0.542038 1.066965 5915,5910,5842
6071 22.537213 0.525765 1.040775 5916,5843,5910
6072 22.446838 0.543923 1.226621 5917,5844,5910
6073 22.610196 0.516406 1.173962 5845,5910,5918
6076 13.100472 0.266514 0.516965 5911,5848
6077 22.463181 0.546717 1.057047 5911,5849,5912
6078 22.672774 0.541758 1.010044 5850,5911,5913
6079 22.413942 0.528699 1.278304 5914,5911,5851
6080 22.496006 0.510400 0.950330 5915,5911,5852
6081 22.465135 0.510260 1.057326 5916,5911,5853
6082 22.552926 0.518431 1.139040 5854,5917,5911
6083 22.908279 0.514031 1.256025 5855,5911,5918
6086 13.125126 0.123340 0.577587 5858,5912
6087 22.543567 0.539942 0.099454 5859,5913,5912
6088 22.496984 0.506000 0.103016 5914,5860,5912
6089 22.880134 0.510749 1.187721 5915,5861,5912
6090 22.400951 0.507537 1.056838 5862,5916,5912
6091 22.914634 0.500762 1.071364 5917,5863,5912
6092 22.432659 0.502298 0.105530 5864,5918,5912
6095 13.350713 0.259111 0.765600 5867,5913
6096 22.416737 0.552165 0.987695 5914,5868,5913
6097 22.490628 0.515010 1.303518 5915,5869,5913
6098 22.977282 0.514032 1.120533 5870,5916,5913
6099 22.496704 0.553352 21.837962 5917,5871,5913
6100 22.538400 0.519758 1.271670 5872,5918,5913
6103 13.001577 0.265256 0.575212 5914,5875
6104 22.458432 0.496152 1.171308 5915,5914,5876
6105 22.538469 0.506908 1.079117 5914,5916,5877
6106 22.479663 0.506140 1.251346 5914,5917,5878
6107 22.552857 0.541898 1.139180 5914,5879,5918
6110 13.317329 0.281740 0.528628 5915,5882
6111 22.581702 0.495104 1.104888 5915,5883,5916
6112 22.554323 0.573607 1.106355 5915,5917,5884
6113 22.403117 0.543294 1.221873 5915,5918,5885
6116 13.246022 0.258204 0.526743 5916,5888
6117 22.540216 0.505023 1.133034 5917,5916,5889
6118 22.719568 0.449778 1.029041 5890,5916,5918
6121 13.073584 0.277689 0.531352 5917,5893
6122 22.556628 0.406966 0.849899 5917,5894,5918
6125 13.105431 0.274266 0.582685 5918,5897
6128 8.257471 -1 -1 5921
6129 20.088439 1.391587 2.356303 6128,5922
6130 20.051841 1.247784 2.136444 6128,5923
6131 20.170851 1.294507 2.239598 5924,6128
6132 20.189220 1.301771 2.195809 5925,6128
6133 20.162540 1.195333 2.202723 5926,6128
6134 20.117562 1.303797 2.414901 5927,6128
6135 20.207099 1.308057 2.417695 5928,6128
6136 20.331695 1.301980 0.092261 6128,5929
6137 20.041226 14.128325 2.251403 6128,5930
6138 20.109600 1.322165 2.311676 6128,5931
6139 20.173016 1.275091 2.222628 6128,5932
6140 20.579562 1.308057 2.189663 5933,6128
6141 20.304667 1.304844 2.233034 5934,6128
6142 20.147803 13.133297 0.125645 5935,6128
6143 20.261854 1.168584 2.099987 5936,6128
6144 20.578933 1.320070 2.225911 5937,6128
6145 20.303130 1.285986 2.212152 6128,5938
6148 13.326199 0.308558 0.719854 6129,5941
6149 22.724038 0.536731 1.019054 5942,6130,6129
6150 22.782634 0.547276 0.159378 6131,6129,5943
6151 22.744431 0.549022 1.027085 6132,5944,6129
6152 22.966387 0.089676 0.945650 6133,5945,6129
6153 22.400394 0.537568 1.144419 5946,6129,6134
6154 22.539727 0.518571 1.248063 5947,6129,6135
6155 22.587708 0.523041 1.107263 6136,6129,5948
6156 22.609848 0.523111 0.102527 6129,6137,5949
6157 22.479454 0.099943 0.098825 5950,6138,6129
6158 22.571575 0.510958 1.090292 5951,6139,6129
6159 22.924482 0.095753 13.854478 6140,6129,5952
6160 22.708463 0.504115 1.020869 6141,6129,5953
6161 22.534418 0.507047 1.140368 6142,6129,5954
6162 22.806660 0.522691 0.095264 6143,5955,6129
6163 22.924691 0.099943 1.259866 5956,6129,6144
6164 22.450400 0.506279 1.132476 6129,5957,6145
6167 13.265438 0.351790 0.121035 5960,6130
6168 22.782355 0.524717 1.179758 5961,6130,6131
6169 22.730812 12.742885 1.036794 6132,6130,5962
6170 22.882857 0.523740 1.270342 6133,6130,5963
6171 22.917637 0.587505 0.948654 6130,5964,6134
6172 22.750647 0.518152 1.232209 6130,5965,6135
6173 22.844165 0.504953 13.667932 6130,6136,5966
6174 22.593295 10.024454 13.801329 6130,6137,5967
6175 22.449841 0.542388 1.325936 5968,6130,6138
6176 22.529250 13.195386 1.108450 5969,6130,6139
6177 22.929021 0.524996 1.029111 6130,6140,5970
6178 22.576113 0.512216 1.133454 5971,6130,6141
6179 22.551878 0.501530 13.148313 6142,6130,5972
6180 22.845491 13.160675 1.025479 6143,5973,6130
6181 22.376647 0.545530 1.075974 6130,5974,6144
6182 22.704622 0.518991 0.962622 6130,5975,6145
6185 13.305247 0.385245 0.803803 6131,5978
6186 22.789199 0.506000 1.234305 6132,5979,6131
6187 22.828032 0.512356 1.083587 6133,5980,6131
6188 22.573530 0.508165 1.007600 5981,6131,6134
6189 22.532114 0.512914 1.296044 5982,6131,6135
6190 22.581980 0.509213 1.067524 5983,6131,6136
6191 22.528621 0.540991 1.006273 6131,6137,5984
6192 22.803098 0.536730 1.287384 6138,6131,5985
6193 22.852894 0.515289 1.146165 6131,5986,6139
6194 22.820418 0.532818 1.065778 6131,6140,5987
6195 22.853034 0.102038 0.968419 6141,6131,5988
6196 22.532114 0.521086 0.102038 6142,6131,5989
6197 22.781936 0.538336 1.260146 6143,6131,5990
6198 22.513257 0.516197 1.018075 6131,5991,6144
6199 22.580095 0.518361 1.055162 6131,6145,5992
6202 13.279406 0.399701 0.705466 6132,5995
6203 22.951651 0.514031 0.104063 6132,6133,5996
6204 22.509346 0.505931 1.035815 6132,5997,6134
6205 22.386425 0.534564 1.041822 6132,5998,6135
6206 22.852755 0.527232 1.163555 6132,5999,6136
6207 22.620953 0.515359 0.984691 6132,6137,6000
6208 22.385028 0.503625 1.183390 6132,6138,6001
6209 22.940615 0.537289 1.212304 6132,6139,6002
6210 22.921339 13.285272 1.025619 6132,6140,6003
6211 22.738006 0.502507 14.140827 6132,6141,6004
6212 22.556628 0.543225 0.972609 6132,6142,6005
6213 22.794856 0.576400 1.027505 6132,6143,6006
6214 22.502920 0.498946 1.070038 6132,6007,6144
6215 22.748970 0.514310 0.095822 6132,6008,6145
6218 13.354205 0.377353 0.852063 6011,6133
6219 22.908768 0.514729 1.102584 6133,6012,6134
6220 22.787384 13.111088 1.142882 6133,6013,6135
6221 22.944457 0.494476 1.001873 6133,6136,6014
6222 22.820837 0.520596 1.089035 6133,6015,6137
6223 22.392361 0.541898 1.034069 6133,6138,6016
6224 22.511720 0.526534 1.010044 6133,6139,6017
6225 22.923504 0.512774 1.086520 6133,6140,6018
6226 22.943828 0.534775 1.108311 6019,6133,6141
6227 22.527295 0.536241 1.020032 6020,6133,6142
6228 22.912120 0.504953 1.097625 6143,6133,6021
6229 22.897733 0.499365 13.552275 6133,6022,6144
6230 22.860368 0.507676 1.182063 6133,6023,6145
6233 13.116885 0.389295 13.883532 6026,6134
6234 22.517517 0.534495 1.011441 6027,6134,6135
6235 22.908838 0.511727 1.080863 6028,6136,6134
6236 22.422463 0.516755 1.032184 6029,6137,6134
6237 22.792272 0.537149 1.009136 6138,6030,6134
6238 22.511302 0.510889 1.096019 6031,6139,6134
6239 22.905974 0.514660 0.998171 6032,6140,6134
6240 22.339282 0.544133 1.268387 6033,6141,6134
6241 22.487975 0.515428 1.003689 6142,6134,6034
6242 22.575695 0.505930 1.309314 6143,6035,6134
6243 22.502781 0.510260 1.122419 6036,6134,6144
6244 22.751625 20.326038 1.195822 6037,6145,6134
6247 13.339330 0.401029 0.870641 6040,6135
6248 22.817904 0.510121 1.079536 6041,6136,6135
6249 22.594203 0.515219 1.280540 6042,6137,6135
6250 22.337535 0.532400 1.033232 6043,6138,6135
6251 22.568780 0.511727 12.709571 6139,6044,6135
6252 22.886837 0.539594 0.102458 6045,6140,6135
6253 22.557955 0.613765 0.113283 6141,6046,6135
6254 22.450120 0.520946 1.066405 6142,6047,6135
6255 22.838787 0.086603 1.067314 6143,6048,6135
6256 25.079085 0.517943 1.040564 6049,6144,6135
6257 22.325733 0.602102 12.688828 6050,6145,6135
6260 13.186028 0.390622 0.697225 6136,6053
6261 22.780259 0.499365 1.094692 6054,6136,6137
6262 22.525269 0.505720 1.009066 6055,6138,6136
6263 22.559282 0.527720 13.222624 6139,6136,6056
6264 22.725085 0.514450 13.605564 6057,6140,6136
6265 25.055060 0.559498 1.052507 6141,6136,6058
6266 22.417295 0.510680 1.027504 6142,6059,6136
6267 22.450609 0.551676 0.103574 6143,6060,6136
6268 22.534000 0.523041 1.003409 6136,6061,6144
6269 22.539866 0.519409 14.325837 6136,6062,6145
6272 13.172828 0.391320 0.862121 6065,6137
6273 22.464228 0.567042 1.009206 6138,6137,6066
6274 22.533790 0.483651 1.076324 6067,6139,6137
6275 22.568431 0.535123 1.060609 6140,6068,6137
6276 22.814273 0.514311 1.056908 6141,6137,6069
6277 22.621930 0.512215 13.187075 6142,6137,6070
6278 22.557746 0.546577 1.262380 6143,6137,6071
6279 22.528482 0.511308 1.042800 6072,6137,6144
6280 22.628145 0.513194 1.072064 6073,6137,6145
6283 13.031120 0.397676 0.707282 6076,6138
6284 22.791854 0.525067 1.060400 6077,6138,6139
6285 22.506482 0.505022 1.047269 6138,6140,6078
6286 22.508088 0.523879 1.080863 6138,6141,6079
6287 22.737517 0.513821 1.119276 6142,6138,6080
6288 22.537840 0.507117 1.287943 6143,6138,6081
6289 22.586729 0.544623 1.171796 6138,6082,6144
6290 22.496215 0.539245 1.002641 6138,6083,6145
6293 13.202022 0.390762 0.694711 6086,6139
6294 22.510184 0.536171 1.129891 6087,6139,6140
6295 22.447187 0.508096 1.256165 6141,6139,6088
6296 22.433777 0.546368 1.081631 6142,6139,6089
6297 22.453473 0.508305 1.192330 6143,6090,6139
6298 22.881250 0.520597 1.308685 6091,6139,6144
6299 22.625492 0.548813 1.256514 6092,6139,6145
6302 13.248815 0.380775 0.695479 6140,6095
6303 22.554533 0.502997 1.063053 6141,6140,6096
6304 22.494540 0.544412 1.060190 6142,6140,6097
6305 22.910165 0.505162 1.180527 6143,6098,6140
6306 22.482527 0.546578 1.084634 6099,6140,6144
6307 22.504037 8.005483 1.002851 6140,6145,6100
6310 13.088739 0.394533 0.751491 6141,6103
6311 22.489371 0.509142 1.074088 6142,6141,6104
6312 22.534069 0.535542 1.072831 6143,6141,6105
6313 22.443904 0.510330 1.030019 6106,6141,6144
6314 22.686742 0.499015 0.093238 6107,6141,6145
6317 13.321939 0.405638 0.905562 6142,6110
6318 22.483504 0.548393 1.100489 6143,6142,6111
6319 22.931187 0.538545 13.796161 6142,6112,6144
6320 22.429098 0.515358 1.252603 6142,6145,6113
6323 13.227793 0.401167 0.907029 6143,6116
6324 22.809523 0.540920 1.226481 6143,6117,6144
6325 22.785219 0.339150 0.679136 6143,6118,6145
6328 13.180161 0.366248 0.097359 6121,6144
6329 22.486997 0.182984 0.702253 6122,6145,6144
6332 13.327806 0.364571 0.810648 6125,6145
6335 8.166957 -1 -1 6148
6336 20.090045 1.387257 2.236037 6335,6149
6337 20.083759 1.279422 2.221301 6150,6335
6338 20.016502 13.576091 0.094774 6335,6151
6339 20.152343 1.288153 2.247142 6335,6152
6340 20.253962 1.291574 2.250983 6335,6153
6341 20.312489 13.324104 13.345684 6335,6154
6342 20.124756 1.295416 2.228494 6335,6155
6343 20.303549 1.285429 2.210336 6335,6156
6344 19.934858 1.275581 2.335142 6335,6157
6345 20.252356 1.286476 15.089830 6158,6335
6346 20.572159 1.291015 2.167104 6335,6159
6347 20.231823 1.280889 2.242812 6335,6160
6348 20.197949 1.265803 20.104222 6161,6335
6349 20.343918 1.291574 2.207891 6335,6162
6350 20.446375 1.280609 2.193504 6335,6163
6351 20.208495 1.304216 2.230102 6335,6164
6354 13.350992 0.299689 0.501111 6336,6167
6355 22.672914 0.525974 1.161460 6168,6336,6337
6356 22.568082 0.536381 1.054952 6169,6336,6338
6357 22.607892 0.445727 1.083308 6336,6339,6170
6358 22.888235 0.428128 0.908425 6340,6336,6171
6359 22.815809 0.540781 1.117460 6341,6336,6172
6360 22.796742 0.565784 1.158108 6336,6342,6173
6361 22.807288 0.505511 1.035047 6174,6336,6343
6362 22.586241 0.552444 0.101479 6336,6175,6344
6363 22.903390 15.405862 1.283263 6176,6336,6345
6364 23.010666 0.501041 1.054603 6177,6336,6346
6365 22.538261 0.508653 1.085403 6336,6178,6347
6366 22.499428 0.508165 1.060818 6348,6336,6179
6367 22.798837 0.089746 1.127098 6349,6336,6180
6368 22.482317 0.499575 1.015422 6336,6181,6350
6369 22.829219 0.534844 1.183460 6336,6182,6351
6372 13.106618 0.362407 0.688495 6185,6337
6373 22.700291 0.500971 1.013886 6186,6337,6338
6374 22.558095 0.517803 0.993631 6187,6337,6339
6375 22.875663 0.425333 1.000825 6340,6337,6188
6376 22.580304 0.415346 0.146597 6341,6337,6189
6377 22.743034 0.534216 1.015282 6337,6190,6342
6378 22.909815 0.565575 16.453970 6343,6337,6191
6379 22.911841 0.505092 1.009206 6337,6344,6192
6380 22.933352 0.509491 0.953333 6337,6345,6193
6381 22.535187 0.506000 1.134222 6194,6337,6346
6382 22.762590 0.524927 0.937479 6195,6337,6347
6383 22.512209 9.261648 13.112694 6348,6196,6337
6384 22.699034 0.096800 1.010463 6349,6197,6337
6385 22.518216 0.500832 1.102514 6337,6198,6350
6386 22.768805 0.505930 1.093575 6337,6199,6351
6389 13.285761 0.365619 0.715523 6338,6202
6390 22.544406 0.546996 1.173682 6338,6339,6203
6391 22.790876 0.548183 1.225784 6204,6340,6338
6392 22.526038 0.445168 0.996216 6341,6205,6338
6393 22.741149 13.150478 1.010253 6206,6342,6338
6394 22.898221 0.532539 1.096228 6343,6207,6338
6395 22.480920 0.526953 1.107124 6208,6338,6344
6396 22.983428 0.518501 1.050482 6345,6338,6209
6397 22.695123 0.503696 0.097289 6210,6338,6346
6398 22.881948 0.551118 1.245898 6338,6211,6347
6399 22.910444 13.491164 1.081632 6348,6338,6212
6400 22.744151 0.515847 1.074927 6349,6213,6338
6401 22.424489 0.516686 1.000965 6214,6338,6350
6402 22.810710 0.558451 1.128426 6215,6338,6351
6405 13.258942 0.361568 0.672152 6339,6218
6406 22.814482 0.499505 0.119918 6340,6339,6219
6407 22.517238 0.527231 1.101187 6341,6220,6339
6408 22.585194 0.399283 0.131791 6221,6342,6339
6409 22.705740 0.457320 0.915549 6222,6343,6339
6410 22.437829 0.528140 1.278793 6223,6339,6344
6411 22.569339 0.104622 13.333602 6345,6339,6224
6412 22.621511 0.539873 1.098813 6225,6339,6346
6413 22.540984 0.524159 1.232698 6226,6339,6347
6414 22.428819 0.535542 0.978965 6348,6339,6227
6415 22.580095 0.504394 1.292762 6349,6228,6339
6416 22.890469 0.508444 1.072762 6229,6339,6350
6417 22.593853 0.495943 1.036583 6230,6339,6351
6420 13.306923 0.261206 0.582337 6340,6233
6421 22.838787 0.517384 1.090152 6341,6340,6234
6422 22.796044 0.510121 0.990977 6235,6340,6342
6423 22.857854 0.424077 0.974145 6340,6343,6236
6424 22.822793 0.412133 1.008089 6340,6237,6344
6425 22.788501 0.506628 1.177174 6340,6345,6238
6426 22.739612 0.518921 1.085054 6340,6239,6346
6427 22.768318 0.533587 0.995726 6240,6340,6347
6428 22.398927 0.515289 1.001035 6340,6241,6348
6429 22.796812 0.527511 1.053415 6349,6340,6242
6430 22.848355 0.508654 1.250577 6340,6243,6350
6431 22.747854 0.492311 1.277536 6340,6244,6351
6434 13.219761 0.281321 0.582406 6341,6247
6435 22.583936 0.506000 1.014025 6341,6248,6342
6436 22.780539 0.540781 1.391238 6341,6249,6343
6437 22.460387 0.536940 1.275091 6341,6250,6344
6438 22.524641 0.540991 1.269224 6341,6251,6345
6439 22.330761 0.575213 1.257910 6341,6252,6346
6440 22.394805 0.519758 0.100431 6341,6253,6347
6441 22.959262 0.520457 1.084914 6341,6348,6254
6442 22.730952 0.511866 1.056698 6341,6349,6255
6443 22.599580 0.085555 1.149936 6341,6256,6350
6444 22.624653 0.541269 1.095250 6341,6257,6351
6447 13.278498 0.361499 0.794234 6342,6260
6448 22.803308 0.526323 0.942997 6343,6342,6261
6449 22.540006 0.514102 1.009067 6342,6262,6344
6450 22.498730 0.586526 1.163136 6342,6345,6263
6451 22.978190 0.550139 13.339119 6264,6342,6346
6452 22.797860 0.550907 1.042450 6342,6265,6347
6453 22.489790 0.513823 1.195682 6266,6348,6342
6454 22.511790 12.936346 1.152590 6349,6267,6342
6455 22.600698 0.509701 1.074648 6342,6268,6350
6456 22.839765 0.515778 1.086660 6342,6269,6351
6459 13.292396 0.359823 0.820774 6343,6272
6460 22.506622 0.584502 1.110755 6273,6343,6344
6461 22.646235 0.507118 1.068152 6343,6345,6274
6462 22.822513 0.498387 1.068502 6343,6275,6346
6463 22.812527 0.521713 1.000825 6343,6347,6276
6464 22.531765 0.621308 1.102584 6348,6343,6277
6465 22.743942 0.548603 1.088825 6349,6278,6343
6466 22.821326 0.542946 1.077231 6279,6343,6350
6467 22.672984 0.542248 1.082330 6343,6280,6351
6470 13.197761 0.371277 0.599308 6344,6283
6471 22.963384 0.098895 1.147701 6284,6345,6344
6472 22.663205 0.511727 0.113283 6285,6344,6346
6473 22.758050 0.507326 1.275371 6286,6344,6347
6474 22.974209 0.524228 1.013746 6348,6287,6344
6475 22.508228 0.502508 0.992793 6349,6288,6344
6476 22.583028 0.546019 1.049225 6344,6350,6289
6477 22.868190 0.527162 1.085193 6290,6344,6351
6480 13.182256 0.376864 0.617885 6293,6345
6481 22.517517 0.515079 0.104552 6294,6345,6346
6482 22.827472 0.545181 1.029949 6295,6345,6347
6483 22.515492 0.503486 1.004946 6348,6345,6296
6484 22.465066 0.547416 1.037491 6349,6297,6345
6485 22.869308 0.542178 1.065498 6345,6350,6298
6486 22.558653 0.547137 1.079257 6345,6299,6351
6489 13.170803 0.376444 0.620540 6302,6346
6490 22.502781 0.524298 1.032393 6303,6347,6346
6491 22.430845 0.548045 1.091688 6348,6304,6346
6492 22.679409 0.543226 1.254279 6349,6305,6346
6493 22.459479 0.555517 1.290457 6306,6350,6346
6494 22.610615 0.512146 0.100921 6307,6351,6346
6497 13.144333 0.098965 0.615510 6310,6347
6498 22.803936 0.098406 1.030159 6348,6311,6347
6499 22.554603 0.508654 1.008856 6349,6312,6347
6500 22.445231 0.532261 13.460434 6313,6350,6347
6501 22.813224 0.548324 1.140018 6314,6347,6351
6504 13.057171 0.365130 0.633600 6348,6317
6505 22.510113 0.528489 1.057397 6349,6348,6318
6506 22.442647 0.514731 1.034978 6348,6319,6350
6507 22.929930 0.198350 0.722438 6348,6320,6351
6510 13.369919 0.371416 0.622356 6349,6323
6511 22.806799 0.185009 0.739828 6349,6324,6350
6512 22.848914 0.524507 0.989860 6349,6325,6351
6515 13.101869 0.366038 0.658464 6350,6328
6516 22.581352 0.524997 0.963740 6329,6350,6351
6519 13.350365 13.185678 0.598750 6332,6351
6522 8.209838 -1 -1 6354
6523 20.089277 1.190723 2.102082 6355,6522
6524 20.030959 0.117123 0.121105 6356,6522
6525 20.120915 1.300164 2.251613 6357,6522
6526 20.366755 1.312597 2.376558 6522,6358
6527 20.204026 1.289340 2.264184 6522,6359
6528 20.090743 1.292064 2.232126 6360,6522
6529 20.170292 1.289478 2.226260 6361,6522
6530 20.106388 1.286266 2.211174 6362,6522
6531 20.334558 1.259517 2.215015 6363,6522
6532 20.285460 1.308894 2.201116 6522,6364
6533 20.274845 1.279980 0.102527 6522,6365
6534 20.312489 1.282705 2.229542 6522,6366
6535 20.510559 1.283402 2.194761 6522,6367
6536 20.198578 1.289479 2.182120 6368,6522
6537 20.062108 1.288640 15.174128 6369,6522
6540 13.333043 0.392298 0.699040 6523,6372
6541 22.759028 0.543294 1.243313 6523,6373,6524
6542 22.618926 0.496292 1.197987 6374,6523,6525
6543 22.838996 0.423588 0.949352 6523,6375,6526
6544 22.847866 0.441886 1.140717 6523,6376,6527
6545 22.712584 0.569904 1.107053 6528,6523,6377
6546 22.870006 0.534146 1.023593 6529,6378,6523
6547 22.858551 0.505581 1.263010 6379,6523,6530
6548 22.938590 0.553003 1.252603 6523,6380,6531
6549 22.536375 0.539524 1.090431 6381,6523,6532
6550 22.527923 0.543365 1.258469 6523,6533,6382
6551 22.906952 0.501530 1.081143 6523,6534,6383
6552 22.750507 0.515778 1.003898 6384,6523,6535
6553 22.460527 0.540362 1.086660 6536,6385,6523
6554 22.765803 0.507187 0.098895 6537,6523,6386
6557 13.305946 0.397606 0.812953 6389,6524
6558 22.618718 0.514311 1.015003 6390,6525,6524
6559 22.802679 0.505092 1.037352 6391,6524,6526
6560 22.845072 0.529397 1.107822 6392,6524,6527
6561 22.739612 0.400400 0.962622 6528,6524,6393
6562 22.859530 0.530654 1.055372 6529,6524,6394
6563 22.492095 0.540222 1.162228 6524,6530,6395
6564 22.961358 0.506837 1.077789 6396,6524,6531
6565 22.584773 0.514171 1.030996 6532,6524,6397
6566 22.829497 0.508165 1.297302 6398,6524,6533
6567 22.780958 0.531072 0.984971 6534,6399,6524
6568 22.826355 0.551047 1.003898 6400,6535,6524
6569 22.461225 0.506279 13.936891 6536,6401,6524
6570 22.562146 0.512286 0.100921 6402,6537,6524
6573 13.205094 0.375466 0.099524 6525,6405
6574 22.591759 0.118870 1.029530 6406,6525,6526
6575 22.608101 0.553143 1.082539 6525,6407,6527
6576 22.544754 0.421423 0.941739 6528,6408,6525
6577 22.596438 0.472266 1.008997 6529,6409,6525
6578 22.509416 0.530585 1.213981 6525,6410,6530
6579 22.509904 0.531143 0.980222 6411,6525,6531
6580 22.592177 0.521504 1.081562 6532,6525,6412
6581 22.575205 0.504463 1.302749 6525,6533,6413
6582 22.462342 0.511308 1.081492 6414,6534,6525
6583 22.801772 0.536870 1.032812 6415,6535,6525
6584 22.863929 0.526672 13.730091 6536,6416,6525
6585 22.507181 0.516685 1.040914 6537,6417,6525
6588 13.241622 0.361359 0.821962 6420,6526
6589 22.702945 0.514730 10.589121 6421,6527,6526
6590 22.727250 0.511517 1.077860 6528,6422,6526
6591 22.795415 0.498527 0.915688 6529,6423,6526
6592 22.843466 0.447333 1.033860 6424,6530,6526
6593 22.807638 0.559988 1.124723 6425,6531,6526
6594 22.610964 0.520457 1.073948 6426,6532,6526
6595 22.796672 0.521225 0.950260 6427,6533,6526
6596 22.517307 0.104552 1.082609 6534,6428,6526
6597 22.781308 0.510540 1.064450 6535,6429,6526
6598 22.705529 0.539733 1.061168 6536,6430,6526
6599 22.573669 0.509003 0.994609 6537,6431,6526
6602 13.260199 0.274405 13.137208 6434,6527
6603 22.721383 0.501390 1.123746 6528,6435,6527
6604 22.767409 0.519829 13.130852 6529,6436,6527
6605 22.793669 0.391321 0.127670 6437,6530,6527
6606 22.898642 0.506908 1.191771 6438,6527,6531
6607 22.821396 0.547416 0.099943 6532,6439,6527
6608 22.584076 13.269278 1.142394 6440,6533,6527
6609 22.627867 0.507257 1.104678 6534,6527,6441
6610 22.764196 0.094146 1.007111 6535,6442,6527
6611 22.278799 0.503486 0.097289 6536,6443,6527
6612 22.841860 0.538755 1.084076 6537,6444,6527
6615 13.359723 0.279156 0.518083 6528,6447
6616 22.751764 0.512565 1.062914 6529,6528,6448
6617 22.583866 0.539873 1.070735 6528,6530,6449
6618 22.526736 0.509213 13.024275 6450,6528,6531
6619 22.990761 0.509283 1.192190 6451,6528,6532
6620 22.575066 0.523530 1.079187 6528,6452,6533
6621 22.421904 13.461831 13.111158 6528,6534,6453
6622 22.505574 12.487196 13.979005 6528,6535,6454
6623 22.868330 0.657695 0.993282 6536,6528,6455
6624 22.828171 0.516826 1.062705 6528,6456,6537
6627 13.206910 0.370927 0.871759 6529,6459
6628 22.536374 0.514799 1.236889 6529,6460,6530
6629 22.803727 0.516546 1.103003 6529,6461,6531
6630 22.815250 0.525416 1.096228 6529,6462,6532
6631 22.843536 0.536730 1.068711 6529,6463,6533
6632 22.421834 0.521714 1.011581 6529,6534,6464
6633 22.858691 0.544901 0.113771 6529,6535,6465
6634 22.453054 0.507885 1.079257 6529,6536,6466
6635 22.826564 13.392268 1.075835 6529,6537,6467
6638 13.127501 0.363873 0.703022 6470,6530
6639 22.820418 0.522482 1.068152 6471,6530,6531
6640 22.635688 0.546159 1.056000 6472,6532,6530
6641 22.838298 0.516826 1.101466 6473,6533,6530
6642 22.517587 0.537987 14.052688 6534,6530,6474
6643 22.582679 0.506000 1.023663 6535,6475,6530
6644 22.499987 0.508584 1.267968 6536,6476,6530
6645 22.918685 0.512146 1.076603 6537,6477,6530
6648 13.154529 0.370159 0.731168 6480,6531
6649 22.442648 0.553492 1.296603 6481,6532,6531
6650 22.892075 0.526813 1.100699 6482,6533,6531
6651 22.490279 0.520597 0.105041 6483,6534,6531
6652 22.408076 0.515429 1.058165 6535,6484,6531
6653 22.561796 0.548533 1.100837 6536,6485,6531
6654 22.597066 0.541410 0.992794 6537,6486,6531
6657 13.229260 0.372463 0.821682 6489,6532
6658 22.502920 0.541828 1.104609 6532,6533,6490
6659 22.433917 0.522412 1.238425 6491,6534,6532
6660 22.680037 0.547346 1.013886 6535,6532,6492
6661 22.507530 0.499505 1.108730 6536,6532,6493
6662 22.750508 0.273148 0.829365 6537,6532,6494
6665 13.095723 0.355771 0.666565 6497,6533
6666 22.515702 0.535613 0.997822 6534,6533,6498
6667 22.534349 0.511727 1.107892 6535,6499,6533
6668 22.438177 0.225588 0.811974 6536,6500,6533
6669 22.466464 0.522831 0.997682 6537,6501,6533
6672 13.176739 0.358216 0.733892 6534,6504
6673 22.474564 0.243537 0.721251 6534,6535,6505
6674 22.451378 0.503416 1.052577 6536,6534,6506
6675 22.562285 0.509772 1.034838 6537,6534,6507
6678 13.325221 0.370996 0.750863 6510,6535
6679 22.443485 0.523251 0.939574 6536,6511,6535
6680 22.792272 0.523111 1.027365 6537,6512,6535
6683 13.060733 0.369181 0.828806 6536,6515
6684 22.736190 0.526743 1.014793 6536,6537,6516
6687 13.354694 0.363733 0.674806 6537,6519
6690 8.230162 -1 -1 6540
6691 20.189080 1.169561 2.110952 6690,6541
6692 20.121473 1.184997 2.104177 6690,6542
6693 20.230286 1.308545 14.022516 6690,6543
6694 20.230426 1.315041 2.219275 6690,6544
6695 20.075029 1.288501 13.555837 6545,6690
6696 20.416693 1.305473 0.127670 6546,6690
6697 20.316749 1.282286 2.402678 6547,6690
6698 20.467607 1.280119 2.395485 6690,6548
6699 20.274496 1.290876 12.113686 6690,6549
6700 20.248375 1.289759 2.194412 6690,6550
6701 20.486184 1.295066 2.236876 6690,6551
6702 20.537936 1.297162 0.099384 6690,6552
6703 19.954553 1.281308 2.195460 6690,6553
6704 20.230705 1.280469 2.224723 6554,6690
6707 13.322707 0.400889 0.645263 6691,6557
6708 22.810640 0.541829 1.167606 6692,6691,6558
6709 22.813923 0.519200 13.820046 6693,6691,6559
6710 22.807917 0.405777 1.167676 6691,6560,6694
6711 22.835783 0.416324 0.959898 6691,6561,6695
6712 22.887396 0.539384 1.033301 6691,6696,6562
6713 22.864628 0.543015 0.095823 6691,6697,6563
6714 22.736749 0.101409 10.121743 6564,6691,6698
6715 22.616203 13.527342 0.995587 6565,6691,6699
6716 22.875314 0.544063 13.673450 6700,6691,6566
6717 22.965898 0.508654 1.222083 6701,6691,6567
6718 22.842209 0.518850 1.083796 6691,6702,6568
6719 22.584774 0.513333 1.076813 6691,6569,6703
6720 22.798349 0.536590 1.215657 6691,6570,6704
6723 13.299659 0.397467 0.700298 6692,6573
6724 22.818324 0.515568 1.004945 6693,6692,6574
6725 22.720476 0.547696 1.122628 6692,6575,6694
6726 22.777885 0.418838 0.123620 6692,6576,6695
6727 22.718171 0.412482 1.000057 6692,6696,6577
6728 22.594133 0.534845 1.324051 6692,6578,6697
6729 22.796044 0.543714 1.055372 6692,6698,6579
6730 22.842837 0.540850 1.077790 6692,6699,6580
6731 22.808266 0.507746 1.192609 6692,6581,6700
6732 22.855130 0.501461 1.101535 6701,6692,6582
6733 22.819511 0.514101 1.076394 6583,6692,6702
6734 22.516400 0.507048 1.160482 6692,6703,6584
6735 22.699734 0.525137 1.067663 6692,6704,6585
6738 13.350923 0.371066 0.642539 6693,6588
6739 22.851288 0.508375 1.066546 6693,6589,6694
6740 22.812247 0.510260 1.024641 6693,6590,6695
6741 22.753232 0.411226 1.018844 6693,6591,6696
6742 22.764336 0.428685 0.996495 6693,6592,6697
6743 22.654336 0.527721 1.121510 6693,6698,6593
6744 22.802050 0.538685 1.278025 6693,6699,6594
6745 22.772996 0.544342 1.023454 6693,6700,6595
6746 22.527574 0.549022 1.297301 6693,6701,6596
6747 22.821256 0.528140 1.073111 6693,6702,6597
6748 22.864069 0.532190 0.962762 6693,6598,6703
6749 22.827473 0.512774 0.992793 6693,6599,6704
6752 13.324383 0.379936 0.731029 6602,6694
6753 22.662368 0.511517 1.067663 6603,6695,6694
6754 22.857714 0.550698 14.060300 6604,6696,6694
6755 22.828031 0.393486 1.005085 6697,6605,6694
6756 22.336978 0.387829 0.994958 6698,6606,6694
6757 22.733536 0.533657 1.206019 6699,6607,6694
6758 22.558024 0.512355 1.056210 6608,6700,6694
6759 22.737517 0.507607 1.050203 6701,6609,6694
6760 22.691073 0.593092 1.090012 6610,6702,6694
6761 22.873637 0.517244 1.024711 6703,6611,6694
6762 22.814831 0.489797 0.095264 6612,6704,6694
6765 13.313489 0.278178 0.582266 6615,6695
6766 22.905486 0.519689 1.000964 6696,6695,6616
6767 22.528133 0.516406 0.994051 6617,6697,6695
6768 22.515492 0.517454 1.123188 6618,6698,6695
6769 22.970159 0.505442 1.000057 6699,6619,6695
6770 22.546571 0.546648 1.058863 6700,6620,6695
6771 22.541403 0.538337 1.132127 6701,6695,6621
6772 22.493492 0.514939 1.253790 6702,6622,6695
6773 22.961428 0.544273 13.677710 6703,6623,6695
6774 22.791155 0.499644 1.081981 6624,6704,6695
6777 13.310834 0.136190 0.532260 6627,6696
6778 22.481409 0.536102 1.112920 6697,6696,6628
6779 22.753161 0.514730 1.291714 6698,6696,6629
6780 22.750438 0.512844 1.085542 6630,6699,6696
6781 22.864628 0.582475 1.074577 6631,6700,6696
6782 22.939358 0.551746 1.138481 6701,6632,6696
6783 22.858133 0.520666 1.026038 6633,6702,6696
6784 22.511092 0.557543 0.974565 6703,6696,6634
6785 22.836273 0.555378 1.087917 6635,6696,6704
6788 13.349666 0.379378 0.676412 6638,6697
6789 22.816857 0.509702 1.072971 6639,6698,6697
6790 22.841231 0.541129 1.088266 6640,6699,6697
6791 22.760914 0.548533 1.085822 6700,6697,6641
6792 22.493491 0.511378 1.220964 6701,6697,6642
6793 22.556558 0.542457 1.059841 6702,6697,6643
6794 22.518146 0.537289 1.019193 6644,6703,6697
6795 22.821746 0.460812 1.038330 6645,6697,6704
6798 13.160535 0.378609 0.843821 6698,6648
6799 22.506203 0.545181 1.094831 6699,6698,6649
6800 22.888724 0.092260 1.165161 6700,6698,6650
6801 22.546711 0.511447 0.981270 6701,6698,6651
6802 22.348641 0.535892 1.078209 6698,6702,6652
6803 22.518425 0.383498 1.080584 6703,6698,6653
6804 22.434405 0.502018 1.145675 6698,6654,6704
6807 13.320262 0.360660 0.658044 6657,6699
6808 22.499499 0.529956 1.196591 6700,6699,6658
6809 22.832012 0.525626 1.008298 6701,6699,6659
6810 22.630520 0.313308 0.860026 6699,6702,6660
6811 22.522615 0.494057 1.035885 6699,6661,6703
6812 22.807218 0.089187 1.006552 6662,6699,6704
6815 13.089926 0.368692 8.153058 6700,6665
6816 22.500336 0.304508 0.773561 6701,6700,6666
6817 22.562565 0.511168 1.079047 6700,6702,6667
6818 22.487905 0.514800 0.099943 6700,6703,6668
6819 22.560958 0.515848 1.026666 6700,6669,6704
6822 13.181279 0.356470 0.659860 6701,6672
6823 22.459200 0.515707 25.426265 6701,6702,6673
6824 22.488812 0.508165 1.049505 6701,6674,6703
6825 22.550413 0.507048 1.078139 6701,6675,6704
6828 13.328504 0.384966 0.834044 6702,6678
6829 22.449492 0.508235 1.106774 6703,6702,6679
6830 22.849821 0.542527 1.314273 6680,6702,6704
6833 13.204815 0.370159 0.780756 6703,6683
6834 22.789759 0.554889 1.185206 6703,6684,6704
6837 13.302314 0.379797 0.671873 6704,6687
6840 8.297979 -1 -1 6707
6841 20.206959 1.198755 2.084762 6708,6840
6842 20.295029 1.201898 2.074286 6709,6840
6843 20.162401 1.307987 2.255105 6840,6710
6844 20.236362 1.308266 2.340171 6840,6711
6845 20.308508 1.294089 2.238202 6840,6712
6846 20.224419 1.299815 2.204260 6840,6713
6847 20.370807 1.289898 2.165219 6840,6714
6848 20.242928 1.263918 2.221650 6840,6715
6849 20.183632 0.090724 2.175555 6716,6840
6850 20.339028 1.283962 2.232336 6717,6840
6851 20.486394 1.272089 2.206285 6840,6718
6852 20.455314 1.291923 14.089703 6840,6719
6853 20.215270 1.295974 2.213897 6840,6720
6856 13.329482 0.385943 0.909683 6723,6841
6857 22.830964 0.507606 1.088825 6842,6841,6724
6858 22.795974 0.549651 0.977567 6843,6841,6725
6859 22.810432 0.430851 0.943974 6841,6726,6844
6860 22.856596 0.403123 1.056349 6841,6727,6845
6861 22.614037 0.526533 1.253232 6728,6841,6846
6862 22.858482 0.551047 1.110546 6729,6841,6847
6863 22.820769 0.514171 0.105041 6730,6848,6841
6864 22.844653 0.518780 1.166908 6731,6849,6841
6865 22.894800 0.585130 1.012209 6732,6841,6850
6866 22.843536 0.532679 0.097289 6841,6851,6733
6867 22.956818 0.523111 1.096088 6841,6734,6852
6868 22.593853 0.508164 1.291155 6841,6735,6853
6871 13.204187 0.382101 0.890266 6842,6738
6872 22.786825 0.539803 0.125435 6842,6843,6739
6873 22.499498 0.120476 1.021777 6842,6740,6844
6874 22.837669 0.417441 0.964438 6842,6741,6845
6875 22.782076 0.414228 0.123060 6842,6846,6742
6876 22.919035 0.545391 13.217666 6842,6847,6743
6877 22.349339 0.533866 1.140718 6842,6744,6848
6878 22.476869 0.546647 1.013955 6842,6745,6849
6879 22.432939 0.544412 13.115557 6842,6746,6850
6880 22.609149 0.536870 1.180596 6842,6747,6851
6881 22.393060 0.558940 1.074159 6842,6748,6852
6882 21.611676 10.376803 1.169701 6842,6749,6853
6885 13.391290 0.377701 0.093308 6752,6843
6886 22.826425 13.336814 0.122083 6843,6844,6753
6887 22.778234 0.549092 1.257003 6843,6754,6845
6888 22.752812 0.419956 1.142952 6843,6846,6755
6889 22.871263 0.431409 0.131791 6843,6756,6847
6890 22.777676 0.570255 1.100838 6843,6848,6757
6891 22.567733 0.502368 1.034628 6843,6758,6849
6892 22.828660 0.547904 1.105447 6843,6759,6850
6893 22.887047 0.542457 1.098183 6843,6851,6760
6894 22.895707 0.516755 1.153429 6843,6761,6852
6895 22.843466 0.510958 1.014375 6843,6762,6853
6898 13.223393 0.356330 0.896901 6765,6844
6899 22.704273 0.521226 1.103631 6766,6844,6845
6900 22.443276 0.551397 1.243942 6767,6846,6844
6901 22.559073 0.446007 0.124527 6847,6844,6768
6902 22.827403 0.107625 1.082400 6848,6769,6844
6903 22.857505 0.506838 1.039098 6849,6770,6844
6904 22.636457 0.518990 1.041543 6850,6844,6771
6905 22.491117 0.519899 1.103492 6851,6772,6844
6906 22.604260 0.555727 1.001943 6773,6844,6852
6907 22.854361 0.513054 1.062076 6774,6853,6844
6910 13.356999 0.268051 0.524089 6777,6845
6911 22.412755 0.514102 1.197568 6778,6846,6845
6912 22.766292 13.448421 1.269156 6779,6847,6845
6913 22.800234 0.548533 1.244990 6780,6848,6845
6914 22.778863 0.508585 1.038190 6781,6849,6845
6915 22.917358 0.521993 1.083098 6782,6850,6845
6916 22.867561 0.542178 0.104553 6783,6851,6845
6917 22.505225 0.515568 1.006203 6852,6784,6845
6918 22.796952 13.110599 1.085682 6785,6853,6845
6921 13.293863 0.272520 0.525555 6788,6846
6922 22.843326 0.512774 0.978406 6789,6846,6847
6923 22.835714 0.539523 1.016539 6848,6846,6790
6924 22.739193 0.596934 1.104051 6849,6846,6791
6925 22.849892 0.502927 13.241341 6792,6846,6850
6926 22.655243 0.546019 0.980502 6851,6846,6793
6927 22.563403 0.512216 1.067593 6794,6846,6852
6928 22.820837 0.517174 1.135479 6795,6846,6853
6931 13.153063 0.372463 0.667892 6847,6798
6932 22.587918 0.511586 1.115434 6848,6847,6799
6933 22.880063 0.533518 1.122000 6849,6847,6800
6934 22.891167 0.510959 1.101117 6801,6847,6850
6935 22.876920 0.508234 1.073739 6802,6851,6847
6936 22.445930 0.512635 1.151961 6847,6803,6852
6937 22.526108 0.521016 1.011510 6804,6847,6853
6940 13.306574 0.373581 0.760641 6807,6848
6941 22.874476 0.498527 1.000267 6848,6849,6808
6942 22.826774 0.508025 1.079955 6848,6850,6809
6943 22.817834 0.515288 1.260355 6810,6848,6851
6944 22.491536 0.510749 1.089314 6811,6848,6852
6945 22.856596 0.512355 1.152939 6848,6812,6853
6948 13.387240 0.359821 0.739968 6849,6815
6949 22.514933 0.509632 0.973797 6849,6850,6816
6950 22.542870 0.516337 1.057466 6849,6851,6817
6951 22.566476 0.514172 1.086939 6818,6849,6852
6952 22.839066 0.531840 1.072762 6819,6849,6853
6955 13.176041 0.371556 0.680463 6822,6850
6956 22.510603 0.512914 1.277187 6823,6851,6850
6957 25.135447 0.498807 1.081702 6824,6850,6852
6958 22.599231 0.554260 0.093796 6850,6853,6825
6961 13.358536 0.366457 0.688705 6828,6851
6962 22.589313 0.506001 13.219132 6829,6851,6852
6963 22.837320 0.532889 1.033790 6830,6851,6853
6966 13.248606 0.370787 0.650781 6833,6852
6967 22.821187 13.539773 1.013257 6834,6853,6852
6970 13.306155 0.366457 0.611949 6837,6853
6973 8.161579 -1 -1 6856
6974 20.007772 1.176475 2.124082 6857,6973
6975 20.008959 1.164114 2.088952 6973,6858
6976 20.173714 1.311270 2.454222 6859,6973
6977 20.129365 1.311270 2.221650 6860,6973
6978 20.395041 1.285638 2.235199 6973,6861
6979 20.194039 1.297929 2.240996 6973,6862
6980 20.250470 0.091702 2.238342 6973,6863
6981 20.011403 1.292203 2.232196 6864,6973
6982 20.553231 1.308336 2.198881 6865,6973
6983 20.057709 1.289410 2.260482 6866,6973
6984 20.362216 0.164057 2.234011 6867,6973
6985 20.244324 1.286475 2.217181 6868,6973
6988 13.298961 0.398794 0.831111 6974,6871
6989 22.427701 0.518850 1.016958 6974,6975,6872
6990 22.415829 0.542458 1.214609 6976,6974,6873
6991 22.422254 0.415346 0.910381 6977,6974,6874
6992 22.642324 0.437905 1.023314 6974,6875,6978
6993 22.635758 0.097848 1.134921 6876,6974,6979
6994 22.513955 0.512566 1.253790 6877,6974,6980
6995 22.809593 0.516337 1.076184 6974,6981,6878
6996 22.805403 0.513123 0.103575 6974,6982,6879
6997 22.828450 0.526184 0.101968 6974,6983,6880
6998 22.710488 0.510540 1.106984 6974,6984,6881
6999 22.229980 0.497200 0.976730 6974,6882,6985
7002 13.343659 13.174504 0.645054 6885,6975
7003 22.812527 13.477475 0.931263 6976,6886,6975
7004 22.835854 0.497479 1.275930 6977,6975,6887
7005 22.636945 0.396838 0.985739 6975,6888,6978
7006 22.615155 0.399003 1.014933 6889,6975,6979
7007 22.589454 0.571232 1.014234 6890,6975,6980
7008 22.578767 0.562083 22.357370 6891,6975,6981
7009 23.024006 0.543365 13.173665 6975,6892,6982
7010 22.879714 0.507117 1.015212 6893,6975,6983
7011 22.910793 0.507676 0.099454 6975,6984,6894
7012 22.614387 0.521574 1.017168 6985,6975,6895
7015 13.365869 0.362966 0.753307 6976,6898
7016 22.816507 0.528280 1.024920 6976,6977,6899
7017 22.563193 0.581079 0.937339 6976,6978,6900
7018 22.521009 0.408362 13.717799 6976,6901,6979
7019 22.828799 0.415346 1.171797 6976,6902,6980
7020 22.881879 0.502088 1.051251 6976,6903,6981
7021 22.767898 0.538895 1.009974 6976,6904,6982
7022 22.756583 0.527301 13.395411 6976,6905,6983
7023 22.754348 0.520248 1.067594 6976,6906,6984
7024 22.805752 0.535682 1.052158 6976,6907,6985
7027 13.318866 0.356889 0.126272 6977,6910
7028 22.525758 13.129944 1.208463 6977,6911,6978
7029 22.774533 0.510679 1.074437 6977,6912,6979
7030 22.844444 0.512356 1.044127 6977,6913,6980
7031 22.782704 0.513961 1.007320 6914,6977,6981
7032 22.805891 0.507466 1.096997 6977,6982,6915
7033 22.769784 0.521993 1.006063 6977,6916,6983
7034 22.521079 0.504534 1.304495 6977,6917,6984
7035 22.863929 0.514730 1.195403 6977,6985,6918
7038 13.182955 0.290749 0.570533 6921,6978
7039 22.587149 0.101967 1.070387 6922,6978,6979
7040 22.525479 0.523041 1.044546 6923,6978,6980
7041 22.555790 0.543016 1.070596 6924,6981,6978
7042 22.871752 0.511587 1.034978 6925,6982,6978
7043 22.601676 0.554329 0.977568 6926,6983,6978
7044 22.509416 0.496153 1.064870 6927,6984,6978
7045 22.547408 0.516686 13.330668 6985,6928,6978
7048 13.142726 0.126273 0.596654 6931,6979
7049 22.635758 0.552165 1.247994 6932,6980,6979
7050 22.872031 0.085067 1.009974 6933,6981,6979
7051 22.916171 0.535124 1.265663 6982,6934,6979
7052 22.579886 0.525416 1.078279 6935,6983,6979
7053 22.466254 0.523320 1.011581 6984,6936,6979
7054 22.583656 0.505441 1.026946 6985,6937,6979
7057 13.292885 0.372044 0.823637 6940,6980
7058 22.954444 0.515847 1.066057 6941,6981,6980
7059 22.783892 0.517175 1.027714 6942,6982,6980
7060 22.720335 0.538126 1.007041 6943,6983,6980
7061 22.514024 0.528767 1.275860 6984,6944,6980
7062 22.849822 0.509562 1.102933 6985,6945,6980
7065 13.330460 0.369041 0.829085 6948,6981
7066 22.526945 0.512077 1.256514 6949,6982,6981
7067 22.772158 0.507956 1.107123 6950,6983,6981
7068 22.580584 0.556983 1.209301 6951,6984,6981
7069 22.825028 0.516266 1.145048 6985,6952,6981
7072 13.350504 13.262224 0.610622 6982,6955
7073 22.586031 0.531772 1.085752 6983,6982,6956
7074 22.503899 0.510260 1.121022 6984,6982,6957
7075 22.558514 0.511517 13.783519 6958,6985,6982
7078 13.264460 0.378749 0.653644 6961,6983
7079 22.581562 0.091282 1.030787 6962,6984,6983
7080 22.623675 13.100612 0.979803 6985,6983,6963
7083 13.239457 0.361917 0.104483 6984,6966
7084 22.820349 0.533588 1.025548 6985,6984,6967
7087 13.195108 0.367295 0.635695 6985,6970
7090 8.300702 -1 -1 6988
7091 19.975785 1.187650 2.102850 6989,7090
7092 20.010845 8.133852 2.117446 6990,7090
7093 20.040667 1.305472 2.395975 6991,7090
7094 20.089486 0.083949 2.254685 6992,7090
7095 20.370597 1.304774 13.942687 7090,6993
7096 20.414597 1.277745 2.228355 6994,7090
7097 20.329111 1.284451 2.211593 6995,7090
7098 20.332603 1.286476 2.211104 6996,7090
7099 20.243207 1.281796 2.220952 6997,7090
7100 20.125035 13.097049 2.391295 6998,7090
7101 19.865505 0.085625 2.238831 6999,7090
7104 13.049139 0.393765 0.641912 7002,7091
7105 22.384749 0.513613 1.279212 7003,7092,7091
7106 22.388171 0.515987 1.274812 7093,7004,7091
7107 22.414780 0.407943 0.995936 7094,7005,7091
7108 22.783892 0.419676 0.989091 7006,7095,7091
7109 22.849123 0.570255 1.212863 7096,7007,7091
7110 22.789619 0.626895 0.101409 7097,7008,7091
7111 22.447257 0.508584 1.135828 7009,7098,7091
7112 22.418412 0.552793 0.103505 7099,7010,7091
7113 22.509485 0.509352 1.272647 7100,7011,7091
7114 22.153713 0.512077 0.971841 7101,7012,7091
7117 13.075050 0.390622 0.695898 7015,7092
7118 22.416038 0.543016 0.993561 7016,7092,7093
7119 22.340120 0.540432 0.984412 7017,7094,7092
7120 22.438038 0.449848 0.999289 7095,7092,7018
7121 22.754279 0.121175 0.931054 7096,7092,7019
7122 22.762451 0.527372 1.285358 7097,7020,7092
7123 22.742336 0.547555 13.520706 7021,7092,7098
7124 22.821605 0.507187 1.115225 7022,7092,7099
7125 22.517797 0.514381 1.022965 7100,7023,7092
7126 22.343473 0.556146 1.024921 7101,7092,7024
7129 13.254193 0.366108 0.683467 7027,7093
7130 22.540634 0.515708 1.025829 7094,7028,7093
7131 22.547339 0.547486 1.140577 7029,7095,7093
7132 22.897593 0.396349 0.945231 7096,7030,7093
7133 22.321333 0.545670 1.076254 7097,7093,7031
7134 22.745409 0.522971 1.026806 7032,7093,7098
7135 22.445860 0.516197 0.993632 7033,7093,7099
7136 22.359816 0.512355 1.087009 7100,7034,7093
7137 22.411918 0.546298 0.999219 7101,7093,7035
7140 13.183723 0.364641 13.297075 7038,7094
7141 22.304781 13.387939 1.247714 7039,7094,7095
7142 22.794577 0.513473 1.022126 7096,7094,7040
7143 22.909536 0.501461 0.093797 7097,7094,7041
7144 22.748482 0.515917 0.093238 7094,7098,7042
7145 22.910513 0.518012 1.080933 7094,7043,7099
7146 22.292558 0.513334 1.020591 7100,7044,7094
7147 22.448933 0.510470 1.077511 7045,7101,7094
7150 13.338492 0.273638 0.568298 7095,7048
7151 22.857993 0.505651 13.876338 7096,7095,7049
7152 22.676755 0.498737 1.288152 7097,7050,7095
7153 22.874895 0.542318 1.036444 7051,7095,7098
7154 22.835085 0.516895 1.062146 7052,7095,7099
7155 22.546012 0.550000 0.961434 7100,7053,7095
7156 22.187168 0.512007 1.104749 7101,7095,7054
7159 13.338072 0.261136 13.248884 7096,7057
7160 22.386146 0.522552 0.094844 7096,7097,7058
7161 22.417435 0.535613 1.023104 7096,7059,7098
7162 22.760216 0.518013 1.064450 7096,7060,7099
7163 22.499638 0.524647 1.094971 7096,7100,7061
7164 22.857086 0.545948 1.318812 7096,7101,7062
7167 13.164726 0.368622 0.860654 7097,7065
7168 22.890678 0.487562 1.105518 7097,7098,7066
7169 22.637714 0.497829 1.055162 7067,7097,7099
7170 22.751555 0.513473 1.049575 7100,7097,7068
7171 22.811828 0.522971 1.060470 7097,7069,7101
7174 13.145939 13.205164 0.740666 7072,7098
7175 22.309809 0.544901 0.097917 7073,7098,7099
7176 22.513676 0.100502 1.107054 7100,7074,7098
7177 22.750717 0.513753 1.096228 7101,7098,7075
7180 13.317539 0.359823 0.736685 7078,7099
7181 22.761613 0.512286 1.086171 7100,7079,7099
7182 22.706647 0.574793 1.319860 7101,7080,7099
7185 13.048720 0.364083 13.287647 7100,7083
7186 22.326571 0.642679 1.083446 7100,7101,7084
7189 13.079380 0.369809 0.624382 7101,7087
7192 8.211934 -1 -1 7104
7193 20.168197 1.206159 0.118451 7192,7105
7194 20.162610 1.181784 2.117587 7192,7106
7195 20.136070 1.317206 2.218368 7192,7107
7196 20.115886 0.096380 2.432921 7108,7192
7197 20.175531 1.296673 2.256012 7192,7109
7198 20.176159 1.298279 2.230241 7192,7110
7199 20.088159 1.288641 2.207962 7192,7111
7200 20.166660 1.291714 2.371180 7192,7112
7201 20.188312 1.293180 2.233593 7113,7192
7202 19.864248 1.290387 2.223815 7192,7114
7205 13.157742 0.387339 0.772165 7193,7117
7206 22.737377 0.497759 1.140228 7193,7118,7194
7207 22.745968 0.546228 1.283403 7193,7119,7195
7208 22.383142 0.391670 0.127181 7193,7196,7120
7209 22.969320 0.368972 0.996495 7193,7197,7121
7210 22.823981 10.743260 1.027923 7193,7198,7122
7211 22.551669 0.517803 1.278933 7193,7199,7123
7212 22.549854 0.103994 1.079396 7193,7124,7200
7213 22.461085 0.099384 0.998799 7193,7201,7125
7214 22.476450 0.512984 9.836860 7193,7202,7126
7217 13.068764 0.397955 0.095334 7129,7194
7218 22.723549 0.519967 1.241638 7130,7195,7194
7219 22.656641 0.516406 1.115505 7131,7196,7194
7220 22.706926 0.447613 0.927282 7132,7197,7194
7221 22.544825 0.377562 0.939085 7133,7198,7194
7222 22.852127 13.127081 1.092526 7199,7134,7194
7223 22.461434 0.531213 1.036374 7200,7135,7194
7224 22.738285 0.516756 1.034349 7201,7136,7194
7225 22.311346 0.516546 1.039098 7202,7137,7194
7228 13.364612 0.371137 0.827758 7140,7195
7229 22.502571 0.497689 1.057886 7196,7195,7141
7230 22.961358 0.494756 1.090990 7197,7142,7195
7231 22.760634 0.510260 1.013397 7198,7195,7143
7232 22.828101 0.508584 0.110209 7144,7199,7195
7233 22.954444 0.543575 1.016120 7145,7200,7195
7234 22.419040 0.512635 1.263987 7201,7146,7195
7235 22.750298 0.504882 1.321816 7202,7147,7195
7238 13.047602 0.384266 0.698203 7196,7150
7239 22.701200 0.533657 1.021289 7197,7196,7151
7240 22.562425 0.496362 13.119398 7198,7196,7152
7241 22.890190 0.511378 1.017378 7199,7153,7196
7242 22.525129 0.523250 1.074228 7154,7200,7196
7243 22.348082 0.509702 1.154476 7201,7155,7196
7244 22.267695 0.531003 1.189186 7202,7196,7156
7247 13.159418 0.277130 13.231215 7197,7159
7248 22.745898 0.520248 1.032114 7160,7198,7197
7249 22.830336 0.508584 1.132337 7199,7161,7197
7250 22.677453 0.521504 1.109637 7162,7200,7197
7251 22.476520 0.530793 1.084285 7163,7201,7197
7252 22.385796 0.543435 1.040914 7202,7197,7164
7255 13.180650 0.274405 0.570952 7198,7167
7256 22.815250 0.546089 1.091060 7199,7198,7168
7257 22.531975 0.521994 1.043359 7198,7200,7169
7258 22.415479 0.506698 1.120742 7201,7198,7170
7259 22.786475 0.527860 1.062775 7202,7198,7171
7262 13.243507 0.366597 0.619143 7174,7199
7263 22.528901 9.501133 1.163835 7175,7199,7200
7264 22.472399 0.498807 0.999498 7199,7176,7201
7265 22.451029 0.512355 1.099790 7202,7199,7177
7268 13.370828 0.369111 0.727677 7180,7200
7269 22.421136 0.504324 1.038260 7181,7201,7200
7270 22.550622 0.537219 1.165161 7202,7182,7200
7273 13.230797 0.372952 0.666634 7201,7185
7274 22.387473 0.132768 1.047339 7202,7201,7186
7277 13.129177 0.374768 0.684165 7202,7189
7280 8.268925 -1 -1 7205
7281 20.044090 1.185066 2.101314 7280,7206
7282 20.232870 1.186533 2.117376 7280,7207
7283 20.078032 1.310571 2.223816 7280,7208
7284 20.209473 1.309244 2.357630 7209,7280
7285 20.268558 1.284590 2.224793 7210,7280
7286 20.285391 0.146178 12.788212 7211,7280
7287 20.148921 1.293180 2.421117 7212,7280
7288 20.292166 1.300653 2.217809 7213,7280
7289 19.951619 1.292482 2.200488 7280,7214
7292 13.196504 0.390552 0.098896 7281,7217
7293 22.773835 0.509771 1.039168 7218,7282,7281
7294 22.369454 13.315932 1.016400 7283,7219,7281
7295 22.525619 0.381473 1.162018 7220,7281,7284
7296 22.475263 0.383778 0.995168 7221,7281,7285
7297 22.766501 0.516966 1.285358 7281,7222,7286
7298 22.503409 0.499435 1.037771 7281,7287,7223
7299 22.761473 0.508724 1.001174 7281,7288,7224
7300 22.389078 0.642260 0.994679 7281,7225,7289
7303 13.148244 0.402635 0.746743 7282,7228
7304 22.853523 0.542318 1.054463 7283,7282,7229
7305 22.496774 0.533797 1.267269 7282,7230,7284
7306 22.384889 0.389156 1.099372 7282,7285,7231
7307 22.361491 0.544273 0.095334 7282,7232,7286
7308 22.687790 0.552305 1.223270 7282,7287,7233
7309 22.361422 0.609574 1.017238 7282,7234,7288
7310 22.508298 0.525974 1.086520 7282,7289,7235
7313 12.943749 0.385594 0.638978 7283,7238
7314 22.472609 0.520527 0.141498 7283,7239,7284
7315 22.880272 0.506699 13.927812 7283,7285,7240
7316 22.734584 0.514939 1.117250 7283,7286,7241
7317 22.579955 0.506628 1.098812 7283,7287,7242
7318 22.436990 0.508793 1.146583 7283,7288,7243
7319 22.531555 0.507187 1.131568 7283,7289,7244
7322 13.090695 0.393975 0.699530 7247,7284
7323 22.429866 0.525695 1.088197 7248,7285,7284
7324 22.446209 0.567739 1.141904 7286,7249,7284
7325 22.491117 0.512845 0.103435 7250,7287,7284
7326 22.808057 0.506489 1.182692 7288,7251,7284
7327 22.780748 0.527022 1.106495 7289,7252,7284
7330 13.082104 0.266444 0.534705 7255,7285
7331 22.550971 0.511098 13.826053 7256,7286,7285
7332 22.797161 0.546997 1.073949 7257,7287,7285
7333 22.527225 0.098406 1.296673 7288,7258,7285
7334 22.787594 0.510889 1.097275 7289,7259,7285
7337 13.281640 0.262184 0.555238 7286,7262
7338 22.390825 13.533698 1.054044 7287,7286,7263
7339 22.562635 0.500901 1.091200 7264,7288,7286
7340 22.511999 0.535891 1.256583 7265,7289,7286
7343 13.316841 0.371346 0.628711 7287,7268
7344 22.335860 0.398793 1.148051 7269,7288,7287
7345 22.877758 0.521086 1.290876 7289,7287,7270
7348 13.192732 0.377003 0.793537 7273,7288
7349 22.346965 0.527651 1.084984 7289,7288,7274
7352 13.172968 0.370438 0.685283 7289,7277
7355 8.199921 -1 -1 7292
7356 20.341752 1.163834 2.121149 7293,7355
7357 20.117981 1.132964 0.122572 7294,7355
7358 20.327505 1.304705 14.154726 7355,7295
7359 20.214782 1.306311 2.221580 7355,7296
7360 20.313956 13.497938 2.420837 7355,7297
7361 20.160584 1.282635 2.231777 7298,7355
7362 20.174902 1.284101 2.231148 7299,7355
7363 20.024324 1.284939 0.094216 7300,7355
7366 13.304269 0.397676 0.703720 7303,7356
7367 22.349968 0.513682 1.077511 7304,7357,7356
7368 22.435454 0.512356 1.274603 7358,7305,7356
7369 22.507111 0.390622 0.965415 7359,7306,7356
7370 22.856875 0.422470 0.821682 7360,7307,7356
7371 22.779072 0.520388 1.038889 7361,7308,7356
7372 22.505923 0.511657 0.944603 7362,7309,7356
7373 22.761682 0.503626 0.098895 7363,7310,7356
7376 13.162491 0.378401 0.634927 7313,7357
7377 22.735282 0.512076 1.279562 7358,7357,7314
7378 22.915193 0.504813 13.420554 7359,7315,7357
7379 22.816647 0.503346 1.092596 7360,7316,7357
7380 22.572132 0.626127 1.076463 7361,7317,7357
7381 22.525060 0.525834 13.678199 7362,7318,7357
7382 22.556698 0.509282 1.077581 7363,7319,7357
7385 13.198250 0.379028 0.695409 7358,7322
7386 22.762729 0.501949 1.003689 7359,7358,7323
7387 22.520102 0.536311 1.047549 7360,7358,7324
7388 22.499358 0.512984 1.062286 7358,7325,7361
7389 22.719149 0.513753 0.094845 7358,7362,7326
7390 22.488114 0.519270 0.103086 7358,7363,7327
7393 13.169685 0.391529 0.697853 7359,7330
7394 22.851289 0.524019 1.067803 7359,7360,7331
7395 22.377555 0.515987 13.510999 7359,7361,7332
7396 22.747714 0.513473 9.108068 7359,7362,7333
7397 22.701618 0.521994 1.086380 7359,7363,7334
7400 13.250631 0.271893 13.390942 7360,7337
7401 22.571434 0.541410 1.096647 7360,7361,7338
7402 22.798837 0.519828 1.069339 7360,7362,7339
7403 22.523035 0.522552 1.005574 7360,7363,7340
7406 13.302523 0.256737 0.554191 7361,7343
7407 22.554464 0.511587 1.034629 7361,7362,7344
7408 22.837878 0.514939 13.942060 7345,7361,7363
7411 13.098586 0.372254 0.625359 7362,7348
7412 22.355904 0.523180 1.274254 7362,7363,7349
7415 13.214523 0.260717 0.560126 7352,7363
7418 8.265712 -1 -1 7366
7419 20.218413 0.122152 2.120171 7418,7367
7420 20.358165 1.154895 2.067021 7368,7418
7421 20.337912 1.315529 14.179799 7369,7418
7422 20.199975 1.265802 2.182819 7418,7370
7423 20.492819 1.288920 2.227657 7418,7371
7424 20.237550 1.298628 14.510916 7372,7418
7425 20.257873 1.293250 2.209428 7373,7418
7428 13.078262 0.394882 0.095264 7419,7376
7429 22.645047 0.531282 1.031625 7419,7377,7420
7430 22.970926 0.516267 1.099022 7419,7421,7378
7431 22.717892 0.510051 1.184787 7379,7419,7422
7432 22.787104 13.191614 1.291714 7380,7419,7423
7433 22.421485 0.546438 0.106089 7381,7419,7424
7434 22.619624 0.533378 1.018286 7382,7425,7419
7437 13.102009 0.399492 0.809460 7385,7420
7438 22.495657 0.515078 1.009275 7386,7421,7420
7439 22.753231 0.512006 1.236539 7387,7422,7420
7440 22.501105 0.507257 12.267825 7388,7423,7420
7441 22.716495 0.522413 1.160063 7389,7424,7420
7442 22.464577 0.515359 0.982038 7425,7390,7420
7445 13.247278 0.403612 0.641002 7393,7421
7446 22.431821 0.522552 0.999918 7394,7422,7421
7447 22.434756 0.513054 1.207905 7395,7423,7421
7448 22.567663 0.529536 1.264964 7396,7424,7421
7449 22.362399 0.562013 1.334806 7425,7397,7421
7452 13.333811 0.395790 0.639536 7422,7400
7453 22.461435 0.498946 1.122977 7401,7423,7422
7454 22.826285 0.135353 0.950120 7424,7422,7402
7455 22.495168 0.564457 1.085542 7425,7422,7403
7458 13.297914 0.378400 0.639955 7406,7423
7459 22.769644 0.404939 0.956755 7407,7424,7423
7460 22.777885 0.535682 1.281028 7425,7423,7408
7463 13.108434 0.395930 0.933079 7411,7424
7464 22.565427 0.513753 0.960247 7412,7425,7424
7467 13.092022 0.259879 0.545460 7425,7415
7470 8.194753 -1 -1 7428
7471 20.219670 1.179968 2.104666 7470,7429
7472 20.384565 1.161809 0.136959 7470,7430
7473 20.219461 1.256514 2.191130 7470,7431
7474 20.268978 1.257142 2.424888 7470,7432
7475 20.176299 1.305542 2.230729 7470,7433
7476 20.325061 1.284520 2.209987 7470,7434
7479 13.269558 0.380425 0.697085 7471,7437
7480 22.645746 0.512634 1.022616 7471,7472,7438
7481 22.461923 0.511936 1.086730 7471,7473,7439
7482 22.444393 0.508514 1.030647 7471,7474,7440
7483 22.365473 0.510749 1.170050 7441,7471,7475
7484 22.255333 0.517943 1.019961 7471,7442,7476
7487 13.383888 0.386361 0.615651 7472,7445
7488 22.530437 0.518920 1.238984 7472,7473,7446
7489 22.685066 0.524927 1.081701 7472,7474,7447
7490 22.371968 0.505022 0.104064 7448,7472,7475
7491 22.468629 0.505651 13.082173 7449,7472,7476
7494 13.295469 0.393207 0.633740 7473,7452
7495 22.463600 0.543504 7.273197 7473,7474,7453
7496 22.455149 0.515637 1.279841 7454,7473,7475
7497 22.846609 0.536730 1.164742 7455,7473,7476
7500 13.095793 0.385593 0.642540 7474,7458
7501 22.467441 0.406477 1.151473 7474,7475,7459
7502 22.490139 0.545390 1.057257 7460,7474,7476
7505 13.182396 0.121734 0.125225 7463,7475
7506 22.539447 0.514939 1.083308 7475,7476,7464
7509 13.224091 0.398304 0.693663 7467,7476
7512 8.273884 -1 -1 7479
7513 19.993873 1.188069 2.117168 7512,7480
7514 19.844553 1.185066 15.040592 7481,7512
7515 19.891067 1.292063 0.091213 7512,7482
7516 20.070140 1.289549 2.215853 7512,7483
7517 20.080406 1.286335 2.215853 7484,7512
7520 13.362376 0.400540 0.696108 7487,7513
7521 22.516748 0.517244 1.274882 7514,7513,7488
7522 22.828171 0.553841 0.089746 7489,7515,7513
7523 22.761123 0.521016 1.052717 7516,7490,7513
7524 22.511162 0.552095 1.058723 7517,7491,7513
7527 13.040060 0.392717 0.648616 7514,7494
7528 22.601117 0.545950 1.046641 7515,7514,7495
7529 22.768387 0.404381 0.123549 7516,7514,7496
7530 22.531415 0.537219 1.214748 7517,7514,7497
7533 13.030701 0.358774 0.636463 7515,7500
7534 22.759028 0.127181 0.979244 7516,7515,7501
7535 22.300241 0.563688 1.039098 7517,7515,7502
7538 13.097259 0.394324 0.648825 7516,7505
7539 22.233612 0.401587 0.900184 7517,7516,7506
7542 13.275635 0.358845 0.715314 7517,7509
7545 8.276049 -1 -1 7520
7546 19.892673 1.172006 2.099987 7521,7545
7547 20.052540 1.303936 2.200279 7522,7545
7548 20.151994 1.290596 14.714364 7523,7545
7549 19.984585 13.484319 2.220742 7545,7524
7552 12.900656 0.383499 0.698692 7527,7546
7553 22.377556 0.507955 1.229625 7528,7546,7547
7554 22.702736 0.400470 0.123549 7548,7529,7546
7555 22.361142 0.550908 1.100559 7549,7530,7546
7558 13.247418 0.367156 0.760710 7533,7547
7559 22.515003 0.535403 1.033022 7548,7534,7547
7560 22.267974 0.517104 1.060609 7535,7549,7547
7563 13.195037 0.389225 0.638209 7548,7538
7564 22.509136 0.381332 0.973727 7548,7549,7539
7567 13.013381 0.365130 0.716990 7549,7542
7570 8.281846 -1 -1 7552
7571 20.003790 1.271949 14.475925 7553,7570
7572 20.123010 0.123758 2.187708 7570,7554
7573 20.054565 1.313644 2.218368 7570,7555
7576 13.172409 0.385733 0.628990 7571,7558
7577 22.071371 0.532749 10.097369 7571,7559,7572
7578 22.404165 0.531562 0.117892 7571,7573,7560
7581 13.049349 0.384686 0.631994 7572,7563
7582 22.445861 0.543155 1.159295 7573,7572,7564
7585 13.033634 0.377492 0.642330 7567,7573
7588 8.270810 -1 -1 7576
7589 19.522585 1.272647 2.206145 7588,7577
7590 19.228484 1.174381 2.110882 7578,7588
7593 12.359108 0.392089 0.682419 7589,7581
7594 21.424361 0.533448 1.073180 7589,7582,7590
7597 12.684917 0.378260 0.139054 7585,7590
7600 8.035026 -1 -1 7593
7601 18.991163 1.277885 2.218158 7594,7600
7604 11.997121 0.393066 0.691149 7597,7601
7607 7.872087 -1 -1 7604
7610 0.443981 0.127391 0.133327 5650
7613 0.844311 0.085626 0.082064 7610,5651
7616 0.870013 0.091283 0.091702 7610,5652
7619 0.878813 0.107904 0.104762 7610,5653
7622 0.877556 0.089187 0.085067 5654,7610
7625 0.867638 0.088210 0.084578 5655,7610
7628 0.898787 0.088140 0.086604 5656,7610
7631 0.882025 0.079759 0.086114 5657,7610
7634 0.880977 0.093308 0.086114 7610,5658
7637 0.889707 0.083530 0.083531 7610,5659
7640 0.872247 0.088140 0.081505 5660,7610
7643 0.868197 0.104621 0.111327 5661,7610
7646 0.869036 0.082971 0.094286 5662,7610
7649 0.856673 0.091212 0.079409 5663,7610
7652 0.881327 0.093308 0.093308 7610,5664
7655 0.851365 0.089676 0.079968 7610,5665
7658 0.840959 0.080946 0.087651 7610,5666
7661 0.869523 0.088699 0.083600 7610,5667
7664 0.850177 0.083600 0.087651 5668,7610
7667 0.853391 0.091283 0.086604 5669,7610
7672 0.469613 0.089257 0.215321 5900,7613
7675 0.911847 0.086114 0.088629 7616,5901,7672
7678 0.934964 0.092261 0.081993 5902,7672,7619
7681 0.899067 0.081435 0.082553 5903,7672,7622
7684 0.913104 0.088559 0.099104 7625,7672,5904
7687 0.892292 0.086603 0.082413 7672,7628,5905
7690 0.890755 0.093866 0.092261 7672,7631,5906
7693 0.903256 0.081504 0.076895 7672,5907,7634
7696 0.858558 0.088139 0.076337 5908,7672,7637
7699 0.843194 0.093028 0.074311 7640,5909,7672
7702 0.906051 0.087651 0.083112 7643,7672,5910
7705 0.881257 0.089258 0.073334 7672,5911,7646
7708 0.852483 0.083530 13.107107 7649,7672,5912
7711 0.889708 0.081994 0.086114 7652,7672,5913
7714 0.879441 0.088628 0.081016 5914,7672,7655
7717 0.874902 0.083460 0.075847 5915,7658,7672
7720 0.902489 0.091283 0.090235 7661,5916,7672
7723 0.878184 0.099803 0.086114 5917,7672,7664
7726 0.910101 0.094775 0.093797 7672,5918,7667
7731 0.480787 0.081993 0.209803 7675,6128
7734 0.896762 0.088209 0.089676 7731,6129,7678
7737 0.881467 0.089746 0.088140 6130,7731,7681
7740 0.875460 0.090165 0.085626 7684,7731,6131
7743 0.884470 0.073333 0.081924 6132,7687,7731
7746 0.865193 0.082901 0.076825 6133,7731,7690
7749 0.878673 0.088629 0.100641 7731,6134,7693
7752 0.880488 0.088140 0.087650 7731,7696,6135
7755 0.903466 13.092720 0.084019 7731,6136,7699
7758 0.871410 0.094355 0.088139 7731,7702,6137
7761 0.900184 0.079479 0.086115 6138,7705,7731
7764 0.922742 0.084508 0.083530 7731,6139,7708
7767 0.886844 0.093307 0.084089 7711,7731,6140
7770 0.898717 0.086673 0.081016 6141,7731,7714
7773 0.860165 0.083041 0.092819 6142,7731,7717
7776 0.875739 0.081505 0.078920 6143,7720,7731
7779 0.866799 0.088140 0.077873 7731,7723,6144
7782 0.894736 0.087092 0.097987 7731,7726,6145
7787 0.465562 0.076895 0.216858 6335,7734
7790 0.915968 0.098406 0.092260 7787,6336,7737
7793 0.897111 0.091213 0.089187 7787,7740,6337
7796 0.914990 0.076965 0.087650 7787,6338,7743
7799 0.922812 0.090724 0.093308 7787,7746,6339
7802 0.897600 0.084578 0.081575 6340,7749,7787
7805 0.890057 0.086604 0.076826 6341,7787,7752
7808 0.880210 0.092819 0.087162 7755,7787,6342
7811 0.897669 0.108114 0.084578 7787,6343,7758
7814 0.864914 0.089676 0.103784 7787,6344,7761
7817 0.882863 0.076406 0.096381 7764,7787,6345
7820 0.906888 0.088698 0.084578 7787,7767,6346
7823 0.891104 0.088628 0.083041 7787,6347,7770
7826 0.939434 0.085625 0.094356 6348,7773,7787
7829 0.906819 0.082483 0.089188 6349,7787,7776
7832 0.840958 0.085067 0.088699 7787,7779,6350
7835 0.902908 0.104762 0.090723 7787,7782,6351
7840 0.469472 0.074800 0.201492 7790,6522
7843 0.911777 0.090165 0.085067 6523,7840,7793
7846 0.888241 0.087651 0.092330 7796,6524,7840
7849 0.877695 0.089606 0.084020 7799,6525,7840
7852 0.900254 0.079340 0.083531 7802,7840,6526
7855 0.893619 0.081993 0.084089 7805,7840,6527
7858 0.917993 0.078920 0.091213 6528,7840,7808
7861 0.905562 0.082063 0.077314 6529,7840,7811
7864 0.873366 0.085625 0.085136 7814,7840,6530
7867 0.883701 0.082064 0.092190 7817,7840,6531
7870 0.897181 0.087092 0.077873 7820,6532,7840
7873 0.890965 0.078921 0.083042 7823,6533,7840
7876 0.892082 0.091772 0.089746 6534,7840,7826
7879 0.880698 0.083041 0.090654 7829,6535,7840
7882 0.828666 0.080457 0.083949 6536,7832,7840
7885 0.897809 0.081994 0.101549 6537,7840,7835
7890 0.480997 0.075429 0.212877 6690,7843
7893 0.899835 0.086673 0.096381 6691,7846,7890
7896 0.903467 0.090724 13.099982 6692,7849,7890
7899 0.906330 0.069632 0.093727 6693,7852,7890
7902 0.895644 0.077384 0.087162 7855,7890,6694
7905 0.918762 0.089188 0.085555 7858,7890,6695
7908 0.911569 0.082971 0.082553 7861,6696,7890
7911 0.892571 0.079410 0.087651 7864,6697,7890
7914 0.840120 0.073822 0.083530 7867,6698,7890
7917 0.890056 0.076895 0.090724 6699,7870,7890
7920 0.884609 0.095333 0.113561 6700,7890,7873
7923 0.857860 0.093308 0.090235 6701,7876,7890
7926 0.900184 0.097498 0.084578 6702,7879,7890
7929 0.880489 0.087092 0.080387 6703,7882,7890
7932 0.876158 0.084997 0.090096 7885,6704,7890
7937 0.493638 0.079968 0.213225 6840,7893
7940 0.889429 0.096800 0.098406 7896,6841,7937
7943 0.794654 0.091772 0.085136 6842,7937,7899
7946 0.926164 0.091701 0.089187 6843,7902,7937
7949 0.895993 0.075848 0.085626 7937,6844,7905
7952 0.903396 0.093867 0.078361 7908,7937,6845
7955 0.877834 0.088140 0.083530 7911,6846,7937
7958 0.877625 0.081016 0.079480 6847,7937,7914
7961 0.886635 0.100012 0.100710 6848,7917,7937
7964 0.910799 0.085625 0.088140 6849,7920,7937
7967 0.885238 0.081505 0.072774 6850,7937,7923
7970 0.941320 0.086114 0.092261 7926,6851,7937
7973 0.882794 0.086604 0.075359 7929,7937,6852
7976 0.897669 0.087651 0.089187 7932,7937,6853
7981 0.468286 0.090235 0.220978 7940,6973
7984 0.894456 0.086185 0.082972 7981,6974,7943
7987 0.903816 0.083530 0.089188 7981,7946,6975
7990 0.900044 0.080457 0.091282 6976,7981,7949
7993 0.898857 12.116897 0.091212 6977,7952,7981
7996 0.893270 0.094844 0.081504 7981,7955,6978
7999 0.879162 0.072215 0.084019 7981,7958,6979
8002 0.896971 0.083041 0.085136 7981,7961,6980
8005 0.878952 0.082552 0.100920 7981,7964,6981
8008 0.890546 0.085067 0.098337 7981,6982,7967
8011 0.895156 0.084508 0.089676 7981,6983,7970
8014 0.893758 0.070191 0.086604 7981,6984,7973
8017 0.893409 0.110489 0.092750 7981,6985,7976
8022 0.456203 0.078432 0.214343 7984,7090
8025 0.883911 0.088559 0.084578 8022,7987,7091
8028 0.870711 0.108673 0.080457 8022,7990,7092
8031 0.879022 0.088210 0.092191 8022,7993,7093
8034 0.887124 0.082483 0.082483 8022,7094,7996
8037 0.860654 0.075848 0.085556 8022,7999,7095
8040 0.899625 0.087162 0.098406 7096,8022,8002
8043 0.912336 0.091212 0.075848 8022,7097,8005
8046 0.838654 0.083530 0.084997 8022,8008,7098
8049 0.870221 0.086603 0.086045 8022,8011,7099
8052 0.835301 0.115866 0.081505 7100,8022,8014
8055 0.847104 0.086045 0.095822 8022,7101,8017
8060 0.438812 0.089188 0.219930 7192,8025
8063 0.877975 0.089746 13.115837 7193,8028,8060
8066 0.854717 0.091701 0.078432 8031,8060,7194
8069 0.879093 0.081504 0.085067 8034,8060,7195
8072 0.857371 0.072286 0.086044 8037,7196,8060
8075 0.889568 0.089187 0.086603 8040,7197,8060
8078 0.904933 0.082552 0.100013 8043,7198,8060
8081 0.869244 0.150717 0.117403 7199,8046,8060
8084 0.889219 0.110908 0.123130 8049,7200,8060
8087 0.878952 0.094216 0.096800 8052,7201,8060
8090 0.868825 0.117403 0.096311 7202,8055,8060
8095 0.432666 0.084089 0.221536 7280,8063
8098 0.890127 0.103016 0.092749 8066,7281,8095
8101 0.890476 0.083111 0.085136 7282,8095,8069
8104 0.906191 0.095892 0.107625 7283,8095,8072
8107 0.906749 0.110069 0.102457 8095,8075,7284
8110 0.866940 0.131861 0.125156 8078,8095,7285
8113 0.852762 0.107625 0.097358 8095,7286,8081
8116 0.911009 0.127390 0.114470 8084,8095,7287
8119 0.851994 0.124807 0.126692 8095,7288,8087
8122 0.893339 0.093238 0.097917 7289,8095,8090
8127 0.437136 0.162450 0.318336 7355,8098
8130 0.866939 0.085765 0.104623 8127,8101,7356
8133 0.895854 0.091213 0.106857 8127,8104,7357
8136 0.815607 0.089536 0.098406 8127,7358,8107
8139 0.843543 0.102458 0.102038 7359,8127,8110
8142 0.901860 0.122781 0.132350 7360,8127,8113
8145 0.906679 0.083041 0.088209 8127,7361,8116
8148 0.900742 0.111467 0.121035 8127,7362,8119
8151 0.882724 0.121524 0.117333 8127,7363,8122
8156 0.443143 0.083530 0.326647 7418,8130
8159 0.867847 0.097289 0.097429 8156,7419,8133
8162 0.862470 0.085626 0.087720 8156,8136,7420
8165 0.826990 0.095333 0.102946 8156,8139,7421
8168 0.907098 0.087162 0.100012 8156,8142,7422
8171 0.883912 0.116076 0.118940 8156,8145,7423
8174 0.926933 0.122851 0.098477 8156,8148,7424
8177 0.899764 0.114331 0.136749 8156,7425,8151
8182 0.442235 0.168108 0.322177 7470,8159
8185 0.901581 0.125226 0.122572 7471,8162,8182
8188 0.887054 0.088350 0.067677 7472,8165,8182
8191 0.871898 0.093378 0.091702 7473,8168,8182
8194 0.903606 0.095333 0.091701 8171,7474,8182
8197 0.888171 0.122711 0.116914 8174,7475,8182
8200 0.866241 0.115518 0.121384 8177,7476,8182
8205 0.443491 0.169645 0.324272 8185,7512
8208 0.896413 0.096591 0.091282 8205,7513,8188
8211 0.847524 0.084857 0.057409 8191,7514,8205
8214 0.924279 0.054895 0.095403 7515,8205,8194
8217 0.907308 0.087092 0.096800 7516,8205,8197
8220 0.897740 0.124876 0.121594 7517,8205,8200
8225 0.428546 0.167270 0.322037 7545,8208
8228 0.835511 13.106548 0.088419 8211,8225,7546
8231 0.872387 0.095822 0.096311 8214,8225,7547
8234 0.855276 0.100990 0.100572 7548,8225,8217
8237 0.812114 0.071866 0.094635 8220,7549,8225
8242 0.439232 0.170483 0.317987 8228,7570
8245 0.841447 0.109650 0.087721 7571,8242,8231
8248 0.872945 0.099873 0.093727 8242,7572,8234
8251 0.881326 0.086673 0.085066 8242,7573,8237
8256 0.439442 0.177257 0.322946 7588,8245
8259 0.768603 0.118521 0.124178 8248,8256,7589
8262 0.827479 0.081784 0.110139 8256,8251,7590
8267 0.423936 0.179980 0.326089 8259,7600
8270 0.770488 0.112724 0.130951 8267,8262,7601
8275 0.396908 0.178793 0.326019 7607,8270
8280 0.413739 0.124527 0.273149 7607,8275
8283 1.220196 0.126553 0.114819 8267,7601,8280,8270
8287 1.644902 0.094356 0.091771 8256,8259,8262,8280,7590
8291 1.647415 0.081505 0.093308 7573,8251,8280,8242,8248,8245
8295 1.649930 0.077384 0.077384 7549,8231,8237,8225,8280,8234,8228
8299 1.627721 0.078920 0.083530 8220,8208,8211,8205,8214,8217,7517,8280
8303 1.602997 0.081015 0.094285 8191,8188,8194,8185,8200,8182,8280,7476,8197
8307 1.473091 0.096870 0.087092 8171,8174,8165,8177,8156,8168,7425,8162,8280,8159
8311 1.518768 0.089676 0.091213 8148,8142,7363,8145,8151,8139,8280,8127,8136,8130,8133
8315 1.489993 0.084019 0.078362 8104,8095,8101,7289,8107,8098,8119,8280,8113,8110,8116,8122
8319 1.533364 0.079898 0.080946 8084,8078,8087,8081,8069,8066,7202,8075,8090,8072,8063,8060,8280
8323 1.498234 0.086603 0.089188 8040,8052,8037,8043,8031,8046,8055,8034,8049,7101,8028,8280,8022,8025
8327 1.505498 0.072775 0.089747 6985,7993,7981,7990,8008,8011,8280,7987,8017,8005,7999,8014,7984,8002,7996
8331 1.502215 0.083530 0.093726 7964,6853,7946,7961,7940,7952,8280,7943,7976,7949,7973,7958,7937,7955,7970,7967
8335 1.503402 0.080876 0.086673 7926,7932,7923,7920,7929,7908,8280,7902,7917,6704,7914,7911,7905,7899,7896,7893,7890
8339 1.493625 0.083391 0.094845 7861,7873,7852,6537,7876,7864,7870,8280,7855,7858,7846,7879,7843,7867,7840,7849,7882,7885
8343 1.497327 0.081435 0.084508 7817,7814,7802,7805,7811,7808,7832,7799,7829,8280,7787,7823,7790,7793,7820,7826,7796,6351,7835
8347 1.519676 0.082972 0.085556 8280,7758,6145,7782,7734,7776,7764,7743,7740,7767,7773,7761,7770,7755,7746,7731,7749,7737,7779,7752
8351 1.507593 0.080946 0.083530 7678,8280,7675,7672,7711,7705,7702,7714,7717,7708,7687,7696,7684,7690,5918,7681,7693,7720,7723,7699,7726
8355 1.464222 0.089187 0.087162 7664,7649,7625,7661,7652,7640,7655,8280,7622,7658,5669,7628,7667,7643,7619,7616,7631,7610,7637,7634,7613,7646
8361 0.798914 0.029752 0.177047 8283,7600
8364 1.503403 0.115308 0.112724 8361,8287,7589
8367 1.488805 0.085137 0.087651 8361,8291,7572
8370 1.504171 0.083530 0.084019 7548,8361,8295
8373 1.497955 0.071238 0.090513 8361,7516,8299
8376 1.516743 0.083600 0.090165 8361,8303,7475
8379 1.491460 0.077315 0.078432 8361,8307,7424
8382 1.480564 0.091143 0.076266 8361,7362,8311
8385 1.478190 0.096241 0.078432 8361,8315,7288
8388 1.490203 0.085067 0.085625 8361,7201,8319
8391 1.479377 0.081016 0.084648 7100,8361,8323
8394 1.480425 0.082552 0.085626 8361,8327,6984
8397 1.507872 0.092749 0.081016 8361,8331,6852
8400 1.477980 0.087651 0.094704 8361,6703,8335
8403 1.504241 0.084997 0.083531 6536,8361,8339
8406 1.502425 0.078920 0.091283 8361,8343,6350
8409 1.501796 0.096730 0.081504 8361,8347,6144
8412 1.479936 0.090165 0.090235 8361,8351,5917
8415 1.485942 0.093239 0.087092 8361,5668,8355
8420 0.813720 0.032266 0.176209 7588,8364
8423 1.474699 0.120406 0.102038 7571,8367,8420
8426 1.512831 0.094286 0.085136 8370,8420,7547
8429 1.475536 0.074800 0.087232 7515,8373,8420
8432 1.533574 0.084508 0.080457 8376,7474,8420
8435 1.482311 0.076336 0.090654 7423,8420,8379
8438 1.507803 0.096800 0.073194 7361,8382,8420
8441 1.468971 0.087581 0.086673 8385,7287,8420
8444 1.429092 0.089187 0.096311 7200,8420,8388
8447 1.522120 0.103225 0.093308 8391,8420,7099
8450 1.464711 0.092679 0.087581 8394,6983,8420
8453 1.489225 0.075778 0.089676 8397,6851,8420
8456 1.492996 0.078432 0.089327 8400,6702,8420
8459 1.500191 0.088698 0.085486 6535,8403,8420
8462 1.490622 0.075848 0.085626 6349,8406,8420
8465 1.523238 0.079969 0.079409 6143,8409,8420
8468 1.527218 0.094844 0.083600 8412,5916,8420
8471 1.521841 0.102248 0.087650 5667,8415,8420
8476 0.733333 0.040019 0.177397 7570,8423
8479 1.480006 0.115867 0.113282 8426,8476,7546
8482 1.515764 0.085555 0.078921 8476,7514,8429
8485 1.485174 0.111466 0.086743 8432,8476,7473
8488 1.538742 0.090235 0.075358 8476,8435,7422
8491 1.534272 0.086114 0.086184 7360,8438,8476
8494 1.519956 0.080457 0.088698 8476,7286,8441
8497 1.501866 0.077385 0.088139 8444,7199,8476
8500 1.512622 0.081016 0.093308 8476,8447,7098
8503 1.491461 0.090235 0.086604 8476,6982,8450
8506 1.485453 0.084019 0.081505 8476,8453,6850
8509 1.491320 0.104273 0.091283 6701,8456,8476
8512 1.514368 0.084927 0.086603 6534,8476,8459
8515 1.512133 0.090234 0.093447 8462,6348,8476
8518 1.497187 0.081505 0.086115 6142,8476,8465
8521 1.506755 0.079898 0.079340 5915,8468,8476
8524 1.488526 0.084578 0.100990 8476,8471,5666
8529 0.791861 0.034851 0.166013 8479,7545
8532 1.494323 0.110699 0.116845 8529,7513,8482
8535 1.500191 0.089118 0.085556 7472,8529,8485
8538 1.472672 0.088140 0.092191 8488,8529,7421
8541 1.506965 0.085626 0.094286 7359,8529,8491
8544 1.529942 0.089187 0.088140 8529,7285,8494
8547 1.468552 13.107805 0.078432 8529,7198,8497
8550 1.498444 0.089187 0.099174 7097,8529,8500
8553 1.500958 0.076895 0.076896 8529,8503,6981
8556 1.484475 0.077804 0.092749 8529,6849,8506
8559 1.493485 0.068095 0.090235 8509,6700,8529
8562 1.465060 0.082552 0.081993 8529,8512,6533
8565 1.556621 0.083600 0.080457 8529,8515,6347
8568 1.530152 0.086533 0.082553 6141,8529,8518
8571 1.481403 0.087092 0.084578 5914,8529,8521
8574 1.582813 0.090166 0.098825 8529,5665,8524
8579 0.816444 0.038413 0.174673 8532,7512
8582 1.512342 0.094286 0.110209 7471,8579,8535
8585 1.512412 0.082552 0.088628 8538,8579,7420
8588 1.506545 0.106088 0.100990 7358,8541,8579
8591 1.542583 0.082971 0.084019 8544,8579,7284
8594 1.508641 0.081993 0.080527 8547,7197,8579
8597 1.502844 0.077873 0.088698 7096,8550,8579
8600 1.485524 0.086603 0.080457 8553,8579,6980
8603 1.508082 0.078921 0.082482 6848,8556,8579
8606 1.547054 0.073264 0.078362 6699,8559,8579
8609 1.479726 12.219983 0.086114 6532,8579,8562
8612 1.560673 0.087651 0.108044 8565,8579,6346
8615 1.509339 0.082482 0.096311 6140,8579,8568
8618 1.520513 0.077943 0.075359 8579,5913,8571
8621 1.481053 0.074312 0.097917 8574,8579,5664
8626 0.798076 0.046165 0.173136 7470,8582
8629 1.520654 0.127110 0.112095 8626,7419,8585
8632 1.486501 0.089187 0.084019 8588,8626,7357
8635 1.468551 0.075359 12.744840 7283,8626,8591
8638 1.477422 0.091702 0.085974 8626,8594,7196
8641 1.496488 0.071238 0.083530 8597,8626,7095
8644 1.488317 0.081086 0.078990 8626,8600,6979
8647 1.495371 0.072146 0.095333 8603,8626,6847
8650 1.487899 0.076337 0.094775 8626,6698,8606
8653 1.478609 0.087581 0.082553 8626,8609,6531
8656 1.469600 0.087651 0.082483 8626,6345,8612
8659 1.494743 0.074311 0.078921 8615,8626,6139
8662 1.478819 0.088140 0.089677 8626,8618,5912
8665 1.508501 0.079480 0.094356 5663,8626,8621
8670 0.805549 0.038971 0.171740 7418,8629
8673 1.490482 0.108673 0.133815 8670,8632,7356
8676 1.499422 0.089188 0.095333 7282,8635,8670
8679 1.496768 0.081923 0.086114 8670,7195,8638
8682 1.484965 0.079479 0.074381 7094,8670,8641
8685 1.480076 0.091283 0.083530 8644,8670,6978
8688 1.501238 0.081993 0.084578 8647,8670,6846
8691 1.508781 0.103784 0.088209 8650,8670,6697
8694 1.507593 0.083949 0.093727 8653,8670,6530
8697 1.487409 0.082412 0.092191 8670,6344,8656
8700 1.525402 0.090654 0.079410 8659,6138,8670
8703 1.530432 0.073822 0.081994 8662,8670,5911
8706 1.510527 0.082552 0.091771 5662,8670,8665
8711 0.796539 0.042533 0.181937 8673,7355
8714 1.472673 0.105111 0.109720 8711,7281,8676
8717 1.537486 0.080457 0.089676 8711,8679,7194
8720 1.514647 0.081923 0.092819 8682,8711,7093
8723 1.483708 0.091632 0.074800 6977,8685,8711
8726 1.476374 0.092190 0.083041 8711,8688,6845
8729 1.524844 0.078990 0.086673 8711,8691,6696
8732 1.494114 0.086742 0.082622 6529,8711,8694
8735 1.482940 0.092679 0.083531 8711,6343,8697
8738 1.514647 0.086603 0.093797 8711,8700,6137
8741 1.499002 0.086114 0.075847 8703,8711,5910
8744 1.502076 0.100013 0.092260 8711,5661,8706
8749 0.813581 0.037994 0.175302 7280,8714
8752 1.520933 0.128229 0.131232 7193,8749,8717
8755 1.516603 0.082483 0.091143 8720,7092,8749
8758 1.452000 0.081505 0.084578 6976,8723,8749
8761 1.495022 0.073822 0.067606 8749,6844,8726
8764 1.480914 0.083041 0.075359 8729,8749,6695
8767 1.534551 0.080457 0.085066 6528,8732,8749
8770 1.481543 0.073823 0.085626 6342,8735,8749
8773 1.506266 0.082483 0.084997 6136,8738,8749
8776 1.503891 0.094145 0.086673 5909,8741,8749
8779 1.529313 0.082552 0.098965 8744,5660,8749
8784 0.745066 0.037365 0.183962 7192,8752
8787 1.505080 0.109651 0.126273 8755,8784,7091
8790 1.489365 0.092260 0.085137 6975,8758,8784
8793 1.550965 0.105739 0.085137 6843,8761,8784
8796 1.536228 0.087022 0.091282 8764,8784,6694
8799 1.486083 0.081504 0.092260 8767,6527,8784
8802 1.496907 0.077943 0.079410 6341,8770,8784
8805 1.497047 0.083111 0.073264 8773,8784,6135
8808 1.448368 0.081505 0.088140 5908,8776,8784
8811 1.467714 0.093797 0.099873 8779,8784,5659
8816 0.767206 0.036876 0.172298 8787,7090
8819 1.483079 0.120406 0.116844 8790,8816,6974
8822 1.512552 0.088140 0.084019 6842,8816,8793
8825 1.483917 0.090794 0.102317 6693,8816,8796
8828 1.504939 0.081574 0.087162 8816,8799,6526
8831 1.489504 0.084647 0.090724 6340,8802,8816
8834 1.485943 0.091213 0.084578 8816,6134,8805
8837 1.464781 0.083111 0.085066 8816,8808,5907
8840 1.513111 0.083041 0.091213 8816,8811,5658
8845 0.764412 0.036876 0.180959 6973,8819
8848 1.542095 0.119498 0.109162 8822,6841,8845
8851 1.558787 0.079410 0.088699 6692,8845,8825
8854 1.450254 0.096660 0.077384 8828,6525,8845
8857 1.505359 0.093727 0.078991 8831,6339,8845
8860 1.548380 0.086604 0.074241 6133,8845,8834
8863 1.490551 0.077873 0.086603 8837,5906,8845
8866 1.476934 0.094844 0.117892 8840,5657,8845
8871 0.754566 0.033314 0.166012 8848,6840
8874 1.571008 0.108673 0.106578 8871,6691,8851
8877 1.517930 0.089677 0.085626 8871,6524,8854
8880 1.575967 0.096311 0.076895 8871,8857,6338
8883 1.507942 0.082483 13.098725 6132,8871,8860
8886 1.539510 0.090165 0.096241 8871,8863,5905
8889 1.419104 0.083041 0.086115 5656,8871,8866
8894 0.730120 0.040508 0.170692 6690,8874
8897 1.539232 0.126691 0.096311 6523,8894,8877
8900 1.572545 0.088699 0.111955 6337,8880,8894
8903 1.552920 0.080946 0.081505 6131,8883,8894
8906 1.549009 0.077803 0.090724 8886,8894,5904
8909 1.551594 0.097848 0.086603 5655,8889,8894
8914 0.731866 0.043581 0.178793 8897,6522
8917 1.494672 0.126831 0.143244 6336,8900,8914
8920 1.469460 0.092260 0.087161 6130,8903,8914
8923 1.472463 0.088210 0.085067 5903,8906,8914
8926 1.497397 0.082552 0.093308 5654,8909,8914
8931 0.712241 0.037924 0.179282 6335,8917
8934 1.429790 0.106578 0.128368 6129,8931,8920
8937 1.459891 0.106368 0.090166 5902,8923,8931
8940 1.440476 0.093308 0.099384 8926,5653,8931
8945 0.727606 0.040368 0.183473 8934,6128
8948 1.415892 0.112165 0.103505 5901,8945,8937
8951 1.415822 0.090654 0.090235 8945,5652,8940
8956 0.729911 0.041485 0.147714 8948,5900
8959 1.363441 0.093029 0.080946 8956,8951,5651
8964 0.732286 0.116286 0.266514 5650,8959
