1325 0.060133 -1 -1
1326 0.083810 0.163568 0.125575 1325
1327 0.085346 0.097847 0.094914 1325
1328 0.150507 0.125575 0.117334 1325
1329 0.093796 0.102527 0.090793 1325
1330 0.125016 0.083530 0.084648 1325
1331 0.072565 0.112305 0.088140 1325
1332 0.049448 0.089187 0.076407 1325
1333 0.044489 0.088698 0.089676 1325
1334 0.054965 0.092261 0.075847 1325
1337 0.030451 0.161472 0.145130 1326
1338 0.026120 0.146108 0.180051 1326,1327
1339 0.048609 0.192761 0.179842 1328,1326
1340 0.025561 0.144152 0.140870 1329,1326
1341 0.039950 0.089187 0.137866 1326,1330
1342 0.027587 0.103085 0.110628 1331,1326
1343 0.032057 0.102596 0.093308 1326,1332
1344 0.025422 0.099454 0.095961 1326,1333
1345 0.047003 0.089676 0.090654 1334,1326
1348 0.021371 0.120965 0.124039 1327
1349 0.038482 0.236342 0.244584 1328,1327
1350 0.027168 0.116914 0.258343 1329,1327
1351 0.034920 0.160426 0.140521 1327,1330
1352 0.025283 0.172787 0.160425 1331,1327
1353 0.046445 0.099454 0.101479 1327,1332
1354 0.025282 0.107137 0.093727 1327,1333
1355 0.040438 0.097848 0.081994 1334,1327
1358 0.025422 0.113283 0.126623 1328
1359 0.031918 0.286628 0.329651 1328,1329
1360 0.025143 0.306044 0.301854 1328,1330
1361 0.047003 0.189130 0.168667 1328,1331
1362 0.022349 0.096381 0.097707 1328,1332
1363 0.039251 0.101479 0.096381 1328,1333
1364 0.025352 0.091771 0.097917 1334,1328
1367 0.028356 0.118870 0.109232 1329
1368 0.024026 0.335378 0.327485 1329,1330
1369 0.046305 0.096940 0.083530 1329,1331
1370 0.022908 0.117333 0.092260 1329,1332
1371 0.039181 0.094355 0.095403 1329,1333
1372 0.024444 0.092749 0.094356 1334,1329
1375 0.030102 0.104622 0.121523 1330
1376 0.023327 0.126622 0.093727 1331,1330
1377 0.044838 0.091213 0.118032 1330,1332
1378 0.023327 0.082553 0.094845 1330,1333
1379 0.040787 0.139403 0.104761 1334,1330
1382 0.026191 0.113771 0.091772 1331
1383 0.030521 0.126622 0.091771 1331,1332
1384 0.024584 0.096870 0.092190 1331,1333
1385 0.045607 0.099524 0.093867 1334,1331
1388 0.028494 0.102527 0.075917 1332
1389 0.039530 0.082483 0.092261 1333,1332
1390 0.027518 0.087651 0.098406 1334,1332
1393 0.030172 0.113772 0.096870 1333
1394 0.025353 0.081994 0.113283 1334,1333
1397 0.045187 0.118940 0.080946 1334
1400 0.029752 -1 -1 1337
1401 0.051613 0.158889 0.098825 1337,1400,1338
1402 0.057200 0.135911 0.114889 1337,1400,1339
1403 0.085136 0.091772 0.102806 1340,1400
1404 0.065651 0.089746 0.113841 1341,1400
1405 0.045118 0.086114 0.074800 1342,1400
1406 0.110489 0.091772 0.077314 1343,1400
1407 0.048680 0.088139 0.088698 1400,1344
1408 0.056361 0.084997 0.079410 1400,1345
1411 0.036457 0.105042 0.110210 1348,1401
1412 0.029333 0.094845 0.090235 1402,1401,1349
1413 0.026889 0.098407 0.109720 1403,1401,1350
1414 0.024235 0.109651 0.087092 1401,1351,1404
1415 0.047352 0.113771 0.084019 1352,1401,1405
1416 0.026331 0.091772 0.088140 1353,1401,1406
1417 0.037366 0.091771 0.091213 1401,1407,1354
1418 0.026120 0.084578 0.089677 1401,1408,1355
1421 0.029823 0.121454 0.110279 1402,1358
1422 0.024165 0.096939 0.118310 1403,1402,1359
1423 0.046863 0.099943 0.113213 1402,1360,1404
1424 0.023397 0.091213 0.100013 1402,1405,1361
1425 0.038762 0.097359 0.081993 1402,1362,1406
1426 0.028007 0.089257 0.081505 1402,1407,1363
1427 0.030032 0.084577 0.091772 1402,1364,1408
1430 0.022419 0.096381 0.118451 1403,1367
1431 0.045886 0.104552 0.117403 1403,1368,1404
1432 0.023118 0.087650 0.089676 1403,1405,1369
1433 0.039112 0.111956 0.079479 1403,1370,1406
1434 0.026749 0.103574 0.086603 1403,1371,1407
1435 0.031568 0.099454 0.080946 1403,1372,1408
1438 0.022559 0.093308 0.085066 1375,1404
1439 0.047492 0.094286 0.083041 1376,1405,1404
1440 0.023327 0.077943 0.088070 1406,1377,1404
1441 0.037156 0.085486 0.092819 1378,1407,1404
1442 0.028914 0.095404 0.084089 1379,1408,1404
1445 0.034921 0.090235 0.083530 1382,1405
1446 0.030171 0.088139 0.089187 1406,1405,1383
1447 0.047632 0.088698 0.082063 1384,1407,1405
1448 0.022699 0.091213 0.089746 1385,1408,1405
1451 0.038064 0.093727 0.089257 1388,1406
1452 0.027028 0.088140 0.093308 1407,1406,1389
1453 0.031289 0.093168 0.093797 1408,1406,1390
1456 0.022978 0.096381 0.087581 1393,1407
1457 0.046025 0.078920 0.085137 1408,1407,1394
1460 0.020604 0.103086 0.090234 1397,1408
1463 0.055454 -1 -1 1411
1464 0.110209 0.102527 0.118940 1411,1412,1463
1465 0.056293 0.112793 0.114261 1411,1413,1463
1466 0.069981 0.077384 0.085066 1411,1414,1463
1467 0.045536 0.104063 0.114819 1411,1415,1463
1468 0.057829 0.091283 0.081924 1416,1463
1469 0.081645 0.075917 0.085695 1463,1417
1470 0.045815 0.076406 0.077314 1418,1463
1473 0.033245 0.106648 0.124597 1421,1464,1412
1474 0.024794 0.138634 0.119499 1465,1464,1412,1422
1475 0.027867 0.085136 0.126133 1464,1412,1466,1423
1476 0.032057 0.088698 0.099384 1464,1412,1467,1424
1477 0.026330 0.079410 0.085067 1464,1425,1468
1478 0.047493 0.091771 0.090165 1464,1469,1426
1479 0.032406 0.080946 0.082483 1464,1470,1427
1482 0.024723 0.118241 0.127111 1465,1430
1483 0.031429 0.084019 0.115308 1465,1466,1431
1484 0.026889 0.088210 0.089746 1465,1467,1432
1485 0.046305 0.089257 0.090235 1465,1468,1433
1486 0.022838 0.090165 0.090724 1465,1434,1469
1487 0.033873 0.105460 0.097987 1465,1470,1435
1490 0.024654 0.107695 0.113352 1466,1438
1491 0.030730 0.125085 0.095822 1467,1466,1439
1492 0.023537 0.090165 0.086115 1466,1468,1440
1493 0.046165 0.085556 0.086603 1466,1469,1441
1494 0.022140 0.092260 0.093796 1470,1466,1442
1497 0.032477 0.094216 0.076336 1467,1445
1498 0.027727 0.083600 0.111676 1446,1467,1468
1499 0.031080 0.099943 0.091283 1447,1467,1469
1500 0.022977 0.085626 0.086533 1467,1470,1448
1503 0.044838 0.092819 0.095823 1468,1451
1504 0.023257 0.088139 0.092260 1469,1468,1452
1505 0.035200 0.285022 0.116845 1470,1468,1453
1508 0.026261 0.089746 0.078851 1456,1469
1509 0.030660 0.121384 0.042045 1470,1457,1469
1512 0.030800 0.094355 0.069213 1470,1460
1515 0.073263 -1 -1 1473
1516 0.048680 0.094705 0.111676 1515,1473,1474
1517 0.065860 0.113283 0.113772 1515,1473,1475
1518 0.069422 0.086114 0.083460 1515,1473,1476
1519 0.056851 0.107067 0.121524 1515,1473,1477
1520 0.110000 0.067537 0.085415 1515,1473,1478
1521 0.049587 0.120476 0.109161 1515,1479
1524 0.020603 0.108673 0.123479 1482,1516,1474
1525 0.025841 0.115028 0.108184 1483,1517,1516,1474,1475
1526 0.030032 0.079479 0.096870 1516,1476,1518,1484
1527 0.026888 0.080457 0.084648 1516,1519,1485
1528 0.032895 0.085625 0.091283 1478,1516,1520,1486
1529 0.023886 0.092819 0.116355 1516,1487,1521
1532 0.021162 0.127041 0.115867 1490,1517
1533 0.023187 0.089676 0.084647 1491,1517,1518
1534 0.047073 0.077873 0.093797 1517,1519,1492
1535 0.022209 0.102526 0.087721 1517,1493,1520
1536 0.035899 0.093797 0.086533 1517,1494,1521
1539 0.024793 0.116355 0.116356 1518,1497
1540 0.030730 0.095333 0.083042 1498,1519,1518
1541 0.023118 0.118939 0.126064 1499,1520,1518
1542 0.060832 0.095333 0.084578 1500,1518,1521
1545 0.020115 0.093656 0.080457 1503,1519
1546 0.030940 0.089746 0.083041 1520,1519,1504
1547 0.021651 0.093727 0.090724 1519,1521,1505
1550 0.028495 0.108114 0.120965 1508,1520
1551 0.021930 0.042952 0.047632 1509,1520,1521
1554 0.040577 0.086604 0.075848 1521,1512
1557 0.028146 -1 -1 1524
1558 0.046095 0.117403 0.119428 1524,1525,1557
1559 0.103016 0.109162 0.113352 1524,1526,1557
1560 0.070889 0.086115 0.083460 1527,1557
1561 0.044559 0.113772 0.100013 1528,1557
1562 0.063835 0.079409 0.066629 1529,1557
1565 0.023257 0.119429 0.115796 1558,1532
1566 0.032896 0.113213 0.124597 1559,1558,1526,1533
1567 0.024933 0.123060 0.135212 1560,1558,1534
1568 0.026121 0.088069 0.088488 1558,1535,1561
1569 0.031498 0.088698 0.092260 1558,1562,1536
1572 0.022000 0.123479 0.122990 1559,1539
1573 0.030242 0.092260 0.082483 1559,1560,1540
1574 0.023118 0.094844 0.093727 1559,1561,1541
1575 0.049936 0.074312 0.081994 1559,1562,1542
1578 0.027308 0.107136 0.114260 1560,1545
1579 0.033314 0.092261 0.078361 1560,1561,1546
1580 0.022559 0.085067 0.092260 1560,1547,1562
1583 0.029962 0.111466 0.100711 1561,1550
1584 0.022698 0.046095 0.037924 1551,1561,1562
1587 0.041556 0.093308 0.087651 1562,1554
1590 0.027588 -1 -1 1565
1591 0.047562 0.104553 0.116286 1590,1566,1565
1592 0.069842 0.115797 0.114191 1567,1590,1565
1593 0.101549 0.097359 0.088209 1568,1590
1594 0.063835 0.111676 0.112794 1569,1590
1597 0.022349 0.117403 0.120476 1572,1591,1566
1598 0.025423 0.124038 0.120406 1573,1567,1591,1592
1599 0.024934 0.100920 0.089676 1568,1591,1593,1574
1600 0.024374 0.083530 0.084508 1594,1591,1575,1569
1603 0.029264 0.111187 0.124596 1578,1592
1604 0.023886 0.079899 0.099034 1579,1593,1592
1605 0.044000 0.084578 0.078431 1594,1580,1592
1608 0.019696 0.115867 0.112165 1583,1593
1609 0.034361 0.037924 0.044559 1594,1584,1593
1612 0.022768 0.084578 0.090724 1594,1587
1615 0.040927 -1 -1 1597
1616 0.045956 0.107137 0.099942 1597,1615,1598
1617 0.069701 0.121454 0.121523 1597,1615,1599
1618 0.044978 0.078362 0.102457 1600,1597,1615
1621 0.029264 0.127600 0.121873 1616,1603,1598
1622 0.023466 0.128927 0.117334 1616,1617,1599,1598,1604
1623 0.024444 0.085067 0.095334 1616,1600,1605,1598,1618
1626 0.022839 0.118451 0.120406 1617,1599,1608
1627 0.043721 0.040508 0.042044 1609,1617,1599,1618
1630 0.021720 0.089188 0.090235 1612,1618
1633 0.030241 -1 -1 1621
1634 0.046654 0.103085 0.096381 1622,1621,1633
1635 0.064883 0.120965 0.114260 1623,1621,1633
1638 0.021651 0.071727 0.086114 1622,1634,1626
1639 0.033803 0.054337 0.048749 1623,1622,1634,1635,1627
1642 0.022698 0.121524 0.122012 1623,1630,1635
1645 0.222444 -1 -1 1638,1626
1646 0.065372 0.066070 0.063067 1645,1639,1627,1626
1649 0.023466 0.060412 0.044629 1630,1646,1627,1642
1652 0.030311 -1 -1 1649,1642
1655 0.010755 0.083600 0.032337 1325
1658 0.018997 0.057409 0.069702 1326,1655
1661 0.014666 0.048749 0.056362 1327,1655
1664 0.026399 0.055873 0.058457 1328,1655
1667 0.015016 0.049238 0.057968 1329,1655
1670 0.023607 0.050285 0.094285 1330,1655
1673 0.017390 0.054896 0.077943 1331,1655
1676 0.017460 0.050705 0.090235 1655,1332
1679 0.024375 0.043022 0.093657 1333,1655
1682 0.020394 0.057340 0.095334 1334,1655
1687 0.011454 0.100432 0.034850 1658,1400
1690 0.023397 0.088628 0.052311 1401,1661,1687
1693 0.015715 0.086115 0.049727 1402,1664,1687
1696 0.017670 0.103016 0.048191 1403,1667,1687
1699 0.014317 0.085066 0.094844 1670,1687,1404
1702 0.017181 0.089676 0.069212 1687,1405,1673
1705 0.013619 0.092819 0.056851 1676,1406,1687
1708 0.023676 0.081505 0.054336 1407,1679,1687
1711 0.016832 0.107137 0.053848 1408,1687,1682
1716 0.014108 0.035340 0.081505 1690,1463
1719 0.014527 0.057410 0.097359 1464,1716,1693
1722 0.016692 0.057898 0.091212 1465,1696,1716
1725 0.014248 0.051752 0.083041 1466,1716,1699
1728 0.022559 0.053289 0.081994 1467,1702,1716
1731 0.015575 0.055314 0.085556 1468,1705,1716
1734 0.018089 0.058876 0.081924 1708,1469,1716
1737 0.013968 0.058458 0.096311 1470,1716,1711
1742 0.013549 0.089188 0.095333 1515,1719
1745 0.014178 0.084089 0.076336 1516,1722,1742
1748 0.022209 0.110069 0.076825 1517,1725,1742
1751 0.016762 0.098406 0.088699 1728,1518,1742
1754 0.017810 0.087651 0.092190 1731,1519,1742
1757 0.014737 0.093238 0.081994 1520,1734,1742
1760 0.016902 0.092260 0.085066 1737,1521,1742
1765 0.010476 0.072216 0.084648 1745,1557
1768 0.022768 0.099943 0.090654 1558,1748,1765
1771 0.017181 0.083530 0.089676 1559,1751,1765
1774 0.018508 0.079480 0.083530 1560,1754,1765
1777 0.014876 0.099454 0.079480 1757,1561,1765
1780 0.016063 0.086114 0.098895 1562,1760,1765
1785 0.010755 0.101688 0.072285 1768,1590
1788 0.022558 0.097917 0.090165 1771,1591,1785
1791 0.016761 0.089746 0.076895 1774,1785,1592
1794 0.017810 0.092260 0.081993 1777,1785,1593
1797 0.015086 0.084578 0.085556 1780,1594,1785
1802 0.013269 0.125854 0.110210 1788,1615
1805 0.013060 0.098406 0.089746 1616,1791,1802
1808 0.021232 0.096381 0.094286 1617,1802,1794
1811 0.014806 0.099943 0.086114 1797,1802,1618
1816 0.014387 0.118381 0.116356 1805,1633
1819 0.013689 0.139333 0.147365 1816,1634,1808
1822 0.016902 0.081435 0.093308 1816,1635,1811
1827 0.010686 0.129346 0.119359 1645,1819
1830 0.022349 0.055873 0.115866 1827,1646,1822
1835 0.012501 0.082482 0.097778 1652,1830
1840 0.015295 0.062578 0.075847 1652,1830,1835
1843 0.012432 0.049657 0.055873 1830,1646,1835,1827,1840
1847 0.016832 0.050286 0.051264 1822,1816,1840,1635,1819
1851 0.013829 0.066488 0.067466 1802,1805,1811,1618,1840,1808
1855 0.020533 0.049657 0.049168 1788,1594,1791,1840,1797,1785,1794
1859 0.015365 0.050216 0.053289 1774,1777,1771,1780,1840,1768,1562,1765
1863 0.017879 0.045117 0.052311 1840,1748,1521,1751,1757,1745,1760,1754,1742
1867 0.014388 0.045606 0.054826 1725,1716,1728,1731,1719,1840,1722,1734,1737,1470
1871 0.017042 0.046165 0.049168 1711,1705,1708,1840,1702,1696,1408,1693,1690,1687,1699
1875 0.013899 0.054826 0.047143 1334,1840,1658,1682,1679,1667,1673,1676,1664,1670,1661,1655
1881 0.019556 0.064044 0.074311 1645,1843
1884 0.014666 0.053358 0.125086 1843,1847,1634,1881
1887 0.017181 0.051682 0.086604 1617,1881,1851
1890 0.013898 0.052800 0.080946 1881,1593,1855
1893 0.013689 0.044140 0.081505 1561,1881,1859
1896 0.016553 0.055384 0.093517 1863,1520,1881
1899 0.013549 0.047213 0.082971 1469,1867,1881
1902 0.022070 0.039949 0.075289 1407,1881,1871
1905 0.014737 0.056991 0.094285 1875,1881,1333
1910 0.013828 0.057968 0.038482 1633,1884
1913 0.013340 0.055314 0.119917 1616,1910,1884,1887
1916 0.015644 0.057410 0.100501 1910,1890,1592
1919 0.012502 0.054825 0.082064 1560,1910,1893
1922 0.020673 0.047702 0.085067 1910,1896,1519
1925 0.015715 0.052241 0.085626 1910,1468,1899
1928 0.017600 0.050286 0.078921 1910,1902,1406
1931 0.013060 0.047632 0.087651 1910,1905,1332
1936 0.014038 0.069772 0.044559 1913,1615
1939 0.013898 0.051264 0.051264 1913,1591,1936,1916
1942 0.017949 0.063067 0.051194 1559,1919,1936
1945 0.021860 0.059435 0.099454 1922,1518,1936
1948 0.015505 0.049238 0.087162 1467,1936,1925
1951 0.017041 0.049727 0.090235 1928,1936,1405
1954 0.014108 0.045117 0.093797 1931,1331,1936
1959 0.014527 0.068724 0.036877 1939,1590
1962 0.022350 0.058107 0.059923 1942,1558,1939,1959
1965 0.015714 0.051753 0.104063 1517,1959,1945
1968 0.021511 0.050775 0.075848 1948,1466,1959
1971 0.015225 0.044070 0.084088 1951,1959,1404
1974 0.017880 0.100013 0.088140 1954,1959,1330
1979 0.010686 0.043580 0.037435 1962,1557
1982 0.016762 0.056921 0.062508 1965,1516,1979
1985 0.012152 0.058876 0.101480 1465,1968,1979
1988 0.020952 0.048191 0.084089 1403,1971,1979
1991 0.015924 0.052241 0.083042 1329,1979,1974
1996 0.013549 0.063555 0.029193 1515,1982
1999 0.014387 0.072006 0.119777 1464,1985,1996
2002 0.015365 0.058457 0.095334 1402,1988,1996
2005 0.012851 0.058946 0.085626 1991,1328,1996
2010 0.017949 0.055873 0.043022 1999,1463
2013 0.014667 0.061530 0.107137 1999,2002,1401,2010
2016 0.013409 0.057409 0.096869 2005,1327,2010
2021 0.012711 0.074800 0.040997 1400,2013
2024 0.014178 0.056921 0.057899 2016,1326,2021
2029 0.013061 0.054826 0.070819 2024,1325
