4171,3771
4173,4171 3771 3773
4176,4171 3771 3776
4179,4171 3779
4172,4171 3771 3772
4175,4171 3771 3775
4178,4171 3778
4177,4171 3771 3777
4174,4171 3771 3774
4180,4171 3780
4181,4171 3781
4182,4171 3782
4183,4171 3783
4184,4171 3784
4185,4171 3785
4187,4171 3787
4186,4171 3786
4191,4192
4192,4171
4189,4171 3789
4188,4171 3788
4190,4171 3790
4193,4172 3792
4194,4172 4173 3793
4195,4172 4174 3794
4196,4172 4175 3795
4197,4172 4176 3796
4198,4172 4177 3797
4199,4172 4178 3798
4200,4172 4179 3799
4201,4172 4180 3800
4202,4172 4181 3801
4203,4172 4182 3802
4204,4172 4183 3803
4205,4172 4184 3804
4206,4172 4185 3805
4207,4172 4186 3806
4208,4172 4187 3807
4212,4213
4213,4172
4209,4172 4188 3808
4210,4172 4189 3809
4211,4172 4190 3810
4214,4173 3813
4215,4173 4174 3814
4216,4173 4175 3815
4217,4173 4176 3816
4218,4173 4177 3817
4219,4173 4178 3818
4220,4173 4179 3819
4221,4173 4180 3820
4222,4173 4181 3821
4223,4173 4182 3822
4224,4173 4183 3823
4225,4173 4184 3824
4226,4173 4185 3825
4227,4173 4186 3826
4228,4173 4187 3827
4229,4173 4188 3828
4232,4233
4233,4173
4231,4173 4190 3830
4230,4173 4189 3829
4234,4174 3834
4235,4174 4175 3835
4236,4174 4176 3836
4237,4174 4177 3837
4238,4174 4178 3838
4239,4174 4179 3839
4240,4174 4180 3840
4241,4174 4181 3841
4242,4174 4182 3842
4243,4174 4183 3843
4244,4174 4184 3844
4245,4174 4185 3845
4246,4174 4186 3846
4247,4174 4187 3847
4248,4174 4188 3848
4251,4252
4249,4174 4189 3849
4252,4174
4250,4174 4190 3850
4253,4175 3855
4254,4175 4176 3856
4255,4175 4177 3857
4256,4175 4178 3858
4257,4175 4179 3859
4258,4175 4180 3860
4259,4175 4181 3861
4260,4175 4182 3862
4261,4175 4183 3863
4262,4175 4184 3864
4263,4175 4185 3865
4264,4175 4186 3866
4265,4175 4187 3867
4266,4175 4188 3868
4269,4270
4270,4175
4267,4175 4189 3869
4268,4175 4190 3870
4271,4176 3876
4272,4176 4177 3877
4273,4176 4178 3878
4274,4176 4179 3879
4275,4176 4180 3880
4276,4176 4181 3881
4277,4176 4182 3882
4278,4176 4183 3883
4279,4176 4184 3884
4280,4176 4185 3885
4281,4176 4186 3886
4282,4176 4187 3887
4283,4176 4188 3888
4286,4287
4287,4176
4284,4176 4189 3889
4285,4176 4190 3890
4288,4177 3897
4289,4177 4178 3898
4290,4177 4179 3899
4291,4177 4180 3900
4292,4177 4181 3901
4293,4177 4182 3902
4294,4177 4183 3903
4295,4177 4184 3904
4296,4177 4185 3905
4297,4177 4186 3906
4298,4177 4187 3907
4302,4303
4299,4177 4188 3908
4303,4177
4300,4177 4189 3909
4301,4177 4190 3910
4304,4178 3918
4305,4178 4179 3919
4306,4178 4180 3920
4307,4178 4181 3921
4308,4178 4182 3922
4309,4178 4183 3923
4310,4178 4184 3924
4311,4178 4185 3925
4312,4178 4186 3926
4313,4178 4187 3927
4314,4178 4188 3928
4317,4318
4318,4178
4315,4178 4189 3929
4316,4178 4190 3930
4319,4179 3939
4320,4179 4180 3940
4321,4179 4181 3941
4322,4179 4182 3942
4323,4179 4183 3943
4324,4179 4184 3944
4325,4179 4185 3945
4326,4179 4186 3946
4327,4179 4187 3947
4328,4179 4188 3948
4331,4332
4332,4179
4329,4179 4189 3949
4330,4179 4190 3950
4333,4180 3960
4334,4180 4181 3961
4335,4180 4182 3962
4336,4180 4183 3963
4337,4180 4184 3964
4338,4180 4185 3965
4339,4180 4186 3966
4340,4180 4187 3967
4341,4180 4188 3968
4344,4345
4345,4180
4342,4180 4189 3969
4343,4180 4190 3970
4346,4181 3981
4347,4181 4182 3982
4348,4181 4183 3983
4349,4181 4184 3984
4350,4181 4185 3985
4351,4181 4186 3986
4352,4181 4187 3987
4353,4181 4188 3988
4356,4357
4354,4181 4189 3989
4357,4181
4355,4181 4190 3990
4358,4182 4002
4359,4182 4183 4003
4360,4182 4184 4004
4361,4182 4185 4005
4362,4182 4186 4006
4363,4182 4187 4007
4364,4182 4188 4008
4367,4368
4368,4182
4365,4182 4189 4009
4366,4182 4190 4010
4369,4183 4023
4370,4183 4184 4024
4371,4183 4185 4025
4372,4183 4186 4026
4373,4183 4187 4027
4374,4183 4188 4028
4377,4378
4378,4183
4375,4183 4189 4029
4376,4183 4190 4030
4379,4184 4044
4380,4184 4185 4045
4381,4184 4186 4046
4382,4184 4187 4047
4383,4184 4188 4048
4386,4387
4387,4184
4384,4184 4189 4049
4385,4184 4190 4050
4388,4185 4065
4389,4185 4186 4066
4390,4185 4187 4067
4391,4185 4188 4068
4394,4395
4395,4185
4392,4185 4189 4069
4393,4185 4190 4070
4396,4186 4086
4397,4186 4187 4087
4401,4402
4402,4186
4398,4186 4188 4088
4399,4186 4189 4089
4400,4186 4190 4090
4403,4187 4107
4404,4187 4188 4108
4407,4408
4408,4187
4405,4187 4189 4109
4406,4187 4190 4110
4409,4188 4128
4412,4413
4413,4188
4410,4188 4189 4129
4411,4188 4190 4130
4416,4417
4417,4189
4414,4189 4149
4415,4189 4190 4150
4419,4420
4420,4190
4418,4190 4170
4421,4193
4427,4421 4199
4422,4421 4193 4194
4423,4421 4193 4195
4424,4421 4193 4196
4425,4421 4193 4197
4428,4421 4200
4426,4421 4193 4198
4429,4421 4201
4430,4421 4202
4431,4421 4203
4432,4421 4204
4433,4421 4205
4434,4421 4206
4435,4421 4207
4440,4441
4441,4421
4436,4421 4208
4437,4421 4209
4438,4421 4210
4439,4421 4211
4442,4422 4214
4443,4422 4423 4215
4444,4422 4424 4216
4446,4422 4426 4218
4445,4422 4425 4217
4447,4422 4427 4219
4448,4422 4428 4220
4449,4422 4429 4221
4450,4422 4430 4222
4451,4422 4431 4223
4452,4422 4432 4224
4453,4422 4433 4225
4454,4422 4434 4226
4455,4422 4435 4227
4456,4422 4436 4228
4460,4461
4457,4422 4437 4229
4461,4422
4458,4422 4438 4230
4459,4422 4439 4231
4462,4423 4234
4463,4423 4424 4235
4465,4423 4426 4237
4464,4423 4425 4236
4466,4423 4427 4238
4467,4423 4428 4239
4468,4423 4429 4240
4469,4423 4430 4241
4471,4423 4432 4243
4470,4423 4431 4242
4472,4423 4433 4244
4473,4423 4434 4245
4474,4423 4435 4246
4475,4423 4436 4247
4476,4423 4437 4248
4479,4480
4477,4423 4438 4249
4480,4423
4478,4423 4439 4250
4481,4424 4253
4482,4424 4425 4254
4483,4424 4426 4255
4484,4424 4427 4256
4485,4424 4428 4257
4486,4424 4429 4258
4487,4424 4430 4259
4489,4424 4432 4261
4488,4424 4431 4260
4490,4424 4433 4262
4491,4424 4434 4263
4492,4424 4435 4264
4493,4424 4436 4265
4494,4424 4437 4266
4497,4498
4498,4424
4495,4424 4438 4267
4496,4424 4439 4268
4499,4425 4271
4500,4425 4426 4272
4501,4425 4427 4273
4502,4425 4428 4274
4504,4425 4430 4276
4503,4425 4429 4275
4505,4425 4431 4277
4506,4425 4432 4278
4507,4425 4433 4279
4508,4425 4434 4280
4509,4425 4435 4281
4510,4425 4436 4282
4511,4425 4437 4283
4514,4515
4515,4425
4512,4425 4438 4284
4513,4425 4439 4285
4516,4426 4288
4517,4426 4427 4289
4518,4426 4428 4290
4519,4426 4429 4291
4520,4426 4430 4292
4521,4426 4431 4293
4522,4426 4432 4294
4523,4426 4433 4295
4524,4426 4434 4296
4525,4426 4435 4297
4526,4426 4436 4298
4527,4426 4437 4299
4530,4531
4531,4426
4528,4426 4438 4300
4529,4426 4439 4301
4532,4427 4304
4533,4427 4428 4305
4534,4427 4429 4306
4535,4427 4430 4307
4536,4427 4431 4308
4537,4427 4432 4309
4538,4427 4433 4310
4539,4427 4434 4311
4540,4427 4435 4312
4541,4427 4436 4313
4542,4427 4437 4314
4545,4546
4546,4427
4543,4427 4438 4315
4544,4427 4439 4316
4547,4428 4319
4548,4428 4429 4320
4549,4428 4430 4321
4550,4428 4431 4322
4551,4428 4432 4323
4552,4428 4433 4324
4553,4428 4434 4325
4554,4428 4435 4326
4555,4428 4436 4327
4559,4560
4556,4428 4437 4328
4557,4428 4438 4329
4560,4428
4558,4428 4439 4330
4561,4429 4333
4562,4429 4430 4334
4563,4429 4431 4335
4564,4429 4432 4336
4565,4429 4433 4337
4566,4429 4434 4338
4567,4429 4435 4339
4568,4429 4436 4340
4572,4573
4569,4429 4437 4341
4573,4429
4570,4429 4438 4342
4571,4429 4439 4343
4574,4430 4346
4575,4430 4431 4347
4576,4430 4432 4348
4577,4430 4433 4349
4578,4430 4434 4350
4579,4430 4435 4351
4580,4430 4436 4352
4581,4430 4437 4353
4584,4585
4585,4430
4582,4430 4438 4354
4583,4430 4439 4355
4586,4431 4358
4587,4431 4432 4359
4588,4431 4433 4360
4589,4431 4434 4361
4590,4431 4435 4362
4591,4431 4436 4363
4595,4596
4592,4431 4437 4364
4593,4431 4438 4365
4596,4431
4594,4431 4439 4366
4597,4432 4369
4598,4432 4433 4370
4599,4432 4434 4371
4600,4432 4435 4372
4601,4432 4436 4373
4602,4432 4437 4374
4605,4606
4606,4432
4603,4432 4438 4375
4604,4432 4439 4376
4607,4433 4379
4608,4433 4434 4380
4609,4433 4435 4381
4610,4433 4436 4382
4611,4433 4437 4383
4614,4615
4615,4433
4612,4433 4438 4384
4613,4433 4439 4385
4616,4434 4388
4617,4434 4435 4389
4618,4434 4436 4390
4622,4623
4619,4434 4437 4391
4623,4434
4620,4434 4438 4392
4621,4434 4439 4393
4624,4435 4396
4625,4435 4436 4397
4629,4630
4630,4435
4627,4435 4438 4399
4626,4435 4437 4398
4628,4435 4439 4400
4631,4436 4403
4632,4436 4437 4404
4635,4636
4636,4436
4633,4436 4438 4405
4634,4436 4439 4406
4637,4437 4409
4640,4641
4641,4437
4639,4437 4439 4411
4638,4437 4438 4410
4644,4645
4645,4438
4642,4438 4414
4647,4648
4648,4439
4643,4438 4439 4415
4646,4439 4418
4649,4442
4655,4649 4448
4650,4649 4442 4443
4651,4649 4442 4444
4652,4649 4442 4445
4653,4649 4442 4446
4656,4649 4449
4659,4649 4452
4654,4649 4442 4447
4657,4649 4450
4658,4649 4451
4660,4649 4453
4661,4649 4454
4662,4649 4455
4663,4649 4456
4667,4668
4664,4649 4457
4668,4649
4666,4649 4459
4665,4649 4458
4669,4650 4462
4670,4650 4651 4463
4671,4650 4652 4464
4672,4650 4653 4465
4673,4650 4654 4466
4674,4650 4655 4467
4675,4650 4656 4468
4676,4650 4657 4469
4677,4650 4658 4470
4678,4650 4659 4471
4679,4650 4660 4472
4680,4650 4661 4473
4681,4650 4662 4474
4682,4650 4663 4475
4683,4650 4664 4476
4686,4687
4684,4650 4665 4477
4687,4650
4685,4650 4666 4478
4688,4651 4481
4689,4651 4652 4482
4690,4651 4653 4483
4691,4651 4654 4484
4692,4651 4655 4485
4693,4651 4656 4486
4694,4651 4657 4487
4695,4651 4658 4488
4696,4651 4659 4489
4697,4651 4660 4490
4698,4651 4661 4491
4699,4651 4662 4492
4700,4651 4663 4493
4701,4651 4664 4494
4704,4705
4705,4651
4702,4651 4665 4495
4703,4651 4666 4496
4706,4652 4499
4707,4652 4653 4500
4708,4652 4654 4501
4709,4652 4655 4502
4710,4652 4656 4503
4711,4652 4657 4504
4712,4652 4658 4505
4713,4652 4659 4506
4714,4652 4660 4507
4715,4652 4661 4508
4716,4652 4662 4509
4717,4652 4663 4510
4718,4652 4664 4511
4721,4722
4722,4652
4719,4652 4665 4512
4720,4652 4666 4513
4723,4653 4516
4724,4653 4654 4517
4725,4653 4655 4518
4726,4653 4656 4519
4727,4653 4657 4520
4728,4653 4658 4521
4729,4653 4659 4522
4730,4653 4660 4523
4731,4653 4661 4524
4732,4653 4662 4525
4733,4653 4663 4526
4734,4653 4664 4527
4737,4738
4738,4653
4735,4653 4665 4528
4736,4653 4666 4529
4739,4654 4532
4741,4654 4656 4534
4740,4654 4655 4533
4742,4654 4657 4535
4743,4654 4658 4536
4744,4654 4659 4537
4745,4654 4660 4538
4746,4654 4661 4539
4747,4654 4662 4540
4748,4654 4663 4541
4749,4654 4664 4542
4752,4753
4750,4654 4665 4543
4753,4654
4751,4654 4666 4544
4754,4655 4547
4755,4655 4656 4548
4756,4655 4657 4549
4757,4655 4658 4550
4758,4655 4659 4551
4759,4655 4660 4552
4760,4655 4661 4553
4761,4655 4662 4554
4762,4655 4663 4555
4763,4655 4664 4556
4766,4767
4764,4655 4665 4557
4767,4655
4765,4655 4666 4558
4768,4656 4561
4769,4656 4657 4562
4770,4656 4658 4563
4771,4656 4659 4564
4772,4656 4660 4565
4773,4656 4661 4566
4774,4656 4662 4567
4775,4656 4663 4568
4776,4656 4664 4569
4779,4780
4777,4656 4665 4570
4780,4656
4778,4656 4666 4571
4781,4657 4574
4782,4657 4658 4575
4783,4657 4659 4576
4784,4657 4660 4577
4785,4657 4661 4578
4787,4657 4663 4580
4786,4657 4662 4579
4791,4792
4792,4657
4788,4657 4664 4581
4789,4657 4665 4582
4790,4657 4666 4583
4793,4658 4586
4794,4658 4659 4587
4795,4658 4660 4588
4796,4658 4661 4589
4797,4658 4662 4590
4798,4658 4663 4591
4799,4658 4664 4592
4802,4803
4803,4658
4800,4658 4665 4593
4801,4658 4666 4594
4804,4659 4597
4805,4659 4660 4598
4806,4659 4661 4599
4807,4659 4662 4600
4808,4659 4663 4601
4809,4659 4664 4602
4812,4813
4810,4659 4665 4603
4813,4659
4811,4659 4666 4604
4814,4660 4607
4815,4660 4661 4608
4816,4660 4662 4609
4817,4660 4663 4610
4818,4660 4664 4611
4821,4822
4822,4660
4820,4660 4666 4613
4819,4660 4665 4612
4823,4661 4616
4824,4661 4662 4617
4825,4661 4663 4618
4826,4661 4664 4619
4829,4830
4830,4661
4827,4661 4665 4620
4828,4661 4666 4621
4831,4662 4624
4832,4662 4663 4625
4836,4837
4837,4662
4834,4662 4665 4627
4833,4662 4664 4626
4835,4662 4666 4628
4838,4663 4631
4842,4843
4839,4663 4664 4632
4843,4663
4840,4663 4665 4633
4841,4663 4666 4634
4844,4664 4637
4847,4848
4848,4664
4845,4664 4665 4638
4846,4664 4666 4639
4851,4852
4849,4665 4642
4852,4665
4850,4665 4666 4643
4854,4855
4855,4666
4853,4666 4646
4856,4669
4862,4856 4675
4859,4856 4669 4672
4857,4856 4669 4670
4861,4856 4669 4674
4860,4856 4669 4673
4863,4856 4676
4858,4856 4669 4671
4864,4856 4677
4865,4856 4678
4866,4856 4679
4867,4856 4680
4868,4856 4681
4869,4856 4682
4873,4874
4874,4856
4870,4856 4683
4871,4856 4684
4872,4856 4685
4875,4857 4688
4876,4857 4858 4689
4877,4857 4859 4690
4878,4857 4860 4691
4879,4857 4861 4692
4880,4857 4862 4693
4881,4857 4863 4694
4882,4857 4864 4695
4883,4857 4865 4696
4884,4857 4866 4697
4885,4857 4867 4698
4886,4857 4868 4699
4887,4857 4869 4700
4888,4857 4870 4701
4891,4892
4892,4857
4889,4857 4871 4702
4890,4857 4872 4703
4893,4858 4706
4894,4858 4859 4707
4895,4858 4860 4708
4896,4858 4861 4709
4897,4858 4862 4710
4898,4858 4863 4711
4899,4858 4864 4712
4900,4858 4865 4713
4901,4858 4866 4714
4902,4858 4867 4715
4903,4858 4868 4716
4904,4858 4869 4717
4905,4858 4870 4718
4908,4909
4906,4858 4871 4719
4909,4858
4907,4858 4872 4720
4910,4859 4723
4911,4859 4860 4724
4912,4859 4861 4725
4913,4859 4862 4726
4914,4859 4863 4727
4915,4859 4864 4728
4916,4859 4865 4729
4917,4859 4866 4730
4918,4859 4867 4731
4919,4859 4868 4732
4920,4859 4869 4733
4921,4859 4870 4734
4924,4925
4925,4859
4922,4859 4871 4735
4923,4859 4872 4736
4926,4860 4739
4927,4860 4861 4740
4928,4860 4862 4741
4929,4860 4863 4742
4930,4860 4864 4743
4931,4860 4865 4744
4932,4860 4866 4745
4933,4860 4867 4746
4934,4860 4868 4747
4935,4860 4869 4748
4936,4860 4870 4749
4939,4940
4940,4860
4937,4860 4871 4750
4938,4860 4872 4751
4941,4861 4754
4942,4861 4862 4755
4943,4861 4863 4756
4944,4861 4864 4757
4945,4861 4865 4758
4946,4861 4866 4759
4947,4861 4867 4760
4948,4861 4868 4761
4949,4861 4869 4762
4953,4954
4950,4861 4870 4763
4954,4861
4951,4861 4871 4764
4952,4861 4872 4765
4955,4862 4768
4956,4862 4863 4769
4957,4862 4864 4770
4958,4862 4865 4771
4959,4862 4866 4772
4960,4862 4867 4773
4961,4862 4868 4774
4962,4862 4869 4775
4963,4862 4870 4776
4966,4967
4967,4862
4964,4862 4871 4777
4965,4862 4872 4778
4968,4863 4781
4969,4863 4864 4782
4970,4863 4865 4783
4971,4863 4866 4784
4972,4863 4867 4785
4973,4863 4868 4786
4975,4863 4870 4788
4974,4863 4869 4787
4978,4979
4979,4863
4976,4863 4871 4789
4977,4863 4872 4790
4980,4864 4793
4981,4864 4865 4794
4982,4864 4866 4795
4983,4864 4867 4796
4984,4864 4868 4797
4985,4864 4869 4798
4986,4864 4870 4799
4989,4990
4990,4864
4987,4864 4871 4800
4988,4864 4872 4801
4991,4865 4804
4992,4865 4866 4805
4993,4865 4867 4806
4994,4865 4868 4807
4995,4865 4869 4808
4996,4865 4870 4809
4999,5000
5000,4865
4997,4865 4871 4810
4998,4865 4872 4811
5001,4866 4814
5002,4866 4867 4815
5003,4866 4868 4816
5004,4866 4869 4817
5005,4866 4870 4818
5008,5009
5009,4866
5006,4866 4871 4819
5007,4866 4872 4820
5010,4867 4823
5011,4867 4868 4824
5012,4867 4869 4825
5013,4867 4870 4826
5016,5017
5017,4867
5014,4867 4871 4827
5015,4867 4872 4828
5018,4868 4831
5019,4868 4869 4832
5020,4868 4870 4833
5023,5024
5024,4868
5021,4868 4871 4834
5022,4868 4872 4835
5025,4869 4838
5026,4869 4870 4839
5029,5030
5030,4869
5027,4869 4871 4840
5028,4869 4872 4841
5031,4870 4844
5034,5035
5035,4870
5032,4870 4871 4845
5033,4870 4872 4846
5038,5039
5036,4871 4849
5039,4871
5037,4871 4872 4850
5041,5042
5042,4872
5040,4872 4853
5043,4875
5044,5043 4875 4876
5050,5043 4882
5045,5043 4875 4877
5046,5043 4875 4878
5047,5043 4875 4879
5051,5043 4883
5048,5043 4875 4880
5049,5043 4875 4881
5052,5043 4884
5053,5043 4885
5054,5043 4886
5055,5043 4887
5059,5060
5060,5043
5057,5043 4889
5056,5043 4888
5058,5043 4890
5061,5044 4893
5062,5044 5045 4894
5063,5044 5046 4895
5064,5044 5047 4896
5065,5044 5048 4897
5066,5044 5049 4898
5067,5044 5050 4899
5069,5044 5052 4901
5068,5044 5051 4900
5070,5044 5053 4902
5071,5044 5054 4903
5072,5044 5055 4904
5073,5044 5056 4905
5076,5077
5077,5044
5074,5044 5057 4906
5075,5044 5058 4907
5078,5045 4910
5079,5045 5046 4911
5080,5045 5047 4912
5081,5045 5048 4913
5082,5045 5049 4914
5083,5045 5050 4915
5084,5045 5051 4916
5085,5045 5052 4917
5086,5045 5053 4918
5087,5045 5054 4919
5088,5045 5055 4920
5089,5045 5056 4921
5092,5093
5093,5045
5090,5045 5057 4922
5091,5045 5058 4923
5094,5046 4926
5095,5046 5047 4927
5096,5046 5048 4928
5097,5046 5049 4929
5098,5046 5050 4930
5099,5046 5051 4931
5100,5046 5052 4932
5101,5046 5053 4933
5102,5046 5054 4934
5103,5046 5055 4935
5104,5046 5056 4936
5107,5108
5108,5046
5105,5046 5057 4937
5106,5046 5058 4938
5109,5047 4941
5110,5047 5048 4942
5111,5047 5049 4943
5112,5047 5050 4944
5113,5047 5051 4945
5114,5047 5052 4946
5115,5047 5053 4947
5116,5047 5054 4948
5117,5047 5055 4949
5118,5047 5056 4950
5121,5122
5122,5047
5119,5047 5057 4951
5120,5047 5058 4952
5123,5048 4955
5124,5048 5049 4956
5125,5048 5050 4957
5126,5048 5051 4958
5127,5048 5052 4959
5129,5048 5054 4961
5128,5048 5053 4960
5130,5048 5055 4962
5131,5048 5056 4963
5134,5135
5135,5048
5132,5048 5057 4964
5133,5048 5058 4965
5136,5049 4968
5137,5049 5050 4969
5138,5049 5051 4970
5139,5049 5052 4971
5140,5049 5053 4972
5141,5049 5054 4973
5142,5049 5055 4974
5143,5049 5056 4975
5146,5147
5147,5049
5144,5049 5057 4976
5145,5049 5058 4977
5148,5050 4980
5149,5050 5051 4981
5150,5050 5052 4982
5151,5050 5053 4983
5152,5050 5054 4984
5153,5050 5055 4985
5157,5158
5154,5050 5056 4986
5158,5050
5155,5050 5057 4987
5156,5050 5058 4988
5159,5051 4991
5160,5051 5052 4992
5161,5051 5053 4993
5162,5051 5054 4994
5163,5051 5055 4995
5164,5051 5056 4996
5167,5168
5168,5051
5165,5051 5057 4997
5166,5051 5058 4998
5169,5052 5001
5170,5052 5053 5002
5171,5052 5054 5003
5172,5052 5055 5004
5173,5052 5056 5005
5176,5177
5177,5052
5174,5052 5057 5006
5175,5052 5058 5007
5178,5053 5010
5179,5053 5054 5011
5180,5053 5055 5012
5181,5053 5056 5013
5184,5185
5185,5053
5182,5053 5057 5014
5183,5053 5058 5015
5186,5054 5018
5187,5054 5055 5019
5191,5192
5188,5054 5056 5020
5192,5054
5189,5054 5057 5021
5190,5054 5058 5022
5193,5055 5025
5194,5055 5056 5026
5197,5198
5198,5055
5195,5055 5057 5027
5196,5055 5058 5028
5202,5203
5199,5056 5031
5203,5056
5200,5056 5057 5032
5201,5056 5058 5033
5206,5207
5207,5057
5204,5057 5036
5205,5057 5058 5037
5209,5210
5210,5058
5208,5058 5040
5211,5061
5212,5211 5061 5062
5219,5211 5069
5214,5211 5061 5064
5213,5211 5061 5063
5215,5211 5061 5065
5216,5211 5061 5066
5217,5211 5061 5067
5218,5211 5061 5068
5221,5211 5071
5220,5211 5070
5222,5211 5072
5226,5227
5223,5211 5073
5227,5211
5224,5211 5074
5225,5211 5075
5228,5212 5078
5229,5212 5213 5079
5230,5212 5214 5080
5231,5212 5215 5081
5232,5212 5216 5082
5233,5212 5217 5083
5234,5212 5218 5084
5235,5212 5219 5085
5236,5212 5220 5086
5237,5212 5221 5087
5238,5212 5222 5088
5239,5212 5223 5089
5242,5243
5243,5212
5240,5212 5224 5090
5241,5212 5225 5091
5244,5213 5094
5245,5213 5214 5095
5246,5213 5215 5096
5247,5213 5216 5097
5249,5213 5218 5099
5248,5213 5217 5098
5250,5213 5219 5100
5251,5213 5220 5101
5252,5213 5221 5102
5253,5213 5222 5103
5257,5258
5254,5213 5223 5104
5258,5213
5255,5213 5224 5105
5256,5213 5225 5106
5259,5214 5109
5260,5214 5215 5110
5261,5214 5216 5111
5262,5214 5217 5112
5263,5214 5218 5113
5264,5214 5219 5114
5265,5214 5220 5115
5266,5214 5221 5116
5267,5214 5222 5117
5271,5272
5268,5214 5223 5118
5272,5214
5269,5214 5224 5119
5270,5214 5225 5120
5273,5215 5123
5274,5215 5216 5124
5275,5215 5217 5125
5276,5215 5218 5126
5277,5215 5219 5127
5278,5215 5220 5128
5279,5215 5221 5129
5280,5215 5222 5130
5284,5285
5285,5215
5281,5215 5223 5131
5282,5215 5224 5132
5283,5215 5225 5133
5286,5216 5136
5287,5216 5217 5137
5288,5216 5218 5138
5289,5216 5219 5139
5290,5216 5220 5140
5291,5216 5221 5141
5292,5216 5222 5142
5293,5216 5223 5143
5296,5297
5297,5216
5294,5216 5224 5144
5295,5216 5225 5145
5298,5217 5148
5299,5217 5218 5149
5300,5217 5219 5150
5301,5217 5220 5151
5302,5217 5221 5152
5303,5217 5222 5153
5304,5217 5223 5154
5307,5308
5308,5217
5305,5217 5224 5155
5306,5217 5225 5156
5309,5218 5159
5310,5218 5219 5160
5311,5218 5220 5161
5312,5218 5221 5162
5313,5218 5222 5163
5314,5218 5223 5164
5317,5318
5318,5218
5315,5218 5224 5165
5316,5218 5225 5166
5319,5219 5169
5320,5219 5220 5170
5321,5219 5221 5171
5322,5219 5222 5172
5323,5219 5223 5173
5326,5327
5327,5219
5324,5219 5224 5174
5325,5219 5225 5175
5328,5220 5178
5329,5220 5221 5179
5330,5220 5222 5180
5334,5335
5335,5220
5331,5220 5223 5181
5332,5220 5224 5182
5333,5220 5225 5183
5336,5221 5186
5337,5221 5222 5187
5338,5221 5223 5188
5339,5221 5224 5189
5341,5342
5342,5221
5340,5221 5225 5190
5343,5222 5193
5344,5222 5223 5194
5347,5348
5348,5222
5345,5222 5224 5195
5346,5222 5225 5196
5349,5223 5199
5352,5353
5353,5223
5350,5223 5224 5200
5351,5223 5225 5201
5356,5357
5354,5224 5204
5357,5224
5359,5360
5355,5224 5225 5205
5360,5225
5358,5225 5208
5361,5228
5368,5361 5235
5362,5361 5228 5229
5364,5361 5228 5231
5365,5361 5228 5232
5369,5361 5236
5363,5361 5228 5230
5367,5361 5228 5234
5366,5361 5228 5233
5370,5361 5237
5371,5361 5238
5375,5376
5376,5361
5373,5361 5240
5372,5361 5239
5374,5361 5241
5377,5362 5244
5378,5362 5363 5245
5379,5362 5364 5246
5380,5362 5365 5247
5381,5362 5366 5248
5382,5362 5367 5249
5383,5362 5368 5250
5384,5362 5369 5251
5385,5362 5370 5252
5386,5362 5371 5253
5387,5362 5372 5254
5390,5391
5391,5362
5388,5362 5373 5255
5389,5362 5374 5256
5392,5363 5259
5393,5363 5364 5260
5394,5363 5365 5261
5395,5363 5366 5262
5396,5363 5367 5263
5397,5363 5368 5264
5398,5363 5369 5265
5399,5363 5370 5266
5400,5363 5371 5267
5404,5405
5401,5363 5372 5268
5405,5363
5402,5363 5373 5269
5403,5363 5374 5270
5406,5364 5273
5407,5364 5365 5274
5408,5364 5366 5275
5409,5364 5367 5276
5410,5364 5368 5277
5411,5364 5369 5278
5412,5364 5370 5279
5414,5364 5372 5281
5413,5364 5371 5280
5417,5418
5415,5364 5373 5282
5418,5364
5416,5364 5374 5283
5419,5365 5286
5420,5365 5366 5287
5421,5365 5367 5288
5422,5365 5368 5289
5423,5365 5369 5290
5424,5365 5370 5291
5425,5365 5371 5292
5426,5365 5372 5293
5429,5430
5430,5365
5427,5365 5373 5294
5428,5365 5374 5295
5431,5366 5298
5432,5366 5367 5299
5433,5366 5368 5300
5434,5366 5369 5301
5435,5366 5370 5302
5436,5366 5371 5303
5437,5366 5372 5304
5440,5441
5441,5366
5438,5366 5373 5305
5439,5366 5374 5306
5442,5367 5309
5443,5367 5368 5310
5444,5367 5369 5311
5445,5367 5370 5312
5446,5367 5371 5313
5447,5367 5372 5314
5450,5451
5451,5367
5448,5367 5373 5315
5449,5367 5374 5316
5453,5368 5369 5320
5452,5368 5319
5454,5368 5370 5321
5455,5368 5371 5322
5456,5368 5372 5323
5459,5460
5457,5368 5373 5324
5460,5368
5458,5368 5374 5325
5461,5369 5328
5462,5369 5370 5329
5463,5369 5371 5330
5467,5468
5464,5369 5372 5331
5465,5369 5373 5332
5468,5369
5466,5369 5374 5333
5469,5370 5336
5470,5370 5371 5337
5474,5475
5471,5370 5372 5338
5475,5370
5472,5370 5373 5339
5473,5370 5374 5340
5476,5371 5343
5477,5371 5372 5344
5480,5481
5481,5371
5478,5371 5373 5345
5479,5371 5374 5346
5482,5372 5349
5485,5486
5486,5372
5483,5372 5373 5350
5484,5372 5374 5351
5489,5490
5490,5373
5487,5373 5354
5488,5373 5374 5355
5492,5493
5493,5374
5491,5374 5358
5494,5377
5495,5494 5377 5378
5500,5494 5383
5496,5494 5377 5379
5497,5494 5377 5380
5498,5494 5377 5381
5499,5494 5377 5382
5501,5494 5384
5502,5494 5385
5503,5494 5386
5507,5508
5504,5494 5387
5508,5494
5505,5494 5388
5506,5494 5389
5509,5495 5392
5510,5495 5496 5393
5511,5495 5497 5394
5512,5495 5498 5395
5513,5495 5499 5396
5514,5495 5500 5397
5515,5495 5501 5398
5516,5495 5502 5399
5517,5495 5503 5400
5518,5495 5504 5401
5521,5522
5522,5495
5519,5495 5505 5402
5520,5495 5506 5403
5523,5496 5406
5524,5496 5497 5407
5525,5496 5498 5408
5526,5496 5499 5409
5527,5496 5500 5410
5528,5496 5501 5411
5529,5496 5502 5412
5530,5496 5503 5413
5534,5535
5531,5496 5504 5414
5535,5496
5532,5496 5505 5415
5533,5496 5506 5416
5536,5497 5419
5537,5497 5498 5420
5538,5497 5499 5421
5539,5497 5500 5422
5540,5497 5501 5423
5541,5497 5502 5424
5542,5497 5503 5425
5543,5497 5504 5426
5546,5547
5547,5497
5544,5497 5505 5427
5545,5497 5506 5428
5548,5498 5431
5549,5498 5499 5432
5550,5498 5500 5433
5551,5498 5501 5434
5552,5498 5502 5435
5554,5498 5504 5437
5553,5498 5503 5436
5557,5558
5558,5498
5555,5498 5505 5438
5556,5498 5506 5439
5559,5499 5442
5560,5499 5500 5443
5561,5499 5501 5444
5562,5499 5502 5445
5563,5499 5503 5446
5564,5499 5504 5447
5567,5568
5568,5499
5565,5499 5505 5448
5566,5499 5506 5449
5569,5500 5452
5570,5500 5501 5453
5571,5500 5502 5454
5572,5500 5503 5455
5576,5577
5573,5500 5504 5456
5577,5500
5574,5500 5505 5457
5575,5500 5506 5458
5578,5501 5461
5579,5501 5502 5462
5580,5501 5503 5463
5581,5501 5504 5464
5584,5585
5585,5501
5582,5501 5505 5465
5583,5501 5506 5466
5586,5502 5469
5587,5502 5503 5470
5591,5592
5588,5502 5504 5471
5589,5502 5505 5472
5592,5502
5590,5502 5506 5473
5593,5503 5476
5594,5503 5504 5477
5597,5598
5598,5503
5595,5503 5505 5478
5596,5503 5506 5479
5599,5504 5482
5602,5603
5600,5504 5505 5483
5603,5504
5601,5504 5506 5484
5606,5607
5607,5505
5604,5505 5487
5605,5505 5506 5488
5609,5610
5610,5506
5608,5506 5491
5611,5509
5612,5611 5509 5510
5617,5611 5515
5613,5611 5509 5511
5614,5611 5509 5512
5615,5611 5509 5513
5616,5611 5509 5514
5618,5611 5516
5619,5611 5517
5623,5624
5624,5611
5620,5611 5518
5621,5611 5519
5622,5611 5520
5625,5612 5523
5626,5612 5613 5524
5627,5612 5614 5525
5628,5612 5615 5526
5629,5612 5616 5527
5630,5612 5617 5528
5631,5612 5618 5529
5632,5612 5619 5530
5633,5612 5620 5531
5636,5637
5637,5612
5634,5612 5621 5532
5635,5612 5622 5533
5638,5613 5536
5639,5613 5614 5537
5640,5613 5615 5538
5641,5613 5616 5539
5642,5613 5617 5540
5643,5613 5618 5541
5644,5613 5619 5542
5645,5613 5620 5543
5648,5649
5649,5613
5646,5613 5621 5544
5647,5613 5622 5545
5650,5614 5548
5651,5614 5615 5549
5652,5614 5616 5550
5653,5614 5617 5551
5654,5614 5618 5552
5655,5614 5619 5553
5659,5660
5656,5614 5620 5554
5660,5614
5657,5614 5621 5555
5658,5614 5622 5556
5661,5615 5559
5662,5615 5616 5560
5663,5615 5617 5561
5664,5615 5618 5562
5665,5615 5619 5563
5666,5615 5620 5564
5669,5670
5670,5615
5667,5615 5621 5565
5668,5615 5622 5566
5671,5616 5569
5672,5616 5617 5570
5673,5616 5618 5571
5674,5616 5619 5572
5675,5616 5620 5573
5678,5679
5679,5616
5677,5616 5622 5575
5676,5616 5621 5574
5680,5617 5578
5681,5617 5618 5579
5682,5617 5619 5580
5683,5617 5620 5581
5686,5687
5687,5617
5684,5617 5621 5582
5685,5617 5622 5583
5688,5618 5586
5689,5618 5619 5587
5690,5618 5620 5588
5693,5694
5694,5618
5691,5618 5621 5589
5692,5618 5622 5590
5695,5619 5593
5699,5700
5700,5619
5696,5619 5620 5594
5697,5619 5621 5595
5698,5619 5622 5596
5701,5620 5599
5704,5705
5705,5620
5702,5620 5621 5600
5703,5620 5622 5601
5708,5709
5706,5621 5604
5709,5621
5707,5621 5622 5605
5711,5712
5712,5622
5710,5622 5608
5713,5625
5715,5713 5625 5627
5719,5713 5631
5714,5713 5625 5626
5716,5713 5625 5628
5717,5713 5625 5629
5724,5725
5720,5713 5632
5718,5713 5625 5630
5721,5713 5633
5725,5713
5722,5713 5634
5723,5713 5635
5726,5714 5638
5727,5714 5715 5639
5729,5714 5717 5641
5728,5714 5716 5640
5730,5714 5718 5642
5731,5714 5719 5643
5732,5714 5720 5644
5733,5714 5721 5645
5736,5737
5737,5714
5734,5714 5722 5646
5735,5714 5723 5647
5738,5715 5650
5739,5715 5716 5651
5740,5715 5717 5652
5741,5715 5718 5653
5742,5715 5719 5654
5743,5715 5720 5655
5744,5715 5721 5656
5747,5748
5748,5715
5745,5715 5722 5657
5746,5715 5723 5658
5749,5716 5661
5750,5716 5717 5662
5751,5716 5718 5663
5752,5716 5719 5664
5753,5716 5720 5665
5754,5716 5721 5666
5757,5758
5758,5716
5755,5716 5722 5667
5756,5716 5723 5668
5759,5717 5671
5760,5717 5718 5672
5761,5717 5719 5673
5762,5717 5720 5674
5766,5767
5763,5717 5721 5675
5767,5717
5764,5717 5722 5676
5765,5717 5723 5677
5768,5718 5680
5769,5718 5719 5681
5770,5718 5720 5682
5771,5718 5721 5683
5774,5775
5775,5718
5772,5718 5722 5684
5773,5718 5723 5685
5776,5719 5688
5777,5719 5720 5689
5778,5719 5721 5690
5781,5782
5782,5719
5779,5719 5722 5691
5780,5719 5723 5692
5783,5720 5695
5784,5720 5721 5696
5787,5788
5788,5720
5785,5720 5722 5697
5786,5720 5723 5698
5789,5721 5701
5792,5793
5793,5721
5790,5721 5722 5702
5791,5721 5723 5703
5794,5722 5706
5796,5797
5797,5722
5799,5800
5800,5723
5795,5722 5723 5707
5798,5723 5710
5801,5726
5807,5801 5732
5802,5801 5726 5727
5803,5801 5726 5728
5811,5812
5804,5801 5726 5729
5812,5801
5805,5801 5726 5730
5806,5801 5726 5731
5808,5801 5733
5809,5801 5734
5810,5801 5735
5813,5802 5738
5815,5802 5804 5740
5814,5802 5803 5739
5816,5802 5805 5741
5817,5802 5806 5742
5818,5802 5807 5743
5822,5823
5819,5802 5808 5744
5823,5802
5820,5802 5809 5745
5821,5802 5810 5746
5824,5803 5749
5825,5803 5804 5750
5826,5803 5805 5751
5827,5803 5806 5752
5828,5803 5807 5753
5829,5803 5808 5754
5832,5833
5833,5803
5830,5803 5809 5755
5831,5803 5810 5756
5834,5804 5759
5835,5804 5805 5760
5836,5804 5806 5761
5837,5804 5807 5762
5838,5804 5808 5763
5841,5842
5842,5804
5839,5804 5809 5764
5840,5804 5810 5765
5843,5805 5768
5844,5805 5806 5769
5845,5805 5807 5770
5846,5805 5808 5771
5849,5850
5850,5805
5847,5805 5809 5772
5848,5805 5810 5773
5851,5806 5776
5852,5806 5807 5777
5853,5806 5808 5778
5856,5857
5857,5806
5854,5806 5809 5779
5855,5806 5810 5780
5858,5807 5783
5859,5807 5808 5784
5862,5863
5863,5807
5860,5807 5809 5785
5861,5807 5810 5786
5864,5808 5789
5865,5808 5809 5790
5867,5868
5868,5808
5866,5808 5810 5791
5871,5872
5872,5809
5869,5809 5794
5874,5875
5875,5810
5870,5809 5810 5795
5873,5810 5798
5885,5886
5876,5813
5886,5876
5877,5876 5813 5814
5878,5876 5813 5815
5879,5876 5813 5816
5883,5876 5820
5880,5876 5813 5817
5882,5876 5813 5819
5884,5876 5821
5881,5876 5813 5818
5887,5877 5824
5888,5877 5878 5825
5889,5877 5879 5826
5890,5877 5880 5827
5891,5877 5881 5828
5895,5896
5896,5877
5893,5877 5883 5830
5892,5877 5882 5829
5894,5877 5884 5831
5897,5878 5834
5898,5878 5879 5835
5899,5878 5880 5836
5900,5878 5881 5837
5901,5878 5882 5838
5904,5905
5902,5878 5883 5839
5905,5878
5903,5878 5884 5840
5906,5879 5843
5907,5879 5880 5844
5908,5879 5881 5845
5909,5879 5882 5846
5912,5913
5913,5879
5910,5879 5883 5847
5911,5879 5884 5848
5914,5880 5851
5915,5880 5881 5852
5916,5880 5882 5853
5917,5880 5883 5854
5919,5920
5920,5880
5918,5880 5884 5855
5921,5881 5858
5922,5881 5882 5859
5925,5926
5923,5881 5883 5860
5926,5881
5924,5881 5884 5861
5927,5882 5864
5930,5931
5931,5882
5928,5882 5883 5865
5929,5882 5884 5866
5934,5935
5935,5883
5932,5883 5869
5933,5883 5884 5870
5937,5938
5938,5884
5936,5884 5873
5939,5887
5947,5948
5948,5939
5940,5939 5887 5888
5945,5939 5893
5942,5939 5887 5890
5944,5939 5887 5892
5943,5939 5887 5891
5946,5939 5894
5941,5939 5887 5889
5949,5940 5897
5950,5940 5941 5889 5898
5951,5940 5942 5899
5952,5940 5943 5900
5953,5940 5944 5901
5956,5957
5957,5940
5954,5940 5945 5902
5955,5940 5946 5903
5958,5941 5906
5959,5941 5942 5907
5960,5941 5943 5908
5961,5941 5944 5909
5964,5965
5965,5941
5962,5941 5945 5910
5963,5941 5946 5911
5966,5942 5914
5967,5942 5943 5915
5968,5942 5944 5916
5971,5972
5969,5942 5945 5917
5972,5942
5970,5942 5946 5918
5973,5943 5921
5974,5943 5944 5922
5977,5978
5978,5943
5975,5943 5945 5923
5976,5943 5946 5924
5979,5944 5927
5982,5983
5983,5944
5980,5944 5945 5928
5981,5944 5946 5929
5984,5945 5932
5986,5987
5987,5945
5985,5945 5946 5933
5989,5990
5990,5946
5988,5946 5936
5998,5999
5999,5991
5991,5949
5997,5991 5955
5992,5991 5949 5950
5995,5991 5949 5953
5996,5991 5949 5954
5994,5991 5949 5952
5993,5991 5949 5951
6000,5992 5950 5958
6002,5992 5950 5994 5952 5960
6003,5992 5995 5961
6001,5992 5950 5993 5951 5959
6006,6007
6004,5992 5996 5962
6007,5992
6005,5992 5997 5963
6008,5993 5966
6009,5993 5994 5967
6010,5993 5995 5968
6013,6014
6011,5993 5996 5969
6014,5993
6012,5993 5997 5970
6015,5994 5973
6016,5994 5995 5974
6019,6020
6020,5994
6017,5994 5996 5975
6018,5994 5997 5976
6021,5995 5979
6024,6025
6025,5995
6022,5995 5996 5980
6023,5995 5997 5981
6028,6029
6026,5996 5984
6029,5996
6027,5996 5997 5985
6031,6032
6032,5997
6030,5997 5988
6039,6040
6040,6033
6033,6000
6038,6033 6005
6034,6033 6000 6001
6036,6033 6000 6003
6037,6033 6000 6004
6035,6033 6000 6002
6046,6047
6041,6034 6001 6008
6047,6034
6043,6034 6001 6036 6003 6010
6044,6034 6037 6004 6011
6042,6034 6001 6035 6002 6009
6045,6034 6038 6012
6048,6035 6015
6052,6053
6053,6035
6049,6035 6036 6016
6050,6035 6037 6017
6051,6035 6038 6018
6054,6036 6021
6057,6058
6058,6036
6055,6036 6037 6022
6056,6036 6038 6023
6061,6062
6062,6037
6059,6037 6026
6060,6037 6038 6027
6064,6065
6065,6038
6063,6038 6030
6071,6072
6072,6066 6041
6066,6041
6070,6066 6041 6045
6069,6066 6041 6044
6077,6078
6068,6066 6041 6043
6078,6067 6042
6067,6066 6041 6042
6073,6067 6042 6048
6082,6083
6083,6068
6079,6068 6043 6054
6074,6067 6042 6068 6043 6049
6076,6067 6042 6070 6045 6051
6075,6067 6042 6069 6044 6050
6080,6068 6043 6069 6044 6055
6081,6068 6070 6056
6084,6069 6059
6086,6087
6087,6069
6089,6090
6090,6070
6085,6069 6070 6060
6088,6070 6063
6095,6096
6096,6091 6073
6091,6073
6100,6101
6101,6092 6074
6092,6091 6073 6074
6104,6105
6105,6093 6075
6093,6091 6073 6075
6097,6092 6074 6079
6107,6108
6108,6094 6076
6094,6091 6073 6076
6102,6093 6075 6084
6098,6092 6074 6093 6075 6080
6099,6092 6074 6094 6076 6081
6103,6093 6075 6094 6076 6085
6106,6094 6076 6088
6112,6113
6113,6109 6079
6109,6097 6079
6119,6120
6120,6111 6081
6111,6109 6079 6099 6081
6116,6117
6117,6110 6080
6110,6109 6079 6098 6080
6118,6111 6081 6106
6114,6110 6080 6102 6084
6115,6110 6080 6111 6081 6103 6085
6123,6124
6124,6121 6102
6121,6114 6102
6126,6127
6127,6122 6103
6122,6121 6102 6115 6103
6125,6122 6103 6118 6106
6129,6130
6130,6128 6106
6128,6125 6106
6132,4171
6131,6132
6134,3791
6133,6134
6136,3811
6135,6136
6138,3831
6137,6138
6140,3851
6139,6140
6142,3871
6141,6142
6144,3891
6143,6144
6146,3911
6145,6146
6148,3931
6147,6148
6150,3951
6149,6150
6152,3971
6151,6152
6154,3991
6153,6154
6156,4011
6155,6156
6158,4031
6157,6158
6160,4051
6159,6160
6162,4071
6161,6162
6164,4091
6163,6164
6166,4111
6165,6166
6168,4131
6167,6168
6170,4151
6169,6170
6172,4172
6171,6172
6174,4421
6173,6174
6176,3812
6175,6176
6178,3832
6177,6178
6180,3852
6179,6180
6182,3872
6181,6182
6184,3892
6183,6184
6186,3912
6185,6186
6188,3932
6187,6188
6190,3952
6189,6190
6192,3972
6191,6192
6194,3992
6193,6194
6196,4012
6195,6196
6198,4032
6197,6198
6200,4052
6199,6200
6202,4072
6201,6202
6204,4092
6203,6204
6206,4112
6205,6206
6208,4132
6207,6208
6210,4152
6209,6210
6212,4173
6211,6212
6214,4422
6213,6214
6216,4649
6215,6216
6218,3833
6217,6218
6220,3853
6219,6220
6222,3873
6221,6222
6224,3893
6223,6224
6226,3913
6225,6226
6228,3933
6227,6228
6230,3953
6229,6230
6232,3973
6231,6232
6234,3993
6233,6234
6236,4013
6235,6236
6238,4033
6237,6238
6240,4053
6239,6240
6242,4073
6241,6242
6244,4093
6243,6244
6246,4113
6245,6246
6248,4133
6247,6248
6250,4153
6249,6250
6252,4174
6251,6252
6254,4423
6253,6254
6256,4650
6255,6256
6258,4856
6257,6258
6260,3854
6259,6260
6262,3874
6261,6262
6264,3894
6263,6264
6266,3914
6265,6266
6268,3934
6267,6268
6270,3954
6269,6270
6272,3974
6271,6272
6274,3994
6273,6274
6276,4014
6275,6276
6278,4034
6277,6278
6280,4054
6279,6280
6282,4074
6281,6282
6284,4094
6283,6284
6286,4114
6285,6286
6288,4134
6287,6288
6290,4154
6289,6290
6292,4175
6291,6292
6294,4424
6293,6294
6296,4651
6295,6296
6298,4857
6297,6298
6300,5043
6299,6300
6302,3875
6301,6302
6304,3895
6303,6304
6306,3915
6305,6306
6308,3935
6307,6308
6310,3955
6309,6310
6312,3975
6311,6312
6314,3995
6313,6314
6316,4015
6315,6316
6318,4035
6317,6318
6320,4055
6319,6320
6322,4075
6321,6322
6324,4095
6323,6324
6326,4115
6325,6326
6328,4135
6327,6328
6330,4155
6329,6330
6332,4176
6331,6332
6334,4425
6333,6334
6336,4652
6335,6336
6338,4858
6337,6338
6340,5044
6339,6340
6342,5211
6341,6342
6344,3896
6343,6344
6346,3916
6345,6346
6348,3936
6347,6348
6350,3956
6349,6350
6352,3976
6351,6352
6354,3996
6353,6354
6356,4016
6355,6356
6358,4036
6357,6358
6360,4056
6359,6360
6362,4076
6361,6362
6364,4096
6363,6364
6366,4116
6365,6366
6368,4136
6367,6368
6370,4156
6369,6370
6372,4177
6371,6372
6374,4426
6373,6374
6376,4653
6375,6376
6378,4859
6377,6378
6380,5045
6379,6380
6382,5212
6381,6382
6384,5361
6383,6384
6386,3917
6385,6386
6388,3937
6387,6388
6390,3957
6389,6390
6392,3977
6391,6392
6394,3997
6393,6394
6396,4017
6395,6396
6398,4037
6397,6398
6400,4057
6399,6400
6402,4077
6401,6402
6404,4097
6403,6404
6406,4117
6405,6406
6408,4137
6407,6408
6410,4157
6409,6410
6412,4178
6411,6412
6414,4427
6413,6414
6416,4654
6415,6416
6418,4860
6417,6418
6420,5046
6419,6420
6422,5213
6421,6422
6424,5362
6423,6424
6426,5494
6425,6426
6428,3938
6427,6428
6430,3958
6429,6430
6432,3978
6431,6432
6434,3998
6433,6434
6436,4018
6435,6436
6438,4038
6437,6438
6440,4058
6439,6440
6442,4078
6441,6442
6444,4098
6443,6444
6446,4118
6445,6446
6448,4138
6447,6448
6450,4158
6449,6450
6452,4179
6451,6452
6454,4428
6453,6454
6456,4655
6455,6456
6458,4861
6457,6458
6460,5047
6459,6460
6462,5214
6461,6462
6464,5363
6463,6464
6466,5495
6465,6466
6468,5611
6467,6468
6470,3959
6469,6470
6472,3979
6471,6472
6474,3999
6473,6474
6476,4019
6475,6476
6478,4039
6477,6478
6480,4059
6479,6480
6482,4079
6481,6482
6484,4099
6483,6484
6486,4119
6485,6486
6488,4139
6487,6488
6490,4159
6489,6490
6492,4180
6491,6492
6494,4429
6493,6494
6496,4656
6495,6496
6498,4862
6497,6498
6500,5048
6499,6500
6502,5215
6501,6502
6504,5364
6503,6504
6506,5496
6505,6506
6508,5612
6507,6508
6510,5713
6509,6510
6512,3980
6511,6512
6514,4000
6513,6514
6516,4020
6515,6516
6518,4040
6517,6518
6520,4060
6519,6520
6522,4080
6521,6522
6524,4100
6523,6524
6526,4120
6525,6526
6528,4140
6527,6528
6530,4160
6529,6530
6532,4181
6531,6532
6534,4430
6533,6534
6536,4657
6535,6536
6538,4863
6537,6538
6540,5049
6539,6540
6542,5216
6541,6542
6544,5365
6543,6544
6546,5497
6545,6546
6548,5613
6547,6548
6550,5714
6549,6550
6552,5801
6551,6552
6554,4001
6553,6554
6556,4021
6555,6556
6558,4041
6557,6558
6560,4061
6559,6560
6562,4081
6561,6562
6564,4101
6563,6564
6566,4121
6565,6566
6568,4141
6567,6568
6570,4161
6569,6570
6572,4182
6571,6572
6574,4431
6573,6574
6576,4658
6575,6576
6578,4864
6577,6578
6580,5050
6579,6580
6582,5217
6581,6582
6584,5366
6583,6584
6586,5498
6585,6586
6588,5614
6587,6588
6590,5715
6589,6590
6592,5802
6591,6592
6594,5876
6593,6594
6596,4022
6595,6596
6598,4042
6597,6598
6600,4062
6599,6600
6602,4082
6601,6602
6604,4102
6603,6604
6606,4122
6605,6606
6608,4142
6607,6608
6610,4162
6609,6610
6612,4183
6611,6612
6614,4432
6613,6614
6616,4659
6615,6616
6618,4865
6617,6618
6620,5051
6619,6620
6622,5218
6621,6622
6624,5367
6623,6624
6626,5499
6625,6626
6628,5615
6627,6628
6630,5716
6629,6630
6632,5803
6631,6632
6634,5877
6633,6634
6636,5939
6635,6636
6638,4043
6637,6638
6640,4063
6639,6640
6642,4083
6641,6642
6644,4103
6643,6644
6646,4123
6645,6646
6648,4143
6647,6648
6650,4163
6649,6650
6652,4184
6651,6652
6654,4433
6653,6654
6656,4660
6655,6656
6658,4866
6657,6658
6660,5052
6659,6660
6662,5219
6661,6662
6664,5368
6663,6664
6666,5500
6665,6666
6668,5616
6667,6668
6670,5717
6669,6670
6672,5804
6671,6672
6674,5878
6673,6674
6676,5940
6675,6676
6678,5991
6677,6678
6680,4064
6679,6680
6682,4084
6681,6682
6684,4104
6683,6684
6686,4124
6685,6686
6688,4144
6687,6688
6690,4164
6689,6690
6692,4185
6691,6692
6694,4434
6693,6694
6696,4661
6695,6696
6698,4867
6697,6698
6700,5053
6699,6700
6702,5220
6701,6702
6704,5369
6703,6704
6706,5501
6705,6706
6708,5617
6707,6708
6710,5718
6709,6710
6712,5805
6711,6712
6714,5879
6713,6714
6716,5941
6715,6716
6718,5992
6717,6718
6720,6033
6719,6720
6722,4085
6721,6722
6724,4105
6723,6724
6726,4125
6725,6726
6728,4145
6727,6728
6730,4165
6729,6730
6732,4186
6731,6732
6734,4435
6733,6734
6736,4662
6735,6736
6738,4868
6737,6738
6740,5054
6739,6740
6742,5221
6741,6742
6744,5370
6743,6744
6746,5502
6745,6746
6748,5618
6747,6748
6750,5719
6749,6750
6752,5806
6751,6752
6754,5880
6753,6754
6756,5942
6755,6756
6758,5993
6757,6758
6760,6034
6759,6760
6762,6066
6761,6762
6764,4106
6763,6764
6766,4126
6765,6766
6768,4146
6767,6768
6770,4166
6769,6770
6772,4187
6771,6772
6774,4436
6773,6774
6776,4663
6775,6776
6778,4869
6777,6778
6780,5055
6779,6780
6782,5222
6781,6782
6784,5371
6783,6784
6786,5503
6785,6786
6788,5619
6787,6788
6790,5720
6789,6790
6792,5807
6791,6792
6794,5881
6793,6794
6796,5943
6795,6796
6798,5994
6797,6798
6800,6035
6799,6800
6802,6067
6801,6802
6804,6091
6803,6804
6806,4127
6805,6806
6808,4147
6807,6808
6810,4167
6809,6810
6812,4188
6811,6812
6814,4437
6813,6814
6816,4664
6815,6816
6818,4870
6817,6818
6820,5056
6819,6820
6822,5223
6821,6822
6824,5372
6823,6824
6826,5504
6825,6826
6828,5620
6827,6828
6830,5721
6829,6830
6832,5808
6831,6832
6834,5882
6833,6834
6836,5944
6835,6836
6838,5995
6837,6838
6840,6036
6839,6840
6842,6068
6841,6842
6844,6092
6843,6844
6846,6109
6845,6846
6848,4148
6847,6848
6850,4168
6849,6850
6852,4189
6851,6852
6854,4438
6853,6854
6856,4665
6855,6856
6858,4871
6857,6858
6860,5057
6859,6860
6862,5224
6861,6862
6864,5373
6863,6864
6866,5505
6865,6866
6868,5621
6867,6868
6870,5722
6869,6870
6872,5809
6871,6872
6874,5883
6873,6874
6876,5945
6875,6876
6878,5996
6877,6878
6880,6037
6879,6880
6882,6069
6881,6882
6884,6093
6883,6884
6886,6110
6885,6886
6888,6121
6887,6888
6890,4169
6889,6890
6892,4190
6891,6892
6894,4439
6893,6894
6896,4666
6895,6896
6898,4872
6897,6898
6900,5058
6899,6900
6902,5225
6901,6902
6904,5374
6903,6904
6906,5506
6905,6906
6908,5622
6907,6908
6910,5723
6909,6910
6912,5810
6911,6912
6914,5884
6913,6914
6916,5946
6915,6916
6918,5997
6917,6918
6920,6038
6919,6920
6922,6070
6921,6922
6924,6094
6923,6924
6926,6111
6925,6926
6928,6122
6927,6928
6930,6128
6929,6930
