985,885
989,985 885 925
990,985 885 935
987,985 885 905
988,985 885 915
986,985 885 895
991,985 885 945
992,985 885 955
994,985 885 975
993,985 885 965
1005,985 885 887
1015,985 885 888
995,985 885 886
1035,985 885 890
1045,985 885 891
1025,985 885 889
1055,985 885 892
996,986 895 995 886 896
1006,986 895 1005 887 897
1036,986 895 1035 890 900
1046,986 895 1045 891 901
1026,986 895 1025 889 899
1065,985 885 893
997,987 905 995 886 906
1007,987 905 1005 887 907
1027,987 905 1025 889 909
1037,987 905 1035 890 910
1047,987 905 1045 891 911
1075,985 885 894
998,988 915 995 886 916
1008,988 915 1005 887 917
1048,988 915 1045 891 921
1028,988 915 1025 889 919
1038,988 915 1035 890 920
1016,986 895 1015 888 898
999,989 925 995 886 926
1009,989 925 1005 887 927
1039,989 925 1035 890 930
1049,989 925 1045 891 931
1029,989 925 1025 889 929
1017,987 905 1015 888 908
1000,990 935 995 886 936
1010,990 935 1005 887 937
1040,990 935 1035 890 940
1050,990 935 1045 891 941
1030,990 935 1025 889 939
1018,988 915 1015 888 918
1001,991 945 995 886 946
1011,991 945 1005 887 947
1051,991 945 1045 891 951
1041,991 945 1035 890 950
1031,991 945 1025 889 949
1019,989 925 1015 888 928
1002,992 955 995 886 956
1012,992 955 1005 887 957
1032,992 955 1025 889 959
1052,992 955 1045 891 961
1042,992 955 1035 890 960
1020,990 935 1015 888 938
1003,993 965 995 886 966
1013,993 965 1005 887 967
1033,993 965 1025 889 969
1053,993 965 1045 891 971
1043,993 965 1035 890 970
1021,991 945 1015 888 948
1004,994 975 995 886 976
1014,994 975 1005 887 977
1085,996 896
1054,994 975 1045 891 981
1044,994 975 1035 890 980
1034,994 975 1025 889 979
1022,992 955 1015 888 958
1023,993 965 1015 888 968
1086,1085 896 997 906
1087,1085 896 998 916
1089,1085 896 1000 936
1088,1085 896 999 926
1090,1085 896 1001 946
1024,994 975 1015 888 978
1091,1085 896 1002 956
1093,1085 896 1004 976
1092,1085 896 1003 966
1094,1085 896 1006 897
1103,1085 896 1016 898
1056,986 895 1055 892 902
1112,1085 896 1026 899
1121,1085 896 1036 900
1130,1085 896 1046 901
1095,1086 906 1094 897 1007 907
1104,1086 906 1103 898 1017 908
1057,987 905 1055 892 912
1113,1086 906 1112 899 1027 909
1131,1086 906 1130 901 1047 911
1122,1086 906 1121 900 1037 910
1096,1087 916 1094 897 1008 917
1105,1087 916 1103 898 1018 918
1058,988 915 1055 892 922
1114,1087 916 1112 899 1028 919
1123,1087 916 1121 900 1038 920
1132,1087 916 1130 901 1048 921
1097,1088 926 1094 897 1009 927
1106,1088 926 1103 898 1019 928
1059,989 925 1055 892 932
1133,1088 926 1130 901 1049 931
1124,1088 926 1121 900 1039 930
1115,1088 926 1112 899 1029 929
1098,1089 936 1094 897 1010 937
1107,1089 936 1103 898 1020 938
1060,990 935 1055 892 942
1125,1089 936 1121 900 1040 940
1134,1089 936 1130 901 1050 941
1116,1089 936 1112 899 1030 939
1099,1090 946 1094 897 1011 947
1108,1090 946 1103 898 1021 948
1135,1090 946 1130 901 1051 951
1126,1090 946 1121 900 1041 950
1117,1090 946 1112 899 1031 949
1061,991 945 1055 892 952
1100,1091 956 1094 897 1012 957
1109,1091 956 1103 898 1022 958
1127,1091 956 1121 900 1042 960
1136,1091 956 1130 901 1052 961
1118,1091 956 1112 899 1032 959
1062,992 955 1055 892 962
1101,1092 966 1094 897 1013 967
1110,1092 966 1103 898 1023 968
1128,1092 966 1121 900 1043 970
1137,1092 966 1130 901 1053 971
1119,1092 966 1112 899 1033 969
1063,993 965 1055 892 972
1102,1093 976 1094 897 1014 977
1166,1095 907
1111,1093 976 1103 898 1024 978
1138,1093 976 1130 901 1054 981
1129,1093 976 1121 900 1044 980
1120,1093 976 1112 899 1034 979
1064,994 975 1055 892 982
1167,1166 907 1096 917
1066,986 895 1065 893 903
1067,987 905 1065 893 913
1068,988 915 1065 893 923
1069,989 925 1065 893 933
1070,990 935 1065 893 943
1168,1166 907 1097 927
1148,1085 896 1066 903
1071,991 945 1065 893 953
1072,992 955 1065 893 963
1073,993 965 1065 893 973
1074,994 975 1065 893 983
1169,1166 907 1098 937
1149,1086 906 1148 903 1067 913
1170,1166 907 1099 947
1154,1091 956 1148 903 1072 963
1153,1090 946 1148 903 1071 953
1155,1092 966 1148 903 1073 973
1076,986 895 1075 894 904
1171,1166 907 1100 957
1150,1087 916 1148 903 1068 923
1078,988 915 1075 894 924
1077,987 905 1075 894 914
1079,989 925 1075 894 934
1080,990 935 1075 894 944
1172,1166 907 1101 967
1151,1088 926 1148 903 1069 933
1082,992 955 1075 894 964
1081,991 945 1075 894 954
1083,993 965 1075 894 974
1084,994 975 1075 894 984
1173,1166 907 1102 977
1139,1085 896 1056 902
1157,1085 896 1076 904
1152,1089 936 1148 903 1070 943
1156,1093 976 1148 903 1074 983
1174,1166 907 1104 908
1182,1166 907 1113 909
1214,1166 907 1149 913
1140,1086 906 1139 902 1057 912
1158,1086 906 1157 904 1077 914
1159,1087 916 1157 904 1078 924
1175,1167 917 1174 908 1105 918
1190,1166 907 1122 910
1215,1167 917 1214 913 1150 923
1141,1087 916 1139 902 1058 922
1160,1088 926 1157 904 1079 934
1198,1166 907 1131 911
1161,1089 936 1157 904 1080 944
1176,1168 927 1174 908 1106 928
1142,1088 926 1139 902 1059 932
1216,1168 927 1214 913 1151 933
1162,1090 946 1157 904 1081 954
1183,1167 917 1182 909 1114 919
1163,1091 956 1157 904 1082 964
1177,1169 937 1174 908 1107 938
1143,1089 936 1139 902 1060 942
1164,1092 966 1157 904 1083 974
1217,1169 937 1214 913 1152 943
1184,1168 927 1182 909 1115 929
1165,1093 976 1157 904 1084 984
1178,1170 947 1174 908 1108 948
1222,1166 907 1158 914
1144,1090 946 1139 902 1061 952
1218,1170 947 1214 913 1153 953
1185,1169 937 1182 909 1116 939
1179,1171 957 1174 908 1109 958
1180,1172 967 1174 908 1110 968
1223,1167 917 1222 914 1159 924
1145,1091 956 1139 902 1062 962
1186,1170 947 1182 909 1117 949
1219,1171 957 1214 913 1154 963
1224,1168 927 1222 914 1160 934
1181,1173 977 1174 908 1111 978
1230,1175 918
1225,1169 937 1222 914 1161 944
1146,1092 966 1139 902 1063 972
1187,1171 957 1182 909 1118 959
1220,1172 967 1214 913 1155 973
1226,1170 947 1222 914 1162 954
1231,1230 918 1176 928
1227,1171 957 1222 914 1163 964
1147,1093 976 1139 902 1064 982
1188,1172 967 1182 909 1119 969
1228,1172 967 1222 914 1164 974
1221,1173 977 1214 913 1156 983
1232,1230 918 1177 938
1233,1230 918 1178 948
1234,1230 918 1179 958
1206,1166 907 1140 912
1229,1173 977 1222 914 1165 984
1235,1230 918 1180 968
1189,1173 977 1182 909 1120 979
1236,1230 918 1181 978
1237,1230 918 1183 919
1265,1230 918 1215 923
1207,1167 917 1206 912 1141 922
1272,1230 918 1223 924
1191,1167 917 1190 910 1123 920
1192,1168 927 1190 910 1124 930
1238,1231 928 1237 919 1184 929
1266,1231 928 1265 923 1216 933
1208,1168 927 1206 912 1142 932
1273,1231 928 1272 924 1224 934
1193,1169 937 1190 910 1125 940
1267,1232 938 1265 923 1217 943
1268,1233 948 1265 923 1218 953
1239,1232 938 1237 919 1185 939
1209,1169 937 1206 912 1143 942
1274,1232 938 1272 924 1225 944
1194,1170 947 1190 910 1126 950
1269,1234 958 1265 923 1219 963
1270,1235 968 1265 923 1220 973
1240,1233 948 1237 919 1186 949
1210,1170 947 1206 912 1144 952
1275,1233 948 1272 924 1226 954
1195,1171 957 1190 910 1127 960
1271,1236 978 1265 923 1221 983
1276,1234 958 1272 924 1227 964
1241,1234 958 1237 919 1187 959
1211,1171 957 1206 912 1145 962
1277,1235 968 1272 924 1228 974
1196,1172 967 1190 910 1128 970
1278,1236 978 1272 924 1229 984
1197,1173 977 1190 910 1129 980
1242,1235 968 1237 919 1188 969
1212,1172 967 1206 912 1146 972
1199,1167 917 1198 911 1132 921
1200,1168 927 1198 911 1133 931
1201,1169 937 1198 911 1134 941
1202,1170 947 1198 911 1135 951
1243,1236 978 1237 919 1189 979
1251,1230 918 1199 921
1213,1173 977 1206 912 1147 982
1203,1171 957 1198 911 1136 961
1279,1238 929
1204,1172 967 1198 911 1137 971
1205,1173 977 1198 911 1138 981
1258,1230 918 1207 922
1252,1231 928 1251 921 1200 931
1244,1230 918 1191 920
1280,1279 929 1239 939
1256,1235 968 1251 921 1204 971
1257,1236 978 1251 921 1205 981
1259,1231 928 1258 922 1208 932
1253,1232 938 1251 921 1201 941
1281,1279 929 1240 949
1255,1234 958 1251 921 1203 961
1254,1233 948 1251 921 1202 951
1282,1279 929 1241 959
1291,1279 929 1252 931
1260,1232 938 1258 922 1209 942
1245,1231 928 1244 920 1192 930
1246,1232 938 1244 920 1193 940
1283,1279 929 1242 969
1247,1233 948 1244 920 1194 950
1292,1280 939 1291 931 1253 941
1285,1279 929 1245 930
1261,1233 948 1258 922 1210 952
1248,1234 958 1244 920 1195 960
1284,1279 929 1243 979
1293,1281 949 1291 931 1254 951
1294,1282 959 1291 931 1255 961
1286,1280 939 1285 930 1246 940
1262,1234 958 1258 922 1211 962
1249,1235 968 1244 920 1196 970
1303,1279 929 1266 933
1315,1286 940
1287,1281 949 1285 930 1247 950
1250,1236 978 1244 920 1197 980
1263,1235 968 1258 922 1212 972
1309,1279 929 1273 934
1288,1282 959 1285 930 1248 960
1320,1315 940 1292 941
1316,1315 940 1287 950
1290,1284 979 1285 930 1250 980
1264,1236 978 1258 922 1213 982
1317,1315 940 1288 960
1289,1283 969 1285 930 1249 970
1295,1283 969 1291 931 1256 971
1321,1316 950 1320 941 1293 951
1319,1315 940 1290 980
1318,1315 940 1289 970
1297,1279 929 1259 932
1340,1321 951
1322,1317 960 1320 941 1294 961
1296,1284 979 1291 931 1257 981
1304,1280 939 1303 933 1267 943
1323,1318 970 1320 941 1295 971
1341,1340 951 1322 961
1298,1280 939 1297 932 1260 942
1305,1281 949 1303 933 1268 953
1306,1282 959 1303 933 1269 963
1330,1315 940 1304 943
1342,1340 951 1323 971
1299,1281 949 1297 932 1261 952
1307,1283 969 1303 933 1270 973
1308,1284 979 1303 933 1271 983
1310,1280 939 1309 934 1274 944
1331,1316 950 1330 943 1305 953
1311,1281 949 1309 934 1275 954
1300,1282 959 1297 932 1262 962
1333,1318 970 1330 943 1307 973
1334,1319 980 1330 943 1308 983
1312,1282 959 1309 934 1276 964
1332,1317 960 1330 943 1306 963
1313,1283 969 1309 934 1277 974
1348,1340 951 1331 953
1301,1283 969 1297 932 1263 972
1314,1284 979 1309 934 1278 984
1324,1319 980 1320 941 1296 981
1335,1315 940 1310 944
1302,1284 979 1297 932 1264 982
1325,1315 940 1298 942
1349,1341 961 1348 953 1332 963
1343,1340 951 1324 981
1350,1342 971 1348 953 1333 973
1336,1316 950 1335 944 1311 954
1337,1317 960 1335 944 1312 964
1326,1316 950 1325 942 1299 952
1338,1318 970 1335 944 1313 974
1351,1343 981 1348 953 1334 983
1327,1317 960 1325 942 1300 962
1339,1319 980 1335 944 1314 984
1328,1318 970 1325 942 1301 972
1352,1340 951 1336 954
1329,1319 980 1325 942 1302 982
1344,1340 951 1326 952
1355,1343 981 1352 954 1339 984
1354,1342 971 1352 954 1338 974
1353,1341 961 1352 954 1337 964
1345,1341 961 1344 952 1327 962
1346,1342 971 1344 952 1328 972
1347,1343 981 1344 952 1329 982
1356,1345 962
1357,1356 962 1346 972
1358,1356 962 1347 982
1359,1356 962 1349 963
1362,1356 962 1353 964
1363,1357 972 1362 964 1354 974
1360,1357 972 1359 963 1350 973
1364,1358 982 1362 964 1355 984
1361,1358 982 1359 963 1351 983
1365,1360 973
1366,1365 973 1361 983
1367,1365 973 1363 974
1368,1366 983 1367 974 1364 984
1369,1368 984
1371,985
1370,1371
1373,986
1372,1373
1375,987
1374,1375
1377,988
1376,1377
1379,989
1378,1379
1381,990
1380,1381
1383,991
1382,1383
1385,992
1384,1385
1387,993
1386,1387
1389,994
1388,1389
1391,995
1390,1391
1393,1085
1392,1393
1395,1086
1394,1395
1397,1087
1396,1397
1399,1088
1398,1399
1401,1089
1400,1401
1403,1090
1402,1403
1405,1091
1404,1405
1407,1092
1406,1407
1409,1093
1408,1409
1411,1005
1410,1411
1413,1094
1412,1413
1415,1166
1414,1415
1417,1167
1416,1417
1419,1168
1418,1419
1421,1169
1420,1421
1423,1170
1422,1423
1425,1171
1424,1425
1427,1172
1426,1427
1429,1173
1428,1429
1431,1015
1430,1431
1433,1103
1432,1433
1435,1174
1434,1435
1437,1230
1436,1437
1439,1231
1438,1439
1441,1232
1440,1441
1443,1233
1442,1443
1445,1234
1444,1445
1447,1235
1446,1447
1449,1236
1448,1449
1451,1025
1450,1451
1453,1112
1452,1453
1455,1182
1454,1455
1457,1237
1456,1457
1459,1279
1458,1459
1461,1280
1460,1461
1463,1281
1462,1463
1465,1282
1464,1465
1467,1283
1466,1467
1469,1284
1468,1469
1471,1035
1470,1471
1473,1121
1472,1473
1475,1190
1474,1475
1477,1244
1476,1477
1479,1285
1478,1479
1481,1315
1480,1481
1483,1316
1482,1483
1485,1317
1484,1485
1487,1318
1486,1487
1489,1319
1488,1489
1491,1045
1490,1491
1493,1130
1492,1493
1495,1198
1494,1495
1497,1251
1496,1497
1499,1291
1498,1499
1501,1320
1500,1501
1503,1340
1502,1503
1505,1341
1504,1505
1507,1342
1506,1507
1509,1343
1508,1509
1511,1055
1510,1511
1513,1139
1512,1513
1515,1206
1514,1515
1517,1258
1516,1517
1519,1297
1518,1519
1521,1325
1520,1521
1523,1344
1522,1523
1525,1356
1524,1525
1527,1357
1526,1527
1529,1358
1528,1529
1531,1065
1530,1531
1533,1148
1532,1533
1535,1214
1534,1535
1537,1265
1536,1537
1539,1303
1538,1539
1541,1330
1540,1541
1543,1348
1542,1543
1545,1359
1544,1545
1547,1365
1546,1547
1549,1366
1548,1549
1551,1075
1550,1551
1553,1157
1552,1553
1555,1222
1554,1555
1557,1272
1556,1557
1559,1309
1558,1559
1561,1335
1560,1561
1563,1352
1562,1563
1565,1362
1564,1565
1567,1367
1566,1567
1569,1369
1568,1569
