digraph dag {
	0 -> 1;
	0 -> 2;
	0 -> 3;
	0 -> 4;
	0 -> 5;
	0 -> 6;
	0 -> 7;
	0 -> 8;
	0 -> 9;
	0 -> 10;
	0 -> 11;
	0 -> 12;
	0 -> 13;
	0 -> 14;
	0 -> 15;
	0 -> 16;
	0 -> 17;
	0 -> 18;
	0 -> 19;
	0 -> 20;
	0 -> 21;
	0 -> 22;
	0 -> 23;
	0 -> 24;
	0 -> 25;
	0 -> 26;
	0 -> 27;
	0 -> 28;
	0 -> 29;
	0 -> 30;
	0 -> 31;
	0 -> 32;
	0 -> 33;
	0 -> 34;
	0 -> 35;
	0 -> 36;
	0 -> 37;
	0 -> 38;
	0 -> 39;
	0 -> 40;
	0 -> 41;
	0 -> 42;
	0 -> 43;
	0 -> 44;
	0 -> 45;
	0 -> 46;
	0 -> 47;
	0 -> 48;
	0 -> 49;
	0 -> 50;
	0 -> 51;
	0 -> 52;
	0 -> 53;
	0 -> 54;
	0 -> 55;
	0 -> 56;
	0 -> 57;
	0 -> 58;
	0 -> 59;
	0 -> 60;
	0 -> 61;
	0 -> 62;
	0 -> 63;
	0 -> 64;
	0 -> 65;
	0 -> 66;
	0 -> 67;
	0 -> 68;
	0 -> 69;
	0 -> 70;
	0 -> 71;
	0 -> 72;
	0 -> 73;
	0 -> 74;
	0 -> 75;
	0 -> 76;
	0 -> 77;
	0 -> 78;
	0 -> 79;
	0 -> 80;
	0 -> 81;
	0 -> 82;
	0 -> 83;
	0 -> 84;
	0 -> 85;
	0 -> 86;
	0 -> 87;
	0 -> 88;
	0 -> 89;
	0 -> 90;
	0 -> 91;
	0 -> 92;
	0 -> 93;
	0 -> 94;
	0 -> 95;
	0 -> 96;
	0 -> 97;
	0 -> 98;
	0 -> 99;
	0 -> 100;
	0 -> 101;
	0 -> 102;
	0 -> 103;
	0 -> 104;
	0 -> 105;
	0 -> 106;
	0 -> 107;
	0 -> 108;
	0 -> 109;
	0 -> 110;
	0 -> 111;
	0 -> 112;
	0 -> 113;
	0 -> 114;
	0 -> 115;
	0 -> 116;
	0 -> 117;
	0 -> 118;
	0 -> 119;
	0 -> 120;
	0 -> 121;
	0 -> 122;
	0 -> 123;
	0 -> 124;
	0 -> 125;
	0 -> 126;
	0 -> 127;
	0 -> 128;
	0 -> 129;
	0 -> 130;
	0 -> 131;
	0 -> 132;
	0 -> 133;
	0 -> 134;
	0 -> 135;
	0 -> 136;
	0 -> 137;
	0 -> 138;
	0 -> 139;
	0 -> 140;
	0 -> 141;
	0 -> 142;
	0 -> 143;
	0 -> 144;
	0 -> 145;
	0 -> 146;
	0 -> 147;
	0 -> 148;
	0 -> 149;
	0 -> 150;
	0 -> 151;
	0 -> 152;
	0 -> 153;
	0 -> 154;
	0 -> 155;
	0 -> 156;
	0 -> 157;
	0 -> 158;
	0 -> 159;
	0 -> 160;
	0 -> 161;
	0 -> 162;
	0 -> 163;
	0 -> 164;
	0 -> 165;
	0 -> 166;
	0 -> 167;
	0 -> 168;
	0 -> 169;
	0 -> 170;
	0 -> 171;
	0 -> 172;
	0 -> 173;
	0 -> 174;
	0 -> 175;
	0 -> 176;
	0 -> 177;
	0 -> 178;
	0 -> 179;
	0 -> 180;
	0 -> 181;
	0 -> 182;
	0 -> 183;
	0 -> 184;
	0 -> 185;
	0 -> 186;
	0 -> 187;
	0 -> 188;
	0 -> 189;
	0 -> 190;
	0 -> 191;
	0 -> 192;
	0 -> 193;
	0 -> 194;
	0 -> 195;
	0 -> 196;
	0 -> 197;
	0 -> 198;
	0 -> 199;
	0 -> 200;
	0 -> 201;
	0 -> 202;
	0 -> 203;
	0 -> 204;
	0 -> 205;
	0 -> 206;
	0 -> 207;
	0 -> 208;
	0 -> 209;
	0 -> 210;
	0 -> 211;
	0 -> 212;
	0 -> 213;
	0 -> 214;
	0 -> 215;
	0 -> 216;
	0 -> 217;
	0 -> 218;
	0 -> 219;
	0 -> 220;
	0 -> 221;
	0 -> 222;
	0 -> 223;
	0 -> 224;
	0 -> 225;
	0 -> 226;
	0 -> 227;
	0 -> 228;
	0 -> 229;
	0 -> 230;
	0 -> 231;
	0 -> 232;
	0 -> 233;
	0 -> 234;
	0 -> 235;
	0 -> 236;
	0 -> 237;
	0 -> 238;
	0 -> 239;
	0 -> 240;
	0 -> 241;
	0 -> 242;
	0 -> 243;
	0 -> 244;
	0 -> 245;
	0 -> 246;
	0 -> 247;
	0 -> 248;
	0 -> 249;
	0 -> 250;
	0 -> 251;
	0 -> 252;
	0 -> 253;
	0 -> 254;
	0 -> 255;
	0 -> 256;
	0 -> 257;
	0 -> 258;
	0 -> 259;
	0 -> 260;
	0 -> 261;
	0 -> 262;
	0 -> 263;
	0 -> 264;
	0 -> 265;
	0 -> 266;
	0 -> 267;
	0 -> 268;
	0 -> 269;
	0 -> 270;
	0 -> 271;
	0 -> 272;
	0 -> 273;
	0 -> 274;
	0 -> 275;
	0 -> 276;
	0 -> 277;
	0 -> 278;
	0 -> 279;
	0 -> 280;
	0 -> 281;
	0 -> 282;
	0 -> 283;
	0 -> 284;
	0 -> 285;
	0 -> 286;
	0 -> 287;
	0 -> 288;
	0 -> 289;
	0 -> 290;
	0 -> 291;
	0 -> 292;
	0 -> 293;
	0 -> 294;
	0 -> 295;
	0 -> 296;
	0 -> 297;
	0 -> 298;
	0 -> 299;
	0 -> 300;
	0 -> 301;
	0 -> 302;
	0 -> 303;
	0 -> 304;
	0 -> 305;
	0 -> 306;
	0 -> 307;
	0 -> 308;
	0 -> 309;
	0 -> 310;
	0 -> 311;
	0 -> 312;
	0 -> 313;
	0 -> 314;
	0 -> 315;
	0 -> 316;
	0 -> 317;
	0 -> 318;
	0 -> 319;
	0 -> 320;
	0 -> 321;
	0 -> 322;
	0 -> 323;
	0 -> 324;
	0 -> 325;
	0 -> 326;
	0 -> 327;
	0 -> 328;
	0 -> 329;
	0 -> 330;
	0 -> 331;
	0 -> 332;
	0 -> 333;
	0 -> 334;
	0 -> 335;
	0 -> 336;
	0 -> 337;
	0 -> 338;
	0 -> 339;
	0 -> 340;
	0 -> 341;
	0 -> 342;
	0 -> 343;
	0 -> 344;
	0 -> 345;
	0 -> 346;
	0 -> 347;
	0 -> 348;
	0 -> 349;
	0 -> 350;
	0 -> 351;
	0 -> 352;
	0 -> 353;
	0 -> 354;
	0 -> 355;
	0 -> 356;
	0 -> 357;
	0 -> 358;
	0 -> 359;
	0 -> 360;
	0 -> 361;
	0 -> 362;
	0 -> 363;
	0 -> 364;
	0 -> 365;
	0 -> 366;
	0 -> 367;
	0 -> 368;
	0 -> 369;
	0 -> 370;
	0 -> 371;
	0 -> 372;
	0 -> 373;
	0 -> 374;
	0 -> 375;
	0 -> 376;
	0 -> 377;
	0 -> 378;
	0 -> 379;
	0 -> 380;
	0 -> 381;
	0 -> 382;
	0 -> 383;
	0 -> 384;
	0 -> 385;
	0 -> 386;
	0 -> 387;
	0 -> 388;
	0 -> 389;
	0 -> 390;
	0 -> 391;
	0 -> 392;
	0 -> 393;
	0 -> 394;
	0 -> 395;
	0 -> 396;
	0 -> 397;
	0 -> 398;
	0 -> 399;
	0 -> 400;
	0 -> 401;
	0 -> 402;
	0 -> 403;
	0 -> 404;
	0 -> 405;
	0 -> 406;
	0 -> 407;
	0 -> 408;
	0 -> 409;
	0 -> 410;
	0 -> 411;
	0 -> 412;
	0 -> 413;
	0 -> 414;
	0 -> 415;
	0 -> 416;
	0 -> 417;
	0 -> 418;
	0 -> 419;
	0 -> 420;
	0 -> 421;
	0 -> 422;
	0 -> 423;
	0 -> 424;
	0 -> 425;
	0 -> 426;
	0 -> 427;
	0 -> 428;
	0 -> 429;
	0 -> 430;
	0 -> 431;
	0 -> 432;
	0 -> 433;
	0 -> 434;
	0 -> 435;
	0 -> 436;
	0 -> 437;
	0 -> 438;
	0 -> 439;
	0 -> 440;
	0 -> 441;
	0 -> 442;
	0 -> 443;
	0 -> 444;
	0 -> 445;
	0 -> 446;
	0 -> 447;
	0 -> 448;
	0 -> 449;
	0 -> 450;
	0 -> 451;
	0 -> 452;
	0 -> 453;
	0 -> 454;
	0 -> 455;
	0 -> 456;
	0 -> 457;
	0 -> 458;
	0 -> 459;
	0 -> 460;
	0 -> 461;
	0 -> 462;
	0 -> 463;
	0 -> 464;
	0 -> 465;
	0 -> 466;
	0 -> 467;
	0 -> 468;
	0 -> 469;
	0 -> 470;
	0 -> 471;
	0 -> 472;
	0 -> 473;
	0 -> 474;
	0 -> 475;
	0 -> 476;
	0 -> 477;
	0 -> 478;
	0 -> 479;
	0 -> 480;
	0 -> 481;
	0 -> 482;
	0 -> 483;
	0 -> 484;
	0 -> 485;
	0 -> 486;
	0 -> 487;
	0 -> 488;
	0 -> 489;
	0 -> 490;
	0 -> 491;
	0 -> 492;
	0 -> 493;
	0 -> 494;
	0 -> 495;
	0 -> 496;
	0 -> 497;
	0 -> 498;
	0 -> 499;
	0 -> 500;
	1 -> 501;
	2 -> 501;
	3 -> 501;
	4 -> 501;
	5 -> 501;
	6 -> 501;
	7 -> 501;
	8 -> 501;
	9 -> 501;
	10 -> 501;
	11 -> 501;
	12 -> 501;
	13 -> 501;
	14 -> 501;
	15 -> 501;
	16 -> 501;
	17 -> 501;
	18 -> 501;
	19 -> 501;
	20 -> 501;
	21 -> 501;
	22 -> 501;
	23 -> 501;
	24 -> 501;
	25 -> 501;
	26 -> 501;
	27 -> 501;
	28 -> 501;
	29 -> 501;
	30 -> 501;
	31 -> 501;
	32 -> 501;
	33 -> 501;
	34 -> 501;
	35 -> 501;
	36 -> 501;
	37 -> 501;
	38 -> 501;
	39 -> 501;
	40 -> 501;
	41 -> 501;
	42 -> 501;
	43 -> 501;
	44 -> 501;
	45 -> 501;
	46 -> 501;
	47 -> 501;
	48 -> 501;
	49 -> 501;
	50 -> 501;
	51 -> 501;
	52 -> 501;
	53 -> 501;
	54 -> 501;
	55 -> 501;
	56 -> 501;
	57 -> 501;
	58 -> 501;
	59 -> 501;
	60 -> 501;
	61 -> 501;
	62 -> 501;
	63 -> 501;
	64 -> 501;
	65 -> 501;
	66 -> 501;
	67 -> 501;
	68 -> 501;
	69 -> 501;
	70 -> 501;
	71 -> 501;
	72 -> 501;
	73 -> 501;
	74 -> 501;
	75 -> 501;
	76 -> 501;
	77 -> 501;
	78 -> 501;
	79 -> 501;
	80 -> 501;
	81 -> 501;
	82 -> 501;
	83 -> 501;
	84 -> 501;
	85 -> 501;
	86 -> 501;
	87 -> 501;
	88 -> 501;
	89 -> 501;
	90 -> 501;
	91 -> 501;
	92 -> 501;
	93 -> 501;
	94 -> 501;
	95 -> 501;
	96 -> 501;
	97 -> 501;
	98 -> 501;
	99 -> 501;
	100 -> 501;
	101 -> 501;
	102 -> 501;
	103 -> 501;
	104 -> 501;
	105 -> 501;
	106 -> 501;
	107 -> 501;
	108 -> 501;
	109 -> 501;
	110 -> 501;
	111 -> 501;
	112 -> 501;
	113 -> 501;
	114 -> 501;
	115 -> 501;
	116 -> 501;
	117 -> 501;
	118 -> 501;
	119 -> 501;
	120 -> 501;
	121 -> 501;
	122 -> 501;
	123 -> 501;
	124 -> 501;
	125 -> 501;
	126 -> 501;
	127 -> 501;
	128 -> 501;
	129 -> 501;
	130 -> 501;
	131 -> 501;
	132 -> 501;
	133 -> 501;
	134 -> 501;
	135 -> 501;
	136 -> 501;
	137 -> 501;
	138 -> 501;
	139 -> 501;
	140 -> 501;
	141 -> 501;
	142 -> 501;
	143 -> 501;
	144 -> 501;
	145 -> 501;
	146 -> 501;
	147 -> 501;
	148 -> 501;
	149 -> 501;
	150 -> 501;
	151 -> 501;
	152 -> 501;
	153 -> 501;
	154 -> 501;
	155 -> 501;
	156 -> 501;
	157 -> 501;
	158 -> 501;
	159 -> 501;
	160 -> 501;
	161 -> 501;
	162 -> 501;
	163 -> 501;
	164 -> 501;
	165 -> 501;
	166 -> 501;
	167 -> 501;
	168 -> 501;
	169 -> 501;
	170 -> 501;
	171 -> 501;
	172 -> 501;
	173 -> 501;
	174 -> 501;
	175 -> 501;
	176 -> 501;
	177 -> 501;
	178 -> 501;
	179 -> 501;
	180 -> 501;
	181 -> 501;
	182 -> 501;
	183 -> 501;
	184 -> 501;
	185 -> 501;
	186 -> 501;
	187 -> 501;
	188 -> 501;
	189 -> 501;
	190 -> 501;
	191 -> 501;
	192 -> 501;
	193 -> 501;
	194 -> 501;
	195 -> 501;
	196 -> 501;
	197 -> 501;
	198 -> 501;
	199 -> 501;
	200 -> 501;
	201 -> 501;
	202 -> 501;
	203 -> 501;
	204 -> 501;
	205 -> 501;
	206 -> 501;
	207 -> 501;
	208 -> 501;
	209 -> 501;
	210 -> 501;
	211 -> 501;
	212 -> 501;
	213 -> 501;
	214 -> 501;
	215 -> 501;
	216 -> 501;
	217 -> 501;
	218 -> 501;
	219 -> 501;
	220 -> 501;
	221 -> 501;
	222 -> 501;
	223 -> 501;
	224 -> 501;
	225 -> 501;
	226 -> 501;
	227 -> 501;
	228 -> 501;
	229 -> 501;
	230 -> 501;
	231 -> 501;
	232 -> 501;
	233 -> 501;
	234 -> 501;
	235 -> 501;
	236 -> 501;
	237 -> 501;
	238 -> 501;
	239 -> 501;
	240 -> 501;
	241 -> 501;
	242 -> 501;
	243 -> 501;
	244 -> 501;
	245 -> 501;
	246 -> 501;
	247 -> 501;
	248 -> 501;
	249 -> 501;
	250 -> 501;
	251 -> 501;
	252 -> 501;
	253 -> 501;
	254 -> 501;
	255 -> 501;
	256 -> 501;
	257 -> 501;
	258 -> 501;
	259 -> 501;
	260 -> 501;
	261 -> 501;
	262 -> 501;
	263 -> 501;
	264 -> 501;
	265 -> 501;
	266 -> 501;
	267 -> 501;
	268 -> 501;
	269 -> 501;
	270 -> 501;
	271 -> 501;
	272 -> 501;
	273 -> 501;
	274 -> 501;
	275 -> 501;
	276 -> 501;
	277 -> 501;
	278 -> 501;
	279 -> 501;
	280 -> 501;
	281 -> 501;
	282 -> 501;
	283 -> 501;
	284 -> 501;
	285 -> 501;
	286 -> 501;
	287 -> 501;
	288 -> 501;
	289 -> 501;
	290 -> 501;
	291 -> 501;
	292 -> 501;
	293 -> 501;
	294 -> 501;
	295 -> 501;
	296 -> 501;
	297 -> 501;
	298 -> 501;
	299 -> 501;
	300 -> 501;
	301 -> 501;
	302 -> 501;
	303 -> 501;
	304 -> 501;
	305 -> 501;
	306 -> 501;
	307 -> 501;
	308 -> 501;
	309 -> 501;
	310 -> 501;
	311 -> 501;
	312 -> 501;
	313 -> 501;
	314 -> 501;
	315 -> 501;
	316 -> 501;
	317 -> 501;
	318 -> 501;
	319 -> 501;
	320 -> 501;
	321 -> 501;
	322 -> 501;
	323 -> 501;
	324 -> 501;
	325 -> 501;
	326 -> 501;
	327 -> 501;
	328 -> 501;
	329 -> 501;
	330 -> 501;
	331 -> 501;
	332 -> 501;
	333 -> 501;
	334 -> 501;
	335 -> 501;
	336 -> 501;
	337 -> 501;
	338 -> 501;
	339 -> 501;
	340 -> 501;
	341 -> 501;
	342 -> 501;
	343 -> 501;
	344 -> 501;
	345 -> 501;
	346 -> 501;
	347 -> 501;
	348 -> 501;
	349 -> 501;
	350 -> 501;
	351 -> 501;
	352 -> 501;
	353 -> 501;
	354 -> 501;
	355 -> 501;
	356 -> 501;
	357 -> 501;
	358 -> 501;
	359 -> 501;
	360 -> 501;
	361 -> 501;
	362 -> 501;
	363 -> 501;
	364 -> 501;
	365 -> 501;
	366 -> 501;
	367 -> 501;
	368 -> 501;
	369 -> 501;
	370 -> 501;
	371 -> 501;
	372 -> 501;
	373 -> 501;
	374 -> 501;
	375 -> 501;
	376 -> 501;
	377 -> 501;
	378 -> 501;
	379 -> 501;
	380 -> 501;
	381 -> 501;
	382 -> 501;
	383 -> 501;
	384 -> 501;
	385 -> 501;
	386 -> 501;
	387 -> 501;
	388 -> 501;
	389 -> 501;
	390 -> 501;
	391 -> 501;
	392 -> 501;
	393 -> 501;
	394 -> 501;
	395 -> 501;
	396 -> 501;
	397 -> 501;
	398 -> 501;
	399 -> 501;
	400 -> 501;
	401 -> 501;
	402 -> 501;
	403 -> 501;
	404 -> 501;
	405 -> 501;
	406 -> 501;
	407 -> 501;
	408 -> 501;
	409 -> 501;
	410 -> 501;
	411 -> 501;
	412 -> 501;
	413 -> 501;
	414 -> 501;
	415 -> 501;
	416 -> 501;
	417 -> 501;
	418 -> 501;
	419 -> 501;
	420 -> 501;
	421 -> 501;
	422 -> 501;
	423 -> 501;
	424 -> 501;
	425 -> 501;
	426 -> 501;
	427 -> 501;
	428 -> 501;
	429 -> 501;
	430 -> 501;
	431 -> 501;
	432 -> 501;
	433 -> 501;
	434 -> 501;
	435 -> 501;
	436 -> 501;
	437 -> 501;
	438 -> 501;
	439 -> 501;
	440 -> 501;
	441 -> 501;
	442 -> 501;
	443 -> 501;
	444 -> 501;
	445 -> 501;
	446 -> 501;
	447 -> 501;
	448 -> 501;
	449 -> 501;
	450 -> 501;
	451 -> 501;
	452 -> 501;
	453 -> 501;
	454 -> 501;
	455 -> 501;
	456 -> 501;
	457 -> 501;
	458 -> 501;
	459 -> 501;
	460 -> 501;
	461 -> 501;
	462 -> 501;
	463 -> 501;
	464 -> 501;
	465 -> 501;
	466 -> 501;
	467 -> 501;
	468 -> 501;
	469 -> 501;
	470 -> 501;
	471 -> 501;
	472 -> 501;
	473 -> 501;
	474 -> 501;
	475 -> 501;
	476 -> 501;
	477 -> 501;
	478 -> 501;
	479 -> 501;
	480 -> 501;
	481 -> 501;
	482 -> 501;
	483 -> 501;
	484 -> 501;
	485 -> 501;
	486 -> 501;
	487 -> 501;
	488 -> 501;
	489 -> 501;
	490 -> 501;
	491 -> 501;
	492 -> 501;
	493 -> 501;
	494 -> 501;
	495 -> 501;
	496 -> 501;
	497 -> 501;
	498 -> 501;
	499 -> 501;
	500 -> 501;
	501 -> 502;
	501 -> 503;
	501 -> 504;
	501 -> 505;
	501 -> 506;
	501 -> 507;
	501 -> 508;
	501 -> 509;
	501 -> 510;
	501 -> 511;
	501 -> 512;
	501 -> 513;
	501 -> 514;
	501 -> 515;
	501 -> 516;
	501 -> 517;
	501 -> 518;
	501 -> 519;
	501 -> 520;
	501 -> 521;
	501 -> 522;
	501 -> 523;
	501 -> 524;
	501 -> 525;
	501 -> 526;
	501 -> 527;
	501 -> 528;
	501 -> 529;
	501 -> 530;
	501 -> 531;
	501 -> 532;
	501 -> 533;
	501 -> 534;
	501 -> 535;
	501 -> 536;
	501 -> 537;
	501 -> 538;
	501 -> 539;
	501 -> 540;
	501 -> 541;
	501 -> 542;
	501 -> 543;
	501 -> 544;
	501 -> 545;
	501 -> 546;
	501 -> 547;
	501 -> 548;
	501 -> 549;
	501 -> 550;
	501 -> 551;
	501 -> 552;
	501 -> 553;
	501 -> 554;
	501 -> 555;
	501 -> 556;
	501 -> 557;
	501 -> 558;
	501 -> 559;
	501 -> 560;
	501 -> 561;
	501 -> 562;
	501 -> 563;
	501 -> 564;
	501 -> 565;
	501 -> 566;
	501 -> 567;
	501 -> 568;
	501 -> 569;
	501 -> 570;
	501 -> 571;
	501 -> 572;
	501 -> 573;
	501 -> 574;
	501 -> 575;
	501 -> 576;
	501 -> 577;
	501 -> 578;
	501 -> 579;
	501 -> 580;
	501 -> 581;
	501 -> 582;
	501 -> 583;
	501 -> 584;
	501 -> 585;
	501 -> 586;
	501 -> 587;
	501 -> 588;
	501 -> 589;
	501 -> 590;
	501 -> 591;
	501 -> 592;
	501 -> 593;
	501 -> 594;
	501 -> 595;
	501 -> 596;
	501 -> 597;
	501 -> 598;
	501 -> 599;
	501 -> 600;
	501 -> 601;
	501 -> 602;
	501 -> 603;
	501 -> 604;
	501 -> 605;
	501 -> 606;
	501 -> 607;
	501 -> 608;
	501 -> 609;
	501 -> 610;
	501 -> 611;
	501 -> 612;
	501 -> 613;
	501 -> 614;
	501 -> 615;
	501 -> 616;
	501 -> 617;
	501 -> 618;
	501 -> 619;
	501 -> 620;
	501 -> 621;
	501 -> 622;
	501 -> 623;
	501 -> 624;
	501 -> 625;
	501 -> 626;
	501 -> 627;
	501 -> 628;
	501 -> 629;
	501 -> 630;
	501 -> 631;
	501 -> 632;
	501 -> 633;
	501 -> 634;
	501 -> 635;
	501 -> 636;
	501 -> 637;
	501 -> 638;
	501 -> 639;
	501 -> 640;
	501 -> 641;
	501 -> 642;
	501 -> 643;
	501 -> 644;
	501 -> 645;
	501 -> 646;
	501 -> 647;
	501 -> 648;
	501 -> 649;
	501 -> 650;
	501 -> 651;
	501 -> 652;
	501 -> 653;
	501 -> 654;
	501 -> 655;
	501 -> 656;
	501 -> 657;
	501 -> 658;
	501 -> 659;
	501 -> 660;
	501 -> 661;
	501 -> 662;
	501 -> 663;
	501 -> 664;
	501 -> 665;
	501 -> 666;
	501 -> 667;
	501 -> 668;
	501 -> 669;
	501 -> 670;
	501 -> 671;
	501 -> 672;
	501 -> 673;
	501 -> 674;
	501 -> 675;
	501 -> 676;
	501 -> 677;
	501 -> 678;
	501 -> 679;
	501 -> 680;
	501 -> 681;
	501 -> 682;
	501 -> 683;
	501 -> 684;
	501 -> 685;
	501 -> 686;
	501 -> 687;
	501 -> 688;
	501 -> 689;
	501 -> 690;
	501 -> 691;
	501 -> 692;
	501 -> 693;
	501 -> 694;
	501 -> 695;
	501 -> 696;
	501 -> 697;
	501 -> 698;
	501 -> 699;
	501 -> 700;
	501 -> 701;
	501 -> 702;
	501 -> 703;
	501 -> 704;
	501 -> 705;
	501 -> 706;
	501 -> 707;
	501 -> 708;
	501 -> 709;
	501 -> 710;
	501 -> 711;
	501 -> 712;
	501 -> 713;
	501 -> 714;
	501 -> 715;
	501 -> 716;
	501 -> 717;
	501 -> 718;
	501 -> 719;
	501 -> 720;
	501 -> 721;
	501 -> 722;
	501 -> 723;
	501 -> 724;
	501 -> 725;
	501 -> 726;
	501 -> 727;
	501 -> 728;
	501 -> 729;
	501 -> 730;
	501 -> 731;
	501 -> 732;
	501 -> 733;
	501 -> 734;
	501 -> 735;
	501 -> 736;
	501 -> 737;
	501 -> 738;
	501 -> 739;
	501 -> 740;
	501 -> 741;
	501 -> 742;
	501 -> 743;
	501 -> 744;
	501 -> 745;
	501 -> 746;
	501 -> 747;
	501 -> 748;
	501 -> 749;
	501 -> 750;
	501 -> 751;
	501 -> 752;
	501 -> 753;
	501 -> 754;
	501 -> 755;
	501 -> 756;
	501 -> 757;
	501 -> 758;
	501 -> 759;
	501 -> 760;
	501 -> 761;
	501 -> 762;
	501 -> 763;
	501 -> 764;
	501 -> 765;
	501 -> 766;
	501 -> 767;
	501 -> 768;
	501 -> 769;
	501 -> 770;
	501 -> 771;
	501 -> 772;
	501 -> 773;
	501 -> 774;
	501 -> 775;
	501 -> 776;
	501 -> 777;
	501 -> 778;
	501 -> 779;
	501 -> 780;
	501 -> 781;
	501 -> 782;
	501 -> 783;
	501 -> 784;
	501 -> 785;
	501 -> 786;
	501 -> 787;
	501 -> 788;
	501 -> 789;
	501 -> 790;
	501 -> 791;
	501 -> 792;
	501 -> 793;
	501 -> 794;
	501 -> 795;
	501 -> 796;
	501 -> 797;
	501 -> 798;
	501 -> 799;
	501 -> 800;
	501 -> 801;
	501 -> 802;
	501 -> 803;
	501 -> 804;
	501 -> 805;
	501 -> 806;
	501 -> 807;
	501 -> 808;
	501 -> 809;
	501 -> 810;
	501 -> 811;
	501 -> 812;
	501 -> 813;
	501 -> 814;
	501 -> 815;
	501 -> 816;
	501 -> 817;
	501 -> 818;
	501 -> 819;
	501 -> 820;
	501 -> 821;
	501 -> 822;
	501 -> 823;
	501 -> 824;
	501 -> 825;
	501 -> 826;
	501 -> 827;
	501 -> 828;
	501 -> 829;
	501 -> 830;
	501 -> 831;
	501 -> 832;
	501 -> 833;
	501 -> 834;
	501 -> 835;
	501 -> 836;
	501 -> 837;
	501 -> 838;
	501 -> 839;
	501 -> 840;
	501 -> 841;
	501 -> 842;
	501 -> 843;
	501 -> 844;
	501 -> 845;
	501 -> 846;
	501 -> 847;
	501 -> 848;
	501 -> 849;
	501 -> 850;
	501 -> 851;
	501 -> 852;
	501 -> 853;
	501 -> 854;
	501 -> 855;
	501 -> 856;
	501 -> 857;
	501 -> 858;
	501 -> 859;
	501 -> 860;
	501 -> 861;
	501 -> 862;
	501 -> 863;
	501 -> 864;
	501 -> 865;
	501 -> 866;
	501 -> 867;
	501 -> 868;
	501 -> 869;
	501 -> 870;
	501 -> 871;
	501 -> 872;
	501 -> 873;
	501 -> 874;
	501 -> 875;
	501 -> 876;
	501 -> 877;
	501 -> 878;
	501 -> 879;
	501 -> 880;
	501 -> 881;
	501 -> 882;
	501 -> 883;
	501 -> 884;
	501 -> 885;
	501 -> 886;
	501 -> 887;
	501 -> 888;
	501 -> 889;
	501 -> 890;
	501 -> 891;
	501 -> 892;
	501 -> 893;
	501 -> 894;
	501 -> 895;
	501 -> 896;
	501 -> 897;
	501 -> 898;
	501 -> 899;
	501 -> 900;
	501 -> 901;
	501 -> 902;
	501 -> 903;
	501 -> 904;
	501 -> 905;
	501 -> 906;
	501 -> 907;
	501 -> 908;
	501 -> 909;
	501 -> 910;
	501 -> 911;
	501 -> 912;
	501 -> 913;
	501 -> 914;
	501 -> 915;
	501 -> 916;
	501 -> 917;
	501 -> 918;
	501 -> 919;
	501 -> 920;
	501 -> 921;
	501 -> 922;
	501 -> 923;
	501 -> 924;
	501 -> 925;
	501 -> 926;
	501 -> 927;
	501 -> 928;
	501 -> 929;
	501 -> 930;
	501 -> 931;
	501 -> 932;
	501 -> 933;
	501 -> 934;
	501 -> 935;
	501 -> 936;
	501 -> 937;
	501 -> 938;
	501 -> 939;
	501 -> 940;
	501 -> 941;
	501 -> 942;
	501 -> 943;
	501 -> 944;
	501 -> 945;
	501 -> 946;
	501 -> 947;
	501 -> 948;
	501 -> 949;
	501 -> 950;
	501 -> 951;
	501 -> 952;
	501 -> 953;
	501 -> 954;
	501 -> 955;
	501 -> 956;
	501 -> 957;
	501 -> 958;
	501 -> 959;
	501 -> 960;
	501 -> 961;
	501 -> 962;
	501 -> 963;
	501 -> 964;
	501 -> 965;
	501 -> 966;
	501 -> 967;
	501 -> 968;
	501 -> 969;
	501 -> 970;
	501 -> 971;
	501 -> 972;
	501 -> 973;
	501 -> 974;
	501 -> 975;
	501 -> 976;
	501 -> 977;
	501 -> 978;
	501 -> 979;
	501 -> 980;
	501 -> 981;
	501 -> 982;
	501 -> 983;
	501 -> 984;
	501 -> 985;
	501 -> 986;
	501 -> 987;
	501 -> 988;
	501 -> 989;
	501 -> 990;
	501 -> 991;
	501 -> 992;
	501 -> 993;
	501 -> 994;
	501 -> 995;
	501 -> 996;
	501 -> 997;
	501 -> 998;
	501 -> 999;
	501 -> 1000;
	501 -> 1001;
	502 -> 1002;
	503 -> 1002;
	504 -> 1002;
	505 -> 1002;
	506 -> 1002;
	507 -> 1002;
	508 -> 1002;
	509 -> 1002;
	510 -> 1002;
	511 -> 1002;
	512 -> 1002;
	513 -> 1002;
	514 -> 1002;
	515 -> 1002;
	516 -> 1002;
	517 -> 1002;
	518 -> 1002;
	519 -> 1002;
	520 -> 1002;
	521 -> 1002;
	522 -> 1002;
	523 -> 1002;
	524 -> 1002;
	525 -> 1002;
	526 -> 1002;
	527 -> 1002;
	528 -> 1002;
	529 -> 1002;
	530 -> 1002;
	531 -> 1002;
	532 -> 1002;
	533 -> 1002;
	534 -> 1002;
	535 -> 1002;
	536 -> 1002;
	537 -> 1002;
	538 -> 1002;
	539 -> 1002;
	540 -> 1002;
	541 -> 1002;
	542 -> 1002;
	543 -> 1002;
	544 -> 1002;
	545 -> 1002;
	546 -> 1002;
	547 -> 1002;
	548 -> 1002;
	549 -> 1002;
	550 -> 1002;
	551 -> 1002;
	552 -> 1002;
	553 -> 1002;
	554 -> 1002;
	555 -> 1002;
	556 -> 1002;
	557 -> 1002;
	558 -> 1002;
	559 -> 1002;
	560 -> 1002;
	561 -> 1002;
	562 -> 1002;
	563 -> 1002;
	564 -> 1002;
	565 -> 1002;
	566 -> 1002;
	567 -> 1002;
	568 -> 1002;
	569 -> 1002;
	570 -> 1002;
	571 -> 1002;
	572 -> 1002;
	573 -> 1002;
	574 -> 1002;
	575 -> 1002;
	576 -> 1002;
	577 -> 1002;
	578 -> 1002;
	579 -> 1002;
	580 -> 1002;
	581 -> 1002;
	582 -> 1002;
	583 -> 1002;
	584 -> 1002;
	585 -> 1002;
	586 -> 1002;
	587 -> 1002;
	588 -> 1002;
	589 -> 1002;
	590 -> 1002;
	591 -> 1002;
	592 -> 1002;
	593 -> 1002;
	594 -> 1002;
	595 -> 1002;
	596 -> 1002;
	597 -> 1002;
	598 -> 1002;
	599 -> 1002;
	600 -> 1002;
	601 -> 1002;
	602 -> 1002;
	603 -> 1002;
	604 -> 1002;
	605 -> 1002;
	606 -> 1002;
	607 -> 1002;
	608 -> 1002;
	609 -> 1002;
	610 -> 1002;
	611 -> 1002;
	612 -> 1002;
	613 -> 1002;
	614 -> 1002;
	615 -> 1002;
	616 -> 1002;
	617 -> 1002;
	618 -> 1002;
	619 -> 1002;
	620 -> 1002;
	621 -> 1002;
	622 -> 1002;
	623 -> 1002;
	624 -> 1002;
	625 -> 1002;
	626 -> 1002;
	627 -> 1002;
	628 -> 1002;
	629 -> 1002;
	630 -> 1002;
	631 -> 1002;
	632 -> 1002;
	633 -> 1002;
	634 -> 1002;
	635 -> 1002;
	636 -> 1002;
	637 -> 1002;
	638 -> 1002;
	639 -> 1002;
	640 -> 1002;
	641 -> 1002;
	642 -> 1002;
	643 -> 1002;
	644 -> 1002;
	645 -> 1002;
	646 -> 1002;
	647 -> 1002;
	648 -> 1002;
	649 -> 1002;
	650 -> 1002;
	651 -> 1002;
	652 -> 1002;
	653 -> 1002;
	654 -> 1002;
	655 -> 1002;
	656 -> 1002;
	657 -> 1002;
	658 -> 1002;
	659 -> 1002;
	660 -> 1002;
	661 -> 1002;
	662 -> 1002;
	663 -> 1002;
	664 -> 1002;
	665 -> 1002;
	666 -> 1002;
	667 -> 1002;
	668 -> 1002;
	669 -> 1002;
	670 -> 1002;
	671 -> 1002;
	672 -> 1002;
	673 -> 1002;
	674 -> 1002;
	675 -> 1002;
	676 -> 1002;
	677 -> 1002;
	678 -> 1002;
	679 -> 1002;
	680 -> 1002;
	681 -> 1002;
	682 -> 1002;
	683 -> 1002;
	684 -> 1002;
	685 -> 1002;
	686 -> 1002;
	687 -> 1002;
	688 -> 1002;
	689 -> 1002;
	690 -> 1002;
	691 -> 1002;
	692 -> 1002;
	693 -> 1002;
	694 -> 1002;
	695 -> 1002;
	696 -> 1002;
	697 -> 1002;
	698 -> 1002;
	699 -> 1002;
	700 -> 1002;
	701 -> 1002;
	702 -> 1002;
	703 -> 1002;
	704 -> 1002;
	705 -> 1002;
	706 -> 1002;
	707 -> 1002;
	708 -> 1002;
	709 -> 1002;
	710 -> 1002;
	711 -> 1002;
	712 -> 1002;
	713 -> 1002;
	714 -> 1002;
	715 -> 1002;
	716 -> 1002;
	717 -> 1002;
	718 -> 1002;
	719 -> 1002;
	720 -> 1002;
	721 -> 1002;
	722 -> 1002;
	723 -> 1002;
	724 -> 1002;
	725 -> 1002;
	726 -> 1002;
	727 -> 1002;
	728 -> 1002;
	729 -> 1002;
	730 -> 1002;
	731 -> 1002;
	732 -> 1002;
	733 -> 1002;
	734 -> 1002;
	735 -> 1002;
	736 -> 1002;
	737 -> 1002;
	738 -> 1002;
	739 -> 1002;
	740 -> 1002;
	741 -> 1002;
	742 -> 1002;
	743 -> 1002;
	744 -> 1002;
	745 -> 1002;
	746 -> 1002;
	747 -> 1002;
	748 -> 1002;
	749 -> 1002;
	750 -> 1002;
	751 -> 1002;
	752 -> 1002;
	753 -> 1002;
	754 -> 1002;
	755 -> 1002;
	756 -> 1002;
	757 -> 1002;
	758 -> 1002;
	759 -> 1002;
	760 -> 1002;
	761 -> 1002;
	762 -> 1002;
	763 -> 1002;
	764 -> 1002;
	765 -> 1002;
	766 -> 1002;
	767 -> 1002;
	768 -> 1002;
	769 -> 1002;
	770 -> 1002;
	771 -> 1002;
	772 -> 1002;
	773 -> 1002;
	774 -> 1002;
	775 -> 1002;
	776 -> 1002;
	777 -> 1002;
	778 -> 1002;
	779 -> 1002;
	780 -> 1002;
	781 -> 1002;
	782 -> 1002;
	783 -> 1002;
	784 -> 1002;
	785 -> 1002;
	786 -> 1002;
	787 -> 1002;
	788 -> 1002;
	789 -> 1002;
	790 -> 1002;
	791 -> 1002;
	792 -> 1002;
	793 -> 1002;
	794 -> 1002;
	795 -> 1002;
	796 -> 1002;
	797 -> 1002;
	798 -> 1002;
	799 -> 1002;
	800 -> 1002;
	801 -> 1002;
	802 -> 1002;
	803 -> 1002;
	804 -> 1002;
	805 -> 1002;
	806 -> 1002;
	807 -> 1002;
	808 -> 1002;
	809 -> 1002;
	810 -> 1002;
	811 -> 1002;
	812 -> 1002;
	813 -> 1002;
	814 -> 1002;
	815 -> 1002;
	816 -> 1002;
	817 -> 1002;
	818 -> 1002;
	819 -> 1002;
	820 -> 1002;
	821 -> 1002;
	822 -> 1002;
	823 -> 1002;
	824 -> 1002;
	825 -> 1002;
	826 -> 1002;
	827 -> 1002;
	828 -> 1002;
	829 -> 1002;
	830 -> 1002;
	831 -> 1002;
	832 -> 1002;
	833 -> 1002;
	834 -> 1002;
	835 -> 1002;
	836 -> 1002;
	837 -> 1002;
	838 -> 1002;
	839 -> 1002;
	840 -> 1002;
	841 -> 1002;
	842 -> 1002;
	843 -> 1002;
	844 -> 1002;
	845 -> 1002;
	846 -> 1002;
	847 -> 1002;
	848 -> 1002;
	849 -> 1002;
	850 -> 1002;
	851 -> 1002;
	852 -> 1002;
	853 -> 1002;
	854 -> 1002;
	855 -> 1002;
	856 -> 1002;
	857 -> 1002;
	858 -> 1002;
	859 -> 1002;
	860 -> 1002;
	861 -> 1002;
	862 -> 1002;
	863 -> 1002;
	864 -> 1002;
	865 -> 1002;
	866 -> 1002;
	867 -> 1002;
	868 -> 1002;
	869 -> 1002;
	870 -> 1002;
	871 -> 1002;
	872 -> 1002;
	873 -> 1002;
	874 -> 1002;
	875 -> 1002;
	876 -> 1002;
	877 -> 1002;
	878 -> 1002;
	879 -> 1002;
	880 -> 1002;
	881 -> 1002;
	882 -> 1002;
	883 -> 1002;
	884 -> 1002;
	885 -> 1002;
	886 -> 1002;
	887 -> 1002;
	888 -> 1002;
	889 -> 1002;
	890 -> 1002;
	891 -> 1002;
	892 -> 1002;
	893 -> 1002;
	894 -> 1002;
	895 -> 1002;
	896 -> 1002;
	897 -> 1002;
	898 -> 1002;
	899 -> 1002;
	900 -> 1002;
	901 -> 1002;
	902 -> 1002;
	903 -> 1002;
	904 -> 1002;
	905 -> 1002;
	906 -> 1002;
	907 -> 1002;
	908 -> 1002;
	909 -> 1002;
	910 -> 1002;
	911 -> 1002;
	912 -> 1002;
	913 -> 1002;
	914 -> 1002;
	915 -> 1002;
	916 -> 1002;
	917 -> 1002;
	918 -> 1002;
	919 -> 1002;
	920 -> 1002;
	921 -> 1002;
	922 -> 1002;
	923 -> 1002;
	924 -> 1002;
	925 -> 1002;
	926 -> 1002;
	927 -> 1002;
	928 -> 1002;
	929 -> 1002;
	930 -> 1002;
	931 -> 1002;
	932 -> 1002;
	933 -> 1002;
	934 -> 1002;
	935 -> 1002;
	936 -> 1002;
	937 -> 1002;
	938 -> 1002;
	939 -> 1002;
	940 -> 1002;
	941 -> 1002;
	942 -> 1002;
	943 -> 1002;
	944 -> 1002;
	945 -> 1002;
	946 -> 1002;
	947 -> 1002;
	948 -> 1002;
	949 -> 1002;
	950 -> 1002;
	951 -> 1002;
	952 -> 1002;
	953 -> 1002;
	954 -> 1002;
	955 -> 1002;
	956 -> 1002;
	957 -> 1002;
	958 -> 1002;
	959 -> 1002;
	960 -> 1002;
	961 -> 1002;
	962 -> 1002;
	963 -> 1002;
	964 -> 1002;
	965 -> 1002;
	966 -> 1002;
	967 -> 1002;
	968 -> 1002;
	969 -> 1002;
	970 -> 1002;
	971 -> 1002;
	972 -> 1002;
	973 -> 1002;
	974 -> 1002;
	975 -> 1002;
	976 -> 1002;
	977 -> 1002;
	978 -> 1002;
	979 -> 1002;
	980 -> 1002;
	981 -> 1002;
	982 -> 1002;
	983 -> 1002;
	984 -> 1002;
	985 -> 1002;
	986 -> 1002;
	987 -> 1002;
	988 -> 1002;
	989 -> 1002;
	990 -> 1002;
	991 -> 1002;
	992 -> 1002;
	993 -> 1002;
	994 -> 1002;
	995 -> 1002;
	996 -> 1002;
	997 -> 1002;
	998 -> 1002;
	999 -> 1002;
	1000 -> 1002;
	1001 -> 1002;
	1002 -> 1003;
	1002 -> 1004;
	1002 -> 1005;
	1002 -> 1006;
	1002 -> 1007;
	1002 -> 1008;
	1002 -> 1009;
	1002 -> 1010;
	1002 -> 1011;
	1002 -> 1012;
	1002 -> 1013;
	1002 -> 1014;
	1002 -> 1015;
	1002 -> 1016;
	1002 -> 1017;
	1002 -> 1018;
	1002 -> 1019;
	1002 -> 1020;
	1002 -> 1021;
	1002 -> 1022;
	1002 -> 1023;
	1002 -> 1024;
	1002 -> 1025;
	1002 -> 1026;
	1002 -> 1027;
	1002 -> 1028;
	1002 -> 1029;
	1002 -> 1030;
	1002 -> 1031;
	1002 -> 1032;
	1002 -> 1033;
	1002 -> 1034;
	1002 -> 1035;
	1002 -> 1036;
	1002 -> 1037;
	1002 -> 1038;
	1002 -> 1039;
	1002 -> 1040;
	1002 -> 1041;
	1002 -> 1042;
	1002 -> 1043;
	1002 -> 1044;
	1002 -> 1045;
	1002 -> 1046;
	1002 -> 1047;
	1002 -> 1048;
	1002 -> 1049;
	1002 -> 1050;
	1002 -> 1051;
	1002 -> 1052;
	1002 -> 1053;
	1002 -> 1054;
	1002 -> 1055;
	1002 -> 1056;
	1002 -> 1057;
	1002 -> 1058;
	1002 -> 1059;
	1002 -> 1060;
	1002 -> 1061;
	1002 -> 1062;
	1002 -> 1063;
	1002 -> 1064;
	1002 -> 1065;
	1002 -> 1066;
	1002 -> 1067;
	1002 -> 1068;
	1002 -> 1069;
	1002 -> 1070;
	1002 -> 1071;
	1002 -> 1072;
	1002 -> 1073;
	1002 -> 1074;
	1002 -> 1075;
	1002 -> 1076;
	1002 -> 1077;
	1002 -> 1078;
	1002 -> 1079;
	1002 -> 1080;
	1002 -> 1081;
	1002 -> 1082;
	1002 -> 1083;
	1002 -> 1084;
	1002 -> 1085;
	1002 -> 1086;
	1002 -> 1087;
	1002 -> 1088;
	1002 -> 1089;
	1002 -> 1090;
	1002 -> 1091;
	1002 -> 1092;
	1002 -> 1093;
	1002 -> 1094;
	1002 -> 1095;
	1002 -> 1096;
	1002 -> 1097;
	1002 -> 1098;
	1002 -> 1099;
	1002 -> 1100;
	1002 -> 1101;
	1002 -> 1102;
	1002 -> 1103;
	1002 -> 1104;
	1002 -> 1105;
	1002 -> 1106;
	1002 -> 1107;
	1002 -> 1108;
	1002 -> 1109;
	1002 -> 1110;
	1002 -> 1111;
	1002 -> 1112;
	1002 -> 1113;
	1002 -> 1114;
	1002 -> 1115;
	1002 -> 1116;
	1002 -> 1117;
	1002 -> 1118;
	1002 -> 1119;
	1002 -> 1120;
	1002 -> 1121;
	1002 -> 1122;
	1002 -> 1123;
	1002 -> 1124;
	1002 -> 1125;
	1002 -> 1126;
	1002 -> 1127;
	1002 -> 1128;
	1002 -> 1129;
	1002 -> 1130;
	1002 -> 1131;
	1002 -> 1132;
	1002 -> 1133;
	1002 -> 1134;
	1002 -> 1135;
	1002 -> 1136;
	1002 -> 1137;
	1002 -> 1138;
	1002 -> 1139;
	1002 -> 1140;
	1002 -> 1141;
	1002 -> 1142;
	1002 -> 1143;
	1002 -> 1144;
	1002 -> 1145;
	1002 -> 1146;
	1002 -> 1147;
	1002 -> 1148;
	1002 -> 1149;
	1002 -> 1150;
	1002 -> 1151;
	1002 -> 1152;
	1002 -> 1153;
	1002 -> 1154;
	1002 -> 1155;
	1002 -> 1156;
	1002 -> 1157;
	1002 -> 1158;
	1002 -> 1159;
	1002 -> 1160;
	1002 -> 1161;
	1002 -> 1162;
	1002 -> 1163;
	1002 -> 1164;
	1002 -> 1165;
	1002 -> 1166;
	1002 -> 1167;
	1002 -> 1168;
	1002 -> 1169;
	1002 -> 1170;
	1002 -> 1171;
	1002 -> 1172;
	1002 -> 1173;
	1002 -> 1174;
	1002 -> 1175;
	1002 -> 1176;
	1002 -> 1177;
	1002 -> 1178;
	1002 -> 1179;
	1002 -> 1180;
	1002 -> 1181;
	1002 -> 1182;
	1002 -> 1183;
	1002 -> 1184;
	1002 -> 1185;
	1002 -> 1186;
	1002 -> 1187;
	1002 -> 1188;
	1002 -> 1189;
	1002 -> 1190;
	1002 -> 1191;
	1002 -> 1192;
	1002 -> 1193;
	1002 -> 1194;
	1002 -> 1195;
	1002 -> 1196;
	1002 -> 1197;
	1002 -> 1198;
	1002 -> 1199;
	1002 -> 1200;
	1002 -> 1201;
	1002 -> 1202;
	1002 -> 1203;
	1002 -> 1204;
	1002 -> 1205;
	1002 -> 1206;
	1002 -> 1207;
	1002 -> 1208;
	1002 -> 1209;
	1002 -> 1210;
	1002 -> 1211;
	1002 -> 1212;
	1002 -> 1213;
	1002 -> 1214;
	1002 -> 1215;
	1002 -> 1216;
	1002 -> 1217;
	1002 -> 1218;
	1002 -> 1219;
	1002 -> 1220;
	1002 -> 1221;
	1002 -> 1222;
	1002 -> 1223;
	1002 -> 1224;
	1002 -> 1225;
	1002 -> 1226;
	1002 -> 1227;
	1002 -> 1228;
	1002 -> 1229;
	1002 -> 1230;
	1002 -> 1231;
	1002 -> 1232;
	1002 -> 1233;
	1002 -> 1234;
	1002 -> 1235;
	1002 -> 1236;
	1002 -> 1237;
	1002 -> 1238;
	1002 -> 1239;
	1002 -> 1240;
	1002 -> 1241;
	1002 -> 1242;
	1002 -> 1243;
	1002 -> 1244;
	1002 -> 1245;
	1002 -> 1246;
	1002 -> 1247;
	1002 -> 1248;
	1002 -> 1249;
	1002 -> 1250;
	1002 -> 1251;
	1002 -> 1252;
	1002 -> 1253;
	1002 -> 1254;
	1002 -> 1255;
	1002 -> 1256;
	1002 -> 1257;
	1002 -> 1258;
	1002 -> 1259;
	1002 -> 1260;
	1002 -> 1261;
	1002 -> 1262;
	1002 -> 1263;
	1002 -> 1264;
	1002 -> 1265;
	1002 -> 1266;
	1002 -> 1267;
	1002 -> 1268;
	1002 -> 1269;
	1002 -> 1270;
	1002 -> 1271;
	1002 -> 1272;
	1002 -> 1273;
	1002 -> 1274;
	1002 -> 1275;
	1002 -> 1276;
	1002 -> 1277;
	1002 -> 1278;
	1002 -> 1279;
	1002 -> 1280;
	1002 -> 1281;
	1002 -> 1282;
	1002 -> 1283;
	1002 -> 1284;
	1002 -> 1285;
	1002 -> 1286;
	1002 -> 1287;
	1002 -> 1288;
	1002 -> 1289;
	1002 -> 1290;
	1002 -> 1291;
	1002 -> 1292;
	1002 -> 1293;
	1002 -> 1294;
	1002 -> 1295;
	1002 -> 1296;
	1002 -> 1297;
	1002 -> 1298;
	1002 -> 1299;
	1002 -> 1300;
	1002 -> 1301;
	1002 -> 1302;
	1002 -> 1303;
	1002 -> 1304;
	1002 -> 1305;
	1002 -> 1306;
	1002 -> 1307;
	1002 -> 1308;
	1002 -> 1309;
	1002 -> 1310;
	1002 -> 1311;
	1002 -> 1312;
	1002 -> 1313;
	1002 -> 1314;
	1002 -> 1315;
	1002 -> 1316;
	1002 -> 1317;
	1002 -> 1318;
	1002 -> 1319;
	1002 -> 1320;
	1002 -> 1321;
	1002 -> 1322;
	1002 -> 1323;
	1002 -> 1324;
	1002 -> 1325;
	1002 -> 1326;
	1002 -> 1327;
	1002 -> 1328;
	1002 -> 1329;
	1002 -> 1330;
	1002 -> 1331;
	1002 -> 1332;
	1002 -> 1333;
	1002 -> 1334;
	1002 -> 1335;
	1002 -> 1336;
	1002 -> 1337;
	1002 -> 1338;
	1002 -> 1339;
	1002 -> 1340;
	1002 -> 1341;
	1002 -> 1342;
	1002 -> 1343;
	1002 -> 1344;
	1002 -> 1345;
	1002 -> 1346;
	1002 -> 1347;
	1002 -> 1348;
	1002 -> 1349;
	1002 -> 1350;
	1002 -> 1351;
	1002 -> 1352;
	1002 -> 1353;
	1002 -> 1354;
	1002 -> 1355;
	1002 -> 1356;
	1002 -> 1357;
	1002 -> 1358;
	1002 -> 1359;
	1002 -> 1360;
	1002 -> 1361;
	1002 -> 1362;
	1002 -> 1363;
	1002 -> 1364;
	1002 -> 1365;
	1002 -> 1366;
	1002 -> 1367;
	1002 -> 1368;
	1002 -> 1369;
	1002 -> 1370;
	1002 -> 1371;
	1002 -> 1372;
	1002 -> 1373;
	1002 -> 1374;
	1002 -> 1375;
	1002 -> 1376;
	1002 -> 1377;
	1002 -> 1378;
	1002 -> 1379;
	1002 -> 1380;
	1002 -> 1381;
	1002 -> 1382;
	1002 -> 1383;
	1002 -> 1384;
	1002 -> 1385;
	1002 -> 1386;
	1002 -> 1387;
	1002 -> 1388;
	1002 -> 1389;
	1002 -> 1390;
	1002 -> 1391;
	1002 -> 1392;
	1002 -> 1393;
	1002 -> 1394;
	1002 -> 1395;
	1002 -> 1396;
	1002 -> 1397;
	1002 -> 1398;
	1002 -> 1399;
	1002 -> 1400;
	1002 -> 1401;
	1002 -> 1402;
	1002 -> 1403;
	1002 -> 1404;
	1002 -> 1405;
	1002 -> 1406;
	1002 -> 1407;
	1002 -> 1408;
	1002 -> 1409;
	1002 -> 1410;
	1002 -> 1411;
	1002 -> 1412;
	1002 -> 1413;
	1002 -> 1414;
	1002 -> 1415;
	1002 -> 1416;
	1002 -> 1417;
	1002 -> 1418;
	1002 -> 1419;
	1002 -> 1420;
	1002 -> 1421;
	1002 -> 1422;
	1002 -> 1423;
	1002 -> 1424;
	1002 -> 1425;
	1002 -> 1426;
	1002 -> 1427;
	1002 -> 1428;
	1002 -> 1429;
	1002 -> 1430;
	1002 -> 1431;
	1002 -> 1432;
	1002 -> 1433;
	1002 -> 1434;
	1002 -> 1435;
	1002 -> 1436;
	1002 -> 1437;
	1002 -> 1438;
	1002 -> 1439;
	1002 -> 1440;
	1002 -> 1441;
	1002 -> 1442;
	1002 -> 1443;
	1002 -> 1444;
	1002 -> 1445;
	1002 -> 1446;
	1002 -> 1447;
	1002 -> 1448;
	1002 -> 1449;
	1002 -> 1450;
	1002 -> 1451;
	1002 -> 1452;
	1002 -> 1453;
	1002 -> 1454;
	1002 -> 1455;
	1002 -> 1456;
	1002 -> 1457;
	1002 -> 1458;
	1002 -> 1459;
	1002 -> 1460;
	1002 -> 1461;
	1002 -> 1462;
	1002 -> 1463;
	1002 -> 1464;
	1002 -> 1465;
	1002 -> 1466;
	1002 -> 1467;
	1002 -> 1468;
	1002 -> 1469;
	1002 -> 1470;
	1002 -> 1471;
	1002 -> 1472;
	1002 -> 1473;
	1002 -> 1474;
	1002 -> 1475;
	1002 -> 1476;
	1002 -> 1477;
	1002 -> 1478;
	1002 -> 1479;
	1002 -> 1480;
	1002 -> 1481;
	1002 -> 1482;
	1002 -> 1483;
	1002 -> 1484;
	1002 -> 1485;
	1002 -> 1486;
	1002 -> 1487;
	1002 -> 1488;
	1002 -> 1489;
	1002 -> 1490;
	1002 -> 1491;
	1002 -> 1492;
	1002 -> 1493;
	1002 -> 1494;
	1002 -> 1495;
	1002 -> 1496;
	1002 -> 1497;
	1002 -> 1498;
	1002 -> 1499;
	1002 -> 1500;
	1002 -> 1501;
	1002 -> 1502;
	1003 -> 1503;
	1004 -> 1503;
	1005 -> 1503;
	1006 -> 1503;
	1007 -> 1503;
	1008 -> 1503;
	1009 -> 1503;
	1010 -> 1503;
	1011 -> 1503;
	1012 -> 1503;
	1013 -> 1503;
	1014 -> 1503;
	1015 -> 1503;
	1016 -> 1503;
	1017 -> 1503;
	1018 -> 1503;
	1019 -> 1503;
	1020 -> 1503;
	1021 -> 1503;
	1022 -> 1503;
	1023 -> 1503;
	1024 -> 1503;
	1025 -> 1503;
	1026 -> 1503;
	1027 -> 1503;
	1028 -> 1503;
	1029 -> 1503;
	1030 -> 1503;
	1031 -> 1503;
	1032 -> 1503;
	1033 -> 1503;
	1034 -> 1503;
	1035 -> 1503;
	1036 -> 1503;
	1037 -> 1503;
	1038 -> 1503;
	1039 -> 1503;
	1040 -> 1503;
	1041 -> 1503;
	1042 -> 1503;
	1043 -> 1503;
	1044 -> 1503;
	1045 -> 1503;
	1046 -> 1503;
	1047 -> 1503;
	1048 -> 1503;
	1049 -> 1503;
	1050 -> 1503;
	1051 -> 1503;
	1052 -> 1503;
	1053 -> 1503;
	1054 -> 1503;
	1055 -> 1503;
	1056 -> 1503;
	1057 -> 1503;
	1058 -> 1503;
	1059 -> 1503;
	1060 -> 1503;
	1061 -> 1503;
	1062 -> 1503;
	1063 -> 1503;
	1064 -> 1503;
	1065 -> 1503;
	1066 -> 1503;
	1067 -> 1503;
	1068 -> 1503;
	1069 -> 1503;
	1070 -> 1503;
	1071 -> 1503;
	1072 -> 1503;
	1073 -> 1503;
	1074 -> 1503;
	1075 -> 1503;
	1076 -> 1503;
	1077 -> 1503;
	1078 -> 1503;
	1079 -> 1503;
	1080 -> 1503;
	1081 -> 1503;
	1082 -> 1503;
	1083 -> 1503;
	1084 -> 1503;
	1085 -> 1503;
	1086 -> 1503;
	1087 -> 1503;
	1088 -> 1503;
	1089 -> 1503;
	1090 -> 1503;
	1091 -> 1503;
	1092 -> 1503;
	1093 -> 1503;
	1094 -> 1503;
	1095 -> 1503;
	1096 -> 1503;
	1097 -> 1503;
	1098 -> 1503;
	1099 -> 1503;
	1100 -> 1503;
	1101 -> 1503;
	1102 -> 1503;
	1103 -> 1503;
	1104 -> 1503;
	1105 -> 1503;
	1106 -> 1503;
	1107 -> 1503;
	1108 -> 1503;
	1109 -> 1503;
	1110 -> 1503;
	1111 -> 1503;
	1112 -> 1503;
	1113 -> 1503;
	1114 -> 1503;
	1115 -> 1503;
	1116 -> 1503;
	1117 -> 1503;
	1118 -> 1503;
	1119 -> 1503;
	1120 -> 1503;
	1121 -> 1503;
	1122 -> 1503;
	1123 -> 1503;
	1124 -> 1503;
	1125 -> 1503;
	1126 -> 1503;
	1127 -> 1503;
	1128 -> 1503;
	1129 -> 1503;
	1130 -> 1503;
	1131 -> 1503;
	1132 -> 1503;
	1133 -> 1503;
	1134 -> 1503;
	1135 -> 1503;
	1136 -> 1503;
	1137 -> 1503;
	1138 -> 1503;
	1139 -> 1503;
	1140 -> 1503;
	1141 -> 1503;
	1142 -> 1503;
	1143 -> 1503;
	1144 -> 1503;
	1145 -> 1503;
	1146 -> 1503;
	1147 -> 1503;
	1148 -> 1503;
	1149 -> 1503;
	1150 -> 1503;
	1151 -> 1503;
	1152 -> 1503;
	1153 -> 1503;
	1154 -> 1503;
	1155 -> 1503;
	1156 -> 1503;
	1157 -> 1503;
	1158 -> 1503;
	1159 -> 1503;
	1160 -> 1503;
	1161 -> 1503;
	1162 -> 1503;
	1163 -> 1503;
	1164 -> 1503;
	1165 -> 1503;
	1166 -> 1503;
	1167 -> 1503;
	1168 -> 1503;
	1169 -> 1503;
	1170 -> 1503;
	1171 -> 1503;
	1172 -> 1503;
	1173 -> 1503;
	1174 -> 1503;
	1175 -> 1503;
	1176 -> 1503;
	1177 -> 1503;
	1178 -> 1503;
	1179 -> 1503;
	1180 -> 1503;
	1181 -> 1503;
	1182 -> 1503;
	1183 -> 1503;
	1184 -> 1503;
	1185 -> 1503;
	1186 -> 1503;
	1187 -> 1503;
	1188 -> 1503;
	1189 -> 1503;
	1190 -> 1503;
	1191 -> 1503;
	1192 -> 1503;
	1193 -> 1503;
	1194 -> 1503;
	1195 -> 1503;
	1196 -> 1503;
	1197 -> 1503;
	1198 -> 1503;
	1199 -> 1503;
	1200 -> 1503;
	1201 -> 1503;
	1202 -> 1503;
	1203 -> 1503;
	1204 -> 1503;
	1205 -> 1503;
	1206 -> 1503;
	1207 -> 1503;
	1208 -> 1503;
	1209 -> 1503;
	1210 -> 1503;
	1211 -> 1503;
	1212 -> 1503;
	1213 -> 1503;
	1214 -> 1503;
	1215 -> 1503;
	1216 -> 1503;
	1217 -> 1503;
	1218 -> 1503;
	1219 -> 1503;
	1220 -> 1503;
	1221 -> 1503;
	1222 -> 1503;
	1223 -> 1503;
	1224 -> 1503;
	1225 -> 1503;
	1226 -> 1503;
	1227 -> 1503;
	1228 -> 1503;
	1229 -> 1503;
	1230 -> 1503;
	1231 -> 1503;
	1232 -> 1503;
	1233 -> 1503;
	1234 -> 1503;
	1235 -> 1503;
	1236 -> 1503;
	1237 -> 1503;
	1238 -> 1503;
	1239 -> 1503;
	1240 -> 1503;
	1241 -> 1503;
	1242 -> 1503;
	1243 -> 1503;
	1244 -> 1503;
	1245 -> 1503;
	1246 -> 1503;
	1247 -> 1503;
	1248 -> 1503;
	1249 -> 1503;
	1250 -> 1503;
	1251 -> 1503;
	1252 -> 1503;
	1253 -> 1503;
	1254 -> 1503;
	1255 -> 1503;
	1256 -> 1503;
	1257 -> 1503;
	1258 -> 1503;
	1259 -> 1503;
	1260 -> 1503;
	1261 -> 1503;
	1262 -> 1503;
	1263 -> 1503;
	1264 -> 1503;
	1265 -> 1503;
	1266 -> 1503;
	1267 -> 1503;
	1268 -> 1503;
	1269 -> 1503;
	1270 -> 1503;
	1271 -> 1503;
	1272 -> 1503;
	1273 -> 1503;
	1274 -> 1503;
	1275 -> 1503;
	1276 -> 1503;
	1277 -> 1503;
	1278 -> 1503;
	1279 -> 1503;
	1280 -> 1503;
	1281 -> 1503;
	1282 -> 1503;
	1283 -> 1503;
	1284 -> 1503;
	1285 -> 1503;
	1286 -> 1503;
	1287 -> 1503;
	1288 -> 1503;
	1289 -> 1503;
	1290 -> 1503;
	1291 -> 1503;
	1292 -> 1503;
	1293 -> 1503;
	1294 -> 1503;
	1295 -> 1503;
	1296 -> 1503;
	1297 -> 1503;
	1298 -> 1503;
	1299 -> 1503;
	1300 -> 1503;
	1301 -> 1503;
	1302 -> 1503;
	1303 -> 1503;
	1304 -> 1503;
	1305 -> 1503;
	1306 -> 1503;
	1307 -> 1503;
	1308 -> 1503;
	1309 -> 1503;
	1310 -> 1503;
	1311 -> 1503;
	1312 -> 1503;
	1313 -> 1503;
	1314 -> 1503;
	1315 -> 1503;
	1316 -> 1503;
	1317 -> 1503;
	1318 -> 1503;
	1319 -> 1503;
	1320 -> 1503;
	1321 -> 1503;
	1322 -> 1503;
	1323 -> 1503;
	1324 -> 1503;
	1325 -> 1503;
	1326 -> 1503;
	1327 -> 1503;
	1328 -> 1503;
	1329 -> 1503;
	1330 -> 1503;
	1331 -> 1503;
	1332 -> 1503;
	1333 -> 1503;
	1334 -> 1503;
	1335 -> 1503;
	1336 -> 1503;
	1337 -> 1503;
	1338 -> 1503;
	1339 -> 1503;
	1340 -> 1503;
	1341 -> 1503;
	1342 -> 1503;
	1343 -> 1503;
	1344 -> 1503;
	1345 -> 1503;
	1346 -> 1503;
	1347 -> 1503;
	1348 -> 1503;
	1349 -> 1503;
	1350 -> 1503;
	1351 -> 1503;
	1352 -> 1503;
	1353 -> 1503;
	1354 -> 1503;
	1355 -> 1503;
	1356 -> 1503;
	1357 -> 1503;
	1358 -> 1503;
	1359 -> 1503;
	1360 -> 1503;
	1361 -> 1503;
	1362 -> 1503;
	1363 -> 1503;
	1364 -> 1503;
	1365 -> 1503;
	1366 -> 1503;
	1367 -> 1503;
	1368 -> 1503;
	1369 -> 1503;
	1370 -> 1503;
	1371 -> 1503;
	1372 -> 1503;
	1373 -> 1503;
	1374 -> 1503;
	1375 -> 1503;
	1376 -> 1503;
	1377 -> 1503;
	1378 -> 1503;
	1379 -> 1503;
	1380 -> 1503;
	1381 -> 1503;
	1382 -> 1503;
	1383 -> 1503;
	1384 -> 1503;
	1385 -> 1503;
	1386 -> 1503;
	1387 -> 1503;
	1388 -> 1503;
	1389 -> 1503;
	1390 -> 1503;
	1391 -> 1503;
	1392 -> 1503;
	1393 -> 1503;
	1394 -> 1503;
	1395 -> 1503;
	1396 -> 1503;
	1397 -> 1503;
	1398 -> 1503;
	1399 -> 1503;
	1400 -> 1503;
	1401 -> 1503;
	1402 -> 1503;
	1403 -> 1503;
	1404 -> 1503;
	1405 -> 1503;
	1406 -> 1503;
	1407 -> 1503;
	1408 -> 1503;
	1409 -> 1503;
	1410 -> 1503;
	1411 -> 1503;
	1412 -> 1503;
	1413 -> 1503;
	1414 -> 1503;
	1415 -> 1503;
	1416 -> 1503;
	1417 -> 1503;
	1418 -> 1503;
	1419 -> 1503;
	1420 -> 1503;
	1421 -> 1503;
	1422 -> 1503;
	1423 -> 1503;
	1424 -> 1503;
	1425 -> 1503;
	1426 -> 1503;
	1427 -> 1503;
	1428 -> 1503;
	1429 -> 1503;
	1430 -> 1503;
	1431 -> 1503;
	1432 -> 1503;
	1433 -> 1503;
	1434 -> 1503;
	1435 -> 1503;
	1436 -> 1503;
	1437 -> 1503;
	1438 -> 1503;
	1439 -> 1503;
	1440 -> 1503;
	1441 -> 1503;
	1442 -> 1503;
	1443 -> 1503;
	1444 -> 1503;
	1445 -> 1503;
	1446 -> 1503;
	1447 -> 1503;
	1448 -> 1503;
	1449 -> 1503;
	1450 -> 1503;
	1451 -> 1503;
	1452 -> 1503;
	1453 -> 1503;
	1454 -> 1503;
	1455 -> 1503;
	1456 -> 1503;
	1457 -> 1503;
	1458 -> 1503;
	1459 -> 1503;
	1460 -> 1503;
	1461 -> 1503;
	1462 -> 1503;
	1463 -> 1503;
	1464 -> 1503;
	1465 -> 1503;
	1466 -> 1503;
	1467 -> 1503;
	1468 -> 1503;
	1469 -> 1503;
	1470 -> 1503;
	1471 -> 1503;
	1472 -> 1503;
	1473 -> 1503;
	1474 -> 1503;
	1475 -> 1503;
	1476 -> 1503;
	1477 -> 1503;
	1478 -> 1503;
	1479 -> 1503;
	1480 -> 1503;
	1481 -> 1503;
	1482 -> 1503;
	1483 -> 1503;
	1484 -> 1503;
	1485 -> 1503;
	1486 -> 1503;
	1487 -> 1503;
	1488 -> 1503;
	1489 -> 1503;
	1490 -> 1503;
	1491 -> 1503;
	1492 -> 1503;
	1493 -> 1503;
	1494 -> 1503;
	1495 -> 1503;
	1496 -> 1503;
	1497 -> 1503;
	1498 -> 1503;
	1499 -> 1503;
	1500 -> 1503;
	1501 -> 1503;
	1502 -> 1503;
	1503 -> 1504;
	1503 -> 1505;
	1503 -> 1506;
	1503 -> 1507;
	1503 -> 1508;
	1503 -> 1509;
	1503 -> 1510;
	1503 -> 1511;
	1503 -> 1512;
	1503 -> 1513;
	1503 -> 1514;
	1503 -> 1515;
	1503 -> 1516;
	1503 -> 1517;
	1503 -> 1518;
	1503 -> 1519;
	1503 -> 1520;
	1503 -> 1521;
	1503 -> 1522;
	1503 -> 1523;
	1503 -> 1524;
	1503 -> 1525;
	1503 -> 1526;
	1503 -> 1527;
	1503 -> 1528;
	1503 -> 1529;
	1503 -> 1530;
	1503 -> 1531;
	1503 -> 1532;
	1503 -> 1533;
	1503 -> 1534;
	1503 -> 1535;
	1503 -> 1536;
	1503 -> 1537;
	1503 -> 1538;
	1503 -> 1539;
	1503 -> 1540;
	1503 -> 1541;
	1503 -> 1542;
	1503 -> 1543;
	1503 -> 1544;
	1503 -> 1545;
	1503 -> 1546;
	1503 -> 1547;
	1503 -> 1548;
	1503 -> 1549;
	1503 -> 1550;
	1503 -> 1551;
	1503 -> 1552;
	1503 -> 1553;
	1503 -> 1554;
	1503 -> 1555;
	1503 -> 1556;
	1503 -> 1557;
	1503 -> 1558;
	1503 -> 1559;
	1503 -> 1560;
	1503 -> 1561;
	1503 -> 1562;
	1503 -> 1563;
	1503 -> 1564;
	1503 -> 1565;
	1503 -> 1566;
	1503 -> 1567;
	1503 -> 1568;
	1503 -> 1569;
	1503 -> 1570;
	1503 -> 1571;
	1503 -> 1572;
	1503 -> 1573;
	1503 -> 1574;
	1503 -> 1575;
	1503 -> 1576;
	1503 -> 1577;
	1503 -> 1578;
	1503 -> 1579;
	1503 -> 1580;
	1503 -> 1581;
	1503 -> 1582;
	1503 -> 1583;
	1503 -> 1584;
	1503 -> 1585;
	1503 -> 1586;
	1503 -> 1587;
	1503 -> 1588;
	1503 -> 1589;
	1503 -> 1590;
	1503 -> 1591;
	1503 -> 1592;
	1503 -> 1593;
	1503 -> 1594;
	1503 -> 1595;
	1503 -> 1596;
	1503 -> 1597;
	1503 -> 1598;
	1503 -> 1599;
	1503 -> 1600;
	1503 -> 1601;
	1503 -> 1602;
	1503 -> 1603;
	1503 -> 1604;
	1503 -> 1605;
	1503 -> 1606;
	1503 -> 1607;
	1503 -> 1608;
	1503 -> 1609;
	1503 -> 1610;
	1503 -> 1611;
	1503 -> 1612;
	1503 -> 1613;
	1503 -> 1614;
	1503 -> 1615;
	1503 -> 1616;
	1503 -> 1617;
	1503 -> 1618;
	1503 -> 1619;
	1503 -> 1620;
	1503 -> 1621;
	1503 -> 1622;
	1503 -> 1623;
	1503 -> 1624;
	1503 -> 1625;
	1503 -> 1626;
	1503 -> 1627;
	1503 -> 1628;
	1503 -> 1629;
	1503 -> 1630;
	1503 -> 1631;
	1503 -> 1632;
	1503 -> 1633;
	1503 -> 1634;
	1503 -> 1635;
	1503 -> 1636;
	1503 -> 1637;
	1503 -> 1638;
	1503 -> 1639;
	1503 -> 1640;
	1503 -> 1641;
	1503 -> 1642;
	1503 -> 1643;
	1503 -> 1644;
	1503 -> 1645;
	1503 -> 1646;
	1503 -> 1647;
	1503 -> 1648;
	1503 -> 1649;
	1503 -> 1650;
	1503 -> 1651;
	1503 -> 1652;
	1503 -> 1653;
	1503 -> 1654;
	1503 -> 1655;
	1503 -> 1656;
	1503 -> 1657;
	1503 -> 1658;
	1503 -> 1659;
	1503 -> 1660;
	1503 -> 1661;
	1503 -> 1662;
	1503 -> 1663;
	1503 -> 1664;
	1503 -> 1665;
	1503 -> 1666;
	1503 -> 1667;
	1503 -> 1668;
	1503 -> 1669;
	1503 -> 1670;
	1503 -> 1671;
	1503 -> 1672;
	1503 -> 1673;
	1503 -> 1674;
	1503 -> 1675;
	1503 -> 1676;
	1503 -> 1677;
	1503 -> 1678;
	1503 -> 1679;
	1503 -> 1680;
	1503 -> 1681;
	1503 -> 1682;
	1503 -> 1683;
	1503 -> 1684;
	1503 -> 1685;
	1503 -> 1686;
	1503 -> 1687;
	1503 -> 1688;
	1503 -> 1689;
	1503 -> 1690;
	1503 -> 1691;
	1503 -> 1692;
	1503 -> 1693;
	1503 -> 1694;
	1503 -> 1695;
	1503 -> 1696;
	1503 -> 1697;
	1503 -> 1698;
	1503 -> 1699;
	1503 -> 1700;
	1503 -> 1701;
	1503 -> 1702;
	1503 -> 1703;
	1503 -> 1704;
	1503 -> 1705;
	1503 -> 1706;
	1503 -> 1707;
	1503 -> 1708;
	1503 -> 1709;
	1503 -> 1710;
	1503 -> 1711;
	1503 -> 1712;
	1503 -> 1713;
	1503 -> 1714;
	1503 -> 1715;
	1503 -> 1716;
	1503 -> 1717;
	1503 -> 1718;
	1503 -> 1719;
	1503 -> 1720;
	1503 -> 1721;
	1503 -> 1722;
	1503 -> 1723;
	1503 -> 1724;
	1503 -> 1725;
	1503 -> 1726;
	1503 -> 1727;
	1503 -> 1728;
	1503 -> 1729;
	1503 -> 1730;
	1503 -> 1731;
	1503 -> 1732;
	1503 -> 1733;
	1503 -> 1734;
	1503 -> 1735;
	1503 -> 1736;
	1503 -> 1737;
	1503 -> 1738;
	1503 -> 1739;
	1503 -> 1740;
	1503 -> 1741;
	1503 -> 1742;
	1503 -> 1743;
	1503 -> 1744;
	1503 -> 1745;
	1503 -> 1746;
	1503 -> 1747;
	1503 -> 1748;
	1503 -> 1749;
	1503 -> 1750;
	1503 -> 1751;
	1503 -> 1752;
	1503 -> 1753;
	1503 -> 1754;
	1503 -> 1755;
	1503 -> 1756;
	1503 -> 1757;
	1503 -> 1758;
	1503 -> 1759;
	1503 -> 1760;
	1503 -> 1761;
	1503 -> 1762;
	1503 -> 1763;
	1503 -> 1764;
	1503 -> 1765;
	1503 -> 1766;
	1503 -> 1767;
	1503 -> 1768;
	1503 -> 1769;
	1503 -> 1770;
	1503 -> 1771;
	1503 -> 1772;
	1503 -> 1773;
	1503 -> 1774;
	1503 -> 1775;
	1503 -> 1776;
	1503 -> 1777;
	1503 -> 1778;
	1503 -> 1779;
	1503 -> 1780;
	1503 -> 1781;
	1503 -> 1782;
	1503 -> 1783;
	1503 -> 1784;
	1503 -> 1785;
	1503 -> 1786;
	1503 -> 1787;
	1503 -> 1788;
	1503 -> 1789;
	1503 -> 1790;
	1503 -> 1791;
	1503 -> 1792;
	1503 -> 1793;
	1503 -> 1794;
	1503 -> 1795;
	1503 -> 1796;
	1503 -> 1797;
	1503 -> 1798;
	1503 -> 1799;
	1503 -> 1800;
	1503 -> 1801;
	1503 -> 1802;
	1503 -> 1803;
	1503 -> 1804;
	1503 -> 1805;
	1503 -> 1806;
	1503 -> 1807;
	1503 -> 1808;
	1503 -> 1809;
	1503 -> 1810;
	1503 -> 1811;
	1503 -> 1812;
	1503 -> 1813;
	1503 -> 1814;
	1503 -> 1815;
	1503 -> 1816;
	1503 -> 1817;
	1503 -> 1818;
	1503 -> 1819;
	1503 -> 1820;
	1503 -> 1821;
	1503 -> 1822;
	1503 -> 1823;
	1503 -> 1824;
	1503 -> 1825;
	1503 -> 1826;
	1503 -> 1827;
	1503 -> 1828;
	1503 -> 1829;
	1503 -> 1830;
	1503 -> 1831;
	1503 -> 1832;
	1503 -> 1833;
	1503 -> 1834;
	1503 -> 1835;
	1503 -> 1836;
	1503 -> 1837;
	1503 -> 1838;
	1503 -> 1839;
	1503 -> 1840;
	1503 -> 1841;
	1503 -> 1842;
	1503 -> 1843;
	1503 -> 1844;
	1503 -> 1845;
	1503 -> 1846;
	1503 -> 1847;
	1503 -> 1848;
	1503 -> 1849;
	1503 -> 1850;
	1503 -> 1851;
	1503 -> 1852;
	1503 -> 1853;
	1503 -> 1854;
	1503 -> 1855;
	1503 -> 1856;
	1503 -> 1857;
	1503 -> 1858;
	1503 -> 1859;
	1503 -> 1860;
	1503 -> 1861;
	1503 -> 1862;
	1503 -> 1863;
	1503 -> 1864;
	1503 -> 1865;
	1503 -> 1866;
	1503 -> 1867;
	1503 -> 1868;
	1503 -> 1869;
	1503 -> 1870;
	1503 -> 1871;
	1503 -> 1872;
	1503 -> 1873;
	1503 -> 1874;
	1503 -> 1875;
	1503 -> 1876;
	1503 -> 1877;
	1503 -> 1878;
	1503 -> 1879;
	1503 -> 1880;
	1503 -> 1881;
	1503 -> 1882;
	1503 -> 1883;
	1503 -> 1884;
	1503 -> 1885;
	1503 -> 1886;
	1503 -> 1887;
	1503 -> 1888;
	1503 -> 1889;
	1503 -> 1890;
	1503 -> 1891;
	1503 -> 1892;
	1503 -> 1893;
	1503 -> 1894;
	1503 -> 1895;
	1503 -> 1896;
	1503 -> 1897;
	1503 -> 1898;
	1503 -> 1899;
	1503 -> 1900;
	1503 -> 1901;
	1503 -> 1902;
	1503 -> 1903;
	1503 -> 1904;
	1503 -> 1905;
	1503 -> 1906;
	1503 -> 1907;
	1503 -> 1908;
	1503 -> 1909;
	1503 -> 1910;
	1503 -> 1911;
	1503 -> 1912;
	1503 -> 1913;
	1503 -> 1914;
	1503 -> 1915;
	1503 -> 1916;
	1503 -> 1917;
	1503 -> 1918;
	1503 -> 1919;
	1503 -> 1920;
	1503 -> 1921;
	1503 -> 1922;
	1503 -> 1923;
	1503 -> 1924;
	1503 -> 1925;
	1503 -> 1926;
	1503 -> 1927;
	1503 -> 1928;
	1503 -> 1929;
	1503 -> 1930;
	1503 -> 1931;
	1503 -> 1932;
	1503 -> 1933;
	1503 -> 1934;
	1503 -> 1935;
	1503 -> 1936;
	1503 -> 1937;
	1503 -> 1938;
	1503 -> 1939;
	1503 -> 1940;
	1503 -> 1941;
	1503 -> 1942;
	1503 -> 1943;
	1503 -> 1944;
	1503 -> 1945;
	1503 -> 1946;
	1503 -> 1947;
	1503 -> 1948;
	1503 -> 1949;
	1503 -> 1950;
	1503 -> 1951;
	1503 -> 1952;
	1503 -> 1953;
	1503 -> 1954;
	1503 -> 1955;
	1503 -> 1956;
	1503 -> 1957;
	1503 -> 1958;
	1503 -> 1959;
	1503 -> 1960;
	1503 -> 1961;
	1503 -> 1962;
	1503 -> 1963;
	1503 -> 1964;
	1503 -> 1965;
	1503 -> 1966;
	1503 -> 1967;
	1503 -> 1968;
	1503 -> 1969;
	1503 -> 1970;
	1503 -> 1971;
	1503 -> 1972;
	1503 -> 1973;
	1503 -> 1974;
	1503 -> 1975;
	1503 -> 1976;
	1503 -> 1977;
	1503 -> 1978;
	1503 -> 1979;
	1503 -> 1980;
	1503 -> 1981;
	1503 -> 1982;
	1503 -> 1983;
	1503 -> 1984;
	1503 -> 1985;
	1503 -> 1986;
	1503 -> 1987;
	1503 -> 1988;
	1503 -> 1989;
	1503 -> 1990;
	1503 -> 1991;
	1503 -> 1992;
	1503 -> 1993;
	1503 -> 1994;
	1503 -> 1995;
	1503 -> 1996;
	1503 -> 1997;
	1503 -> 1998;
	1503 -> 1999;
	1503 -> 2000;
	1503 -> 2001;
	1503 -> 2002;
	1503 -> 2003;
	1504 -> 2004;
	1505 -> 2004;
	1506 -> 2004;
	1507 -> 2004;
	1508 -> 2004;
	1509 -> 2004;
	1510 -> 2004;
	1511 -> 2004;
	1512 -> 2004;
	1513 -> 2004;
	1514 -> 2004;
	1515 -> 2004;
	1516 -> 2004;
	1517 -> 2004;
	1518 -> 2004;
	1519 -> 2004;
	1520 -> 2004;
	1521 -> 2004;
	1522 -> 2004;
	1523 -> 2004;
	1524 -> 2004;
	1525 -> 2004;
	1526 -> 2004;
	1527 -> 2004;
	1528 -> 2004;
	1529 -> 2004;
	1530 -> 2004;
	1531 -> 2004;
	1532 -> 2004;
	1533 -> 2004;
	1534 -> 2004;
	1535 -> 2004;
	1536 -> 2004;
	1537 -> 2004;
	1538 -> 2004;
	1539 -> 2004;
	1540 -> 2004;
	1541 -> 2004;
	1542 -> 2004;
	1543 -> 2004;
	1544 -> 2004;
	1545 -> 2004;
	1546 -> 2004;
	1547 -> 2004;
	1548 -> 2004;
	1549 -> 2004;
	1550 -> 2004;
	1551 -> 2004;
	1552 -> 2004;
	1553 -> 2004;
	1554 -> 2004;
	1555 -> 2004;
	1556 -> 2004;
	1557 -> 2004;
	1558 -> 2004;
	1559 -> 2004;
	1560 -> 2004;
	1561 -> 2004;
	1562 -> 2004;
	1563 -> 2004;
	1564 -> 2004;
	1565 -> 2004;
	1566 -> 2004;
	1567 -> 2004;
	1568 -> 2004;
	1569 -> 2004;
	1570 -> 2004;
	1571 -> 2004;
	1572 -> 2004;
	1573 -> 2004;
	1574 -> 2004;
	1575 -> 2004;
	1576 -> 2004;
	1577 -> 2004;
	1578 -> 2004;
	1579 -> 2004;
	1580 -> 2004;
	1581 -> 2004;
	1582 -> 2004;
	1583 -> 2004;
	1584 -> 2004;
	1585 -> 2004;
	1586 -> 2004;
	1587 -> 2004;
	1588 -> 2004;
	1589 -> 2004;
	1590 -> 2004;
	1591 -> 2004;
	1592 -> 2004;
	1593 -> 2004;
	1594 -> 2004;
	1595 -> 2004;
	1596 -> 2004;
	1597 -> 2004;
	1598 -> 2004;
	1599 -> 2004;
	1600 -> 2004;
	1601 -> 2004;
	1602 -> 2004;
	1603 -> 2004;
	1604 -> 2004;
	1605 -> 2004;
	1606 -> 2004;
	1607 -> 2004;
	1608 -> 2004;
	1609 -> 2004;
	1610 -> 2004;
	1611 -> 2004;
	1612 -> 2004;
	1613 -> 2004;
	1614 -> 2004;
	1615 -> 2004;
	1616 -> 2004;
	1617 -> 2004;
	1618 -> 2004;
	1619 -> 2004;
	1620 -> 2004;
	1621 -> 2004;
	1622 -> 2004;
	1623 -> 2004;
	1624 -> 2004;
	1625 -> 2004;
	1626 -> 2004;
	1627 -> 2004;
	1628 -> 2004;
	1629 -> 2004;
	1630 -> 2004;
	1631 -> 2004;
	1632 -> 2004;
	1633 -> 2004;
	1634 -> 2004;
	1635 -> 2004;
	1636 -> 2004;
	1637 -> 2004;
	1638 -> 2004;
	1639 -> 2004;
	1640 -> 2004;
	1641 -> 2004;
	1642 -> 2004;
	1643 -> 2004;
	1644 -> 2004;
	1645 -> 2004;
	1646 -> 2004;
	1647 -> 2004;
	1648 -> 2004;
	1649 -> 2004;
	1650 -> 2004;
	1651 -> 2004;
	1652 -> 2004;
	1653 -> 2004;
	1654 -> 2004;
	1655 -> 2004;
	1656 -> 2004;
	1657 -> 2004;
	1658 -> 2004;
	1659 -> 2004;
	1660 -> 2004;
	1661 -> 2004;
	1662 -> 2004;
	1663 -> 2004;
	1664 -> 2004;
	1665 -> 2004;
	1666 -> 2004;
	1667 -> 2004;
	1668 -> 2004;
	1669 -> 2004;
	1670 -> 2004;
	1671 -> 2004;
	1672 -> 2004;
	1673 -> 2004;
	1674 -> 2004;
	1675 -> 2004;
	1676 -> 2004;
	1677 -> 2004;
	1678 -> 2004;
	1679 -> 2004;
	1680 -> 2004;
	1681 -> 2004;
	1682 -> 2004;
	1683 -> 2004;
	1684 -> 2004;
	1685 -> 2004;
	1686 -> 2004;
	1687 -> 2004;
	1688 -> 2004;
	1689 -> 2004;
	1690 -> 2004;
	1691 -> 2004;
	1692 -> 2004;
	1693 -> 2004;
	1694 -> 2004;
	1695 -> 2004;
	1696 -> 2004;
	1697 -> 2004;
	1698 -> 2004;
	1699 -> 2004;
	1700 -> 2004;
	1701 -> 2004;
	1702 -> 2004;
	1703 -> 2004;
	1704 -> 2004;
	1705 -> 2004;
	1706 -> 2004;
	1707 -> 2004;
	1708 -> 2004;
	1709 -> 2004;
	1710 -> 2004;
	1711 -> 2004;
	1712 -> 2004;
	1713 -> 2004;
	1714 -> 2004;
	1715 -> 2004;
	1716 -> 2004;
	1717 -> 2004;
	1718 -> 2004;
	1719 -> 2004;
	1720 -> 2004;
	1721 -> 2004;
	1722 -> 2004;
	1723 -> 2004;
	1724 -> 2004;
	1725 -> 2004;
	1726 -> 2004;
	1727 -> 2004;
	1728 -> 2004;
	1729 -> 2004;
	1730 -> 2004;
	1731 -> 2004;
	1732 -> 2004;
	1733 -> 2004;
	1734 -> 2004;
	1735 -> 2004;
	1736 -> 2004;
	1737 -> 2004;
	1738 -> 2004;
	1739 -> 2004;
	1740 -> 2004;
	1741 -> 2004;
	1742 -> 2004;
	1743 -> 2004;
	1744 -> 2004;
	1745 -> 2004;
	1746 -> 2004;
	1747 -> 2004;
	1748 -> 2004;
	1749 -> 2004;
	1750 -> 2004;
	1751 -> 2004;
	1752 -> 2004;
	1753 -> 2004;
	1754 -> 2004;
	1755 -> 2004;
	1756 -> 2004;
	1757 -> 2004;
	1758 -> 2004;
	1759 -> 2004;
	1760 -> 2004;
	1761 -> 2004;
	1762 -> 2004;
	1763 -> 2004;
	1764 -> 2004;
	1765 -> 2004;
	1766 -> 2004;
	1767 -> 2004;
	1768 -> 2004;
	1769 -> 2004;
	1770 -> 2004;
	1771 -> 2004;
	1772 -> 2004;
	1773 -> 2004;
	1774 -> 2004;
	1775 -> 2004;
	1776 -> 2004;
	1777 -> 2004;
	1778 -> 2004;
	1779 -> 2004;
	1780 -> 2004;
	1781 -> 2004;
	1782 -> 2004;
	1783 -> 2004;
	1784 -> 2004;
	1785 -> 2004;
	1786 -> 2004;
	1787 -> 2004;
	1788 -> 2004;
	1789 -> 2004;
	1790 -> 2004;
	1791 -> 2004;
	1792 -> 2004;
	1793 -> 2004;
	1794 -> 2004;
	1795 -> 2004;
	1796 -> 2004;
	1797 -> 2004;
	1798 -> 2004;
	1799 -> 2004;
	1800 -> 2004;
	1801 -> 2004;
	1802 -> 2004;
	1803 -> 2004;
	1804 -> 2004;
	1805 -> 2004;
	1806 -> 2004;
	1807 -> 2004;
	1808 -> 2004;
	1809 -> 2004;
	1810 -> 2004;
	1811 -> 2004;
	1812 -> 2004;
	1813 -> 2004;
	1814 -> 2004;
	1815 -> 2004;
	1816 -> 2004;
	1817 -> 2004;
	1818 -> 2004;
	1819 -> 2004;
	1820 -> 2004;
	1821 -> 2004;
	1822 -> 2004;
	1823 -> 2004;
	1824 -> 2004;
	1825 -> 2004;
	1826 -> 2004;
	1827 -> 2004;
	1828 -> 2004;
	1829 -> 2004;
	1830 -> 2004;
	1831 -> 2004;
	1832 -> 2004;
	1833 -> 2004;
	1834 -> 2004;
	1835 -> 2004;
	1836 -> 2004;
	1837 -> 2004;
	1838 -> 2004;
	1839 -> 2004;
	1840 -> 2004;
	1841 -> 2004;
	1842 -> 2004;
	1843 -> 2004;
	1844 -> 2004;
	1845 -> 2004;
	1846 -> 2004;
	1847 -> 2004;
	1848 -> 2004;
	1849 -> 2004;
	1850 -> 2004;
	1851 -> 2004;
	1852 -> 2004;
	1853 -> 2004;
	1854 -> 2004;
	1855 -> 2004;
	1856 -> 2004;
	1857 -> 2004;
	1858 -> 2004;
	1859 -> 2004;
	1860 -> 2004;
	1861 -> 2004;
	1862 -> 2004;
	1863 -> 2004;
	1864 -> 2004;
	1865 -> 2004;
	1866 -> 2004;
	1867 -> 2004;
	1868 -> 2004;
	1869 -> 2004;
	1870 -> 2004;
	1871 -> 2004;
	1872 -> 2004;
	1873 -> 2004;
	1874 -> 2004;
	1875 -> 2004;
	1876 -> 2004;
	1877 -> 2004;
	1878 -> 2004;
	1879 -> 2004;
	1880 -> 2004;
	1881 -> 2004;
	1882 -> 2004;
	1883 -> 2004;
	1884 -> 2004;
	1885 -> 2004;
	1886 -> 2004;
	1887 -> 2004;
	1888 -> 2004;
	1889 -> 2004;
	1890 -> 2004;
	1891 -> 2004;
	1892 -> 2004;
	1893 -> 2004;
	1894 -> 2004;
	1895 -> 2004;
	1896 -> 2004;
	1897 -> 2004;
	1898 -> 2004;
	1899 -> 2004;
	1900 -> 2004;
	1901 -> 2004;
	1902 -> 2004;
	1903 -> 2004;
	1904 -> 2004;
	1905 -> 2004;
	1906 -> 2004;
	1907 -> 2004;
	1908 -> 2004;
	1909 -> 2004;
	1910 -> 2004;
	1911 -> 2004;
	1912 -> 2004;
	1913 -> 2004;
	1914 -> 2004;
	1915 -> 2004;
	1916 -> 2004;
	1917 -> 2004;
	1918 -> 2004;
	1919 -> 2004;
	1920 -> 2004;
	1921 -> 2004;
	1922 -> 2004;
	1923 -> 2004;
	1924 -> 2004;
	1925 -> 2004;
	1926 -> 2004;
	1927 -> 2004;
	1928 -> 2004;
	1929 -> 2004;
	1930 -> 2004;
	1931 -> 2004;
	1932 -> 2004;
	1933 -> 2004;
	1934 -> 2004;
	1935 -> 2004;
	1936 -> 2004;
	1937 -> 2004;
	1938 -> 2004;
	1939 -> 2004;
	1940 -> 2004;
	1941 -> 2004;
	1942 -> 2004;
	1943 -> 2004;
	1944 -> 2004;
	1945 -> 2004;
	1946 -> 2004;
	1947 -> 2004;
	1948 -> 2004;
	1949 -> 2004;
	1950 -> 2004;
	1951 -> 2004;
	1952 -> 2004;
	1953 -> 2004;
	1954 -> 2004;
	1955 -> 2004;
	1956 -> 2004;
	1957 -> 2004;
	1958 -> 2004;
	1959 -> 2004;
	1960 -> 2004;
	1961 -> 2004;
	1962 -> 2004;
	1963 -> 2004;
	1964 -> 2004;
	1965 -> 2004;
	1966 -> 2004;
	1967 -> 2004;
	1968 -> 2004;
	1969 -> 2004;
	1970 -> 2004;
	1971 -> 2004;
	1972 -> 2004;
	1973 -> 2004;
	1974 -> 2004;
	1975 -> 2004;
	1976 -> 2004;
	1977 -> 2004;
	1978 -> 2004;
	1979 -> 2004;
	1980 -> 2004;
	1981 -> 2004;
	1982 -> 2004;
	1983 -> 2004;
	1984 -> 2004;
	1985 -> 2004;
	1986 -> 2004;
	1987 -> 2004;
	1988 -> 2004;
	1989 -> 2004;
	1990 -> 2004;
	1991 -> 2004;
	1992 -> 2004;
	1993 -> 2004;
	1994 -> 2004;
	1995 -> 2004;
	1996 -> 2004;
	1997 -> 2004;
	1998 -> 2004;
	1999 -> 2004;
	2000 -> 2004;
	2001 -> 2004;
	2002 -> 2004;
	2003 -> 2004;
	2004 -> 2005;
	2004 -> 2006;
	2004 -> 2007;
	2004 -> 2008;
	2004 -> 2009;
	2004 -> 2010;
	2004 -> 2011;
	2004 -> 2012;
	2004 -> 2013;
	2004 -> 2014;
	2004 -> 2015;
	2004 -> 2016;
	2004 -> 2017;
	2004 -> 2018;
	2004 -> 2019;
	2004 -> 2020;
	2004 -> 2021;
	2004 -> 2022;
	2004 -> 2023;
	2004 -> 2024;
	2004 -> 2025;
	2004 -> 2026;
	2004 -> 2027;
	2004 -> 2028;
	2004 -> 2029;
	2004 -> 2030;
	2004 -> 2031;
	2004 -> 2032;
	2004 -> 2033;
	2004 -> 2034;
	2004 -> 2035;
	2004 -> 2036;
	2004 -> 2037;
	2004 -> 2038;
	2004 -> 2039;
	2004 -> 2040;
	2004 -> 2041;
	2004 -> 2042;
	2004 -> 2043;
	2004 -> 2044;
	2004 -> 2045;
	2004 -> 2046;
	2004 -> 2047;
	2004 -> 2048;
	2004 -> 2049;
	2004 -> 2050;
	2004 -> 2051;
	2004 -> 2052;
	2004 -> 2053;
	2004 -> 2054;
	2004 -> 2055;
	2004 -> 2056;
	2004 -> 2057;
	2004 -> 2058;
	2004 -> 2059;
	2004 -> 2060;
	2004 -> 2061;
	2004 -> 2062;
	2004 -> 2063;
	2004 -> 2064;
	2004 -> 2065;
	2004 -> 2066;
	2004 -> 2067;
	2004 -> 2068;
	2004 -> 2069;
	2004 -> 2070;
	2004 -> 2071;
	2004 -> 2072;
	2004 -> 2073;
	2004 -> 2074;
	2004 -> 2075;
	2004 -> 2076;
	2004 -> 2077;
	2004 -> 2078;
	2004 -> 2079;
	2004 -> 2080;
	2004 -> 2081;
	2004 -> 2082;
	2004 -> 2083;
	2004 -> 2084;
	2004 -> 2085;
	2004 -> 2086;
	2004 -> 2087;
	2004 -> 2088;
	2004 -> 2089;
	2004 -> 2090;
	2004 -> 2091;
	2004 -> 2092;
	2004 -> 2093;
	2004 -> 2094;
	2004 -> 2095;
	2004 -> 2096;
	2004 -> 2097;
	2004 -> 2098;
	2004 -> 2099;
	2004 -> 2100;
	2004 -> 2101;
	2004 -> 2102;
	2004 -> 2103;
	2004 -> 2104;
	2004 -> 2105;
	2004 -> 2106;
	2004 -> 2107;
	2004 -> 2108;
	2004 -> 2109;
	2004 -> 2110;
	2004 -> 2111;
	2004 -> 2112;
	2004 -> 2113;
	2004 -> 2114;
	2004 -> 2115;
	2004 -> 2116;
	2004 -> 2117;
	2004 -> 2118;
	2004 -> 2119;
	2004 -> 2120;
	2004 -> 2121;
	2004 -> 2122;
	2004 -> 2123;
	2004 -> 2124;
	2004 -> 2125;
	2004 -> 2126;
	2004 -> 2127;
	2004 -> 2128;
	2004 -> 2129;
	2004 -> 2130;
	2004 -> 2131;
	2004 -> 2132;
	2004 -> 2133;
	2004 -> 2134;
	2004 -> 2135;
	2004 -> 2136;
	2004 -> 2137;
	2004 -> 2138;
	2004 -> 2139;
	2004 -> 2140;
	2004 -> 2141;
	2004 -> 2142;
	2004 -> 2143;
	2004 -> 2144;
	2004 -> 2145;
	2004 -> 2146;
	2004 -> 2147;
	2004 -> 2148;
	2004 -> 2149;
	2004 -> 2150;
	2004 -> 2151;
	2004 -> 2152;
	2004 -> 2153;
	2004 -> 2154;
	2004 -> 2155;
	2004 -> 2156;
	2004 -> 2157;
	2004 -> 2158;
	2004 -> 2159;
	2004 -> 2160;
	2004 -> 2161;
	2004 -> 2162;
	2004 -> 2163;
	2004 -> 2164;
	2004 -> 2165;
	2004 -> 2166;
	2004 -> 2167;
	2004 -> 2168;
	2004 -> 2169;
	2004 -> 2170;
	2004 -> 2171;
	2004 -> 2172;
	2004 -> 2173;
	2004 -> 2174;
	2004 -> 2175;
	2004 -> 2176;
	2004 -> 2177;
	2004 -> 2178;
	2004 -> 2179;
	2004 -> 2180;
	2004 -> 2181;
	2004 -> 2182;
	2004 -> 2183;
	2004 -> 2184;
	2004 -> 2185;
	2004 -> 2186;
	2004 -> 2187;
	2004 -> 2188;
	2004 -> 2189;
	2004 -> 2190;
	2004 -> 2191;
	2004 -> 2192;
	2004 -> 2193;
	2004 -> 2194;
	2004 -> 2195;
	2004 -> 2196;
	2004 -> 2197;
	2004 -> 2198;
	2004 -> 2199;
	2004 -> 2200;
	2004 -> 2201;
	2004 -> 2202;
	2004 -> 2203;
	2004 -> 2204;
	2004 -> 2205;
	2004 -> 2206;
	2004 -> 2207;
	2004 -> 2208;
	2004 -> 2209;
	2004 -> 2210;
	2004 -> 2211;
	2004 -> 2212;
	2004 -> 2213;
	2004 -> 2214;
	2004 -> 2215;
	2004 -> 2216;
	2004 -> 2217;
	2004 -> 2218;
	2004 -> 2219;
	2004 -> 2220;
	2004 -> 2221;
	2004 -> 2222;
	2004 -> 2223;
	2004 -> 2224;
	2004 -> 2225;
	2004 -> 2226;
	2004 -> 2227;
	2004 -> 2228;
	2004 -> 2229;
	2004 -> 2230;
	2004 -> 2231;
	2004 -> 2232;
	2004 -> 2233;
	2004 -> 2234;
	2004 -> 2235;
	2004 -> 2236;
	2004 -> 2237;
	2004 -> 2238;
	2004 -> 2239;
	2004 -> 2240;
	2004 -> 2241;
	2004 -> 2242;
	2004 -> 2243;
	2004 -> 2244;
	2004 -> 2245;
	2004 -> 2246;
	2004 -> 2247;
	2004 -> 2248;
	2004 -> 2249;
	2004 -> 2250;
	2004 -> 2251;
	2004 -> 2252;
	2004 -> 2253;
	2004 -> 2254;
	2004 -> 2255;
	2004 -> 2256;
	2004 -> 2257;
	2004 -> 2258;
	2004 -> 2259;
	2004 -> 2260;
	2004 -> 2261;
	2004 -> 2262;
	2004 -> 2263;
	2004 -> 2264;
	2004 -> 2265;
	2004 -> 2266;
	2004 -> 2267;
	2004 -> 2268;
	2004 -> 2269;
	2004 -> 2270;
	2004 -> 2271;
	2004 -> 2272;
	2004 -> 2273;
	2004 -> 2274;
	2004 -> 2275;
	2004 -> 2276;
	2004 -> 2277;
	2004 -> 2278;
	2004 -> 2279;
	2004 -> 2280;
	2004 -> 2281;
	2004 -> 2282;
	2004 -> 2283;
	2004 -> 2284;
	2004 -> 2285;
	2004 -> 2286;
	2004 -> 2287;
	2004 -> 2288;
	2004 -> 2289;
	2004 -> 2290;
	2004 -> 2291;
	2004 -> 2292;
	2004 -> 2293;
	2004 -> 2294;
	2004 -> 2295;
	2004 -> 2296;
	2004 -> 2297;
	2004 -> 2298;
	2004 -> 2299;
	2004 -> 2300;
	2004 -> 2301;
	2004 -> 2302;
	2004 -> 2303;
	2004 -> 2304;
	2004 -> 2305;
	2004 -> 2306;
	2004 -> 2307;
	2004 -> 2308;
	2004 -> 2309;
	2004 -> 2310;
	2004 -> 2311;
	2004 -> 2312;
	2004 -> 2313;
	2004 -> 2314;
	2004 -> 2315;
	2004 -> 2316;
	2004 -> 2317;
	2004 -> 2318;
	2004 -> 2319;
	2004 -> 2320;
	2004 -> 2321;
	2004 -> 2322;
	2004 -> 2323;
	2004 -> 2324;
	2004 -> 2325;
	2004 -> 2326;
	2004 -> 2327;
	2004 -> 2328;
	2004 -> 2329;
	2004 -> 2330;
	2004 -> 2331;
	2004 -> 2332;
	2004 -> 2333;
	2004 -> 2334;
	2004 -> 2335;
	2004 -> 2336;
	2004 -> 2337;
	2004 -> 2338;
	2004 -> 2339;
	2004 -> 2340;
	2004 -> 2341;
	2004 -> 2342;
	2004 -> 2343;
	2004 -> 2344;
	2004 -> 2345;
	2004 -> 2346;
	2004 -> 2347;
	2004 -> 2348;
	2004 -> 2349;
	2004 -> 2350;
	2004 -> 2351;
	2004 -> 2352;
	2004 -> 2353;
	2004 -> 2354;
	2004 -> 2355;
	2004 -> 2356;
	2004 -> 2357;
	2004 -> 2358;
	2004 -> 2359;
	2004 -> 2360;
	2004 -> 2361;
	2004 -> 2362;
	2004 -> 2363;
	2004 -> 2364;
	2004 -> 2365;
	2004 -> 2366;
	2004 -> 2367;
	2004 -> 2368;
	2004 -> 2369;
	2004 -> 2370;
	2004 -> 2371;
	2004 -> 2372;
	2004 -> 2373;
	2004 -> 2374;
	2004 -> 2375;
	2004 -> 2376;
	2004 -> 2377;
	2004 -> 2378;
	2004 -> 2379;
	2004 -> 2380;
	2004 -> 2381;
	2004 -> 2382;
	2004 -> 2383;
	2004 -> 2384;
	2004 -> 2385;
	2004 -> 2386;
	2004 -> 2387;
	2004 -> 2388;
	2004 -> 2389;
	2004 -> 2390;
	2004 -> 2391;
	2004 -> 2392;
	2004 -> 2393;
	2004 -> 2394;
	2004 -> 2395;
	2004 -> 2396;
	2004 -> 2397;
	2004 -> 2398;
	2004 -> 2399;
	2004 -> 2400;
	2004 -> 2401;
	2004 -> 2402;
	2004 -> 2403;
	2004 -> 2404;
	2004 -> 2405;
	2004 -> 2406;
	2004 -> 2407;
	2004 -> 2408;
	2004 -> 2409;
	2004 -> 2410;
	2004 -> 2411;
	2004 -> 2412;
	2004 -> 2413;
	2004 -> 2414;
	2004 -> 2415;
	2004 -> 2416;
	2004 -> 2417;
	2004 -> 2418;
	2004 -> 2419;
	2004 -> 2420;
	2004 -> 2421;
	2004 -> 2422;
	2004 -> 2423;
	2004 -> 2424;
	2004 -> 2425;
	2004 -> 2426;
	2004 -> 2427;
	2004 -> 2428;
	2004 -> 2429;
	2004 -> 2430;
	2004 -> 2431;
	2004 -> 2432;
	2004 -> 2433;
	2004 -> 2434;
	2004 -> 2435;
	2004 -> 2436;
	2004 -> 2437;
	2004 -> 2438;
	2004 -> 2439;
	2004 -> 2440;
	2004 -> 2441;
	2004 -> 2442;
	2004 -> 2443;
	2004 -> 2444;
	2004 -> 2445;
	2004 -> 2446;
	2004 -> 2447;
	2004 -> 2448;
	2004 -> 2449;
	2004 -> 2450;
	2004 -> 2451;
	2004 -> 2452;
	2004 -> 2453;
	2004 -> 2454;
	2004 -> 2455;
	2004 -> 2456;
	2004 -> 2457;
	2004 -> 2458;
	2004 -> 2459;
	2004 -> 2460;
	2004 -> 2461;
	2004 -> 2462;
	2004 -> 2463;
	2004 -> 2464;
	2004 -> 2465;
	2004 -> 2466;
	2004 -> 2467;
	2004 -> 2468;
	2004 -> 2469;
	2004 -> 2470;
	2004 -> 2471;
	2004 -> 2472;
	2004 -> 2473;
	2004 -> 2474;
	2004 -> 2475;
	2004 -> 2476;
	2004 -> 2477;
	2004 -> 2478;
	2004 -> 2479;
	2004 -> 2480;
	2004 -> 2481;
	2004 -> 2482;
	2004 -> 2483;
	2004 -> 2484;
	2004 -> 2485;
	2004 -> 2486;
	2004 -> 2487;
	2004 -> 2488;
	2004 -> 2489;
	2004 -> 2490;
	2004 -> 2491;
	2004 -> 2492;
	2004 -> 2493;
	2004 -> 2494;
	2004 -> 2495;
	2004 -> 2496;
	2004 -> 2497;
	2004 -> 2498;
	2004 -> 2499;
	2004 -> 2500;
	2004 -> 2501;
	2004 -> 2502;
	2004 -> 2503;
	2004 -> 2504;
	2005 -> 2505;
	2006 -> 2505;
	2007 -> 2505;
	2008 -> 2505;
	2009 -> 2505;
	2010 -> 2505;
	2011 -> 2505;
	2012 -> 2505;
	2013 -> 2505;
	2014 -> 2505;
	2015 -> 2505;
	2016 -> 2505;
	2017 -> 2505;
	2018 -> 2505;
	2019 -> 2505;
	2020 -> 2505;
	2021 -> 2505;
	2022 -> 2505;
	2023 -> 2505;
	2024 -> 2505;
	2025 -> 2505;
	2026 -> 2505;
	2027 -> 2505;
	2028 -> 2505;
	2029 -> 2505;
	2030 -> 2505;
	2031 -> 2505;
	2032 -> 2505;
	2033 -> 2505;
	2034 -> 2505;
	2035 -> 2505;
	2036 -> 2505;
	2037 -> 2505;
	2038 -> 2505;
	2039 -> 2505;
	2040 -> 2505;
	2041 -> 2505;
	2042 -> 2505;
	2043 -> 2505;
	2044 -> 2505;
	2045 -> 2505;
	2046 -> 2505;
	2047 -> 2505;
	2048 -> 2505;
	2049 -> 2505;
	2050 -> 2505;
	2051 -> 2505;
	2052 -> 2505;
	2053 -> 2505;
	2054 -> 2505;
	2055 -> 2505;
	2056 -> 2505;
	2057 -> 2505;
	2058 -> 2505;
	2059 -> 2505;
	2060 -> 2505;
	2061 -> 2505;
	2062 -> 2505;
	2063 -> 2505;
	2064 -> 2505;
	2065 -> 2505;
	2066 -> 2505;
	2067 -> 2505;
	2068 -> 2505;
	2069 -> 2505;
	2070 -> 2505;
	2071 -> 2505;
	2072 -> 2505;
	2073 -> 2505;
	2074 -> 2505;
	2075 -> 2505;
	2076 -> 2505;
	2077 -> 2505;
	2078 -> 2505;
	2079 -> 2505;
	2080 -> 2505;
	2081 -> 2505;
	2082 -> 2505;
	2083 -> 2505;
	2084 -> 2505;
	2085 -> 2505;
	2086 -> 2505;
	2087 -> 2505;
	2088 -> 2505;
	2089 -> 2505;
	2090 -> 2505;
	2091 -> 2505;
	2092 -> 2505;
	2093 -> 2505;
	2094 -> 2505;
	2095 -> 2505;
	2096 -> 2505;
	2097 -> 2505;
	2098 -> 2505;
	2099 -> 2505;
	2100 -> 2505;
	2101 -> 2505;
	2102 -> 2505;
	2103 -> 2505;
	2104 -> 2505;
	2105 -> 2505;
	2106 -> 2505;
	2107 -> 2505;
	2108 -> 2505;
	2109 -> 2505;
	2110 -> 2505;
	2111 -> 2505;
	2112 -> 2505;
	2113 -> 2505;
	2114 -> 2505;
	2115 -> 2505;
	2116 -> 2505;
	2117 -> 2505;
	2118 -> 2505;
	2119 -> 2505;
	2120 -> 2505;
	2121 -> 2505;
	2122 -> 2505;
	2123 -> 2505;
	2124 -> 2505;
	2125 -> 2505;
	2126 -> 2505;
	2127 -> 2505;
	2128 -> 2505;
	2129 -> 2505;
	2130 -> 2505;
	2131 -> 2505;
	2132 -> 2505;
	2133 -> 2505;
	2134 -> 2505;
	2135 -> 2505;
	2136 -> 2505;
	2137 -> 2505;
	2138 -> 2505;
	2139 -> 2505;
	2140 -> 2505;
	2141 -> 2505;
	2142 -> 2505;
	2143 -> 2505;
	2144 -> 2505;
	2145 -> 2505;
	2146 -> 2505;
	2147 -> 2505;
	2148 -> 2505;
	2149 -> 2505;
	2150 -> 2505;
	2151 -> 2505;
	2152 -> 2505;
	2153 -> 2505;
	2154 -> 2505;
	2155 -> 2505;
	2156 -> 2505;
	2157 -> 2505;
	2158 -> 2505;
	2159 -> 2505;
	2160 -> 2505;
	2161 -> 2505;
	2162 -> 2505;
	2163 -> 2505;
	2164 -> 2505;
	2165 -> 2505;
	2166 -> 2505;
	2167 -> 2505;
	2168 -> 2505;
	2169 -> 2505;
	2170 -> 2505;
	2171 -> 2505;
	2172 -> 2505;
	2173 -> 2505;
	2174 -> 2505;
	2175 -> 2505;
	2176 -> 2505;
	2177 -> 2505;
	2178 -> 2505;
	2179 -> 2505;
	2180 -> 2505;
	2181 -> 2505;
	2182 -> 2505;
	2183 -> 2505;
	2184 -> 2505;
	2185 -> 2505;
	2186 -> 2505;
	2187 -> 2505;
	2188 -> 2505;
	2189 -> 2505;
	2190 -> 2505;
	2191 -> 2505;
	2192 -> 2505;
	2193 -> 2505;
	2194 -> 2505;
	2195 -> 2505;
	2196 -> 2505;
	2197 -> 2505;
	2198 -> 2505;
	2199 -> 2505;
	2200 -> 2505;
	2201 -> 2505;
	2202 -> 2505;
	2203 -> 2505;
	2204 -> 2505;
	2205 -> 2505;
	2206 -> 2505;
	2207 -> 2505;
	2208 -> 2505;
	2209 -> 2505;
	2210 -> 2505;
	2211 -> 2505;
	2212 -> 2505;
	2213 -> 2505;
	2214 -> 2505;
	2215 -> 2505;
	2216 -> 2505;
	2217 -> 2505;
	2218 -> 2505;
	2219 -> 2505;
	2220 -> 2505;
	2221 -> 2505;
	2222 -> 2505;
	2223 -> 2505;
	2224 -> 2505;
	2225 -> 2505;
	2226 -> 2505;
	2227 -> 2505;
	2228 -> 2505;
	2229 -> 2505;
	2230 -> 2505;
	2231 -> 2505;
	2232 -> 2505;
	2233 -> 2505;
	2234 -> 2505;
	2235 -> 2505;
	2236 -> 2505;
	2237 -> 2505;
	2238 -> 2505;
	2239 -> 2505;
	2240 -> 2505;
	2241 -> 2505;
	2242 -> 2505;
	2243 -> 2505;
	2244 -> 2505;
	2245 -> 2505;
	2246 -> 2505;
	2247 -> 2505;
	2248 -> 2505;
	2249 -> 2505;
	2250 -> 2505;
	2251 -> 2505;
	2252 -> 2505;
	2253 -> 2505;
	2254 -> 2505;
	2255 -> 2505;
	2256 -> 2505;
	2257 -> 2505;
	2258 -> 2505;
	2259 -> 2505;
	2260 -> 2505;
	2261 -> 2505;
	2262 -> 2505;
	2263 -> 2505;
	2264 -> 2505;
	2265 -> 2505;
	2266 -> 2505;
	2267 -> 2505;
	2268 -> 2505;
	2269 -> 2505;
	2270 -> 2505;
	2271 -> 2505;
	2272 -> 2505;
	2273 -> 2505;
	2274 -> 2505;
	2275 -> 2505;
	2276 -> 2505;
	2277 -> 2505;
	2278 -> 2505;
	2279 -> 2505;
	2280 -> 2505;
	2281 -> 2505;
	2282 -> 2505;
	2283 -> 2505;
	2284 -> 2505;
	2285 -> 2505;
	2286 -> 2505;
	2287 -> 2505;
	2288 -> 2505;
	2289 -> 2505;
	2290 -> 2505;
	2291 -> 2505;
	2292 -> 2505;
	2293 -> 2505;
	2294 -> 2505;
	2295 -> 2505;
	2296 -> 2505;
	2297 -> 2505;
	2298 -> 2505;
	2299 -> 2505;
	2300 -> 2505;
	2301 -> 2505;
	2302 -> 2505;
	2303 -> 2505;
	2304 -> 2505;
	2305 -> 2505;
	2306 -> 2505;
	2307 -> 2505;
	2308 -> 2505;
	2309 -> 2505;
	2310 -> 2505;
	2311 -> 2505;
	2312 -> 2505;
	2313 -> 2505;
	2314 -> 2505;
	2315 -> 2505;
	2316 -> 2505;
	2317 -> 2505;
	2318 -> 2505;
	2319 -> 2505;
	2320 -> 2505;
	2321 -> 2505;
	2322 -> 2505;
	2323 -> 2505;
	2324 -> 2505;
	2325 -> 2505;
	2326 -> 2505;
	2327 -> 2505;
	2328 -> 2505;
	2329 -> 2505;
	2330 -> 2505;
	2331 -> 2505;
	2332 -> 2505;
	2333 -> 2505;
	2334 -> 2505;
	2335 -> 2505;
	2336 -> 2505;
	2337 -> 2505;
	2338 -> 2505;
	2339 -> 2505;
	2340 -> 2505;
	2341 -> 2505;
	2342 -> 2505;
	2343 -> 2505;
	2344 -> 2505;
	2345 -> 2505;
	2346 -> 2505;
	2347 -> 2505;
	2348 -> 2505;
	2349 -> 2505;
	2350 -> 2505;
	2351 -> 2505;
	2352 -> 2505;
	2353 -> 2505;
	2354 -> 2505;
	2355 -> 2505;
	2356 -> 2505;
	2357 -> 2505;
	2358 -> 2505;
	2359 -> 2505;
	2360 -> 2505;
	2361 -> 2505;
	2362 -> 2505;
	2363 -> 2505;
	2364 -> 2505;
	2365 -> 2505;
	2366 -> 2505;
	2367 -> 2505;
	2368 -> 2505;
	2369 -> 2505;
	2370 -> 2505;
	2371 -> 2505;
	2372 -> 2505;
	2373 -> 2505;
	2374 -> 2505;
	2375 -> 2505;
	2376 -> 2505;
	2377 -> 2505;
	2378 -> 2505;
	2379 -> 2505;
	2380 -> 2505;
	2381 -> 2505;
	2382 -> 2505;
	2383 -> 2505;
	2384 -> 2505;
	2385 -> 2505;
	2386 -> 2505;
	2387 -> 2505;
	2388 -> 2505;
	2389 -> 2505;
	2390 -> 2505;
	2391 -> 2505;
	2392 -> 2505;
	2393 -> 2505;
	2394 -> 2505;
	2395 -> 2505;
	2396 -> 2505;
	2397 -> 2505;
	2398 -> 2505;
	2399 -> 2505;
	2400 -> 2505;
	2401 -> 2505;
	2402 -> 2505;
	2403 -> 2505;
	2404 -> 2505;
	2405 -> 2505;
	2406 -> 2505;
	2407 -> 2505;
	2408 -> 2505;
	2409 -> 2505;
	2410 -> 2505;
	2411 -> 2505;
	2412 -> 2505;
	2413 -> 2505;
	2414 -> 2505;
	2415 -> 2505;
	2416 -> 2505;
	2417 -> 2505;
	2418 -> 2505;
	2419 -> 2505;
	2420 -> 2505;
	2421 -> 2505;
	2422 -> 2505;
	2423 -> 2505;
	2424 -> 2505;
	2425 -> 2505;
	2426 -> 2505;
	2427 -> 2505;
	2428 -> 2505;
	2429 -> 2505;
	2430 -> 2505;
	2431 -> 2505;
	2432 -> 2505;
	2433 -> 2505;
	2434 -> 2505;
	2435 -> 2505;
	2436 -> 2505;
	2437 -> 2505;
	2438 -> 2505;
	2439 -> 2505;
	2440 -> 2505;
	2441 -> 2505;
	2442 -> 2505;
	2443 -> 2505;
	2444 -> 2505;
	2445 -> 2505;
	2446 -> 2505;
	2447 -> 2505;
	2448 -> 2505;
	2449 -> 2505;
	2450 -> 2505;
	2451 -> 2505;
	2452 -> 2505;
	2453 -> 2505;
	2454 -> 2505;
	2455 -> 2505;
	2456 -> 2505;
	2457 -> 2505;
	2458 -> 2505;
	2459 -> 2505;
	2460 -> 2505;
	2461 -> 2505;
	2462 -> 2505;
	2463 -> 2505;
	2464 -> 2505;
	2465 -> 2505;
	2466 -> 2505;
	2467 -> 2505;
	2468 -> 2505;
	2469 -> 2505;
	2470 -> 2505;
	2471 -> 2505;
	2472 -> 2505;
	2473 -> 2505;
	2474 -> 2505;
	2475 -> 2505;
	2476 -> 2505;
	2477 -> 2505;
	2478 -> 2505;
	2479 -> 2505;
	2480 -> 2505;
	2481 -> 2505;
	2482 -> 2505;
	2483 -> 2505;
	2484 -> 2505;
	2485 -> 2505;
	2486 -> 2505;
	2487 -> 2505;
	2488 -> 2505;
	2489 -> 2505;
	2490 -> 2505;
	2491 -> 2505;
	2492 -> 2505;
	2493 -> 2505;
	2494 -> 2505;
	2495 -> 2505;
	2496 -> 2505;
	2497 -> 2505;
	2498 -> 2505;
	2499 -> 2505;
	2500 -> 2505;
	2501 -> 2505;
	2502 -> 2505;
	2503 -> 2505;
	2504 -> 2505;
}
