digraph dag {
	0 -> 1;
	0 -> 2;
	0 -> 3;
	0 -> 4;
	0 -> 5;
	0 -> 6;
	0 -> 7;
	0 -> 8;
	0 -> 9;
	0 -> 10;
	0 -> 11;
	0 -> 12;
	0 -> 13;
	0 -> 14;
	0 -> 15;
	0 -> 16;
	0 -> 17;
	0 -> 18;
	0 -> 19;
	0 -> 20;
	0 -> 21;
	0 -> 22;
	0 -> 23;
	0 -> 24;
	0 -> 25;
	0 -> 26;
	0 -> 27;
	0 -> 28;
	0 -> 29;
	0 -> 30;
	0 -> 31;
	0 -> 32;
	0 -> 33;
	0 -> 34;
	0 -> 35;
	0 -> 36;
	0 -> 37;
	0 -> 38;
	0 -> 39;
	0 -> 40;
	0 -> 41;
	0 -> 42;
	0 -> 43;
	0 -> 44;
	0 -> 45;
	0 -> 46;
	0 -> 47;
	0 -> 48;
	0 -> 49;
	0 -> 50;
	0 -> 51;
	0 -> 52;
	0 -> 53;
	0 -> 54;
	0 -> 55;
	0 -> 56;
	0 -> 57;
	0 -> 58;
	0 -> 59;
	0 -> 60;
	0 -> 61;
	0 -> 62;
	0 -> 63;
	0 -> 64;
	0 -> 65;
	0 -> 66;
	0 -> 67;
	0 -> 68;
	0 -> 69;
	0 -> 70;
	0 -> 71;
	0 -> 72;
	0 -> 73;
	0 -> 74;
	0 -> 75;
	0 -> 76;
	0 -> 77;
	0 -> 78;
	0 -> 79;
	0 -> 80;
	0 -> 81;
	0 -> 82;
	0 -> 83;
	0 -> 84;
	0 -> 85;
	0 -> 86;
	0 -> 87;
	0 -> 88;
	0 -> 89;
	0 -> 90;
	0 -> 91;
	0 -> 92;
	0 -> 93;
	0 -> 94;
	0 -> 95;
	0 -> 96;
	0 -> 97;
	0 -> 98;
	0 -> 99;
	0 -> 100;
	1 -> 101;
	2 -> 101;
	3 -> 101;
	4 -> 101;
	5 -> 101;
	6 -> 101;
	7 -> 101;
	8 -> 101;
	9 -> 101;
	10 -> 101;
	11 -> 101;
	12 -> 101;
	13 -> 101;
	14 -> 101;
	15 -> 101;
	16 -> 101;
	17 -> 101;
	18 -> 101;
	19 -> 101;
	20 -> 101;
	21 -> 101;
	22 -> 101;
	23 -> 101;
	24 -> 101;
	25 -> 101;
	26 -> 101;
	27 -> 101;
	28 -> 101;
	29 -> 101;
	30 -> 101;
	31 -> 101;
	32 -> 101;
	33 -> 101;
	34 -> 101;
	35 -> 101;
	36 -> 101;
	37 -> 101;
	38 -> 101;
	39 -> 101;
	40 -> 101;
	41 -> 101;
	42 -> 101;
	43 -> 101;
	44 -> 101;
	45 -> 101;
	46 -> 101;
	47 -> 101;
	48 -> 101;
	49 -> 101;
	50 -> 101;
	51 -> 101;
	52 -> 101;
	53 -> 101;
	54 -> 101;
	55 -> 101;
	56 -> 101;
	57 -> 101;
	58 -> 101;
	59 -> 101;
	60 -> 101;
	61 -> 101;
	62 -> 101;
	63 -> 101;
	64 -> 101;
	65 -> 101;
	66 -> 101;
	67 -> 101;
	68 -> 101;
	69 -> 101;
	70 -> 101;
	71 -> 101;
	72 -> 101;
	73 -> 101;
	74 -> 101;
	75 -> 101;
	76 -> 101;
	77 -> 101;
	78 -> 101;
	79 -> 101;
	80 -> 101;
	81 -> 101;
	82 -> 101;
	83 -> 101;
	84 -> 101;
	85 -> 101;
	86 -> 101;
	87 -> 101;
	88 -> 101;
	89 -> 101;
	90 -> 101;
	91 -> 101;
	92 -> 101;
	93 -> 101;
	94 -> 101;
	95 -> 101;
	96 -> 101;
	97 -> 101;
	98 -> 101;
	99 -> 101;
	100 -> 101;
	101 -> 102;
	101 -> 103;
	101 -> 104;
	101 -> 105;
	101 -> 106;
	101 -> 107;
	101 -> 108;
	101 -> 109;
	101 -> 110;
	101 -> 111;
	101 -> 112;
	101 -> 113;
	101 -> 114;
	101 -> 115;
	101 -> 116;
	101 -> 117;
	101 -> 118;
	101 -> 119;
	101 -> 120;
	101 -> 121;
	101 -> 122;
	101 -> 123;
	101 -> 124;
	101 -> 125;
	101 -> 126;
	101 -> 127;
	101 -> 128;
	101 -> 129;
	101 -> 130;
	101 -> 131;
	101 -> 132;
	101 -> 133;
	101 -> 134;
	101 -> 135;
	101 -> 136;
	101 -> 137;
	101 -> 138;
	101 -> 139;
	101 -> 140;
	101 -> 141;
	101 -> 142;
	101 -> 143;
	101 -> 144;
	101 -> 145;
	101 -> 146;
	101 -> 147;
	101 -> 148;
	101 -> 149;
	101 -> 150;
	101 -> 151;
	101 -> 152;
	101 -> 153;
	101 -> 154;
	101 -> 155;
	101 -> 156;
	101 -> 157;
	101 -> 158;
	101 -> 159;
	101 -> 160;
	101 -> 161;
	101 -> 162;
	101 -> 163;
	101 -> 164;
	101 -> 165;
	101 -> 166;
	101 -> 167;
	101 -> 168;
	101 -> 169;
	101 -> 170;
	101 -> 171;
	101 -> 172;
	101 -> 173;
	101 -> 174;
	101 -> 175;
	101 -> 176;
	101 -> 177;
	101 -> 178;
	101 -> 179;
	101 -> 180;
	101 -> 181;
	101 -> 182;
	101 -> 183;
	101 -> 184;
	101 -> 185;
	101 -> 186;
	101 -> 187;
	101 -> 188;
	101 -> 189;
	101 -> 190;
	101 -> 191;
	101 -> 192;
	101 -> 193;
	101 -> 194;
	101 -> 195;
	101 -> 196;
	101 -> 197;
	101 -> 198;
	101 -> 199;
	101 -> 200;
	101 -> 201;
	102 -> 202;
	103 -> 202;
	104 -> 202;
	105 -> 202;
	106 -> 202;
	107 -> 202;
	108 -> 202;
	109 -> 202;
	110 -> 202;
	111 -> 202;
	112 -> 202;
	113 -> 202;
	114 -> 202;
	115 -> 202;
	116 -> 202;
	117 -> 202;
	118 -> 202;
	119 -> 202;
	120 -> 202;
	121 -> 202;
	122 -> 202;
	123 -> 202;
	124 -> 202;
	125 -> 202;
	126 -> 202;
	127 -> 202;
	128 -> 202;
	129 -> 202;
	130 -> 202;
	131 -> 202;
	132 -> 202;
	133 -> 202;
	134 -> 202;
	135 -> 202;
	136 -> 202;
	137 -> 202;
	138 -> 202;
	139 -> 202;
	140 -> 202;
	141 -> 202;
	142 -> 202;
	143 -> 202;
	144 -> 202;
	145 -> 202;
	146 -> 202;
	147 -> 202;
	148 -> 202;
	149 -> 202;
	150 -> 202;
	151 -> 202;
	152 -> 202;
	153 -> 202;
	154 -> 202;
	155 -> 202;
	156 -> 202;
	157 -> 202;
	158 -> 202;
	159 -> 202;
	160 -> 202;
	161 -> 202;
	162 -> 202;
	163 -> 202;
	164 -> 202;
	165 -> 202;
	166 -> 202;
	167 -> 202;
	168 -> 202;
	169 -> 202;
	170 -> 202;
	171 -> 202;
	172 -> 202;
	173 -> 202;
	174 -> 202;
	175 -> 202;
	176 -> 202;
	177 -> 202;
	178 -> 202;
	179 -> 202;
	180 -> 202;
	181 -> 202;
	182 -> 202;
	183 -> 202;
	184 -> 202;
	185 -> 202;
	186 -> 202;
	187 -> 202;
	188 -> 202;
	189 -> 202;
	190 -> 202;
	191 -> 202;
	192 -> 202;
	193 -> 202;
	194 -> 202;
	195 -> 202;
	196 -> 202;
	197 -> 202;
	198 -> 202;
	199 -> 202;
	200 -> 202;
	201 -> 202;
}
