1 1.58815034772 0.0326728450365 0.225166481227
2 1.45750753484 0.0640230192902 6.15864590626 1
3 1.88391391818 0.040714733988 0.0976037374345 1
4 2.32388731149 0.705737722501 0.0469147378977 1
5 2.65200101661 1.45409077542 0.0555131559151 1
6 1.94742898562 0.131696840587 0.0683738285456 1
7 1.84415452446 0.100614873556 0.0632424886468 1
8 1.55400371799 0.0379331579236 0.1436057693 1
9 2.06161336975 17.3109169894 0.0418317284099 1
10 1.64126386847 0.04371721251 0.0806474213284 1
11 1.62465648998 12.6977018525 1.31098269904 1
12 1.68586872236 0.122881378942 0.0342808121387 1
13 2.22480760326 6.73957924053 0.0553813683408 1
14 2.43646637138 0.06553539999 0.0817867850594 1
15 2.44719923175 0.101150675033 0.0492621679121 1
16 1.94028811243 0.0605483655975 0.199859298081 1
17 1.90380870289 1.70710769511 0.0775656798832 1
18 2.4310828767 0.170958190391 0.0698736423649 1
19 2.57832439922 0.0892563158209 0.064565748943 1
20 1.32465532787 0.13880550803 0.0377091988081 1
21 1.19588540383 0.0243426072057 0.0934235972942 1
22 2.00783317127 0.481982114614 0.055334436131 1
23 1.8281490931 0.0870757461242 0.0453326341843 1
24 1.8448389105 0.132117015973 0.0708384942932 1
25 1.55845192384 0.0794857118255 0.036345054448 1
26 2.38429266506 0.332018570383 0.0764574291046 1
27 2.09006584883 0.100572529623 0.150997238374 1
28 1.30559809033 0.0338604810907 0.0278168711142 1
29 1.6317169151 0.0700610092642 0.0543006267648 1
30 1.88036290588 0.0432862160999 0.0574265207074 1
31 1.10751945881 0.0424181051277 0.402912931613 1
32 2.57877760293 0.183185663599 1.97554441569 1
33 2.75692287903 0.228782681992 1.14135823073 1
34 0.845008690297 0.0218567812582 0.0301898160379 1
35 1.97292978551 0.0752122989611 13.2531820428 1
36 2.43839728667 12.8279674383 0.0717107220282 1
37 2.02896560908 0.117608680149 5.46763338369 1
38 2.15334307786 0.268863747916 0.0666938906312 1
39 2.44327902584 0.107999140672 0.0559740776185 1
40 1.96899655662 0.0780424265217 0.0659511317779 1
41 2.50820700726 14.2698274023 0.250337048234 1
42 2.09945202588 10.9189826517 0.107023454639 1
43 2.14176855779 0.050543694987 0.119511132466 1
44 2.05551180876 5.99760856877 0.0774018371677 1
45 1.36817988634 0.061805818278 0.137436733559 1
46 1.8969430613 0.147319097285 0.692530623449 1
47 3.08477356213 0.133497646915 0.114967757403 1
48 2.14189923143 0.04598502341 0.0835742846246 1
49 1.5693476759 0.0411291186678 0.289388018503 1
50 1.9123086093 0.0387798561156 0.304459690384 1
51 1.63238122232 0.189675271107 0.42990463674 1
52 1.08757004091 0.0520465567853 0.029741413943 1
53 2.36555589322 0.0640163762927 0.0499705221663 1
54 2.01575667002 0.0617091390859 0.0430732594505 1
55 1.48805806274 0.0464598745872 0.122409438909 1
56 1.98429166566 0.0617366009669 4.7711124181 1
57 2.84884183964 0.145183290219 0.0810564458083 1
58 2.02949101216 0.0781434883121 0.0761765876134 1
59 3.25930967039 0.374790631318 0.087489541287 1
60 2.07628289789 0.112295989244 0.0511118276668 1
61 1.77245245922 0.212758434884 0.485237156018 1
62 2.29493104964 0.0603694862985 0.101544380048 1
63 1.8389991233 0.0444622104398 0.206301866085 1
64 1.39014134945 0.176192069997 0.0598497141053 1
65 1.43061536672 3.18711870218 0.0503928620292 1
66 0.973167078706 0.044083232543 0.229117242087 1
67 2.13720449544 0.200073667302 0.0449246540531 1
68 1.79563209256 0.0667935584232 0.0663021144774 1
69 1.63373961457 0.0448574169796 0.0348654572422 1
70 2.18228001037 0.0521556749574 0.0841858933103 1
71 1.57583592771 0.0330088558604 0.594102313976 1
72 3.15460485102 0.0640703814392 3.80716660392 1
73 2.11073766583 0.0812873463105 7.95603042215 1
74 1.34594697034 0.039971461419 3.27327105152 1
75 1.77579586316 0.0433299380737 0.0438570748434 1
76 1.54330288493 0.0462954764449 2.50128383088 1
77 2.48469178163 0.0649590454438 0.0626906833133 1
78 1.29689661719 3.21794115322 0.0626110367814 1
79 2.83991354828 0.491334546315 0.0672173566538 1
80 1.35754142498 0.066475895992 0.308314920635 1
81 1.7146213247 0.0604282246685 0.63812990791 1
82 1.84705405127 0.093760185875 0.162681601291 1
83 1.3704159519 0.0315366223222 0.052707188882 1
84 2.04921931948 0.681201788019 0.0510237252418 1
85 1.37367714059 1.46548689715 0.122697952279 1
86 2.08055897184 0.0756691422259 0.295296317569 1
87 2.78878084862 0.503242732436 0.18272790359 1
88 2.59783560161 0.0731142651372 0.135489687101 1
89 2.67727812438 0.0739554627953 0.506619585085 1
90 2.49242097598 0.261144165495 0.0515514823288 1
91 1.05723032182 0.0289933612525 0.0223075099767 1
92 1.6647731208 0.38745697879 0.158885378825 1
93 2.48163457521 0.0830943239067 0.115041046557 1
94 2.02098929821 0.100425810867 0.419935691378 1
95 2.122366397 0.0491588912576 0.0793993916832 1
96 2.32066391974 0.0938158266303 0.0603685441457 1
97 2.16054205508 0.175794633607 0.0489768209929 1
98 1.97507708136 0.0959655316628 0.0684162181782 1
99 3.28133068605 0.901151281296 0.332767340893 1
100 3.03297115542 0.110130940973 0.0704843177419 1
101 1.45011777903 0.236835287586 0.0292216331326 1
102 2.34805429821 0.0881674571464 0.254369904886 1
103 2.45468917787 0.431281528793 0.0929344694482 1
104 2.3436447872 0.0472711724159 0.104100080785 1
105 2.06224361511 0.0596054695996 0.0492433433284 1
106 2.14751011113 0.0487859030574 0.107306319336 1
107 2.87086352466 0.150018691911 0.25905138207 1
108 1.87754923318 0.0786713371646 3.87629381201 1
109 2.2294797815 0.0505944515968 0.377882168813 1
110 2.34243274126 0.0481026789543 0.0532090781895 1
111 1.47919076338 0.0540797152323 0.0398870288395 1
112 2.71651507588 0.126717561789 0.19212885434 1
113 1.92422112356 0.0470971967307 6.61150299145 1
114 1.63849603897 0.0399595081907 0.0339091755965 1
115 1.90578604457 0.0400779493723 0.0793584896758 1
116 2.45038818619 0.110905329382 1.2845014274 1
117 2.63567438509 0.74728414442 0.0923471627061 1
118 1.89806443703 0.18506595534 0.610826141072 1
119 2.69874492416 0.162022838862 0.0833168484549 1
120 2.36121880182 0.193942572687 0.0872651378043 1
121 1.82530916401 0.501643212719 0.0421403793496 1
122 1.4460922771 0.195311815125 0.0477520274301 1
123 2.0177205526 0.0444650617529 0.268129099001 1
124 2.28258215551 0.05574193709 0.0489521081743 1
125 2.34174768218 0.076056961241 0.923723828863 1
126 2.22226605836 0.142806856873 0.0633083560571 1
127 1.80546133546 0.139065742454 0.037271046047 1
128 1.91958031107 0.0531235666111 0.207387215721 1
129 1.63355077867 0.190872307154 0.872358237386 1
130 1.32862884559 0.0676943888514 0.0282376147258 1
131 1.90844937422 0.0392259344801 0.0555186315059 1
132 1.61077801285 15.5817213998 0.110419780508 1
133 2.36212556254 0.124870703291 0.0635750601508 1
134 1.34386417609 0.0617138239944 0.031529215922 1
135 1.85600968891 0.120871477352 0.0371812235255 1
136 2.25656938051 0.108378522979 0.111587682516 1
137 1.74430501599 0.0351506950757 0.132615806545 1
138 1.42101287134 0.0295907279708 0.101727375561 1
139 1.8900700639 0.0767106594788 5.61926753742 1
140 2.06182769515 0.0449587839145 0.046417802786 1
141 1.4728026364 0.0667664075101 0.0361235470851 1
142 2.35093951276 0.149621546592 0.196864790833 1
143 1.64806879893 0.0529966925988 0.0507580779066 1
144 1.40905133552 0.147183376519 0.033734286611 1
145 1.28377018723 0.0278705749791 0.0356289697871 1
146 2.60047598888 0.119298587105 0.062588781773 1
147 1.77250229998 0.158740836389 0.379727246141 1
148 2.24894307053 0.0521546546805 0.0652125050253 1
149 2.46534425289 0.140108763457 0.051084690055 1
150 2.04994736169 0.0579839923538 0.0422870314203 1
151 2.16820591056 0.147756996832 0.337439639172 1
152 1.14047276665 0.0821694398602 0.0943283410406 1
153 1.32181279262 7.14345194713 0.0421474107834 1
154 2.1346633917 5.21761466028 0.0664593104434 1
155 1.99950039647 0.411995312082 0.0826958346922 1
156 1.74322017929 0.387208423622 0.213956535471 1
157 2.07883364242 6.1186275144 0.121478094181 1
158 2.49835193724 0.292389125967 1.26793791497 1
159 1.62514512894 0.0508493469518 0.0793223661111 1
160 1.63655821253 0.036596948424 0.03420090341 1
161 1.84864789158 0.0385615866053 0.0955645904063 1
162 2.78532317107 0.114711330456 0.250642593312 1
163 1.57802276485 0.0927915651758 0.105168075097 1
164 2.25546587195 0.085104503991 0.0844362602189 1
165 2.3732499684 0.0731676007715 0.0725861597046 1
166 1.78033462146 0.130056932801 0.0371196238208 1
167 2.46987308674 0.0664771252883 0.459464065116 1
168 2.6940215285 0.207119938526 0.328780171003 1
169 2.50479011036 0.140715886617 0.106471347181 1
170 2.20475522678 0.106683708408 7.12171725032 1
171 1.89587037229 0.119597227561 0.123292074053 1
172 2.77852523428 6.57385363854 0.0645242116532 1
173 2.44874491513 5.96267902224 0.282775047113 1
174 1.73785667828 0.118937648663 0.322998527375 1
175 1.38827208976 0.0787137665518 0.0474317844282 1
176 1.63593780853 0.0406801706859 0.803070659769 1
177 2.21806410947 0.0567237990492 0.183194128496 1
178 2.9785583602 0.397646217631 14.092653062 1
179 1.66441892659 0.0466681247754 0.0353557172463 1
180 1.51866674067 0.0503053441686 0.0376347048161 1
181 1.98052387796 0.101070725278 0.0408204453826 1
182 1.98760235127 0.264980518644 0.113374939032 1
183 1.99695985204 0.057760114893 0.0569066088506 1
184 1.84661089929 0.047719555636 1.14603662899 1
185 1.48478947281 0.0548623851743 0.0386655363814 1
186 2.13080119204 0.0655978957956 0.0552117641765 1
187 2.07338244679 0.0789868024791 0.127673789926 1
188 2.34031462367 0.125832891144 0.10053883947 1
189 2.63488646532 0.225290306016 0.127775291588 1
190 2.98279850652 0.0787631491237 0.0617811114295 1
191 2.20463727551 4.82254066206 0.150649340381 1
192 1.68516706675 0.0559698760772 0.311222966564 1
193 1.41841847706 0.0299455078664 0.0787826451754 1
194 2.32424187583 0.375998934173 0.0927929243613 1
195 2.23729818544 0.0764235684745 5.61414879277 1
196 2.59030538753 0.0709329883466 0.125556584199 1
197 2.38194238834 1.0723842159 0.214191199315 1
198 1.4135202642 0.033536421695 0.0362871451563 1
199 2.12333528176 0.0662519459145 0.275022788188 1
200 2.10083642398 0.0997102904407 0.0987442811257 1
201 1.41592086018 0.0455163720287 0.218363535912 1
202 1.96664797919 0.0585357438881 0.0429268347848 1
203 2.62756742202 0.0756591376085 0.108741057181 1
204 2.43890232196 0.053475971254 0.218644429562 1
205 1.57471000461 0.0430003011777 0.134916927735 1
206 2.28909678364 0.274544295467 0.0633939052103 1
207 1.97428339966 0.22068918261 0.0792535053378 1
208 1.23701305516 0.107499918249 0.0536808102402 1
209 2.60469616864 0.0560096449849 0.101889903567 1
210 2.67882954357 0.120959215613 0.243159100289 1
211 1.82432077142 0.0917589052634 0.0379057216108 1
212 1.88867176804 0.056372782043 0.0758765467256 1
213 2.29181816679 0.117379333961 0.0811886948794 1
214 2.06528446418 0.0898525150297 0.0574845307371 1
215 1.80493002369 0.0835978874293 0.587308408898 1
216 2.45265935804 0.125275837232 0.141422753095 1
217 1.69005738073 0.0339211931069 0.0356643794245 1
218 1.55494929745 0.0335267164336 0.0666731400722 1
219 2.35917941018 0.307487344669 0.0575987303967 1
220 2.46691518398 0.113143773729 0.0635238618561 1
221 1.80162130762 0.0704463653876 0.138199002788 1
222 1.83653108518 0.38909620157 0.31824227068 1
223 2.22355833221 0.211356297327 0.0901814110058 1
224 1.0755536753 0.0238496712225 0.0401708655725 1
225 2.2646962196 0.0480910134036 0.0616771637327 1
226 1.28091820768 0.0421891934833 0.0916850716769 1
227 1.27539009876 0.96860593636 0.259562911748 1
228 1.67349736722 0.286141743921 0.05054449676 1
229 1.76261378971 0.0998270276812 0.0882246622302 1
230 1.652863938 12.9578728578 0.332419052676 1
231 1.72643266995 0.065129755185 6.11758963027 1
232 1.52042217129 0.0305733883849 3.48895377672 1
233 2.4232141954 0.0553702300835 0.674989012695 1
234 2.15076408754 0.195565974164 0.134419334079 1
235 2.74654543766 0.0769499012121 0.0765557870839 1
236 2.3060686048 0.0494086589658 0.0558666951993 1
237 2.60697550378 0.0718774473585 0.132634827078 1
238 2.55424707901 0.180941405922 0.0527336189013 1
239 2.71012577525 0.0776384021206 0.0670354651952 1
240 1.97637250328 0.0426640665314 0.0788245905905 1
241 2.78731845642 0.402353329363 0.448367625665 1
242 1.59585164335 0.233760790344 0.255322699689 1
243 1.6500499448 3.68572748292 0.0411550213394 1
244 2.09294853432 0.200289624425 0.0902202252137 1
245 2.27840635468 0.225265579827 0.326483499964 1
246 2.70404631077 0.222077445239 0.129266547627 1
247 1.36895684728 0.141758189535 0.0509066020909 1
248 1.90681391501 0.0684121668596 0.067417830982 1
249 2.67660018167 0.228836329301 0.066721437942 1
250 0.828840038302 0.121174280906 0.0169095221491 1
251 2.6237097677 0.126689492972 0.957439851205 1
252 1.96004794002 3.72079534372 0.370485496748 1
253 1.329433495 0.0633581918809 0.0967364305032 1
254 1.55613334467 0.0477431660619 0.0319721873409 1
255 1.26131382545 0.0338659990032 0.0271547229586 1
256 2.35027730352 0.474760591682 0.060679986995 1
257 1.83533203032 0.222711938197 0.419241556907 1
258 1.95279756284 0.174828565798 0.150576771563 1
259 2.14426304303 0.042939243865 0.0769196507171 1
260 1.96451927215 0.0772707646901 0.193309686792 1
261 1.84423053823 0.037448566313 0.0743092629909 1
262 2.01936246075 0.151549351863 0.044906720118 1
263 1.98713057721 0.163021296963 0.368966436648 1
264 2.49348566306 0.103638664679 0.0612401941849 1
265 1.87059967323 0.112242164951 0.0528110012144 1
266 1.31418499501 3.38009346218 0.0291307582553 1
267 2.42421293422 0.0808013581836 0.0986953674589 1
268 1.99781531079 0.0485194772134 0.0485794684365 1
269 1.85571911881 0.0721659402491 0.117265994284 1
270 1.51266759131 0.469741038879 0.0622996698526 1
271 1.04259352913 0.0448783897701 0.0257628964341 1
272 2.13113001003 0.0914787647662 0.139761152157 1
273 1.80237316173 0.0923759792019 0.0798954467643 1
274 2.1899507884 0.11215663356 0.048239661105 1
275 2.06546377901 0.0490684927097 0.0918651941563 1
276 1.91316236954 0.0640890207952 0.0413332497017 1
277 2.62441588209 0.125462194898 0.1423559335 1
278 2.07717936813 0.084300666222 0.117652712834 1
279 1.79596429426 0.0410445350919 0.127184933686 1
280 2.21484908307 0.072857378348 0.845376026926 1
281 1.44945417071 0.0302425709976 0.107718562817 1
282 1.49674673581 0.510427534375 0.0387369656591 1
283 2.20927386249 0.0918958083653 1.06321181818 1
284 1.79638600791 0.0535642607869 0.0724666351893 1
285 1.49547260291 0.0310471531449 0.0302054638835 1
286 2.65912885185 0.117073795163 0.139533528716 1
287 1.16740581942 0.0684855201961 0.0243756210165 1
288 1.67060307563 0.0816078670873 0.0437731352325 1
289 3.06747650489 0.327700963176 0.106063064084 1
290 1.87602438256 0.0713795576735 0.342432178922 1
291 1.70893365713 0.0821235996611 0.0412814574722 1
292 1.53692780982 0.136191565715 0.100600188066 1
293 2.21168482172 0.0686358912376 0.0573241506502 1
294 1.99494269585 0.100637176401 0.129698283109 1
295 2.01306587773 0.0617854867888 0.062394756409 1
296 2.68963708923 0.0634439545508 0.119187329884 1
297 2.34766524827 0.105233901576 7.05761159933 1
298 1.58008238209 0.342012213561 0.0670395456809 1
299 2.69613516493 0.0649159257091 0.084877969313 1
300 1.03513715131 0.0223468250607 0.0878130317663 1
301 1.21299317248 0.0404647230403 0.125438051827 1
302 2.21092605842 0.0863156990835 0.192486558464 1
303 2.38297048147 0.0931112093362 0.0558585906415 1
304 2.33924967341 1.95957660354 0.823131185829 1
305 1.28393765012 0.037862838572 0.051816924231 1
306 2.74626659327 0.470545271218 0.0837100654896 1
307 1.43944909807 0.0543665389256 0.0598683850018 1
308 2.15953993495 0.146387613789 0.0665702654548 1
309 1.53089457434 0.0641446854428 0.139309755113 1
310 3.19336796614 0.301216980888 0.0742345876935 1
311 1.60933556808 0.0399494784251 0.041273384473 1
312 2.05644926715 0.649747445592 0.150205437031 1
313 1.55117025806 0.0377126500178 0.245706384973 1
314 1.94633518488 0.642980214809 0.0846039077722 1
315 2.00631377561 0.0472949282564 0.119731542263 1
316 1.72050639532 0.136072811867 0.0729452264159 1
317 1.68569379272 0.190952761876 0.0338261120243 1
318 2.44278605457 0.156725673219 0.489060238601 1
319 1.1884590411 0.0497212652597 0.0501953131571 1
320 2.975924106 0.265845231564 0.346126536564 1
321 2.58627919475 0.120767119778 7.89395407252 1
322 1.78669331685 0.0930171547348 0.052051093554 1
323 2.06408186245 0.0866212803486 0.488788772194 1
324 2.77416764086 0.099710526903 0.181614797547 1
325 2.7709796383 0.0835616876011 0.0554515148723 1
326 1.80605847936 0.86731190017 0.106699371335 1
327 2.45512024058 0.386890376506 0.126890587776 1
328 1.68454235036 0.132398120105 0.0414756670254 1
329 2.08800401738 0.878396840707 0.497348021594 1
330 2.61309416726 0.0768221529868 0.0733562264493 1
331 2.39538679791 0.069850976654 0.123874607207 1
332 1.81444190407 0.198683966214 0.424843901597 1
333 1.88393125567 0.0434842784739 0.0557926906264 1
334 2.1252508906 0.0478592923181 0.0755938918881 1
335 1.00282765037 0.0247710651393 0.0230143692179 1
336 2.08927535033 0.290711227029 0.0528474750754 1
337 2.21229770302 0.0613710552015 0.0446979597302 1
338 2.29134190383 0.0643521756909 0.0471368172075 1
339 0.716017250037 0.0683737210981 0.0350793339292 1
340 2.52476811587 0.169008970509 0.555914781157 1
341 1.05200599534 0.051980639663 0.0335104157747 1
342 2.01898008278 0.0500374183393 0.0496804598241 1
343 1.46503397955 0.0486166864021 0.0812126501881 1
344 1.88878858093 0.0482356938806 0.0446624144612 1
345 1.9864539046 0.0775804344217 0.144224834918 1
346 2.59860173439 0.166823385594 0.093767250169 1
347 1.80356747229 0.0836933710054 0.858053791525 1
348 1.03378264414 0.27905404549 0.0288441692491 1
349 2.07380048208 0.153460496786 0.0764389024695 1
350 2.24929720326 0.283371031896 0.0532569418586 1
351 1.71926034328 1.44266944225 0.0481137431064 1
352 2.62390038635 0.185290445533 0.13986005857 1
353 1.2616903623 0.0682582448184 0.0265350765165 1
354 1.3211447951 11.5544891054 0.537324552152 1
355 1.71432322972 0.698065860851 0.467724356603 1
356 1.77387158859 0.0360600405835 0.0672221663611 1
357 1.7254625849 0.10637561157 0.0834156955959 1
358 1.7496155857 0.325116889263 0.0787057830696 1
359 0.760966068843 0.0160150038145 0.041834307496 1
360 2.33639324585 0.145381868374 0.0840113666628 1
361 2.26470484046 0.0558882997989 5.75993968138 1
362 1.90086103759 0.0533997782844 0.215088856111 1
363 1.62997234401 0.232865624717 0.395150926249 1
364 2.50077150612 0.0994512386977 17.1192157026 1
365 1.75869265799 0.0402737432174 0.151639802392 1
366 2.44138440347 5.00695819481 0.0685357526136 1
367 0.737091514414 0.0637557808555 0.0335657607031 1
368 1.92237737226 0.0636245458968 2.19874565591 1
369 2.46161230315 0.0581128640436 0.234253250119 1
370 2.68096591039 0.442094684083 0.0680786983941 1
371 1.78981283902 0.0551295774294 0.0708013270948 1
372 2.09227726786 0.0943631886342 0.0473344554671 1
373 2.30830445204 0.224657373248 0.169380886191 1
374 1.47408397859 0.050773708944 0.0863918284205 1
375 1.41389648188 0.0326559438903 0.0343701662964 1
376 2.5673620164 0.208914707509 0.0805287120849 1
377 2.30782455773 0.0595943866096 0.0556915671593 1
378 1.92866695513 0.0387113240498 0.191735936379 1
379 1.43202186462 0.0290224588242 0.0322569648304 1
380 2.37900246501 0.0819318270231 0.170785562858 1
381 0.545807693939 0.0936470392492 0.015114520753 1
382 2.51869608917 0.0597112647055 0.547641084113 1
383 2.22034853725 0.184450243289 0.0465685537376 1
384 2.24088931254 0.0483004720474 0.117403633826 1
385 2.25808227949 0.0571696767875 0.159812451446 1
386 1.98771361422 0.0777758810307 0.324847076935 1
387 2.82098049587 0.122928156649 0.0645873732895 1
388 1.77891776278 0.145840870048 0.458303028925 1
389 1.26688010643 0.0334387834044 0.122699500684 1
390 1.64102966034 0.0811271326246 0.0691709190388 1
391 1.51312152147 0.0334326067782 0.0434071117803 1
392 0.550176480912 0.0123381080156 0.0234259276049 1
393 2.63152168451 0.0876100886907 0.90245886045 1
394 3.08878284377 0.169513386558 0.0830601878904 1
395 1.65449706273 0.0777311176322 0.063562243277 1
396 1.19918815868 0.0474530553709 0.0283985187926 1
397 2.27109468491 0.0544772965414 0.633767242446 1
398 2.41539311287 0.648022436016 6.1808915807 1
399 1.40894046493 0.0525051522663 0.0316557233544 1
400 2.77058217314 0.324765213913 0.084235409825 1
401 2.27153256915 0.114120339729 0.0874744158764 1
402 1.06749189216 0.0243752062684 0.0488024988644 1
403 2.62339603684 0.0934721599801 0.0649601250877 1
404 2.84538741249 0.0743917603513 0.0883674778447 1
405 2.26065289616 0.204101445131 0.136874699109 1
406 2.22095320396 0.0604864249686 0.107622383919 1
407 2.49619305481 0.0803050072958 0.0682970021081 1
408 2.67289905669 0.0650211949582 0.871204105872 1
409 2.41502193967 0.197008600705 0.974714820948 1
410 2.4016232867 0.220991019257 0.168381106209 1
411 1.90370225615 0.0692153834273 0.0600926797249 1
412 2.35607626093 0.0600117586558 0.0815555120853 1
413 2.52854231177 0.164938991444 0.60230814137 1
414 2.17409304138 0.114499588368 0.0463825575769 1
415 2.17400335314 0.353145235598 0.0799555921099 1
416 1.28881186467 0.077663091099 0.0355079732901 1
417 1.93840623342 0.274971759527 0.0439521365333 1
418 2.23776475684 0.046681690176 0.598056586862 1
419 1.6188512741 0.435798603828 0.139525451053 1
420 2.49855082008 0.710171539415 0.139951937152 1
421 2.73843212014 1.87477729361 0.0721949654018 1
422 1.93252932413 0.0580238916442 5.04440170784 1
423 1.60016193656 0.0465712558116 0.129429743801 1
424 2.27997940066 0.129017562117 0.12314941811 1
425 1.50661682184 0.135816354059 0.0832091715282 1
426 2.22165144998 0.0514875450957 0.199140089596 1
427 1.98248310203 0.0459829142904 0.19565319686 1
428 1.85026486778 0.470108664042 0.134415024199 1
429 1.81446193888 0.146377547864 0.0907716800958 1
430 1.8680613653 0.0681423788619 0.511943455974 1
431 1.59411023402 0.0327440152943 14.3629031242 1
432 2.32309426309 0.336540065406 1.36605437815 1
433 1.44312585877 4.82203745489 0.54730334961 1
434 2.16731139168 7.71201660006 0.0451713395035 1
435 1.74173344204 0.0431552780225 0.0377213027777 1
436 2.53591219276 3.00529975097 0.425257796028 1
437 2.17597584969 0.0965945144516 0.0652957204996 1
438 1.63015518263 0.149597309148 0.130020146954 1
439 2.15611465839 0.0532636443261 0.11995958443 1
440 2.2854117424 0.0765197688598 0.058052124998 1
441 2.12589209711 0.0650344497377 0.104560121385 1
442 1.51736626305 0.0424703106425 0.458063597618 1
443 1.68486419716 0.0532319214463 0.0403664244851 1
444 1.42008483027 0.0915872493867 0.0358225803775 1
445 1.75563427479 0.035607822515 0.0642595276688 1
446 1.94651772979 0.510692690478 0.119995375201 1
447 1.78474078983 0.106716854255 0.0694691384388 1
448 2.5862011647 0.0814435022963 0.0541031183217 1
449 1.98832596486 0.0478474255642 0.0422727680733 1
450 1.89724528777 0.184325610107 0.115404386121 1
451 2.04301299586 0.100706511807 0.0628807691948 1
452 2.64829454872 0.0782661218494 0.668824426046 1
453 2.40466515764 0.141476991881 0.141424646757 1
454 2.36413181061 0.150765594779 0.0733465898478 1
455 1.96065073175 1.21167814097 0.0689020283391 1
456 1.3565105877 0.0345722137707 0.0313312074049 1
457 1.8564485255 0.112045222989 0.0397563938776 1
458 1.21026424474 0.0582285437714 0.0248593431774 1
459 2.58081433744 0.431317572703 0.0574375324663 1
460 1.77978864833 0.0970115015951 0.140369521672 1
461 1.46624203514 0.0315208425551 0.0307286633557 1
462 1.83054433833 0.230634817893 0.0428258544306 1
463 2.38947690726 0.0600753450324 0.0631896445966 1
464 1.952571803 0.0690948356975 0.068179860638 1
465 2.51688380448 0.0667351526265 0.0887883817462 1
466 2.53442625682 0.357312335932 0.0549050044598 1
467 2.84903593275 0.157297603074 0.099876357461 1
468 1.72391750247 0.0577925999785 0.0623200305289 1
469 1.65701413569 0.0507350859056 0.0460929661534 1
470 2.53527938914 0.135763817365 0.19632513074 1
471 3.17720557812 6.67412837344 0.0763089543724 1
472 1.28652072762 0.100475277472 0.0333786841297 1
473 2.32657543156 0.176503026512 0.263037093863 1
474 1.99584659577 0.0808680284202 0.42976462614 1
475 2.0485085933 0.0770094013946 0.10946401502 1
476 2.46583152875 0.457098954828 8.43408375274 1
477 1.74298055416 0.205800891481 0.0431467351851 1
478 2.01563395262 0.0464896750614 0.115533477571 1
479 2.62541941806 0.113680376949 0.0894954505045 1
480 1.50788773073 0.0383187986886 0.0891415507291 1
481 2.60861625014 0.187616889175 0.0702386406241 1
482 0.902810516768 0.11596664846 0.0425785107622 1
483 2.10459221288 0.0469978987153 7.87591630792 1
484 2.02754791749 0.918150928487 0.0689181171764 1
485 2.20324999918 0.157603683324 0.118255030705 1
486 2.62376171591 0.0757689755476 0.094270173969 1
487 2.03690664882 0.755673430191 1.00355143556 1
488 1.68348740096 0.0570118445593 3.94275612784 1
489 2.24869668039 1.74890752213 0.0951749937362 1
490 2.83491278387 0.0652936670452 0.215305977889 1
491 1.6887588613 0.0480504922755 0.217158924078 1
492 2.47193351586 0.141684388488 0.0760659607841 1
493 1.88455564559 0.0945922391848 0.0564850572623 1
494 2.31647950483 0.06057234091 0.115761548314 1
495 1.91761948906 0.295625232496 1.01285109894 1
496 2.16667455273 0.0980583838989 0.04448503701 1
497 1.82571879678 0.0392421427235 4.20166297127 1
498 2.02034351597 0.0458306998409 0.0545006635785 1
499 2.32686658417 0.0646809993898 0.195344992827 1
500 2.11197365067 0.208046681488 0.075676605381 1
501 2.35657806708 7.89124647235 0.198832040814 1
502 1.93763557458 0.0409669175217 0.0867830292412 2,3,4,5,6,7,8,9,10,11,12,13,14,15,16,17,18,19,20,21,22,23,24,25,26,27,28,29,30,31,32,33,34,35,36,37,38,39,40,41,42,43,44,45,46,47,48,49,50,51,52,53,54,55,56,57,58,59,60,61,62,63,64,65,66,67,68,69,70,71,72,73,74,75,76,77,78,79,80,81,82,83,84,85,86,87,88,89,90,91,92,93,94,95,96,97,98,99,100,101,102,103,104,105,106,107,108,109,110,111,112,113,114,115,116,117,118,119,120,121,122,123,124,125,126,127,128,129,130,131,132,133,134,135,136,137,138,139,140,141,142,143,144,145,146,147,148,149,150,151,152,153,154,155,156,157,158,159,160,161,162,163,164,165,166,167,168,169,170,171,172,173,174,175,176,177,178,179,180,181,182,183,184,185,186,187,188,189,190,191,192,193,194,195,196,197,198,199,200,201,202,203,204,205,206,207,208,209,210,211,212,213,214,215,216,217,218,219,220,221,222,223,224,225,226,227,228,229,230,231,232,233,234,235,236,237,238,239,240,241,242,243,244,245,246,247,248,249,250,251,252,253,254,255,256,257,258,259,260,261,262,263,264,265,266,267,268,269,270,271,272,273,274,275,276,277,278,279,280,281,282,283,284,285,286,287,288,289,290,291,292,293,294,295,296,297,298,299,300,301,302,303,304,305,306,307,308,309,310,311,312,313,314,315,316,317,318,319,320,321,322,323,324,325,326,327,328,329,330,331,332,333,334,335,336,337,338,339,340,341,342,343,344,345,346,347,348,349,350,351,352,353,354,355,356,357,358,359,360,361,362,363,364,365,366,367,368,369,370,371,372,373,374,375,376,377,378,379,380,381,382,383,384,385,386,387,388,389,390,391,392,393,394,395,396,397,398,399,400,401,402,403,404,405,406,407,408,409,410,411,412,413,414,415,416,417,418,419,420,421,422,423,424,425,426,427,428,429,430,431,432,433,434,435,436,437,438,439,440,441,442,443,444,445,446,447,448,449,450,451,452,453,454,455,456,457,458,459,460,461,462,463,464,465,466,467,468,469,470,471,472,473,474,475,476,477,478,479,480,481,482,483,484,485,486,487,488,489,490,491,492,493,494,495,496,497,498,499,500,501
503 1.45329916701 0.705294122311 0.0457701454294 502
504 2.87040732178 0.0864669285786 0.587643892563 502
505 1.38206677174 0.0407436836233 0.0277519026721 502
506 2.23637072326 0.0448192616385 0.616825701084 502
507 2.7911381468 0.0699778961796 0.0588169557996 502
508 1.72758596043 0.0413709971044 0.101969100527 502
509 2.32051704384 0.251001298344 0.111332062614 502
510 1.68725588936 0.0402839374831 0.0828364714423 502
511 2.33339377906 0.0539071640507 0.0508389634435 502
512 1.83695576191 0.0861629311682 0.0909876191317 502
513 2.29085347428 0.0596164565242 0.0465999486482 502
514 2.08873453035 0.162888656758 0.0532374588125 502
515 1.64793619528 0.0343046669857 0.191862943866 502
516 1.65364597978 0.0915645233959 0.108764417451 502
517 1.93118325596 0.634976484064 0.0426027945607 502
518 2.10741613452 0.0589349626428 0.143493353053 502
519 1.49014749225 0.033204638098 0.152276610683 502
520 1.46626597497 0.0442625373305 0.033552420667 502
521 2.45008009857 0.0644039267981 0.0682625483992 502
522 2.41330967987 0.0869445360806 0.0612831990125 502
523 1.70268618225 0.871454220369 11.2397021324 502
524 2.15463128675 0.306374060038 0.238031662797 502
525 1.94771286071 0.051089831584 0.193084689542 502
526 2.24063753533 0.122766245466 0.0993663719081 502
527 1.74770782922 0.055998694326 0.0454001180435 502
528 2.58912994714 1.26388118868 0.0696189689088 502
529 1.421572417 0.0533476696671 0.0505665603786 502
530 1.90484145663 0.194915763928 0.038171944858 502
531 1.41124203944 0.0334793687857 0.0434882184141 502
532 1.43262808449 0.0564325446248 0.642618303538 502
533 1.75823669296 0.0843716029487 0.0421994592205 502
534 3.1282326251 0.175009522236 0.127976641268 502
535 2.80584344495 0.0586775582144 0.0682896907062 502
536 1.98678155673 0.0545038891045 0.211373890358 502
537 2.19941697946 0.0646206674494 0.0533138614069 502
538 2.25252517402 0.159846486567 0.0736022381355 502
539 1.66023309469 0.0422311347128 0.0350708958772 502
540 2.16248851734 0.319835419812 0.0632347517587 502
541 2.19435884847 0.0774253570526 0.0854330840822 502
542 1.865043369 0.0474592849256 0.065199955416 502
543 2.07231588673 0.0442607733082 0.0490986722172 502
544 1.6140333664 0.0682507490716 0.042154988568 502
545 2.36158963356 0.0531295114669 0.114778256808 502
546 1.63373080626 0.04179286758 0.0569198852515 502
547 1.98435642376 0.626972310037 0.0635879375225 502
548 1.85455791123 0.0586034088128 0.0482167258658 502
549 2.91505881246 0.061682340585 0.126190104256 502
550 2.26147589174 0.119909478184 0.441558983301 502
551 2.8083306601 0.128474124046 0.198371817488 502
552 1.98042651732 0.0518524700465 0.0598196900439 502
553 1.56722437309 0.10377914794 2.87677423767 502
554 2.82081272381 0.253439931931 0.0567869982777 502
555 2.32622922338 0.0534610155239 2.12869980216 502
556 2.12962984302 0.120995963772 0.0832354905168 502
557 1.85148615726 0.126717090394 0.19888965687 502
558 1.93261123053 0.053490968764 0.208717685732 502
559 2.33262999648 0.0527783417125 0.0504145540043 502
560 1.66784299677 0.133874553233 0.0488925477043 502
561 2.13570079437 0.0815679373613 0.050699728663 502
562 2.56444914795 0.158006706791 0.0774920163118 502
563 1.45125892436 0.0680602407891 0.050503178134 502
564 2.25226403342 0.0635027294311 9.36381322018 502
565 2.34295453578 5.11301674823 0.130728136699 502
566 0.792294611452 0.0261421561412 0.0204496322717 502
567 1.14969349716 0.0321839755816 0.0462415158096 502
568 0.965356565866 2.23794572235 0.0210476413838 502
569 2.05120279005 0.0907678779243 0.0829994910836 502
570 1.92277473527 0.867200608265 0.0689347873463 502
571 2.191911722 0.0916222858458 0.0440586009096 502
572 2.81735111048 0.26591789667 0.850980387826 502
573 1.78903505003 0.0445699158948 0.0393029992645 502
574 1.71574145555 0.321106400957 0.0372149021238 502
575 1.33777538103 0.0319829087675 0.460466615795 502
576 2.15340303344 0.0536847701419 0.0748608523023 502
577 2.41451942809 0.0949547603754 0.0484735781352 502
578 2.54760648235 0.127089730962 0.0549751733661 502
579 1.20966601688 0.0259742309662 0.0309100137092 502
580 1.85501704465 0.0842337233862 0.0558297566789 502
581 2.09657867954 0.0420632828091 0.120409204542 502
582 2.88100691977 0.120393990401 5.29664735188 502
583 2.53166087421 0.060741255602 0.0746016635503 502
584 2.02847017254 0.578878609196 0.0945709064599 502
585 2.37471888178 0.0583766356639 0.0777077585524 502
586 2.06007083681 0.0500124698773 0.0484454550497 502
587 1.96841729323 0.0485306597186 0.0510306990961 502
588 1.78220075863 0.864862685268 0.0565785895364 502
589 1.19001989765 0.0301081252272 0.146096941193 502
590 2.34173960222 0.188997841007 0.277453565711 502
591 1.11576516704 0.0430134229086 0.191655377271 502
592 1.56014735207 0.064137113208 0.735027844006 502
593 1.8036515383 0.317930572782 0.0563452614292 502
594 2.04159446149 0.0440225254053 0.25224696193 502
595 2.28236115412 0.117199855385 0.207290646857 502
596 2.9410100812 0.0661749341688 0.124185086046 502
597 2.26245507943 0.458080418132 0.165607790743 502
598 2.40171475419 0.103732442189 0.0819644686422 502
599 1.50232718899 0.143096719112 0.0697300416965 502
600 1.37828955236 0.0866591817034 0.0340086904081 502
601 1.74476679235 0.174176673451 0.0401805616365 502
602 1.89746534089 0.0455108062139 6.3910403231 502
603 1.6675604978 0.0990761744732 0.0702560553023 502
604 1.86680071256 0.0429507831782 0.0387676352578 502
605 1.93227606607 0.168955514302 0.0790764059818 502
606 2.09198157481 0.117115654165 0.158698641844 502
607 2.77622786342 0.0567026123148 0.0680874343895 502
608 1.5711553991 0.0619434228975 0.0675423226926 502
609 1.97248225815 0.153270946505 0.0404769208542 502
610 1.75394134777 0.0626832345859 0.0555750328723 502
611 1.66173710051 0.0437642640902 0.0918163248581 502
612 2.40967500457 0.0646638545943 0.290463308547 502
613 1.58039873501 0.298057770732 0.0471212657446 502
614 1.62960089378 0.0841480916807 0.0399042477312 502
615 2.17743059727 16.556551669 0.0475390552633 502
616 1.7786247749 0.407976991792 0.0359372095855 502
617 2.03282074018 0.0462822465653 0.134821999655 502
618 2.41563227356 0.0514740643187 1.083505011 502
619 1.60872062862 0.0379188476252 0.0426047718038 502
620 1.12519260632 0.0228101538909 0.114131166198 502
621 1.252076474 0.0486182903707 0.133709599014 502
622 2.70644553044 0.0744018368775 0.0862262402417 502
623 2.20322331763 0.229694315996 0.193231229976 502
624 2.0157243615 0.0723913412211 0.568895466642 502
625 2.02864352222 0.409420761322 0.204281826859 502
626 1.58786817906 0.217846251663 0.0488766750818 502
627 1.72450358696 0.0919123265999 0.0409645586216 502
628 1.95395073583 0.0422098570962 0.0596837505253 502
629 2.59280731691 0.0692371677969 0.32108326398 502
630 1.87617543864 0.055815248859 0.0630381880992 502
631 1.16326218698 0.0646131873202 0.0745341591982 502
632 1.97302093476 9.14311702936 0.0446127137315 502
633 2.48896546616 0.611557107419 0.100530555105 502
634 2.24484349322 0.188079152245 0.0505134111443 502
635 2.25873942453 0.0936882440351 5.86648613672 502
636 2.72292327091 0.129775209076 0.0794330363377 502
637 2.43472238803 0.0524132297143 0.161423721526 502
638 2.09713116176 0.0764826034164 0.154228323942 502
639 1.74262603464 0.0608596117657 0.407460586995 502
640 1.58686679 0.0611877603064 0.0843656226926 502
641 1.38683729302 0.0567730702898 0.0706286439314 502
642 1.71835144552 3.47765461977 3.89577016083 502
643 1.76398572397 0.0668583694386 6.73677365094 502
644 1.22321583622 0.0349016234554 3.54184072686 502
645 1.75404292609 0.470888751466 0.167385585049 502
646 1.0002079345 0.275940883707 0.0623158619819 502
647 2.22153723029 0.0718894858141 0.0911699661782 502
648 2.01086450064 0.110775089044 0.346076291144 502
649 2.12890710699 0.0751506962754 0.653320384776 502
650 1.35325439261 0.0360607031468 0.0292139695836 502
651 1.98098843932 0.171025279064 0.30488726599 502
652 1.52668823743 0.0311501706226 0.0369300332389 502
653 1.46856695964 0.0561536390007 0.0384442560414 502
654 1.90498048649 0.0567094088414 0.114885207047 502
655 1.8827610996 0.0383044840963 0.056518699924 502
656 1.67758551091 0.0359805003575 0.134745094217 502
657 2.81200320846 0.073681486165 0.481069443778 502
658 1.23633604639 0.0346479845407 0.235866144191 502
659 2.09465916608 5.20593301211 0.0442530465164 502
660 2.30440293202 0.061134484104 0.147322302086 502
661 3.22661241437 0.174480275592 0.0944877478947 502
662 2.0104401735 0.164510608238 0.0414525855617 502
663 1.81454264171 0.0641454313084 2.52645698402 502
664 1.60178550946 0.0965380943391 0.133145276697 502
665 2.95045034009 0.235583172084 0.0691523594826 502
666 1.74997367244 0.0494688368788 0.104834005151 502
667 2.70102029202 5.17417757585 0.172614021925 502
668 2.2235494575 0.0686217454691 0.0810806832725 502
669 1.85164811743 0.0526207809968 0.0626764119997 502
670 2.67601941814 0.0582836876442 0.0618506545638 502
671 1.41407456985 0.0643087244583 0.036760589897 502
672 1.67765488467 0.0564110681764 0.269025217748 502
673 1.40774179906 0.0414314669372 0.0788478401823 502
674 2.7951923298 0.477865031388 0.137306199303 502
675 2.22958468408 0.566950411332 0.228649578425 502
676 2.80550696827 0.103603055662 0.0849151057014 502
677 3.1066971821 2.2404761742 8.21485743928 502
678 1.42135616477 0.310593379418 0.0301182678372 502
679 1.06167220128 0.027642158116 0.0231796650357 502
680 2.42579974148 0.0765518673451 0.0802194708396 502
681 1.39551806993 0.0345722995798 0.0280434696661 502
682 1.88944267584 1.42189926866 0.0700219180893 502
683 2.50325669663 0.101875864168 0.576803759603 502
684 2.91937135434 0.109856571194 0.0675283057337 502
685 2.12108214968 0.132901001104 0.111593802419 502
686 2.29151943727 0.964763404445 0.116334068966 502
687 1.23144639074 3.28657466241 3.66873943819 502
688 2.04945282598 0.158145235242 0.108118034158 502
689 2.18986113072 0.110070042233 0.0730993130905 502
690 2.64580680936 0.211654817329 0.130423174819 502
691 1.95056974267 0.0732943885213 6.43920999825 502
692 2.36415110191 0.0954402709639 0.0953882412499 502
693 1.56093201255 0.0387127890241 0.039960743369 502
694 1.39277610528 0.118328437575 0.0284199344019 502
695 0.986464270237 0.0301661197503 0.0304223478641 502
696 1.97104726652 0.0416668248971 0.0504448527259 502
697 2.08236380219 0.0446918358949 0.046153679854 502
698 2.23429911855 0.140009465575 0.132399852139 502
699 2.88685563778 0.0998667591771 0.0581769848623 502
700 2.40098597684 0.0577312772017 0.44866199703 502
701 1.83329138961 0.072596965311 0.0991071018451 502
702 1.71066801547 0.0539657784131 0.213387952479 502
703 3.46805802899 0.0899402360219 0.316555352433 502
704 2.50986731817 0.0740067374902 0.126595600248 502
705 1.70890413216 0.0408375334861 0.0351113318447 502
706 2.17918379623 0.0557457397651 0.0504309191507 502
707 2.15940622221 0.182289481106 0.121441053219 502
708 1.49316163657 0.510176947572 0.0350806231894 502
709 2.00499130847 0.0626006605578 0.0902323574965 502
710 2.26606301583 0.179167485364 0.0698360283968 502
711 1.71335451419 0.0795077840518 0.0461072940585 502
712 2.32828052689 0.075840109501 0.0564963604948 502
713 1.71016777168 0.685307648096 0.395306410755 502
714 1.68318001993 0.0463401157511 0.0398125171092 502
715 1.7116878595 0.0546117571189 0.0381053272484 502
716 2.43301132179 0.339818626589 0.108079918735 502
717 2.06808942631 0.0461064158739 0.0444602013652 502
718 1.64308263024 0.0370039247399 0.0613732212561 502
719 2.4283609687 0.0818997093713 0.0492711686134 502
720 2.5589499485 6.45410260027 0.267641793474 502
721 2.83576265604 13.901603485 0.119947122359 502
722 1.35979547235 0.0462427161682 0.0718095578217 502
723 1.762644058 0.0976911951925 0.0779546466115 502
724 1.55715262965 0.128813154238 0.763794793761 502
725 2.64063812029 0.0801905344647 0.128929769583 502
726 2.25843860068 0.045813711012 0.0455241871605 502
727 2.21544835841 0.0848412802197 0.902797869342 502
728 2.50815417676 0.152416554291 0.0519449463132 502
729 1.79395401932 0.133045610678 0.0389873688114 502
730 1.49209558623 0.030966978548 4.5593478135 502
731 1.47446142595 4.74167439714 0.0302334739443 502
732 2.2662988048 0.159518160263 0.0725942667231 502
733 2.14045980623 0.0537986898138 0.115886770238 502
734 1.28568589614 0.0263617649604 0.0264307348911 502
735 1.86143143767 7.37483769293 0.300183231005 502
736 2.80806791816 0.162391044567 0.0963005001339 502
737 2.50795821737 0.155639744959 0.089416389326 502
738 1.75597990896 0.109810799632 0.0365290777204 502
739 2.56541803321 0.0582236764788 0.0873223196988 502
740 1.47436855633 5.03707163189 0.107105609355 502
741 1.80642648036 0.0511536150191 0.278264041237 502
742 1.95253360838 0.585336941135 0.04809644741 502
743 2.6979969063 0.0713272663097 0.0952914467224 502
744 0.711183603051 0.0198552418969 0.0318518105566 502
745 2.84614652774 0.148389273595 0.0814103635792 502
746 2.1559922769 0.132707340289 0.104550646712 502
747 1.82811958814 0.16640711385 0.0415630924829 502
748 2.08572201474 0.0504623069795 0.0581584714975 502
749 1.9884288122 0.0466580642669 0.559891480493 502
750 1.59691617706 1.19851806922 0.0691586343487 502
751 1.53094218284 0.0432232840901 0.0451267598435 502
752 1.47995286104 0.0387547767621 0.0605298256439 502
753 2.28721402652 0.170226668475 0.0701976428908 502
754 2.59375330009 0.0866544114126 0.226674182104 502
755 2.28901366189 1.09598362864 0.109355185671 502
756 1.86566573723 0.0379714194126 0.060220572691 502
757 2.11703093691 0.198174332928 0.0831224806899 502
758 1.45817950641 0.0993262195081 0.0321928877123 502
759 1.45048321532 8.46767969568 0.0299543181936 502
760 2.09366383077 0.0470119778088 0.284828607727 502
761 2.30097898509 0.122039468812 0.146970284304 502
762 1.51010487547 0.282149492987 0.0353284156721 502
763 1.8030072454 0.934033091193 0.0596995297815 502
764 2.2400821788 0.0511612933732 0.175319401783 502
765 1.69757268329 0.045361818603 0.0635812700316 502
766 1.14318782369 0.240611863148 0.0689773209888 502
767 2.43211261476 0.0660403296562 0.429410890392 502
768 2.02010956242 0.726504734077 0.102486135257 502
769 1.33645940596 0.0457132135031 4.26963114377 502
770 2.33854043127 0.0517828393501 0.0876611814604 502
771 2.33859681992 0.111726692749 0.0501150319758 502
772 2.36351392891 0.0836035306441 0.148778153154 502
773 2.34672887244 0.0933643961905 0.168683800862 502
774 1.46412658852 0.057340642254 0.124090952898 502
775 2.5368149657 0.0539175089697 0.572239742322 502
776 2.33738601657 0.0908018778983 0.103122696308 502
777 2.22237863628 0.0685519042183 0.134015553904 502
778 1.71739640606 0.21366822314 0.0426099824933 502
779 1.80134919041 0.0632974603143 0.0511139961277 502
780 1.42713322999 0.0807955214704 0.0492586921077 502
781 1.68567004665 0.0777021143281 0.194878578852 502
782 1.07182665956 0.0370062624763 0.0527606664373 502
783 1.73897872919 0.0533677252674 0.0704944759159 502
784 2.20432064728 0.0988288464118 0.131212316826 502
785 2.72881188643 1.32221320133 2.29808414973 502
786 1.91614321537 0.0453822202476 0.0421716023526 502
787 2.05329936782 0.0497783283499 0.0464950293073 502
788 1.96777425095 0.0438417954271 0.0793450988276 502
789 2.02406852395 0.258938961972 0.0568722469574 502
790 1.35729276232 0.0394763599885 0.727825062534 502
791 2.04743163653 0.0420260997848 0.30321949521 502
792 1.81139842449 0.411728772583 0.0630019950203 502
793 1.2301900559 0.134884633975 0.0445889744004 502
794 1.66495388011 0.0356971722055 0.0627310940294 502
795 1.40231027273 0.0683716831393 0.0689308635151 502
796 2.37790211105 0.0772354306049 0.0799644907523 502
797 2.28561630489 0.0528960449703 0.677074326218 502
798 1.95961681764 0.0988693900557 0.0690388351329 502
799 2.29775201596 0.0703545656193 0.0628625779354 502
800 1.29560428476 0.0303360529501 0.154124851314 502
801 1.9725516868 0.0409759934097 0.0472379290878 502
802 1.52709824596 0.0378504628913 0.136714010091 502
803 2.21878342549 0.0490882471024 0.0972293617338 502
804 2.17004256297 0.0615652815277 0.057342175109 502
805 2.04749290082 0.0960763657779 0.194884239693 502
806 3.386260939 24.969066609 2.36581801338 502
807 1.55769648829 9.74516982866 0.0832524280117 502
808 2.02783786272 0.0583560818791 0.0873225613161 502
809 1.98336232423 0.0648963157887 0.0794753178085 502
810 2.08395537594 0.0725803191315 0.407014354499 502
811 2.68639693185 0.0570599376309 7.56671019037 502
812 1.1952210633 0.116807396586 0.0443030494523 502
813 1.47887848148 0.0612264417238 0.0426701038127 502
814 2.14671106422 3.47011755913 0.0981162255216 502
815 1.53252761037 0.11197432894 0.0512941136719 502
816 1.12630665135 0.0763893708251 0.195298717989 502
817 1.47436982605 0.0994765391373 0.0477221335039 502
818 1.40858169727 0.035891172512 0.241784991939 502
819 1.57116759889 0.559255958196 0.0884520141688 502
820 2.30223330768 0.0487421169671 0.0605266564417 502
821 2.54067246396 0.0789926601365 0.0584017899729 502
822 1.93131768191 0.0736530863664 0.0471219791287 502
823 2.32224445381 0.150940001478 1.55811463922 502
824 1.77614051102 0.0580741761381 0.0744884341588 502
825 2.64120948331 1.16346336887 0.0639382318295 502
826 1.65201254159 0.0412830100479 0.279271399316 502
827 2.30503368987 0.0620575745903 3.71899220217 502
828 1.82756323384 0.0808504974206 0.0372531189767 502
829 2.03462793319 0.0727868864242 0.132233287635 502
830 2.05571495256 5.16661676004 0.0710848169636 502
831 2.44901596242 0.0633959360958 0.0546378321398 502
832 1.19598608648 0.026599603976 0.0241679722493 502
833 1.63755042593 0.0446185024898 0.469498610209 502
834 2.4040867461 0.103826624078 0.750733662643 502
835 2.77926817694 0.0700306595765 0.0766921790653 502
836 2.08848047326 0.334971880416 0.156317329523 502
837 2.78904277128 0.846855393475 0.881699267081 502
838 2.7715927739 0.326089970374 0.0651254245512 502
839 1.44201677101 0.03237832069 0.0314069145686 502
840 1.52000415357 0.193950247168 0.049368289303 502
841 1.93736874698 0.0702805141507 6.80464541291 502
842 2.92388811585 0.287011884255 0.213720450871 502
843 2.07939040461 0.0838942876202 0.0708378582215 502
844 1.99231257603 0.0424320886361 0.0730235084437 502
845 1.72655009443 0.730741798148 0.123202322974 502
846 2.34905432292 0.293332014245 0.16451147749 502
847 2.13814644911 4.52309055036 0.0831574434527 502
848 2.40637390252 20.2972300282 0.146975888475 502
849 2.59468229749 0.074292507009 1.19215729945 502
850 2.73104834874 0.10191639012 0.202858168584 502
851 2.11174342641 0.187354314045 0.0823598817214 502
852 3.14262384466 0.475014973166 0.182896804637 502
853 1.88302909573 0.427189833791 0.102319528859 502
854 1.80588974235 0.16930336699 0.0375731277291 502
855 1.93523688719 2.00502055471 1.56535454357 502
856 1.7772464831 0.0530688324998 0.0728667827745 502
857 2.41894478783 0.0617413226475 0.0829923823692 502
858 1.99829206569 0.108577330955 0.0578074305207 502
859 2.4102083588 0.0483443531531 0.188214379858 502
860 1.80791645932 0.0564984526732 0.126193691279 502
861 1.7872682486 0.349474425579 0.0443220340215 502
862 2.05249287734 0.0420308983232 0.0441885931028 502
863 2.06843842193 0.0575700714186 0.102595627303 502
864 3.08906938815 0.0960885983009 0.0982096047236 502
865 2.04677940881 0.0560938376466 0.266111633897 502
866 1.52954149672 0.0462221799849 0.0307267120043 502
867 2.59654339685 0.0526757754793 0.118395181936 502
868 2.56006419283 0.302906459873 0.147155115414 502
869 1.86529025271 0.076680528759 0.0561841773286 502
870 2.52054245649 0.0697239782417 0.0775548463106 502
871 2.23543379135 0.349327416725 0.104276599224 502
872 2.10574153879 0.0691487974448 0.0643276014657 502
873 2.24458781374 0.0835316067677 0.0497562553115 502
874 2.02882076841 0.0600532770693 0.437229152359 502
875 2.02157707129 0.367067672299 0.538085268947 502
876 1.97602762792 0.307745305618 0.0429157171972 502
877 1.82419696943 0.282111596072 0.144216595602 502
878 1.00808616912 0.0223279362658 0.0216773321917 502
879 0.737738164409 0.0449048543567 0.0245155806158 502
880 2.01560277114 2.50229456984 0.116973235885 502
881 1.55823176319 0.0434242188975 0.0654610193349 502
882 2.95318444018 1.92766662634 0.0716688028613 502
883 1.52602145179 0.0380797638871 0.0323127176598 502
884 2.49004840244 0.197895917946 0.456458610372 502
885 2.2146190194 0.0557813684538 0.595506239541 502
886 2.07467586773 0.124003198553 10.6395472081 502
887 1.51516632999 1.88318774719 0.0350808728758 502
888 1.02143231473 0.0432731717817 0.0258474888622 502
889 1.5166295726 0.0309635499699 0.0833564426087 502
890 1.2139103409 0.0739418791243 0.15227499079 502
891 0.85795209279 0.0306645703371 7.03321070456 502
892 2.097712838 0.0490572141946 0.0668034251175 502
893 1.20402916898 8.37856499964 4.10739363993 502
894 1.79183786946 0.229471951776 0.184109419316 502
895 1.31263943682 0.82230269486 0.0556284404823 502
896 1.17994248649 0.181958518701 0.0282543624523 502
897 1.14203415215 0.129924057662 0.034923713538 502
898 1.60063807819 0.0481099364283 1.50172412201 502
899 1.44278295294 0.0294310523731 7.40264590826 502
900 0.898915117459 0.0440067070013 0.122169316997 502
901 2.10655073799 0.149659100061 0.0771846866579 502
902 2.39024041536 0.822795443388 0.0638133849446 502
903 2.07087325423 0.0641027010287 0.0939479982105 502
904 2.03260911799 9.97549995271 11.0902985979 502
905 2.2451361118 0.208760055063 0.0577084397472 502
906 2.08423245058 0.0468974285506 0.0896166812796 502
907 2.09416377807 7.80849046602 0.0762336810276 502
908 1.78263111803 0.288006877846 0.0434761065653 502
909 2.14304217252 0.0569963885981 0.331646917279 502
910 2.57834360194 0.0766854535941 0.0519005699817 502
911 2.16620321066 0.0817287007784 0.273963373911 502
912 2.30578429944 0.0652431747288 0.109572373366 502
913 2.39716757004 0.0708676884449 0.0747848215975 502
914 2.33932374878 0.0784971501858 0.268346693728 502
915 1.79477597575 0.0497661171863 0.0477720077333 502
916 1.9594234373 0.0477882673882 0.0605771827965 502
917 1.76969222348 0.0746759527967 0.0789354146281 502
918 2.73408413429 0.109036168049 0.0925090586743 502
919 1.48730619814 0.0666956917537 0.0936257650414 502
920 2.00130289741 0.0535768345287 0.16592250222 502
921 2.05909738597 0.0514881252576 0.0490999444417 502
922 2.12702475667 0.0836824329124 0.702927676754 502
923 1.23171422347 0.0592982445956 0.187498504686 502
924 1.21898830823 0.371210783204 0.689970502662 502
925 2.28061880294 0.101489356319 0.0982992060408 502
926 2.32788829789 0.244684648086 0.526161824332 502
927 2.28826080203 0.152519521438 4.85290248883 502
928 2.47600966076 0.115265749245 0.643621528742 502
929 2.45883786202 0.0606121107156 0.0603797763575 502
930 1.8467105616 0.0420302739411 0.0717359716573 502
931 2.95518930824 0.118522624146 20.8787768769 502
932 1.81244985712 0.0899347032306 0.0760284167882 502
933 2.30192222852 0.474066750926 0.556580713819 502
934 2.10097236324 0.523186551904 0.140899832754 502
935 0.840408155343 0.0292255124474 0.065414054495 502
936 2.47729266953 0.0617718871108 0.0785955385485 502
937 1.35357307473 0.260137979215 0.111753327446 502
938 1.54726666328 0.0345587350366 0.328883837941 502
939 2.168473041 0.0650834991526 10.2837353275 502
940 2.36313256228 0.18541210774 0.14807598758 502
941 1.557261443 0.0378390493635 0.198327235955 502
942 2.38132845295 2.27937952737 0.164058619174 502
943 2.10953181029 0.04359540127 0.837812822073 502
944 2.1784540828 0.0520968649041 0.0479410108803 502
945 1.83964206869 0.059814804173 0.0712603700673 502
946 2.93044175219 0.184772824874 0.249890057455 502
947 1.2971888099 0.0457883510234 5.50748154027 502
948 2.54745734364 8.08489431542 0.0542245546841 502
949 1.94237861304 0.102724778806 0.115538184284 502
950 2.70544905867 0.122293664153 0.230603737331 502
951 2.00881514709 0.0536930633985 0.135457592571 502
952 2.79456757909 0.174475747658 0.119101797726 502
953 1.71866432662 0.0781582462758 0.0409199353242 502
954 1.87018206679 0.17646524635 0.0452509636751 502
955 2.81589373916 0.0843943648804 0.0617251132754 502
956 1.76453350882 0.417499471325 0.33551068965 502
957 2.08070891414 0.207561492885 0.127415405702 502
958 2.58471980425 0.333537701322 5.60603605451 502
959 2.07339044562 0.116063412003 0.063515095486 502
960 0.821324439991 0.020688909488 0.0308004549623 502
961 2.59088891374 0.0807774889232 0.11169287484 502
962 1.69609102912 0.0651468626709 0.0386786391323 502
963 2.59043135645 0.155191926696 0.202818100116 502
964 2.35924906937 0.0964040270256 0.0485441362418 502
965 2.42100525395 0.0531824040064 0.0829875761453 502
966 2.4824877354 0.0769442626509 0.281704301541 502
967 2.51152330386 0.0683315382274 0.0536940383915 502
968 1.16622962088 3.19318282278 0.0338764571525 502
969 1.65299025952 0.0783880390088 0.0359738738709 502
970 2.20122650176 0.0470197330145 0.0645572210173 502
971 2.23677093606 0.150451096077 0.0632987521002 502
972 1.78400644516 1.22212474252 0.0635345795703 502
973 1.75782994562 0.170442144616 0.0588268962715 502
974 2.23868707943 0.0463983696664 0.243825340426 502
975 2.45504397208 0.0873621377114 0.0857053176777 502
976 1.35936811624 0.034824983738 1.12340449693 502
977 1.88071789708 0.0810603478423 10.2354210695 502
978 2.23251237199 0.453898436344 0.0557618884042 502
979 2.17049060631 0.100365118317 0.0467821775298 502
980 2.23005399037 0.0816146892301 0.732833718032 502
981 2.15692597929 0.0490333365309 0.166354626474 502
982 2.3018423978 0.155014399972 0.242900567112 502
983 1.33520780572 0.0470621009255 0.186086905946 502
984 2.53271387486 0.286505977861 0.0656108162772 502
985 2.11393375828 6.79152238732 0.133562285595 502
986 1.6856978133 1.05448498644 0.0468248090386 502
987 2.28309187714 0.415268927374 0.0461278521397 502
988 1.19843036182 0.0374345771636 0.225213568241 502
989 1.37628174715 0.11588451855 0.0363810850288 502
990 1.75264091176 0.0638654519115 0.044040287661 502
991 2.19251776808 0.114188274068 0.157308664279 502
992 1.85320978978 0.0947229237362 0.0609395945708 502
993 2.13885408431 0.385302484696 0.0687732495405 502
994 1.71947819836 0.0733353809344 0.130491616488 502
995 1.79873972858 0.0533473892697 0.0915871671499 502
996 2.04313611424 0.142547208224 0.127446248793 502
997 2.30054944254 0.170263342742 0.237658048518 502
998 2.0391267497 0.0470925431501 0.260222879014 502
999 2.49527458498 14.6384372809 0.238146951453 502
1000 1.90216157164 0.313355909111 0.114259344399 502
1001 2.0804262544 0.0634100611302 0.0451006692648 502
1002 2.35711178576 0.136639246061 0.217344291701 502
1003 1.98866419437 0.343268282118 0.0504302288277 503,504,505,506,507,508,509,510,511,512,513,514,515,516,517,518,519,520,521,522,523,524,525,526,527,528,529,530,531,532,533,534,535,536,537,538,539,540,541,542,543,544,545,546,547,548,549,550,551,552,553,554,555,556,557,558,559,560,561,562,563,564,565,566,567,568,569,570,571,572,573,574,575,576,577,578,579,580,581,582,583,584,585,586,587,588,589,590,591,592,593,594,595,596,597,598,599,600,601,602,603,604,605,606,607,608,609,610,611,612,613,614,615,616,617,618,619,620,621,622,623,624,625,626,627,628,629,630,631,632,633,634,635,636,637,638,639,640,641,642,643,644,645,646,647,648,649,650,651,652,653,654,655,656,657,658,659,660,661,662,663,664,665,666,667,668,669,670,671,672,673,674,675,676,677,678,679,680,681,682,683,684,685,686,687,688,689,690,691,692,693,694,695,696,697,698,699,700,701,702,703,704,705,706,707,708,709,710,711,712,713,714,715,716,717,718,719,720,721,722,723,724,725,726,727,728,729,730,731,732,733,734,735,736,737,738,739,740,741,742,743,744,745,746,747,748,749,750,751,752,753,754,755,756,757,758,759,760,761,762,763,764,765,766,767,768,769,770,771,772,773,774,775,776,777,778,779,780,781,782,783,784,785,786,787,788,789,790,791,792,793,794,795,796,797,798,799,800,801,802,803,804,805,806,807,808,809,810,811,812,813,814,815,816,817,818,819,820,821,822,823,824,825,826,827,828,829,830,831,832,833,834,835,836,837,838,839,840,841,842,843,844,845,846,847,848,849,850,851,852,853,854,855,856,857,858,859,860,861,862,863,864,865,866,867,868,869,870,871,872,873,874,875,876,877,878,879,880,881,882,883,884,885,886,887,888,889,890,891,892,893,894,895,896,897,898,899,900,901,902,903,904,905,906,907,908,909,910,911,912,913,914,915,916,917,918,919,920,921,922,923,924,925,926,927,928,929,930,931,932,933,934,935,936,937,938,939,940,941,942,943,944,945,946,947,948,949,950,951,952,953,954,955,956,957,958,959,960,961,962,963,964,965,966,967,968,969,970,971,972,973,974,975,976,977,978,979,980,981,982,983,984,985,986,987,988,989,990,991,992,993,994,995,996,997,998,999,1000,1001,1002
