4171 0.664190 -1 -1
4172 1.407442 0.294102 0.456692 4171
4173 1.988869 0.098476 0.330978 4171
4174 1.434330 0.152184 0.331187 4171
4175 1.416800 0.143244 0.326508 4171
4176 1.429371 0.143524 0.299549 4171
4177 1.399480 0.149251 0.321898 4171
4178 1.385232 0.148133 0.310165 4171
4179 1.346400 0.151695 0.310165 4171
4180 1.375244 0.160356 0.300038 4171
4181 1.349612 0.147226 0.315962 4171
4182 1.372660 0.144642 0.311003 4171
4183 1.396615 0.149181 0.323435 4171
4184 1.384883 0.146107 0.310235 4171
4185 1.338787 0.142546 0.321409 4171
4186 1.341651 0.150717 0.307510 4171
4187 1.367422 0.129695 0.299899 4171
4188 1.360648 0.144501 0.316311 4171
4189 1.377828 0.141568 0.311632 4171
4190 1.383485 0.140939 0.313308 4171
4193 0.580241 0.160285 0.137867 4172
4194 1.282634 0.151346 0.170762 4172,4173
4195 0.909473 0.184660 0.183473 4174,4172
4196 0.906120 0.130324 0.131231 4175,4172
4197 0.911848 0.138914 0.121175 4176,4172
4198 0.941320 0.094355 0.099454 4177,4172
4199 0.932241 0.095892 0.107765 4178,4172
4200 0.900882 0.099942 0.120546 4179,4172
4201 0.968908 0.080457 0.101549 4180,4172
4202 0.898717 0.106717 0.107695 4181,4172
4203 0.975613 0.094774 0.090235 4182,4172
4204 0.959340 0.079410 0.103574 4183,4172
4205 0.979105 0.097917 0.083530 4184,4172
4206 0.922324 0.100990 0.105111 4185,4172
4207 0.906470 0.103574 0.127600 4172,4186
4208 0.898438 0.095892 0.100921 4187,4172
4209 0.906819 0.129206 0.104064 4188,4172
4210 0.958082 0.090724 0.107555 4189,4172
4211 0.944045 0.127181 0.115307 4190,4172
4214 0.822311 0.125156 0.156025 4173
4215 1.277815 0.241930 0.252895 4174,4173
4216 1.274673 0.275803 0.279644 4175,4173
4217 1.288850 0.141079 0.111816 4176,4173
4218 1.279492 0.138426 0.099943 4177,4173
4219 0.933428 0.093797 0.107695 4178,4173
4220 0.908356 0.096311 0.126762 4179,4173
4221 0.959270 0.091143 0.140032 4180,4173
4222 0.923441 0.102457 0.134864 4181,4173
4223 0.954032 0.097289 0.113701 4182,4173
4224 0.949841 0.085556 0.120546 4183,4173
4225 0.947187 0.086114 0.104622 4184,4173
4226 0.913244 0.099454 0.101969 4185,4173
4227 0.898718 0.096870 0.097429 4186,4173
4228 0.894667 0.093238 0.087162 4187,4173
4229 0.911987 0.087162 0.093168 4188,4173
4230 0.953402 13.110319 0.094845 4189,4173
4231 0.961714 0.086114 0.081994 4190,4173
4234 0.573676 0.126133 0.170202 4174
4235 0.911988 0.294171 0.282159 4174,4175
4236 0.914502 0.294451 0.300666 4174,4176
4237 0.921974 0.150718 0.130323 4174,4177
4238 0.937968 0.169714 0.155956 4174,4178
4239 0.905771 0.112375 0.130254 4174,4179
4240 0.941670 0.114959 0.136330 4174,4180
4241 0.893340 0.097289 0.102038 4174,4181
4242 0.947397 0.088140 0.095893 4174,4182
4243 0.924978 0.092260 0.125574 4174,4183
4244 0.939504 0.094845 0.126203 4174,4184
4245 0.933149 0.091771 0.130952 4174,4185
4246 0.901022 0.091212 0.101479 4174,4186
4247 0.894596 0.097847 0.093797 4174,4187
4248 0.911847 0.105670 0.081505 4174,4188
4249 0.934407 0.103016 0.087651 4174,4189
4250 0.937269 0.077384 0.084578 4174,4190
4253 0.577378 0.155397 0.173695 4175
4254 0.901162 0.314495 0.352558 4175,4176
4255 0.921625 0.337054 0.352419 4175,4177
4256 0.935105 0.166152 0.164616 4175,4178
4257 0.893060 0.190248 0.205263 4175,4179
4258 0.931263 0.119428 0.096869 4175,4180
4259 0.900603 0.100990 0.124807 4181,4175
4260 0.940343 0.101968 0.112863 4175,4182
4261 0.936083 0.105600 0.119569 4175,4183
4262 0.931892 0.100502 0.134304 4175,4184
4263 0.943276 0.096381 0.141009 4175,4185
4264 0.923651 0.105600 0.130254 4175,4186
4265 0.906540 0.095892 0.089187 4175,4187
4266 0.914431 0.100920 0.094845 4175,4188
4267 0.926794 0.119428 0.089187 4189,4175
4268 0.933218 0.087162 0.105041 4175,4190
4271 0.573327 0.101968 0.131232 4176
4272 0.907447 0.356959 0.348298 4176,4177
4273 0.935383 0.363873 0.387340 4176,4178
4274 0.900673 0.231524 0.116983 4176,4179
4275 0.930216 0.089466 0.257993 4180,4176
4276 0.916527 0.142546 0.110908 4181,4176
4277 0.931403 0.147714 0.121663 4176,4182
4278 0.936432 0.108114 0.116006 4176,4183
4279 0.930215 0.106159 0.122641 4176,4184
4280 0.916876 0.107206 0.105740 4176,4185
4281 0.924210 0.091283 0.089117 4176,4186
4282 0.898577 0.092261 0.112025 4176,4187
4283 0.930984 0.097359 0.080457 4188,4176
4284 0.938946 0.090724 0.076895 4189,4176
4285 0.943695 0.093308 0.088698 4176,4190
4288 0.585549 0.088070 0.125155 4177
4289 0.940482 0.362266 0.313867 4177,4178
4290 0.928610 0.330489 0.383220 4177,4179
4291 0.948165 0.257156 0.295638 4180,4177
4292 0.902419 0.397256 0.288863 4181,4177
4293 0.942298 0.118450 0.188781 4182,4177
4294 0.923721 0.179073 0.186756 4183,4177
4295 0.936711 0.111117 0.119988 4177,4184
4296 0.924279 0.100991 0.087162 4177,4185
4297 0.896273 0.108184 0.082482 4177,4186
4298 0.907308 0.111746 0.084089 4177,4187
4299 0.918692 0.100990 0.086673 4188,4177
4300 0.931613 0.103994 0.082482 4189,4177
4301 0.917504 0.080946 0.081016 4177,4190
4304 0.583174 0.084578 0.123689 4178
4305 0.908845 0.353467 0.366806 4178,4179
4306 0.944813 0.337263 0.373442 4180,4178
4307 0.926235 0.102038 0.313168 4181,4178
4308 0.951587 0.393206 0.310375 4182,4178
4309 0.934406 0.168807 0.237739 4183,4178
4310 0.929867 0.091213 0.093727 4178,4184
4311 0.923441 0.105531 0.084508 4185,4178
4312 0.924628 0.096381 0.081016 4178,4186
4313 0.913663 0.087651 0.086603 4178,4187
4314 0.919669 0.077873 0.090724 4188,4178
4315 0.918971 0.092261 0.090794 4189,4178
4316 0.940832 0.086114 0.135981 4178,4190
4319 0.576190 0.077873 0.093797 4179
4320 0.946069 0.332654 0.388387 4180,4179
4321 0.911289 0.373371 0.379308 4181,4179
4322 0.927771 0.397676 0.264419 4182,4179
4323 0.944602 0.102876 0.097359 4183,4179
4324 0.928959 0.096870 0.087162 4179,4184
4325 0.907378 0.089676 0.097917 4185,4179
4326 0.917575 0.100012 0.087650 4179,4186
4327 0.902280 0.075778 0.083111 4179,4187
4328 0.920089 0.091701 0.088629 4188,4179
4329 0.944672 0.083530 0.091282 4189,4179
4330 0.947955 0.099034 0.080946 4179,4190
4333 0.586038 0.093238 0.121664 4180
4334 0.923650 0.354723 0.355911 4181,4180
4335 0.939574 0.081435 0.086673 4180,4182
4336 0.929727 0.105530 0.093727 4180,4183
4337 0.932381 0.097429 0.086114 4180,4184
4338 0.917435 0.089117 0.079410 4180,4185
4339 0.936572 0.088628 0.094285 4180,4186
4340 0.912406 0.102527 0.089117 4180,4187
4341 0.919181 0.112654 0.082063 4180,4188
4342 0.932311 0.081994 0.093657 4189,4180
4343 0.917924 0.099454 0.087650 4180,4190
4346 0.582685 0.090235 0.115936 4181
4347 0.952425 0.088698 0.089676 4181,4182
4348 0.956057 0.095333 0.091771 4181,4183
4349 0.932591 0.078431 0.104483 4181,4184
4350 0.926444 0.117892 0.108184 4181,4185
4351 0.924768 0.087162 0.093238 4181,4186
4352 0.932451 0.084089 0.084578 4181,4187
4353 0.919530 0.081505 0.083041 4181,4188
4354 0.952285 0.092749 0.078362 4181,4189
4355 0.931124 0.093307 0.085067 4181,4190
4358 0.593441 0.103994 0.103225 4182
4359 0.924000 0.123200 0.116914 4183,4182
4360 0.940761 0.114261 0.102946 4182,4184
4361 0.921137 0.090654 0.096381 4182,4185
4362 0.924628 0.081993 0.092260 4182,4186
4363 0.922463 0.079410 0.099384 4182,4187
4364 0.920437 0.101200 0.087092 4188,4182
4365 0.933847 0.103854 0.087092 4189,4182
4366 0.915968 0.076896 0.084997 4182,4190
4369 0.588203 0.096381 0.112934 4183
4370 0.910730 0.086603 0.088629 4183,4184
4371 0.917155 0.112305 0.119499 4183,4185
4372 0.914641 0.084578 0.083041 4183,4186
4373 0.911288 0.108604 0.107626 4183,4187
4374 0.914920 0.102527 0.098964 4188,4183
4375 0.939085 0.084578 0.088559 4189,4183
4376 0.940902 0.106927 0.106158 4183,4190
4379 0.577238 0.090724 0.127809 4184
4380 0.913663 0.118450 0.111257 4185,4184
4381 0.921764 0.137936 0.119499 4184,4186
4382 0.921136 0.090724 0.083600 4184,4187
4383 0.908076 0.077942 0.087651 4188,4184
4384 0.931473 0.100432 0.088070 4189,4184
4385 0.937689 0.092191 0.085625 4184,4190
4388 0.583733 0.128438 0.135352 4185
4389 0.901092 0.092260 0.084088 4185,4186
4390 0.897530 0.111886 0.111886 4185,4187
4391 0.904025 0.093797 0.091702 4188,4185
4392 0.911149 0.090096 0.094845 4189,4185
4393 0.918692 0.083530 0.102527 4185,4190
4396 0.582196 0.113911 0.122502 4186
4397 0.904234 0.119009 0.122013 4187,4186
4398 0.906609 0.137866 0.128648 4188,4186
4399 0.939434 0.115866 0.096311 4189,4186
4400 0.942996 0.095263 0.079968 4190,4186
4403 0.578705 0.117543 0.125714 4187
4404 0.922044 0.078991 0.093238 4188,4187
4405 0.932521 0.126273 0.140730 4189,4187
4406 0.936362 0.098336 0.081505 4190,4187
4409 0.588203 0.092819 0.126134 4188
4410 0.936292 0.118102 0.112863 4189,4188
4411 0.919530 0.119498 0.128228 4188,4190
4414 0.575632 0.134375 0.141568 4189
4415 0.910171 0.076825 0.075917 4189,4190
4418 0.572000 0.119080 0.125575 4190
4421 0.948933 -1 -1 4193
4422 1.968406 0.254292 0.427918 4194,4421,4193
4423 1.975949 0.118521 0.280343 4421,4193,4195
4424 1.960932 0.143524 0.311212 4196,4421,4193
4425 1.958000 0.125785 0.214901 4197,4421,4193
4426 1.374825 0.139962 0.320781 4421,4193,4198
4427 1.376501 0.143524 0.317848 4421,4193,4199
4428 1.966170 0.136330 0.297733 4200,4421,4193
4429 1.344025 0.142965 0.299549 4421,4201,4193
4430 1.966939 0.137378 0.297733 4202,4421,4193
4431 1.393472 0.142894 0.285162 4203,4421,4193
4432 1.341999 0.125016 0.289771 4421,4193,4204
4433 1.350031 0.151206 0.239765 4421,4193,4205
4434 1.351987 0.121943 0.280483 4421,4206,4193
4435 1.346400 0.131302 0.298990 4421,4193,4207
4436 1.348635 0.147225 0.288165 4208,4421,4193
4437 1.370495 0.117333 0.297943 4421,4209,4193
4438 1.339276 0.138984 0.289702 4421,4193,4210
4439 1.341790 0.117892 0.310654 4421,4211,4193
4442 0.862959 0.124108 0.112305 4422,4214,4194
4443 1.328171 0.101968 0.105670 4422,4423,4194,4195,4215
4444 1.304634 0.134374 0.131441 4422,4196,4194,4216,4424
4445 0.964019 0.091701 0.118590 4422,4197,4194,4217,4425
4446 0.922602 0.106089 0.097917 4422,4194,4426,4218
4447 0.963949 0.091771 0.095403 4422,4194,4219,4427
4448 0.946489 0.089607 0.092190 4422,4194,4220,4428
4449 0.935803 0.093308 0.090654 4422,4194,4429,4221
4450 0.954241 0.082064 0.103016 4422,4194,4430,4222
4451 0.978406 0.092749 0.101968 4422,4194,4431,4223
4452 0.927422 0.103016 0.110838 4422,4224,4194,4432
4453 0.899136 0.101968 0.137518 4422,4225,4194,4433
4454 0.922114 0.102527 0.119009 4422,4434,4194,4226
4455 0.895714 0.092260 0.118939 4422,4435,4194,4227
4456 0.914711 0.091213 0.089257 4422,4194,4436,4228
4457 0.922463 0.110140 0.139961 4422,4194,4437,4229
4458 0.885797 0.117473 0.114120 4422,4194,4438,4230
4459 0.878045 0.119987 0.135352 4422,4194,4439,4231
4462 0.840190 0.092749 0.137518 4423,4234,4195
4463 1.305961 0.131930 0.091282 4196,4423,4235,4195,4424
4464 0.907867 0.123131 0.135422 4423,4197,4195,4236,4425
4465 0.937409 0.100013 0.082412 4237,4423,4195,4426
4466 0.944254 0.121523 0.099873 4423,4195,4427,4238
4467 0.949561 0.084578 0.097359 4423,4428,4195,4239
4468 0.925047 0.090235 0.099943 4423,4195,4240,4429
4469 0.929517 0.083460 0.090724 4423,4195,4430,4241
4470 0.943625 0.087162 0.096381 4423,4242,4195,4431
4471 0.891453 0.104482 0.105670 4423,4195,4243,4432
4472 0.913873 0.093797 0.107556 4423,4244,4195,4433
4473 0.923790 0.097848 0.087162 4423,4195,4245,4434
4474 0.910730 0.104064 0.085067 4435,4423,4246,4195
4475 0.898717 0.091841 0.080457 4436,4423,4195,4247
4476 0.927840 0.097358 0.098965 4423,4437,4195,4248
4477 0.904794 0.088210 0.078921 4423,4195,4438,4249
4478 0.889428 0.095892 0.104832 4423,4195,4439,4250
4481 0.840679 0.117613 0.112375 4196,4253,4424
4482 0.914990 0.123200 0.097848 4196,4197,4254,4424,4425
4483 0.919670 0.124038 0.098965 4196,4255,4426,4424
4484 0.944533 0.090654 0.096870 4196,4427,4424,4256
4485 0.928330 0.086603 0.112025 4196,4428,4257,4424
4486 0.930565 0.089048 0.084927 4196,4258,4429,4424
4487 0.928539 0.099943 0.108882 4196,4259,4430,4424
4488 0.941600 0.101410 0.092260 4196,4260,4431,4424
4489 0.872946 0.092260 0.103016 4196,4261,4424,4432
4490 0.933359 0.093797 0.087581 4196,4262,4433,4424
4491 0.941949 0.107625 0.087162 4196,4434,4263,4424
4492 0.904025 0.097428 0.083530 4196,4435,4264,4424
4493 0.903327 0.095263 0.092261 4196,4436,4265,4424
4494 0.927003 0.090723 0.101549 4196,4437,4266,4424
4495 0.895086 0.090724 0.095334 4196,4438,4424,4267
4496 0.887962 0.081993 0.092819 4196,4268,4439,4424
4499 0.580729 0.107137 0.081505 4197,4271,4425
4500 0.938177 0.125156 0.111746 4197,4426,4272,4425
4501 0.947257 0.096381 0.099385 4273,4197,4427,4425
4502 0.921486 0.087581 0.088699 4197,4428,4274,4425
4503 0.944743 0.093308 0.099943 4197,4429,4275,4425
4504 0.928959 0.104622 0.094845 4197,4430,4276,4425
4505 0.928679 0.099314 0.094634 4277,4197,4431,4425
4506 0.886495 0.092260 0.084508 4197,4278,4432,4425
4507 0.940622 0.100501 0.077384 4197,4279,4433,4425
4508 0.939783 0.097987 0.097848 4197,4280,4434,4425
4509 0.918203 0.099453 0.098337 4435,4197,4281,4425
4510 0.925117 0.097358 0.087162 4282,4197,4436,4425
4511 0.924558 0.093308 0.089677 4197,4437,4283,4425
4512 0.867149 0.084089 0.085556 4197,4438,4284,4425
4513 0.970794 0.089187 0.079968 4197,4285,4439,4425
4516 0.573606 0.097917 0.103505 4288,4426
4517 0.932730 0.096870 0.103994 4289,4426,4427
4518 0.931194 0.093797 0.079899 4428,4426,4290
4519 0.901092 0.099384 0.096940 4291,4429,4426
4520 0.920298 0.098476 0.096311 4426,4430,4292
4521 0.942298 0.096381 0.078361 4431,4426,4293
4522 0.925257 0.120406 0.087162 4294,4426,4432
4523 0.914082 0.091282 0.105949 4295,4426,4433
4524 0.947187 0.083600 0.110140 4434,4296,4426
4525 0.925118 13.106268 0.083042 4435,4297,4426
4526 0.939854 0.103504 0.085626 4436,4426,4298
4527 0.939225 0.086673 0.097428 4299,4437,4426
4528 0.918552 0.082971 0.097847 4300,4426,4438
4529 0.929936 0.086044 0.091771 4439,4301,4426
4532 0.586736 0.096870 0.096870 4427,4304
4533 0.952634 0.100432 0.108743 4428,4427,4305
4534 0.936851 0.097429 0.106647 4429,4427,4306
4535 0.930634 0.109162 0.087650 4307,4427,4430
4536 0.905422 0.094914 0.091702 4308,4431,4427
4537 0.950748 0.095333 0.079410 4309,4427,4432
4538 0.933638 0.103016 0.089187 4310,4427,4433
4539 0.946489 0.079480 0.090724 4434,4427,4311
4540 0.934336 0.085066 0.089676 4435,4312,4427
4541 0.945371 0.076895 0.083041 4436,4427,4313
4542 0.935174 0.097917 0.098407 4437,4314,4427
4543 0.945581 0.093238 0.088699 4315,4427,4438
4544 0.926584 0.092260 0.085066 4439,4427,4316
4547 0.572070 0.093727 0.106089 4319,4428
4548 0.916527 0.104134 0.101409 4320,4428,4429
4549 0.905492 0.097918 0.089187 4321,4428,4430
4550 0.945441 0.107695 0.077943 4428,4322,4431
4551 0.950889 0.094844 0.084089 4428,4323,4432
4552 0.879371 0.089187 0.095264 4428,4324,4433
4553 0.944184 0.083461 0.087651 4434,4428,4325
4554 0.926793 0.088140 0.086044 4435,4428,4326
4555 0.919670 0.083042 0.095893 4428,4436,4327
4556 0.932172 0.092260 0.084089 4328,4428,4437
4557 0.951657 0.093307 0.093308 4329,4428,4438
4558 0.938527 0.094355 0.085556 4428,4439,4330
4561 0.592323 0.100012 0.103016 4429,4333
4562 0.912616 0.099454 0.089746 4334,4429,4430
4563 0.918902 0.095892 0.091352 4335,4429,4431
4564 0.915549 0.079410 0.085556 4336,4429,4432
4565 0.921695 0.080876 0.097358 4337,4429,4433
4566 0.939155 0.096730 0.080038 4434,4429,4338
4567 0.915898 0.080527 0.091212 4435,4429,4339
4568 0.925187 0.091213 0.091143 4436,4429,4340
4569 0.917574 0.090166 0.088698 4437,4429,4341
4570 0.902698 0.095892 0.097498 4429,4438,4342
4571 0.904793 0.097918 0.086673 4343,4429,4439
4574 0.584571 0.095822 0.107695 4346,4430
4575 0.943556 0.090654 0.094775 4347,4431,4430
4576 0.953333 0.084508 0.089676 4348,4430,4432
4577 0.848921 0.092819 0.101898 4349,4430,4433
4578 0.951098 0.084508 0.084019 4434,4350,4430
4579 0.916946 0.081435 0.075917 4435,4430,4351
4580 0.911498 0.085556 0.095333 4436,4430,4352
4581 0.926025 0.089117 0.082483 4437,4430,4353
4582 0.941740 0.098406 0.087650 4354,4430,4438
4583 0.879161 0.084019 0.077803 4355,4439,4430
4586 0.579752 0.086603 0.129765 4358,4431
4587 0.944114 0.078432 0.081435 4431,4359,4432
4588 0.928539 0.092190 0.099454 4431,4360,4433
4589 0.930215 0.094774 0.085626 4434,4361,4431
4590 0.946698 0.086673 0.104063 4435,4431,4362
4591 0.944952 0.096940 0.094355 4436,4431,4363
4592 0.927212 0.086604 0.089188 4364,4437,4431
4593 0.925677 0.097359 0.086603 4365,4431,4438
4594 0.946489 0.079968 0.118171 4439,4366,4431
4597 0.577797 0.089746 0.116006 4369,4432
4598 0.863447 0.091143 0.109162 4370,4433,4432
4599 0.940272 0.093797 0.083600 4434,4371,4432
4600 0.955009 0.089187 0.091772 4435,4372,4432
4601 0.931822 0.096311 0.089676 4373,4436,4432
4602 0.931473 0.089746 0.093168 4437,4374,4432
4603 0.929656 0.088139 0.086603 4375,4438,4432
4604 0.927631 0.085626 0.087092 4376,4439,4432
4607 0.624520 8.492975 0.108813 4379,4433
4608 0.948654 0.095893 0.088699 4434,4380,4433
4609 0.938875 0.097428 0.089187 4435,4381,4433
4610 0.940412 0.090235 0.090724 4382,4436,4433
4611 0.944533 0.092261 0.089676 4383,4437,4433
4612 0.855485 0.093239 0.080876 4438,4433,4384
4613 0.898438 0.084578 0.097428 4439,4385,4433
4616 0.581149 0.116495 0.112793 4434,4388
4617 0.914291 0.083530 0.098406 4435,4434,4389
4618 0.906959 0.072774 0.087092 4390,4434,4436
4619 0.940063 0.096870 0.090724 4434,4437,4391
4620 0.858699 0.090584 0.078431 4434,4392,4438
4621 0.865822 0.082552 0.093867 4434,4393,4439
4624 0.580661 0.134723 0.103645 4435,4396
4625 0.910171 0.093797 0.083041 4435,4436,4397
4626 0.933358 0.095822 0.086114 4435,4398,4437
4627 0.928469 0.094286 0.088210 4435,4399,4438
4628 0.915759 0.094286 0.104064 4435,4400,4439
4631 0.582406 0.105670 0.104133 4436,4403
4632 0.929377 0.102457 0.099943 4404,4437,4436
4633 0.873644 0.104064 0.105041 4405,4436,4438
4634 0.937968 0.091143 0.088070 4406,4436,4439
4637 0.579193 0.119498 0.114819 4437,4409
4638 0.921695 0.088559 0.079969 4437,4438,4410
4639 0.861283 0.118939 13.132040 4437,4439,4411
4642 0.539524 0.122082 0.107137 4414,4438
4643 0.852482 0.124736 0.119987 4415,4439,4438
4646 0.548324 0.083600 0.097987 4439,4418
4649 0.781873 -1 -1 4214,4442
4650 1.354991 0.249612 0.448870 4215,4214,4443,4649
4651 1.353733 0.110350 0.266794 4214,4649,4444
4652 1.353733 0.135981 0.322527 4214,4649,4445
4653 1.397873 0.120196 0.233829 4214,4649,4446
4654 1.384324 0.146178 0.305695 4214,4649,4447
4655 1.353175 0.138984 0.321898 4448,4214,4649,4220
4656 1.350730 0.151206 0.293752 4214,4649,4449
4657 1.355270 0.148622 0.311841 4214,4649,4450,4222
4658 1.373428 0.145130 0.326997 4214,4451,4649
4659 1.357574 0.116355 0.307441 4214,4649,4452
4660 1.351288 0.142476 0.314286 4453,4214,4649
4661 1.371403 0.129137 0.316242 4214,4649,4454
4662 1.351358 0.141429 0.309047 4214,4649,4455
4663 1.352337 0.137378 0.249683 4214,4649,4456
4664 1.363022 0.126273 0.246679 4214,4649,4457
4665 1.333689 0.146667 0.319803 4214,4649,4458
4666 1.317835 0.115238 0.298362 4214,4459,4649
4669 0.613695 0.123620 0.115448 4215,4234,4462,4650
4670 0.937899 0.131860 0.125575 4215,4235,4651,4650,4463
4671 0.937479 0.124667 0.128158 4215,4236,4464,4650,4652
4672 0.910521 0.097917 0.102527 4215,4465,4650,4653
4673 0.939993 0.105670 0.097917 4215,4654,4466,4650
4674 0.953054 0.097359 0.098407 4215,4655,4650,4239,4467,4220
4675 0.924069 0.106159 0.085626 4215,4656,4650,4468
4676 0.944673 0.091772 0.091213 4215,4241,4657,4650,4469,4222
4677 0.925327 0.112723 0.097917 4215,4470,4650,4658
4678 0.955289 0.080387 0.082133 4215,4471,4659,4650
4679 0.956616 0.096870 0.079899 4215,4472,4660,4650
4680 0.961435 0.092749 0.083600 4215,4473,4650,4661
4681 0.942857 0.089117 0.081016 4215,4650,4662,4474
4682 0.943276 0.091772 0.080946 4215,4475,4650,4663
4683 0.952914 0.087092 0.092750 4215,4664,4650,4476
4684 0.882863 0.089258 0.087581 4215,4665,4650,4477
4685 0.888381 0.086952 0.087581 4215,4478,4666,4650
4688 0.581848 0.128857 0.131790 4253,4651,4481
4689 0.916178 0.136120 0.107207 4651,4254,4482,4652
4690 0.912406 0.123619 0.092819 4651,4653,4483
4691 0.932730 0.105670 0.092330 4484,4654,4651
4692 0.933149 0.101968 0.090723 4655,4220,4651,4257,4485
4693 0.918552 0.093797 0.093308 4486,4656,4651
4694 0.912685 0.100432 0.100990 4259,4657,4487,4651,4222
4695 0.911079 0.094355 0.096311 4488,4651,4658
4696 0.939365 0.084578 0.090165 4659,4651,4489
4697 0.928539 0.089187 0.087161 4660,4651,4490
4698 0.947536 0.086603 0.090654 4651,4661,4491
4699 0.941391 0.090166 0.094845 4651,4492,4662
4700 0.944812 0.072216 0.085066 4493,4651,4663
4701 0.935733 0.077314 0.095892 4664,4494,4651
4702 0.923161 0.090235 0.085486 4665,4495,4651
4703 0.900324 0.098896 0.084997 4496,4666,4651
4706 0.578075 0.143035 0.109791 4271,4499,4652
4707 0.946768 0.111956 0.104552 4500,4653,4652
4708 0.906190 0.117962 0.094844 4654,4501,4652
4709 0.925675 0.099943 0.092260 4655,4274,4502,4220,4652
4710 0.917016 0.093308 0.091212 4656,4503,4652
4711 0.920088 0.103086 0.081505 4504,4657,4276,4222,4652
4712 0.932799 0.100502 0.088698 4505,4658,4652
4713 0.932660 0.106648 0.090165 4506,4659,4652
4714 0.929028 0.102248 0.097359 4507,4660,4652
4715 0.913104 0.088629 0.096381 4508,4661,4652
4716 0.918203 0.084578 0.091702 4509,4662,4652
4717 0.957663 0.086604 0.075848 4510,4663,4652
4718 0.922184 0.084578 0.084089 4664,4511,4652
4719 0.926025 0.093797 0.090654 4512,4665,4652
4720 0.945511 0.083460 0.086603 4513,4666,4652
4723 0.642819 0.105041 0.118940 4516,4653
4724 0.955708 0.085137 0.090165 4654,4517,4653
4725 0.926933 0.088210 0.101549 4655,4518,4220,4290,4653
4726 0.905911 0.134165 0.098406 4656,4519,4653
4727 0.921136 0.095892 0.108463 4657,4292,4222,4653,4520
4728 0.913314 0.104064 0.082622 4521,4658,4653
4729 0.935454 0.094356 0.079968 4659,4522,4653
4730 0.942368 0.078851 0.087092 4523,4660,4653
4731 0.945651 0.097289 0.088140 4524,4661,4653
4732 0.948374 0.091772 0.082552 4525,4662,4653
4733 0.952634 0.090235 0.088139 4526,4653,4663
4734 0.951587 0.107624 0.097848 4664,4527,4653
4735 0.945232 0.088140 0.094844 4665,4653,4528
4736 0.942437 0.090723 0.087651 4666,4529,4653
4739 0.586457 0.092750 0.135142 4654,4532
4740 0.923511 0.095892 6.998792 4655,4654,4220,4305,4533
4741 0.920647 0.097917 0.085626 4534,4654,4656
4742 0.925536 0.100502 0.076336 4654,4657,4307,4222,4535
4743 0.903467 0.093308 0.080946 4654,4536,4658
4744 0.924698 0.098057 0.084089 4654,4537,4659
4745 0.907517 0.095264 0.082482 4654,4660,4538
4746 0.919670 0.088699 0.087161 4654,4661,4539
4747 0.898926 0.110489 0.090724 4654,4662,4540
4748 0.931193 0.092750 0.088699 4541,4654,4663
4749 0.899206 0.115657 0.089188 4664,4654,4542
4750 0.939295 0.108253 0.097847 4654,4543,4665
4751 0.923790 0.088070 0.087092 4654,4666,4544
4754 0.588133 0.103994 0.099384 4655,4319,4220,4547
4755 0.912895 0.107696 0.086673 4655,4548,4656,4220
4756 0.917015 0.095333 0.090235 4549,4321,4655,4657,4220,4222
4757 0.934755 0.092819 0.094356 4655,4220,4658,4550
4758 0.901162 0.091212 0.081924 4655,4659,4220,4551
4759 0.930914 0.090165 0.088629 4655,4660,4552,4220
4760 0.921276 0.093308 0.079968 4655,4220,4661,4553
4761 0.925606 0.089676 0.093796 4655,4554,4220,4662
4762 0.956895 0.093796 0.090235 4655,4555,4220,4663
4763 0.930356 0.094286 0.081435 4655,4664,4556,4220
4764 0.934965 0.100152 0.084578 4655,4665,4220,4557
4765 0.886286 0.098895 0.095334 4655,4666,4220,4558
4768 0.580381 0.105042 0.105111 4561,4656
4769 0.911288 0.094844 0.084578 4562,4657,4656,4334,4222
4770 0.923581 0.078920 0.095264 4563,4656,4658
4771 0.942508 0.105529 0.090095 4656,4659,4564
4772 0.934127 0.077873 0.079968 4656,4660,4565
4773 0.927073 0.099384 0.100222 4656,4661,4566
4774 0.948025 0.088699 0.098965 4656,4567,4662
4775 0.932660 0.089187 0.072775 4568,4656,4663
4776 0.927771 0.085066 0.086673 4664,4569,4656
4777 0.940413 0.100502 0.096451 4570,4665,4656
4778 0.926514 0.081993 0.092819 4571,4666,4656
4781 0.575353 0.115098 0.103644 4346,4657,4574,4222
4782 0.932031 0.086184 0.087581 4657,4658,4222,4575
4783 0.971632 0.096381 0.094355 4657,4659,4576,4222
4784 0.915339 0.094844 0.091841 4657,4660,4222,4577
4785 0.926234 0.082482 0.111187 4578,4657,4661,4222
4786 0.908076 0.085137 0.093238 4579,4657,4662,4222
4787 0.932171 0.091213 0.079968 4657,4580,4222,4663
4788 0.930914 0.096451 0.085556 4664,4657,4581,4222
4789 0.928539 0.094356 0.077943 4665,4657,4222,4582
4790 0.877695 0.092261 0.089187 4583,4657,4666,4222
4793 0.579822 0.099873 0.114400 4586,4658
4794 0.930286 0.094845 0.101060 4587,4659,4658
4795 0.926584 0.092191 0.085626 4660,4658,4588
4796 0.924837 0.095334 0.089746 4589,4658,4661
4797 0.894178 0.096381 0.079899 4590,4658,4662
4798 0.940692 0.089676 0.084019 4591,4658,4663
4799 0.935454 0.083041 0.093797 4664,4592,4658
4800 0.942718 0.085625 0.087162 4665,4658,4593
4801 0.939504 0.107345 0.088769 4666,4658,4594
4804 0.590298 0.107625 0.110210 4659,4597
4805 0.892710 0.083530 0.082972 4660,4598,4659
4806 0.903397 0.093308 0.094356 4599,4659,4661
4807 0.913942 0.081993 0.073264 4659,4600,4662
4808 0.923441 0.081504 0.092260 4601,4659,4663
4809 0.929237 0.084578 0.090654 4664,4602,4659
4810 0.913523 0.094286 0.088140 4665,4659,4603
4811 0.916317 0.090235 0.097987 4666,4659,4604
4814 0.588901 0.110279 0.100362 4607,4660
4815 0.919669 0.090235 0.090932 4660,4661,4608
4816 0.900463 0.103085 0.088210 4660,4662,4609
4817 0.922882 0.094286 0.076895 4610,4660,4663
4818 0.925048 0.088629 0.113282 4664,4611,4660
4819 0.895853 0.097637 0.077454 4665,4612,4660
4820 0.862749 0.087721 0.078921 4666,4660,4613
4823 0.573606 0.099454 0.104692 4661,4616
4824 0.912825 0.104203 0.095823 4617,4661,4662
4825 0.910590 0.084647 0.078921 4618,4661,4663
4826 0.930006 0.090235 0.089677 4664,4619,4661
4827 0.921974 0.076336 0.078921 4620,4665,4661
4828 0.925607 0.095822 0.096241 4621,4666,4661
4831 0.575353 0.102527 0.093238 4624,4662
4832 0.914641 0.090724 0.093308 4625,4662,4663
4833 0.915619 0.089257 0.088140 4664,4626,4662
4834 0.954450 0.086603 0.086114 4665,4662,4627
4835 0.884959 0.088070 0.092750 4628,4666,4662
4838 0.588761 0.090584 0.085555 4631,4663
4839 0.914571 0.096381 0.087650 4664,4632,4663
4840 0.925745 0.080946 0.089188 4633,4665,4663
4841 0.937898 0.108393 0.088698 4666,4634,4663
4844 0.578914 0.085625 0.093308 4664,4637
4845 0.931263 0.095823 0.086044 4664,4665,4638
4846 0.917295 0.134375 0.130184 4664,4666,4639
4849 0.536521 0.099943 0.087581 4642,4665
4850 0.873365 0.090933 0.088139 4665,4666,4643
4853 0.541200 0.090235 0.109581 4666,4646
4856 0.623403 -1 -1 4234,4669
4857 1.340184 0.251429 0.423448 4856,4235,4234,4670
4858 1.349962 0.116495 0.262952 4856,4234,4671,4236
4859 1.357225 0.144083 0.265955 4856,4234,4672
4860 1.508501 0.124667 0.244585 4856,4234,4673
4861 1.340463 0.143034 0.304927 4856,4234,4674,4239
4862 1.380203 0.137726 0.279713 4856,4675,4234
4863 1.337320 0.119918 0.282508 4856,4234,4241,4676
4864 1.332572 0.122012 0.288166 4677,4856,4234
4865 1.331942 0.150717 0.305765 4856,4234,4678
4866 1.333409 0.122501 0.300875 4856,4234,4679
4867 1.385651 0.104622 0.293194 4856,4234,4680
4868 1.337529 0.122502 0.299899 4856,4234,4681
4869 1.345072 0.113352 0.294800 4856,4234,4682
4870 1.328730 0.110768 0.293263 4856,4234,4683
4871 1.361694 0.121524 0.305067 4856,4684,4234
4872 1.353314 0.125224 0.303461 4856,4234,4685
4875 0.582336 0.119079 0.112375 4857,4235,4253,4688
4876 0.900254 0.102527 0.112235 4254,4689,4858,4857,4236,4235
4877 0.917505 0.095333 0.106648 4857,4690,4235,4859
4878 0.893060 0.100432 0.123620 4857,4691,4235,4860
4879 0.921486 0.105670 0.131860 4692,4257,4239,4857,4235,4861
4880 0.912755 0.112794 0.086044 4857,4862,4235,4693
4881 0.927492 0.095334 0.082552 4259,4694,4241,4857,4863,4235
4882 0.953333 0.088628 0.073822 4857,4235,4695,4864
4883 0.958641 0.090724 0.104552 4857,4235,4696,4865
4884 0.975612 0.082063 0.079968 4857,4235,4866,4697
4885 0.910939 0.087651 0.080527 4857,4698,4235,4867
4886 0.916177 0.089676 0.070749 4857,4699,4235,4868
4887 0.891523 0.104622 0.096940 4857,4235,4869,4700
4888 0.955010 0.091212 0.092190 4857,4235,4870,4701
4889 0.978965 0.087720 0.102038 4857,4235,4871,4702
4890 0.955288 0.098407 0.087651 4857,4235,4703,4872
4893 0.572419 0.132908 0.114819 4236,4271,4706,4858
4894 0.907168 0.089188 0.110279 4707,4236,4859,4858
4895 0.878463 0.096870 0.105181 4236,4860,4708,4858
4896 0.912616 0.127251 0.112235 4274,4709,4239,4858,4236,4861
4897 0.905701 0.141358 0.133816 4862,4236,4710,4858
4898 0.924698 0.087651 0.086673 4276,4858,4241,4863,4236,4711
4899 0.928330 0.086045 0.076267 4236,4712,4864,4858
4900 0.939993 0.096870 0.096381 4236,4713,4865,4858
4901 0.935035 0.088698 0.091701 4714,4236,4866,4858
4902 0.924139 0.093727 0.088698 4236,4715,4867,4858
4903 0.915270 0.084997 0.089676 4236,4868,4716,4858
4904 0.890127 0.095264 0.092190 4236,4717,4869,4858
4905 0.951936 0.094355 0.086603 4236,4718,4870,4858
4906 0.935314 0.083530 0.092260 4236,4871,4719,4858
4907 0.947536 0.100990 0.080038 4236,4872,4720,4858
4910 0.573746 0.128298 0.090793 4723,4859
4911 0.893200 0.089676 0.094775 4724,4860,4859
4912 0.913593 0.104553 0.093378 4725,4861,4239,4859,4290
4913 0.910660 0.123060 0.124178 4862,4726,4859
4914 0.918901 0.109791 0.128229 4863,4727,4292,4859,4241
4915 0.931683 0.084508 0.096870 4864,4859,4728
4916 0.931682 0.087162 0.079898 4729,4859,4865
4917 0.938317 0.103714 0.090235 4730,4866,4859
4918 0.919740 0.096381 0.092260 4731,4867,4859
4919 0.914362 0.098406 0.085066 4732,4868,4859
4920 0.882444 0.079409 0.092260 4733,4869,4859
4921 0.939155 0.089677 0.089746 4734,4870,4859
4922 0.932660 0.085555 0.090654 4871,4859,4735
4923 0.928469 0.089746 0.096451 4736,4859,4872
4926 0.575212 0.103993 0.103574 4860,4739
4927 0.902628 0.110210 0.089048 4740,4860,4861,4305,4239
4928 0.912616 0.095334 0.104063 4862,4860,4741
4929 0.917365 0.128229 13.132739 4863,4860,4307,4742,4241
4930 0.935733 0.126133 0.111746 4743,4860,4864
4931 0.928819 0.081994 0.079968 4860,4744,4865
4932 0.923441 0.089676 0.077384 4860,4866,4745
4933 0.937759 0.085067 0.081016 4860,4867,4746
4934 0.922812 0.073263 0.080457 4860,4747,4868
4935 0.893898 0.089885 0.110977 4748,4860,4869
4936 0.920089 0.092330 0.072285 4860,4749,4870
4937 0.928679 0.090724 0.079968 4750,4860,4871
4938 0.927562 0.081435 0.087720 4751,4860,4872
4941 0.575282 0.120057 13.112135 4319,4861,4754,4239
4942 0.932520 0.099943 0.094775 4862,4861,4755,4239
4943 0.906261 0.092749 0.100921 4321,4756,4241,4239,4863,4861
4944 0.937479 0.126273 0.128787 4861,4864,4239,4757
4945 0.924000 0.115448 0.117403 4758,4861,4239,4865
4946 0.922883 0.082343 0.086603 4759,4861,4866,4239
4947 0.933080 0.097358 0.096800 4760,4861,4867,4239
4948 0.917924 0.083042 0.085136 4761,4868,4861,4239
4949 0.916946 0.088699 0.081924 4869,4861,4762,4239
4950 0.941181 0.090793 0.090235 4763,4861,4870,4239
4951 0.926794 0.085625 0.092330 4861,4871,4764,4239
4952 0.930704 0.090794 0.092749 4861,4765,4239,4872
4955 0.582615 0.089746 0.108254 4862,4768
4956 0.918133 0.096870 0.088140 4862,4863,4769,4334,4241
4957 0.937968 0.100362 0.107136 4862,4770,4864
4958 0.923791 0.083600 0.086603 4862,4771,4865
4959 0.918971 0.084019 0.092330 4862,4772,4866
4960 0.925187 0.087092 0.098896 4862,4867,4773
4961 0.908984 0.086114 0.085067 4862,4868,4774
4962 0.909123 0.093308 0.079479 4862,4775,4869
4963 0.935454 0.089188 0.088140 4862,4776,4870
4964 0.931891 0.086603 0.077314 4862,4777,4871
4965 0.935803 0.089118 0.098336 4862,4778,4872
4968 0.580730 0.118590 0.093307 4863,4346,4781,4241
4969 0.914432 0.084019 0.086115 4863,4782,4864,4241
4970 0.934406 0.086604 0.087162 4863,4865,4783,4241
4971 0.924070 0.095264 0.087580 4863,4784,4866,4241
4972 0.929308 0.094844 0.086603 4863,4785,4867,4241
4973 0.910940 0.081994 0.083531 4863,4868,4786,4241
4974 0.910311 0.092260 0.087092 4787,4863,4869,4241
4975 0.929238 0.096381 0.107834 4863,4788,4870,4241
4976 0.924768 0.087162 0.085556 4863,4871,4789,4241
4977 0.931054 0.092260 0.087721 4863,4872,4790,4241
4980 0.582266 0.100990 0.097847 4864,4793
4981 0.922673 0.091213 0.089258 4794,4864,4865
4982 0.935314 0.087651 0.113003 4795,4866,4864
4983 0.906959 0.103365 0.106856 4796,4867,4864
4984 0.911219 0.118730 0.090095 4868,4797,4864
4985 0.934476 0.096241 0.093867 4869,4798,4864
4986 0.947047 0.090724 0.075359 4870,4864,4799
4987 0.929727 0.088698 0.079409 4800,4871,4864
4988 0.940482 0.088209 0.086603 4801,4864,4872
4991 0.579473 0.095823 0.085067 4804,4865
4992 0.918971 0.088140 0.083530 4866,4805,4865
4993 0.908286 0.105041 0.103993 4867,4806,4865
4994 0.917854 0.077314 0.089676 4868,4807,4865
4995 0.928120 0.086604 0.075359 4808,4869,4865
4996 0.933149 0.091771 0.084578 4809,4870,4865
4997 0.928260 0.087092 0.083041 4810,4871,4865
4998 0.923511 0.079899 0.075847 4811,4872,4865
5001 0.576609 0.097847 0.087092 4866,4814
5002 0.924210 0.083949 0.090166 4866,4867,4815
5003 0.913524 0.084578 0.083041 4868,4866,4816
5004 0.932380 0.085556 0.088628 4817,4869,4866
5005 0.923162 0.096241 0.089676 4818,4866,4870
5006 0.928540 0.092191 0.091701 4871,4819,4866
5007 0.944603 13.095164 0.090165 4866,4820,4872
5010 0.584222 0.096311 0.090095 4867,4823
5011 0.896622 0.088000 0.079339 4868,4824,4867
5012 0.908775 0.100641 0.095333 4825,4869,4867
5013 0.959898 0.103015 0.091841 4826,4867,4870
5014 0.926025 0.086114 0.085067 4827,4871,4867
5015 0.941599 0.087651 0.081015 4867,4828,4872
5018 0.578565 0.097359 0.097359 4831,4868
5019 0.905632 0.096381 0.093168 4832,4868,4869
5020 0.958292 0.092121 0.072775 4868,4833,4870
5021 0.923161 0.085626 0.093308 4868,4871,4834
5022 0.936851 0.090235 0.093797 4868,4835,4872
5025 0.579821 0.091283 0.108115 4838,4869
5026 0.935314 0.092749 0.087651 4839,4869,4870
5027 0.921556 0.103574 0.094774 4840,4869,4871
5028 0.918553 0.089607 0.082483 4869,4841,4872
5031 0.582686 0.091213 0.097707 4844,4870
5032 0.925676 0.093727 0.078990 4845,4871,4870
5033 0.928679 0.133816 0.117404 4846,4870,4872
5036 0.575282 0.086603 0.092819 4871,4849
5037 0.934057 0.105111 0.126204 4850,4871,4872
5040 0.589600 0.090794 0.091213 4853,4872
5043 0.603010 -1 -1 4875,4253
5044 1.313784 0.253314 0.422470 4253,4876,5043,4254
5045 1.321606 0.098965 0.259949 4253,5043,4877
5046 1.317066 0.140521 13.286668 4253,5043,4878
5047 1.360996 0.102108 0.305695 4879,4253,5043,4257
5048 1.355129 0.138845 0.297593 4880,4253,5043
5049 1.342140 0.114749 0.294660 4259,4881,4253,5043
5050 1.377829 0.120057 3.205574 4253,5043,4882
5051 1.374057 0.121035 0.297593 4253,4883,5043
5052 1.333968 0.103016 0.305974 4884,4253,5043
5053 1.368470 0.127390 0.297943 4253,5043,4885
5054 1.340323 0.123130 13.156625 4253,5043,4886
5055 1.386348 0.117893 0.293682 4253,5043,4887
5056 1.337251 0.129206 0.303390 4888,4253,5043
5057 1.354711 0.127600 0.295777 4889,4253,5043
5058 1.362952 0.120407 0.294730 4253,4890,5043
5061 0.558101 0.132279 0.121593 4893,4271,5044,4254
5062 0.851783 0.134863 0.096311 5045,5044,4254,4894
5063 0.876438 0.125575 0.096381 5046,5044,4254,4895
5064 0.931683 0.098965 0.125086 4274,4254,4257,4896,5047,5044
5065 0.867009 0.103644 0.126622 5044,4897,4254,5048
5066 0.949283 0.094775 0.089746 4259,4898,4276,4254,5049,5044
5067 0.919111 0.082483 0.088628 4899,5044,5050,4254
5068 0.892082 0.093308 0.089117 4900,5044,4254,5051
5069 0.893828 0.099175 0.096381 4901,5044,4254,5052
5070 0.926514 0.089607 0.080457 4902,5044,4254,5053
5071 0.901301 0.097428 0.087651 5054,4903,5044,4254
5072 0.926793 0.082482 0.081016 5055,5044,4254,4904
5073 0.991466 0.098966 0.081994 5056,5044,4905,4254
5074 0.909053 0.095822 0.090724 5044,5057,4254,4906
5075 0.979384 0.083600 0.092330 5044,5058,4254,4907
5078 0.540222 0.126692 0.112235 5045,4910
5079 0.855136 0.118940 0.096381 5046,5045,4911
5080 0.948025 0.096870 0.094286 5047,5045,4912,4290,4257
5081 0.872876 0.122641 0.126203 5045,4913,5048
5082 0.938946 0.122153 0.123060 4259,5045,4914,5049,4292
5083 0.922952 0.093727 0.091143 5045,4915,5050
5084 0.928469 0.090654 0.092260 4916,5045,5051
5085 0.926723 0.088558 0.095263 4917,5045,5052
5086 0.961015 0.078991 0.106578 5045,4918,5053
5087 0.903675 0.085625 0.091213 5054,5045,4919
5088 0.904793 0.106089 0.084019 5055,5045,4920
5089 0.935943 0.074311 0.090793 5045,5056,4921
5090 0.890127 0.090724 0.092261 4922,5045,5057
5091 0.929378 0.092749 0.091213 4923,5045,5058
5094 0.551956 0.114889 0.103575 5046,4926
5095 0.919181 0.095893 0.085556 5047,5046,4927,4305,4257
5096 0.897809 0.100431 0.083530 5046,4928,5048
5097 0.933010 0.103226 0.125645 4259,5046,4929,4307,5049
5098 0.933289 0.110280 0.114889 4930,5046,5050
5099 0.909193 0.093796 0.086604 5046,5051,4931
5100 0.890406 0.098406 0.093308 5046,4932,5052
5101 0.949073 0.089677 0.087161 5046,4933,5053
5102 0.896901 0.086045 0.086115 5054,5046,4934
5103 0.905352 0.083042 0.082482 5046,4935,5055
5104 0.925466 0.084089 0.080946 5046,5056,4936
5105 0.902140 0.088139 0.091702 5046,5057,4937
5106 0.933079 0.090235 13.110109 4938,5046,5058
5109 0.572140 0.111047 0.119010 5047,4319,4941,4257
5110 0.923371 0.095334 0.085625 5047,4942,4257,5048
5111 0.927143 0.085486 0.113142 4259,4943,4321,4257,5049,5047
5112 0.909333 0.140520 0.121524 5047,4944,5050,4257
5113 0.915688 0.127740 0.123549 5047,4945,5051,4257
5114 0.931124 0.085067 0.092749 5047,4946,5052,4257
5115 0.915199 0.085136 0.078432 5047,4947,4257,5053
5116 0.948235 0.085974 0.095752 5047,5054,4948,4257
5117 0.926584 0.084019 0.087162 5047,5055,4949,4257
5118 0.940971 0.090095 0.098476 5047,5056,4950,4257
5119 0.920578 0.079968 0.092749 5047,5057,4257,4951
5120 0.921555 0.083600 0.081924 5047,4952,5058,4257
5123 0.569415 0.096940 0.107696 4955,5048
5124 0.928958 0.106648 0.111186 4259,4334,4956,5049,5048
5125 0.914082 0.104553 0.114259 5050,4957,5048
5126 0.910381 0.133117 0.121105 4958,5051,5048
5127 0.880349 0.091772 0.075359 4959,5052,5048
5128 0.947466 0.086045 0.085556 5053,4960,5048
5129 0.910940 0.090095 0.095263 5054,4961,5048
5130 0.930145 0.090724 0.086114 5055,4962,5048
5131 0.928260 0.096381 0.080387 5056,4963,5048
5132 0.896063 0.092330 0.087651 5057,4964,5048
5133 0.921486 0.090724 0.077803 4965,5058,5048
5136 0.584012 0.132629 0.116286 4259,4346,5049,4968
5137 0.920717 0.106089 0.094844 4259,5050,4969,5049
5138 0.939784 0.090724 0.103784 4259,4970,5051,5049
5139 0.927422 0.092749 0.104972 4259,5052,5049,4971
5140 0.923721 0.093238 0.105041 4259,4972,5049,5053
5141 0.925326 0.090654 0.093796 4259,5054,5049,4973
5142 0.934615 0.085137 0.081435 4259,5055,4974,5049
5143 0.930495 0.088139 0.078991 4259,4975,5056,5049
5144 0.924768 0.079968 0.080387 4259,4976,5057,5049
5145 0.922533 0.092260 0.076895 4259,4977,5058,5049
5148 0.583593 0.097359 0.133048 4980,5050
5149 0.889289 0.087162 0.078361 4981,5050,5051
5150 0.921556 0.092819 0.093308 4982,5050,5052
5151 0.921486 0.089606 0.085136 4983,5050,5053
5152 0.926584 0.088070 0.081086 5054,5050,4984
5153 0.931821 0.088209 0.083530 5055,5050,4985
5154 0.930704 0.099454 0.087511 5056,5050,4986
5155 0.913454 0.084508 0.086114 5057,5050,4987
5156 0.938247 0.087581 0.090235 5058,5050,4988
5159 0.578704 0.090724 0.087651 5051,4991
5160 0.936082 0.082482 0.096870 4992,5051,5052
5161 0.895015 0.089606 0.074381 4993,5051,5053
5162 0.952425 0.082972 0.091911 5054,4994,5051
5163 0.939923 0.090235 0.079480 5055,4995,5051
5164 0.926375 0.088070 0.092749 4996,5056,5051
5165 0.936291 0.079340 0.089607 4997,5057,5051
5166 0.919949 0.079409 0.092261 5058,5051,4998
5169 0.602660 0.085067 0.096800 5001,5052
5170 0.926096 0.098965 0.078432 5002,5052,5053
5171 0.943765 0.092819 0.087162 5054,5003,5052
5172 0.950819 0.079480 0.109441 5055,5052,5004
5173 0.922882 0.085066 0.083530 5056,5005,5052
5174 0.881816 0.090235 0.099943 5057,5006,5052
5175 0.932521 0.096311 0.094286 5007,5058,5052
5178 0.580869 0.096381 0.085486 5010,5053
5179 0.902349 0.084578 0.086603 5054,5011,5053
5180 0.901232 0.093308 0.107346 5055,5012,5053
5181 0.925536 0.091702 0.080457 5056,5013,5053
5182 0.959409 0.084019 0.107975 5057,5014,5053
5183 0.915689 0.086603 0.073333 5058,5015,5053
5186 0.574933 15.119513 0.091702 5054,5018
5187 0.905073 0.089187 0.081505 5054,5055,5019
5188 0.943765 0.092749 0.086045 5054,5020,5056
5189 0.873575 0.085625 0.080946 5054,5021,5057
5190 0.952146 0.087720 0.088698 5054,5022,5058
5193 0.578705 0.093727 0.087023 5055,5025
5194 0.944882 0.076826 0.087651 5055,5056,5026
5195 0.864634 0.090235 0.081993 5055,5057,5027
5196 0.947257 0.084019 0.089746 5055,5058,5028
5199 0.579124 0.083600 0.100921 5056,5031
5200 0.931263 0.090793 0.091143 5056,5057,5032
5201 0.920648 0.116984 0.124178 5056,5058,5033
5204 0.588203 0.083460 0.096311 5036,5057
5205 0.916318 0.086603 0.091771 5037,5057,5058
5208 0.572000 0.087092 0.084577 5058,5040
5211 0.616070 -1 -1 4271,5061
5212 1.334527 0.256248 0.272800 4271,5062,5211
5213 1.333828 0.121104 0.272241 4271,5063,5211
5214 1.357715 0.129276 0.285581 5064,4271,4274,5211
5215 1.355549 0.145060 0.318406 5065,4271,5211
5216 1.377689 0.153720 0.307720 4271,5066,4276,5211
5217 1.370495 0.124038 0.321129 4271,5067,5211
5218 1.401294 0.114889 0.302552 4271,5068,5211
5219 1.351289 0.131371 0.309677 4271,5069,5211
5220 1.338857 0.129696 0.299898 4271,5070,5211
5221 1.379714 0.128158 0.292705 4271,5071,5211
5222 1.358762 0.101968 0.295778 5072,4271,5211
5223 1.348215 0.127111 0.290680 5073,4271,5211
5224 1.337879 0.119918 0.297314 4271,5074,5211
5225 1.352616 0.127390 0.300877 4271,5075,5211
5228 0.594978 0.118591 0.079899 5078,5212
5229 0.919670 0.085625 0.084577 5079,5212,5213
5230 0.931053 0.091771 0.090794 5214,5080,5212,4290,4274
5231 0.904653 0.127670 0.130813 5081,5215,5212
5232 0.957383 0.115448 0.114749 5216,5082,5212,4276,4292
5233 0.930635 0.085067 0.086533 5083,5217,5212
5234 0.946069 0.086533 0.085067 5212,5218,5084
5235 0.926654 0.087162 0.093797 5212,5085,5219
5236 0.922673 0.085556 0.088768 5220,5212,5086
5237 0.905911 0.099174 0.092260 5087,5221,5212
5238 0.947746 0.124038 0.089676 5222,5088,5212
5239 0.915410 0.089117 0.088140 5223,5089,5212
5240 0.918622 0.075847 0.083530 5090,5212,5224
5241 0.909892 0.083600 0.084089 5091,5212,5225
5244 0.580311 0.130393 0.081016 5094,5213
5245 0.928120 0.102527 0.092819 5095,5214,5213,4305,4274
5246 0.900952 0.095822 0.103574 5215,5213,5096
5247 0.956895 0.106229 0.130114 5216,5097,4307,5213,4276
5248 0.930984 0.115377 0.159238 5098,5217,5213
5249 0.927562 0.093238 0.080458 5099,5213,5218
5250 0.927212 0.096311 0.072775 5100,5213,5219
5251 0.920088 0.088209 0.094076 5101,5220,5213
5252 0.900324 0.085067 0.113771 5102,5221,5213
5253 0.942438 0.087650 0.089676 5222,5213,5103
5254 0.909194 0.087092 0.095333 5223,5213,5104
5255 0.930984 0.085066 0.082552 5105,5213,5224
5256 0.902419 0.089746 0.092330 5106,5213,5225
5259 0.586317 0.127251 0.096381 4319,5214,5109,4274
5260 0.932729 0.089676 0.101899 5214,5215,5110,4274
5261 0.935244 0.090724 0.096870 5111,4276,4274,4321,5216,5214
5262 0.915549 0.108393 0.109790 5217,5214,5112,4274
5263 0.892571 0.126133 0.129206 5214,5113,5218,4274
5264 0.923022 0.089676 0.088139 5114,5214,5219,4274
5265 0.920088 0.091772 0.087581 5115,5214,5220,4274
5266 0.922183 0.089676 0.094844 5214,5116,5221,4274
5267 0.922952 0.079410 0.096800 5222,5214,5117,4274
5268 0.956267 0.090724 0.092819 5223,5214,5118,4274
5269 0.933359 0.108393 0.099523 5214,5224,5119,4274
5270 0.932520 0.097707 0.078920 5214,5120,5225,4274
5273 0.569067 0.105112 0.093238 5215,5123
5274 0.929168 0.092261 0.104482 5216,5124,4334,5215,4276
5275 0.917015 0.103993 0.093797 5217,5215,5125
5276 0.916946 0.125644 0.124597 5126,5215,5218
5277 0.932101 0.113841 0.135841 5215,5127,5219
5278 0.943416 0.103923 0.086603 5128,5215,5220
5279 0.904863 0.088698 0.085626 5221,5215,5129
5280 0.910940 0.088139 0.086114 5222,5215,5130
5281 0.952215 0.093797 0.090165 5223,5215,5131
5282 0.922533 0.086604 0.077384 5215,5132,5224
5283 0.906260 0.088698 0.098895 5215,5133,5225
5286 0.582546 0.120546 0.107695 5216,5136,4276,4346
5287 0.946069 13.113183 0.118730 5216,5217,4276,5137
5288 0.929447 0.105600 0.122431 5216,4276,5218,5138
5289 0.940133 0.082971 0.090654 5216,4276,5139,5219
5290 0.925397 13.095513 0.089677 5216,5220,4276,5140
5291 0.942369 0.093797 0.101549 5216,5221,4276,5141
5292 0.941181 0.093168 0.083530 5216,5222,5142,4276
5293 0.933568 0.090724 0.099873 5216,5223,4276,5143
5294 0.925257 0.095753 0.099943 5216,5144,4276,5224
5295 0.927422 0.087650 0.084507 5216,5145,4276,5225
5298 0.574655 0.111886 0.111816 5217,5148
5299 0.910101 0.088558 0.088699 5217,5218,5149
5300 0.906749 0.084019 0.080457 5150,5217,5219
5301 0.923231 0.089187 0.082482 5151,5217,5220
5302 0.943764 0.091213 0.086673 5217,5221,5152
5303 0.917434 0.094775 0.071168 5217,5153,5222
5304 0.919740 0.087092 0.087720 5223,5217,5154
5305 0.939365 0.089676 0.093866 5217,5155,5224
5306 0.915828 0.079969 0.086044 5217,5225,5156
5309 0.574794 0.111327 0.099454 5159,5218
5310 0.925327 0.101060 0.093727 5160,5218,5219
5311 0.929168 0.091772 0.089607 5161,5220,5218
5312 0.948374 0.099943 0.088628 5221,5162,5218
5313 0.915060 0.101340 0.083041 5222,5163,5218
5314 0.925745 0.089187 0.094356 5223,5164,5218
5315 0.903955 0.083949 0.077873 5165,5218,5224
5316 0.934895 0.095822 0.092050 5166,5225,5218
5319 0.585549 0.100432 0.109930 5169,5219
5320 0.930634 0.093797 0.085626 5170,5220,5219
5321 0.923161 0.084019 0.091213 5221,5171,5219
5322 0.925885 0.081993 0.087651 5222,5172,5219
5323 0.931193 0.096381 0.079969 5223,5173,5219
5324 0.890616 0.086115 0.082552 5174,5224,5219
5325 0.935454 0.089187 0.091283 5175,5225,5219
5328 0.575351 0.091702 0.094286 5178,5220
5329 0.904234 0.092191 0.079549 5221,5220,5179
5330 0.906260 0.092261 0.087162 5222,5180,5220
5331 0.923650 0.096870 0.096870 5223,5220,5181
5332 0.955009 0.105250 0.088140 5182,5220,5224
5333 0.932591 0.092749 0.082552 5183,5220,5225
5336 0.575911 0.084997 0.083531 5221,5186
5337 0.919460 0.084089 0.090724 5222,5221,5187
5338 0.919460 0.095403 0.084508 5223,5221,5188
5339 0.886145 0.099942 0.083530 5221,5189,5224
5340 0.887962 0.093238 0.078921 5221,5190,5225
5343 0.575073 0.096381 0.086603 5222,5193
5344 0.900184 0.092190 0.090724 5223,5222,5194
5345 0.866310 0.094845 0.098406 5195,5222,5224
5346 0.889498 0.095822 0.116984 5222,5196,5225
5349 0.578006 0.102527 0.089188 5223,5199
5350 0.948234 0.081993 0.091772 5223,5200,5224
5351 0.930705 0.123130 0.120895 5223,5201,5225
5354 0.580661 0.083530 0.086044 5204,5224
5355 0.930635 0.124178 0.115308 5205,5225,5224
5358 0.580869 0.090654 0.078921 5208,5225
5361 0.609575 -1 -1 5228
5362 1.338088 0.107206 0.266794 5229,5361
5363 1.360437 0.119568 0.255410 5230,5361,4290
5364 1.340673 0.152673 0.319873 5231,5361
5365 1.378317 0.153791 0.295778 5232,5361,4292
5366 1.348913 0.141498 0.293333 5233,5361
5367 1.319232 0.118870 0.293264 5361,5234
5368 1.397454 0.117333 0.303042 5361,5235
5369 1.375802 0.112235 0.298851 5361,5236
5370 1.392285 0.118381 0.289701 5361,5237
5371 1.358342 0.116356 0.294242 5238,5361
5372 1.362324 0.124527 0.300457 5239,5361
5373 1.342069 0.128158 0.299968 5361,5240
5374 1.344234 0.128159 0.299340 5361,5241
5377 0.596514 0.085067 0.096311 5362,5244
5378 0.942228 0.098406 0.090724 5362,5363,4305,4290,5245
5379 0.922743 0.097289 0.089188 5362,5246,5364
5380 0.946209 0.114330 0.119499 5362,5247,4292,4307,5365
5381 0.929377 0.127739 0.118381 5362,5366,5248
5382 0.929168 0.102038 0.076337 5362,5249,5367
5383 0.925396 0.085067 0.088629 5362,5368,5250
5384 0.928540 0.086603 0.086115 5362,5369,5251
5385 0.927421 0.086604 0.076825 5362,5252,5370
5386 0.928749 0.092260 0.104343 5362,5253,5371
5387 0.928539 0.098406 0.076895 5362,5254,5372
5388 0.919460 0.089118 0.079479 5362,5373,5255
5389 0.900673 0.096311 0.087651 5362,5374,5256
5392 0.588622 0.086533 0.081435 5363,5259,4290,4319
5393 0.929517 0.092679 0.092260 5363,4290,5364,5260
5394 0.943905 0.118381 0.101549 5363,5261,5365,4321,4290,4292
5395 0.913663 0.098896 0.114331 5363,5366,4290,5262
5396 0.899416 0.119009 0.135073 5363,5263,4290,5367
5397 0.925955 0.081016 0.091143 5363,5368,5264,4290
5398 0.927981 0.089746 0.089117 5363,5265,5369,4290
5399 0.922184 0.084578 0.090724 5363,4290,5266,5370
5400 0.947676 0.095333 0.083041 5267,5363,5371,4290
5401 0.928051 0.081505 0.094355 5363,5268,4290,5372
5402 0.929657 0.088629 0.101269 5363,5269,4290,5373
5403 0.904933 0.094216 0.100013 5363,5270,4290,5374
5406 0.569416 0.086115 0.083530 5364,5273
5407 0.942437 0.106089 0.097358 5274,4334,4292,5364,5365
5408 0.922184 0.104553 0.101479 5275,5366,5364
5409 0.936990 0.118031 0.128717 5276,5367,5364
5410 0.948374 0.123130 0.114959 5368,5277,5364
5411 0.921625 0.087162 0.085626 5369,5278,5364
5412 0.916737 0.098965 0.085555 5370,5364,5279
5413 0.934895 0.093866 0.100851 5280,5371,5364
5414 0.934197 0.092190 0.095333 5281,5364,5372
5415 0.887752 0.092330 0.085067 5282,5373,5364
5416 0.921066 0.085136 0.084089 5374,5283,5364
5419 0.583314 0.081994 0.087720 4346,4292,5286,5365
5420 0.939504 0.101898 0.102387 4292,5366,5287,5365
5421 0.939924 0.095822 0.108114 5288,4292,5367,5365
5422 0.943625 0.115378 0.119988 5289,5368,4292,5365
5423 0.941321 0.089676 0.092260 5369,4292,5290,5365
5424 0.953613 0.096381 0.084997 4292,5291,5370,5365
5425 0.933637 0.088698 0.084578 5292,4292,5371,5365
5426 0.916946 0.081505 0.086115 5372,4292,5293,5365
5427 0.928260 0.099943 0.089257 5294,4292,5373,5365
5428 0.929866 0.084577 0.089746 5374,4292,5295,5365
5431 0.579263 0.109162 0.112864 5366,5298
5432 0.901022 0.095333 0.089187 5366,5367,5299
5433 0.936640 0.091213 0.093797 5300,5368,5366
5434 0.926584 0.085625 0.086603 5301,5369,5366
5435 0.936153 0.086603 0.086045 5302,5366,5370
5436 0.916457 0.079968 0.077943 5371,5303,5366
5437 0.927911 0.110837 0.082553 5304,5366,5372
5438 0.918413 0.108463 0.073822 5366,5305,5373
5439 0.940063 0.096870 0.088140 5374,5366,5306
5442 0.602800 0.136889 0.104622 5309,5367
5443 0.925536 0.084578 0.093308 5368,5310,5367
5444 0.961923 0.090235 0.079968 5311,5369,5367
5445 0.912127 0.088140 0.088698 5312,5367,5370
5446 0.925955 0.095333 0.086115 5313,5371,5367
5447 0.931193 0.088139 0.095333 5314,5367,5372
5448 0.925536 0.087720 0.090165 5367,5373,5315
5449 0.968419 0.091632 0.085066 5374,5367,5316
5452 0.607549 0.093796 0.108743 5368,5319
5453 0.920647 0.105669 0.083042 5368,5369,5320
5454 0.935524 0.084578 0.074311 5368,5370,5321
5455 0.924768 0.089746 0.085556 5322,5368,5371
5456 0.919320 0.076336 0.084089 5368,5323,5372
5457 0.914641 0.089677 0.092260 5368,5324,5373
5458 0.924419 0.091143 0.090724 5374,5368,5325
5461 0.580102 0.117892 0.095822 5369,5328
5462 0.918483 0.093378 0.095892 5369,5370,5329
5463 0.923371 0.076825 0.076337 5330,5369,5371
5464 0.927492 0.087162 0.083531 5331,5369,5372
5465 0.964088 0.097568 0.088628 5332,5369,5373
5466 0.923791 0.107346 0.082413 5374,5333,5369
5469 0.578914 0.093238 0.092190 5370,5336
5470 0.925956 0.090165 0.084089 5371,5370,5337
5471 0.913244 0.096870 0.081993 5338,5370,5372
5472 0.930286 0.091702 0.082413 5339,5370,5373
5473 0.895714 0.094845 0.087651 5374,5340,5370
5476 0.576331 0.090654 0.091213 5371,5343
5477 0.894038 0.094775 0.084996 5344,5371,5372
5478 0.912057 0.082971 0.095334 5345,5371,5373
5479 0.890337 0.078431 13.106269 5374,5346,5371
5482 0.569207 0.077384 0.089676 5349,5372
5483 0.933359 0.086045 0.082133 5350,5373,5372
5484 0.910310 0.119009 0.121105 5374,5351,5372
5487 0.585688 0.094774 0.088558 5354,5373
5488 0.930425 0.091771 0.073752 5374,5355,5373
5491 0.590856 0.088140 0.087581 5374,5358
5494 0.618374 -1 -1 5377
5495 1.389212 0.137377 0.279784 5494,5378,4305
5496 1.336202 0.130673 0.272939 5494,5379
5497 1.362393 0.144571 0.321340 5494,5380,4307
5498 1.351987 0.115797 0.320711 5494,5381
5499 1.333339 0.127600 0.294870 5494,5382
5500 1.359879 0.123550 0.306533 5494,5383
5501 1.341650 0.121524 0.299479 5494,5384
5502 1.365676 0.127529 0.301994 5494,5385
5503 1.367143 0.134794 0.294451 5494,5386
5504 1.330197 0.115308 0.296965 5494,5387
5505 1.335156 0.129207 0.294730 5494,5388
5506 1.363231 0.125645 0.298990 5494,5389
5509 0.578705 0.087092 0.087162 5495,4319,4305,5392
5510 0.945790 0.121104 0.090165 5393,5495,5496,4305
5511 0.917505 0.108673 0.089747 4307,4305,5394,4321,5495,5497
5512 0.902559 0.129974 0.113771 5495,5498,5395,4305
5513 0.904095 0.124108 0.118520 5495,5499,4305,5396
5514 0.946139 0.087650 0.099873 5495,5397,5500,4305
5515 0.932101 0.098895 0.104762 5495,5398,4305,5501
5516 0.949212 0.111885 0.089187 5495,5399,5502,4305
5517 0.929308 0.088628 0.088698 5495,5503,4305,5400
5518 0.953682 0.076337 0.080946 5495,5504,5401,4305
5519 0.943136 0.094285 0.089676 5495,5505,5402,4305
5520 0.929657 0.089676 0.092749 5506,5495,5403,4305
5523 0.566901 0.092260 0.083530 5406,5496
5524 0.896483 0.090724 0.096381 5407,5496,5497,4307,4334
5525 0.918063 0.088628 0.094775 5496,5498,5408
5526 0.933498 0.120616 0.118870 5496,5499,5409
5527 0.935523 0.119428 0.113841 5496,5410,5500
5528 0.904584 0.081435 0.079968 5496,5411,5501
5529 0.937969 0.090165 0.088629 5496,5502,5412
5530 0.945860 0.082971 0.093797 5496,5503,5413
5531 0.914013 0.079899 0.090724 5414,5496,5504
5532 0.904863 0.083530 0.085067 5415,5496,5505
5533 0.927771 0.084089 0.095333 5506,5496,5416
5536 0.573117 0.119009 0.085556 4346,5497,4307,5419
5537 0.925536 0.086603 0.093867 5498,5497,4307,5420
5538 0.905841 0.095333 0.097848 5421,5497,4307,5499
5539 0.925676 0.117543 0.148133 5497,4307,5500,5422
5540 0.900394 0.133396 0.119009 5497,4307,5423,5501
5541 0.935803 0.086603 0.088139 5502,5497,4307,5424
5542 0.936641 0.089257 0.104342 5425,5497,4307,5503
5543 0.901092 0.092679 0.083041 5504,5497,4307,5426
5544 0.905911 0.089117 0.091702 5505,5427,5497,4307
5545 0.901790 0.083531 0.116634 5506,5497,4307,5428
5548 0.570394 0.081435 0.083041 5431,5498
5549 0.958361 0.101968 0.103016 5432,5498,5499
5550 0.927492 0.086534 0.107136 5433,5498,5500
5551 0.952495 0.084438 0.091702 5498,5434,5501
5552 0.923930 0.088140 0.083041 5502,5498,5435
5553 0.921485 0.089188 0.079968 5436,5498,5503
5554 0.928958 0.091143 0.076896 5504,5498,5437
5555 0.920019 0.085555 0.079339 5438,5505,5498
5556 0.928819 0.088140 0.095892 5506,5439,5498
5559 0.567600 0.112863 0.111327 5442,5499
5560 0.918342 0.098965 0.083460 5443,5499,5500
5561 0.905492 0.089187 0.083042 5444,5499,5501
5562 0.914920 0.094356 0.107975 5502,5499,5445
5563 0.935384 0.104831 0.099873 5446,5499,5503
5564 0.887892 0.083460 0.087092 5504,5447,5499
5565 0.891803 0.089187 0.090235 5505,5499,5448
5566 0.915758 0.090375 0.093727 5506,5449,5499
5569 0.572000 0.111816 0.106648 5452,5500
5570 0.940902 0.079969 0.094844 5453,5500,5501
5571 0.935454 0.092819 13.095652 5454,5502,5500
5572 0.948304 0.092749 0.081993 5503,5500,5455
5573 0.920158 0.090654 0.096311 5504,5456,5500
5574 0.882515 0.081994 0.087651 5505,5500,5457
5575 0.923930 0.085556 0.080527 5506,5458,5500
5578 0.568717 0.110698 0.100921 5461,5501
5579 0.935594 0.088559 0.088698 5462,5502,5501
5580 0.939574 0.091702 0.114818 5463,5503,5501
5581 0.852482 0.079969 0.086044 5504,5464,5501
5582 0.949003 0.079340 0.084578 5505,5465,5501
5583 0.871200 0.094775 0.082553 5506,5466,5501
5586 0.581219 0.089187 0.120336 5469,5502
5587 0.940552 0.087162 0.078921 5502,5503,5470
5588 0.896063 0.092819 0.071727 5504,5502,5471
5589 0.888450 0.082971 0.089118 5472,5505,5502
5590 0.928679 0.079968 0.088139 5506,5502,5473
5593 0.577447 0.094286 0.083530 5476,5503
5594 0.878813 0.105250 0.091702 5477,5504,5503
5595 0.881746 0.099384 0.097917 5505,5503,5478
5596 0.926933 0.093307 0.087162 5506,5503,5479
5599 0.583663 0.093308 0.089746 5504,5482
5600 0.862959 0.099524 0.075219 5504,5505,5483
5601 0.926095 0.119498 0.114819 5506,5504,5484
5604 0.580310 0.081994 0.091213 5487,5505
5605 0.930565 0.112864 0.113911 5506,5505,5488
5608 0.551676 0.086114 0.098406 5506,5491
5611 0.633670 -1 -1 4319,5509
5612 1.385790 0.118451 0.269447 4319,5611,5510
5613 1.364418 0.116425 0.280901 5511,4319,4321,5611
5614 1.361206 0.145619 0.320013 4319,5512,5611
5615 1.370215 0.152184 0.311771 4319,5513,5611
5616 1.366654 0.131232 0.292216 4319,5611,5514
5617 1.359809 0.123549 0.294800 4319,5611,5515
5618 1.377968 0.117892 0.298361 4319,5611,5516
5619 1.377829 0.123479 0.299410 4319,5611,5517
5620 1.384952 0.128648 0.296266 4319,5611,5518
5621 1.371892 0.118381 0.301015 5519,4319,5611
5622 1.358692 0.130673 0.297803 5520,4319,5611
5625 0.605314 0.092261 0.090165 5612,5523
5626 0.924418 0.102527 0.088139 5612,5613,4321,5524,4334
5627 0.921974 0.116634 0.098406 5612,5525,5614
5628 0.944394 0.114889 0.117473 5612,5526,5615
5629 0.943695 0.141847 0.131791 5612,5616,5527
5630 0.943346 0.085626 0.086114 5612,5528,5617
5631 0.938038 0.085556 0.081016 5612,5529,5618
5632 0.952774 0.087022 0.093308 5612,5619,5530
5633 0.954939 0.098965 0.088629 5612,5531,5620
5634 0.932870 0.088139 0.086603 5612,5532,5621
5635 0.928121 0.096870 0.098476 5612,5533,5622
5638 0.570185 0.091143 0.090235 4321,5613,5536,4346
5639 0.928749 0.106020 0.090235 4321,5613,5537,5614
5640 0.928959 0.103993 0.097848 4321,5613,5538,5615
5641 0.935873 0.147155 0.118940 4321,5613,5539,5616
5642 0.933358 0.119498 0.128647 4321,5613,5540,5617
5643 0.931124 0.090165 0.096381 4321,5613,5618,5541
5644 0.947676 0.092819 0.120266 4321,5613,5619,5542
5645 0.907168 0.087580 0.087581 4321,5613,5543,5620
5646 0.925606 0.091143 0.093797 4321,5613,5544,5621
5647 0.928190 0.088140 0.083041 4321,5613,5622,5545
5650 0.591066 0.084997 0.085067 5548,5614
5651 0.954101 0.104064 0.117053 5549,5614,5615
5652 0.914921 0.099873 0.102527 5616,5550,5614
5653 0.935384 0.120966 0.119988 5551,5617,5614
5654 0.937828 0.089187 0.082553 5618,5614,5552
5655 0.951448 13.115488 0.079409 5619,5553,5614
5656 0.949841 0.104482 0.094983 5554,5614,5620
5657 0.929028 0.084089 0.081994 5555,5621,5614
5658 0.907308 0.089257 0.084578 5556,5622,5614
5661 0.575772 0.081924 0.083531 5559,5615
5662 0.916807 0.094774 0.096381 5560,5616,5615
5663 0.938107 0.088699 0.085066 5561,5617,5615
5664 0.913245 0.092819 0.086603 5618,5562,5615
5665 0.923790 0.088699 0.086114 5619,5563,5615
5666 0.940412 0.090235 0.084089 5564,5620,5615
5667 0.942508 0.097429 0.081435 5565,5621,5615
5668 0.923860 0.080458 0.112653 5566,5622,5615
5671 0.567740 0.107765 0.108743 5616,5569
5672 0.938457 0.083042 0.103994 5616,5617,5570
5673 0.922393 0.089677 0.089188 5618,5616,5571
5674 0.928609 0.089676 0.095892 5619,5616,5572
5675 0.939784 0.078361 0.089676 5573,5616,5620
5676 0.927771 0.089187 0.077384 5574,5616,5621
5677 0.905492 0.091701 0.107695 5575,5616,5622
5680 0.592533 0.114959 0.106089 5617,5578
5681 0.927980 0.080318 0.088140 5618,5617,5579
5682 0.923161 0.079479 0.095263 5619,5617,5580
5683 0.937409 0.092261 0.078850 5581,5617,5620
5684 0.961574 0.084089 0.085067 5582,5617,5621
5685 0.887543 0.090724 0.084019 5617,5583,5622
5688 0.583802 0.098337 0.099943 5586,5618
5689 0.919739 0.094356 0.088140 5587,5618,5619
5690 0.941111 0.111117 0.084089 5618,5588,5620
5691 0.922952 0.096312 0.102177 5618,5621,5589
5692 0.925117 0.100432 0.084019 5590,5618,5622
5695 0.580171 0.097917 0.100362 5593,5619
5696 0.936781 0.107066 0.089118 5619,5594,5620
5697 0.911219 0.099803 0.087721 5619,5595,5621
5698 0.899905 0.087720 0.087650 5619,5622,5596
5701 0.586666 0.098965 0.095333 5599,5620
5702 0.942717 0.085556 0.084578 5600,5621,5620
5703 0.937060 0.113282 0.130743 5601,5622,5620
5706 0.572419 0.092191 0.084508 5604,5621
5707 0.873295 0.114330 0.084578 5605,5622,5621
5710 0.552444 0.081994 0.088629 5622,5608
5713 0.626896 -1 -1 5625
5714 1.375314 0.112375 0.278457 5626,4334,5713
5715 1.366164 0.115936 0.278876 5627,5713
5716 1.346958 0.145060 0.333143 5713,5628
5717 1.370845 0.141010 0.320012 5713,5629
5718 1.373638 0.132280 0.290610 5630,5713
5719 1.334456 0.114819 0.298851 5713,5631
5720 1.371124 0.124597 0.288166 5713,5632
5721 1.402691 0.123549 0.295848 5713,5633
5722 1.369587 0.124108 0.289701 5634,5713
5723 1.384952 0.124527 0.301994 5635,5713
5726 0.583803 0.093727 0.088210 4346,4334,5714,5638
5727 0.922743 0.097358 0.116495 4334,5714,5715,5639
5728 0.915340 0.102457 0.100920 5716,4334,5714,5640
5729 0.927003 0.121524 0.122641 5717,5641,4334,5714
5730 0.909124 0.112305 0.134095 4334,5714,5642,5718
5731 0.901022 0.082063 0.078432 4334,5714,5643,5719
5732 0.911917 0.081434 0.090724 4334,5714,5720,5644
5733 0.882165 0.113492 0.078431 4334,5714,5645,5721
5734 0.895225 0.084508 0.111676 5722,4334,5714,5646
5735 0.889149 0.077384 0.084019 5723,4334,5714,5647
5738 0.607968 0.087092 0.083530 5715,5650
5739 0.917574 0.096800 0.113492 5716,5715,5651
5740 0.942997 0.089746 0.099384 5717,5715,5652
5741 0.929587 0.120546 0.113911 5715,5653,5718
5742 0.930285 0.126762 0.138146 5715,5654,5719
5743 0.945581 0.088140 0.090724 5715,5655,5720
5744 0.931962 0.094845 0.086044 5656,5715,5721
5745 0.952845 0.084159 0.078921 5722,5657,5715
5746 0.945162 0.096590 0.077454 5723,5715,5658
5749 0.580521 0.087581 0.090654 5716,5661
5750 0.944603 0.094845 0.105600 5717,5716,5662
5751 0.933498 0.094355 0.095892 5663,5716,5718
5752 0.926863 0.093797 0.082483 5716,5719,5664
5753 0.930425 0.097708 0.084996 5716,5720,5665
5754 0.948723 0.087651 0.091212 5716,5721,5666
5755 0.926444 0.085555 0.075359 5722,5716,5667
5756 0.925118 0.097359 0.080457 5716,5668,5723
5759 0.584431 0.084577 0.092750 5717,5671
5760 0.900882 0.087581 0.115098 5717,5672,5718
5761 0.943556 0.080457 0.084508 5717,5673,5719
5762 0.899556 0.087092 0.089746 5717,5720,5674
5763 0.928121 0.079480 0.093308 5717,5721,5675
5764 0.903187 0.082412 0.081016 5717,5722,5676
5765 0.891733 0.083460 0.084578 5717,5723,5677
5768 0.572210 0.119499 0.141987 5680,5718
5769 0.938248 0.095263 0.083530 5681,5719,5718
5770 0.919879 0.085067 0.085625 5720,5682,5718
5771 0.926724 0.095752 0.087162 5721,5683,5718
5772 0.895085 0.096381 0.076337 5722,5684,5718
5773 0.922394 0.086115 0.088140 5685,5723,5718
5776 0.586876 0.115447 0.110838 5688,5719
5777 0.914571 0.097358 0.095333 5720,5689,5719
5778 0.919251 0.095264 0.091213 5690,5721,5719
5779 0.935803 0.078921 0.075917 5722,5691,5719
5780 0.933638 0.084578 0.092260 5692,5723,5719
5783 0.583244 0.108184 0.101968 5720,5695
5784 0.928190 0.081505 0.078431 5720,5721,5696
5785 0.899415 0.086603 0.096939 5722,5720,5697
5786 0.934615 0.085067 0.090165 5723,5720,5698
5789 0.576399 0.088699 0.099943 5721,5701
5790 0.921416 0.091072 0.091772 5722,5721,5702
5791 0.901092 0.106717 0.122991 5723,5721,5703
5794 0.572070 0.093238 0.092819 5722,5706
5795 0.891244 0.097918 0.092261 5722,5723,5707
5798 0.556914 0.087162 0.086114 5723,5710
5801 0.611809 -1 -1 4346,5726
5802 1.312108 0.128298 0.257784 4346,5801,5727
5803 1.320349 0.106787 0.262673 4346,5801,5728
5804 1.335086 0.144152 0.328254 4346,5801,5729
5805 1.318603 0.153301 0.321409 4346,5801,5730
5806 1.329917 0.143594 0.283486 4346,5801,5731
5807 1.345771 0.127739 0.291238 4346,5801,5732
5808 1.344374 0.119429 0.307371 4346,5801,5733
5809 1.329289 0.124527 0.298013 4346,5801,5734
5810 1.306520 0.118171 0.281181 5735,4346,5801
5813 0.574304 0.099804 0.084508 5802,5738
5814 0.895435 0.093238 0.094844 5803,5802,5739
5815 0.903536 0.086534 0.099943 5740,5802,5804
5816 0.906190 0.110280 0.120546 5802,5805,5741
5817 0.922603 0.111327 0.119918 5802,5742,5806
5818 0.964158 0.087651 0.094845 5802,5743,5807
5819 0.911917 0.089746 0.095053 5802,5808,5744
5820 0.908564 0.082972 0.086114 5802,5809,5745
5821 0.914921 0.077245 0.084019 5810,5802,5746
5824 0.568718 0.084019 0.088628 5803,5749
5825 0.896901 0.095823 0.096381 5803,5750,5804
5826 0.913314 0.090794 0.103016 5803,5751,5805
5827 0.918552 0.123061 0.116914 5803,5752,5806
5828 0.943206 0.091701 0.077384 5803,5753,5807
5829 0.890196 0.086673 0.105600 5803,5808,5754
5830 0.895364 0.088139 0.080457 5803,5809,5755
5831 0.904234 0.082482 0.083949 5803,5810,5756
5834 0.567460 0.087022 0.095822 5759,5804
5835 0.895994 0.090235 0.100991 5760,5805,5804
5836 0.911568 0.090654 0.088698 5761,5806,5804
5837 0.915968 0.079968 0.095333 5762,5807,5804
5838 0.881816 0.086604 0.089117 5808,5763,5804
5839 0.898926 0.089676 0.094845 5809,5764,5804
5840 0.899695 0.081994 0.124108 5810,5765,5804
5843 0.579962 0.089187 0.088699 5768,5805
5844 0.908215 0.093797 0.098406 5806,5805,5769
5845 0.907377 0.091213 0.089117 5770,5807,5805
5846 0.891034 0.098895 0.099873 5771,5808,5805
5847 0.905492 0.096381 0.127739 5809,5772,5805
5848 0.909543 0.077943 0.081924 5810,5773,5805
5851 0.575492 0.127530 0.116425 5806,5776
5852 0.883562 0.092819 0.093657 5807,5806,5777
5853 0.892711 0.090724 0.095892 5778,5808,5806
5854 0.904653 0.086673 0.110489 5779,5809,5806
5855 0.919041 0.090235 0.081994 5810,5780,5806
5858 0.574375 0.139402 0.109162 5807,5783
5859 0.959200 0.086603 0.089187 5784,5808,5807
5860 0.912197 0.092749 0.092750 5785,5809,5807
5861 0.925117 0.090165 0.089746 5810,5786,5807
5864 0.574514 0.101968 0.095752 5808,5789
5865 0.925746 0.087581 0.129206 5809,5808,5790
5866 0.931263 0.098406 0.127670 5810,5808,5791
5869 0.570813 0.115307 0.105879 5809,5794
5870 0.917365 0.096870 0.126133 5810,5809,5795
5873 0.574166 0.089606 0.094286 5810,5798
5876 0.604406 -1 -1 5813
5877 1.309384 0.113352 0.256387 5814,5876
5878 1.319441 0.119569 0.272870 5876,5815
5879 1.381669 0.135353 0.316241 5876,5816
5880 1.363790 0.151695 0.314635 5876,5817
5881 1.327822 0.127670 0.281461 5818,5876
5882 1.360997 0.124108 0.297803 5819,5876
5883 1.318672 0.133746 0.297943 5820,5876
5884 1.332083 0.134305 0.296895 5821,5876
5887 0.561872 0.090724 0.105879 5877,5824
5888 0.865403 0.093797 0.096381 5878,5825,5877
5889 0.915129 0.096381 0.096381 5879,5877,5826
5890 0.931053 0.124108 0.124108 5880,5877,5827
5891 0.889567 0.110209 0.135910 5828,5881,5877
5892 0.934057 0.089607 0.096940 5829,5882,5877
5893 0.894666 0.096870 0.094844 5883,5877,5830
5894 0.890685 0.090724 0.094355 5831,5877,5884
5897 0.558032 0.092819 0.088140 5878,5834
5898 0.938108 0.100991 0.093797 5878,5879,5835
5899 0.913733 0.100921 0.096311 5836,5878,5880
5900 0.886565 0.089676 0.084648 5837,5878,5881
5901 0.936152 0.142336 0.076825 5882,5878,5838
5902 0.908216 0.086672 0.081505 5883,5878,5839
5903 0.907517 0.077873 0.092190 5878,5840,5884
5906 0.581499 0.091143 0.103994 5879,5843
5907 0.901581 0.100851 0.091282 5879,5880,5844
5908 0.918342 0.089188 0.099384 5881,5879,5845
5909 0.917994 0.084578 0.082971 5882,5879,5846
5910 0.918133 0.078362 0.088699 5883,5847,5879
5911 0.924418 0.088698 0.085626 5879,5848,5884
5914 0.580870 0.077873 0.089187 5880,5851
5915 0.923092 0.083111 0.081016 5881,5880,5852
5916 0.936571 0.096311 0.084089 5882,5880,5853
5917 0.927003 0.078991 0.081505 5883,5854,5880
5918 0.927003 0.085625 0.090235 5855,5880,5884
5921 0.549930 0.119009 0.104622 5881,5858
5922 0.894875 0.088699 0.079409 5882,5881,5859
5923 0.869314 0.100990 0.085136 5883,5881,5860
5924 0.856113 0.097429 0.091212 5881,5861,5884
5927 0.569625 0.128717 0.114889 5882,5864
5928 0.936361 0.086673 0.081435 5883,5882,5865
5929 0.934546 0.091701 0.101339 5882,5866,5884
5932 0.550558 0.098895 0.100921 5883,5869
5933 0.901022 0.083041 0.091772 5883,5870,5884
5936 0.552584 0.098407 0.107067 5873,5884
5939 0.604197 -1 -1 5887
5940 1.335085 0.104622 0.267702 5888,5939
5941 1.355897 0.125085 0.266025 5889,5939
5942 1.389212 0.149670 0.312330 5890,5939
5943 1.321466 0.125086 0.314844 5891,5939
5944 1.340813 0.145549 0.324133 5892,5939
5945 1.326215 0.136889 0.289772 5893,5939
5946 1.309663 0.147016 0.283485 5894,5939
5949 0.567321 0.085556 0.125364 5940,5897
5950 0.938736 0.100851 0.098337 5898,5940,5941
5951 0.914082 0.107695 0.079969 5899,5942,5940
5952 0.882584 0.120057 0.113282 5900,5943,5940
5953 0.912336 0.087581 0.083042 5944,5901,5940
5954 0.879651 0.088139 0.083041 5902,5945,5940
5955 0.875949 0.081505 0.088629 5946,5903,5940
5958 0.565435 0.090724 0.083041 5906,5941
5959 0.903187 0.093797 0.092819 5942,5907,5941
5960 0.913734 0.084508 0.090654 5908,5943,5941
5961 0.918413 0.099942 0.093308 5944,5909,5941
5962 0.916178 0.083530 0.079479 5945,5910,5941
5963 0.903048 0.092749 0.090235 5946,5911,5941
5966 0.573676 0.085136 0.108044 5914,5942
5967 0.914990 0.092261 0.099733 5915,5942,5943
5968 0.898368 0.092958 0.084089 5944,5916,5942
5969 0.916596 0.091701 0.082552 5917,5945,5942
5970 0.918901 0.077942 0.089676 5946,5942,5918
5973 0.566273 0.096870 0.097288 5943,5921
5974 0.907936 0.082063 0.090724 5944,5943,5922
5975 0.882095 0.095822 0.085067 5945,5943,5923
5976 0.917784 0.094914 13.110249 5946,5924,5943
5979 0.572838 0.109441 0.085625 5944,5927
5980 0.900882 0.088699 0.080597 5944,5945,5928
5981 0.924489 0.112304 0.117962 5946,5944,5929
5984 0.580869 0.088070 0.119499 5945,5932
5985 0.871898 0.039390 0.073683 5946,5945,5933
5988 0.575283 0.085066 0.100432 5946,5936
5991 0.607060 -1 -1 5949
5992 1.331453 0.254851 0.413041 5950,5991
5993 1.330895 0.111328 0.281530 5951,5991
5994 1.353453 0.136400 0.321828 5952,5991
5995 1.335225 0.112305 0.296896 5953,5991
5996 1.320279 0.147644 0.330210 5991,5954
5997 1.347517 0.114330 0.309606 5955,5991
6000 0.563130 0.117962 0.089117 5958,5992
6001 0.860515 0.091701 0.100012 5959,5993,5992
6002 0.890615 0.092469 0.106648 5960,5994,5992
6003 0.890685 0.083530 0.092819 5995,5961,5992
6004 0.882723 0.089676 0.088699 5962,5996,5992
6005 0.889917 0.089676 0.101060 5997,5963,5992
6008 0.552305 0.124108 0.089606 5966,5993
6009 0.868267 0.089118 0.088698 5994,5993,5967
6010 0.864844 0.091212 0.083600 5995,5968,5993
6011 0.873714 0.084089 0.095822 5969,5996,5993
6012 0.855416 0.081016 0.113002 5997,5970,5993
6015 0.579263 0.116914 0.087092 5973,5994
6016 0.902349 0.087231 0.082483 5995,5994,5974
6017 0.923022 0.091282 0.082553 5994,5996,5975
6018 0.902837 0.090096 0.077873 5994,5997,5976
6021 0.582057 0.088629 0.097428 5995,5979
6022 0.906121 0.082971 0.082971 5995,5980,5996
6023 0.898787 0.075289 0.110209 5995,5997,5981
6026 0.554260 0.122501 0.084089 5996,5984
6027 0.921485 0.049238 0.067606 5997,5996,5985
6030 0.566831 0.084508 0.089118 5997,5988
6033 0.613905 -1 -1 6000
6034 1.331104 0.252616 0.416254 6033,6001
6035 1.314901 0.128787 0.272381 6033,6002
6036 1.316158 0.134235 0.321759 6033,6003
6037 1.341999 0.116006 0.238228 6033,6004
6038 1.336971 0.143803 0.313378 6033,6005
6041 0.558241 0.126204 0.111397 6008,6034
6042 0.881117 0.126203 0.116635 6009,6035,6034
6043 0.856533 0.082482 0.090724 6010,6036,6034
6044 0.860584 0.086603 0.087022 6011,6037,6034
6045 0.863587 0.078920 0.091701 6012,6038,6034
6048 0.568158 0.153930 0.116426 6015,6035
6049 0.892502 0.087651 0.089606 6036,6035,6016
6050 0.885587 0.108184 0.092191 6037,6017,6035
6051 0.885936 0.070190 0.078990 6018,6038,6035
6054 0.578845 0.114400 0.116914 6021,6036
6055 0.893967 0.089118 0.082553 6022,6037,6036
6056 0.885517 0.088699 0.087651 6038,6036,6023
6059 0.568578 0.086115 0.109162 6037,6026
6060 0.888101 0.039460 0.058946 6038,6037,6027
6063 0.572977 0.096312 0.090165 6038,6030
6066 0.604267 -1 -1 6041
6067 1.310362 0.257714 0.422121 6042,6066
6068 1.309243 0.110699 0.274826 6043,6066
6069 1.329847 0.147575 0.329651 6066,6044
6070 1.317764 0.113911 0.248774 6066,6045
6073 0.554819 0.113911 0.117962 6048,6067
6074 0.874344 0.102946 0.098965 6049,6067,6068
6075 0.840889 0.080876 0.081435 6067,6069,6050
6076 0.851854 0.081505 0.101828 6067,6051,6070
6079 0.561663 0.137936 0.120965 6054,6068
6080 0.866450 0.080457 0.078851 6055,6068,6069
6081 0.855346 0.097848 0.090235 6056,6068,6070
6084 0.543854 0.105111 0.116356 6059,6069
6085 0.845149 0.043092 0.064533 6060,6069,6070
6088 0.546997 0.106996 0.090235 6063,6070
6091 0.595816 -1 -1 6073
6092 1.310361 0.255899 0.413321 6091,6074
6093 1.331733 0.116914 0.278946 6091,6075
6094 1.323701 0.151206 0.303600 6091,6076
6097 0.541130 0.123060 0.114889 6092,6079
6098 0.873364 0.132350 0.112305 6093,6092,6080
6099 0.862190 0.078361 0.110489 6092,6094,6081
6102 0.564666 0.127740 0.140032 6093,6084
6103 0.875180 0.037365 0.060483 6093,6085,6094
6106 0.559498 0.090724 0.086534 6094,6088
6109 0.626615 -1 -1 6097
6110 1.323212 0.249613 0.424355 6098,6109
6111 1.341580 0.116425 0.255969 6099,6109
6114 0.564317 0.128229 0.111327 6110,6102
6115 0.852343 0.053219 0.066070 6103,6110,6111
6118 0.564248 0.125155 0.129277 6106,6111
6121 0.626616 -1 -1 6114
6122 1.317974 0.248425 0.433575 6115,6121
6125 0.553073 0.092749 0.149600 6118,6122
6128 0.623682 -1 -1 6125
