3927
3928,3929
3929,3321
3931
3932,3933
3933,3322
3935
3936,3937
3937,3323
3939
3940,3941
3941,3324
3926,3321 3916
3943
3944,3945
3945,3325
3947
3948,3949
3949,3326
3951
3952,3953
3953,3327
3955
3956,3957
3957,3328
3959
3960,3961
3961,3329
3963
3964,3965
3965,3330
3966
3967,3968
3968,3926
3930,3322 3926 3916 3917
3970
3971,3972
3972,3421
3934,3323 3926 3916 3918
3974
3942,3325 3926 3920
3975,3976
3938,3324 3926 3916 3919
3976,3422
3946,3326 3926 3921
3978
3950,3327 3926 3922
3979,3980
3980,3423
3982
3983,3984
3984,3424
3986
3987,3988
3988,3425
3969,3421 3930
3990
3991,3992
3992,3426
3994
3958,3329 3926 3924
3995,3996
3996,3427
3998
3999,4000
4000,3428
4002
3954,3328 3926 3923
4003,4004
4004,3429
4005
4006,4007
3962,3330 3926 3925
4007,3969
4009
4010,4011
4011,3502
4013
4014,4015
4015,3503
4017
3973,3422 3969 3930 3934
4018,4019
4019,3504
3977,3423 3969 3930 3938
4021
3985,3425 3969 3930 3946
4022,4023
4023,3505
3981,3424 3969 3930 3942
4025
4026,4027
4027,3506
4029
4030,4031
4031,3507
3993,3427 3969 3954 3923
4033
4034,4035
4035,3508
4008,3502 3973 3934
4001,3429 3969 3962 3925
4037
4038,4039
4039,3509
4040
4041,4042
4042,4008
4044
4045,4046
4046,3566
4048
4049,4050
4050,3567
3997,3428 3969 3958
4052
3989,3426 3969 3950
4053,4054
4054,3568
4056
4057,4058
4058,3569
4060
4061,4062
4062,3570
4012,3503 4008 3934 3977 3938
4064
4016,3504 4008 3934 3981 3942
4065,4066
4066,3571
4020,3505 4008 3934 3985 3946
4028,3507 4008 3934 3993 3954
4068
4069,4070
4070,3572
4071
4075
4076,4077
4077,3615
4079
4032,3508 4008 3934 3997 3958
4080,4081
4081,3616
4072,4073
4083
4073,4043 3977
4043,3566 4012 3977
4084,4085
4024,3506 4008 3934 3989 3950
4085,3617
4087
4088,4089
4089,3618
4091
4092,4093
4093,3619
4095
4096,4097
4097,3620
4098
4036,3509 4008 4001
4102
4103,4104
4104,3651
4106
4107,4108
4108,3652
4110
4111,4112
4047,3567 4043 3977 4016 3981
4112,3653
4114
4059,3570 4043 3977 4028 3993
4051,3568 4043 3977 4020 3985
4115,4116
4116,3654
4055,3569 4043 3977 4024 3989
4118
4063,3571 4043 3977 4032 3997
4119,4120
4120,3655
4121
4125
4126,4127
4127,3676
4067,3572 4043 3977 4036 4001
4129
4130,4131
4131,3677
4099,4100
4100,4074 4016
4074,3615 4047 4016
4133
4134,4135
4135,3678
4137
4138,4139
4139,3679
4140
4144
4145,4146
4146,3692
4148
4149,4150
4150,3693
4152
4153,4154
4154,3694
4155
4159
4160,4161
4161,3701
4082,3617 4074 4016 4055 3989
4078,3616 4074 4016 4051 4020
4163
4086,3618 4074 4016 4059 4028
4094,3620 4074 4016 4067 4001
4164,4165
4090,3619 4074 4016 4063 4032
4165,3702
4166
4170
4171,4172
4172,3705
4173
4177
4178,4179
4179,3705
4182
4122,4123
4183,4184
4123,4101 4020
4184,3703
4101,3651 4078 4020
4187
4188,4189
4189,3698
4192
4193,4194
4194,3688
4197
4198,4199
4199,3671
4201,4090 4094 4086 4082 4078 4099
4202
4203,4204
4204,3645
4206,4067 4063 4055 4051 4059 4047 4072
4207
4208,4209
4209,3608
4105,3652 4101 4020 4082 3989
4113,3654 4101 4020 4090 4032
4109,3653 4101 4020 4086 4028
4196,4117 4113 4109 4105 4122
4117,3655 4101 4020 4094 4001
4211,4036 4024 4032 4028 4020 4016 4012 4041
4212
4213,4214
4214,3558
4216,3989 3997 4001 3993 3981 3985 3977 3973 4006
4217
4218,4219
4219,3493
4221,3962 3954 3958 3950 3946 3938 3942 3934 3930 3967
4222
4223,4224
4224,3411
4225
4229
4141,4142
4230,4231
4142,4124 3989
4124,3676 4105 3989
4231,3701
4233
4234,4235
4235,3695
4237
4238,4239
4239,3684
4241
4242,4243
4243,3666
4245
4246,4247
4247,3639
4249
4250,4251
4251,3601
4253
4254,4255
4255,3550
4128,3677 4124 3989 4109 4028
4257
4136,3679 4124 3989 4117 4001
4191,4141 4136 4132 4128
4132,3678 4124 3989 4113 4032
4258,4259
4259,3484
4261
4262,4263
4263,3401
4264
4268
4269,4270
4270,3692
4272
4273,4274
4274,3680
4276
4277,4278
4278,3661
4156,4157
4157,4143 4028
4143,3692 4128 4028
4280
4281,4282
4282,3633
4284
4285,4286
4286,3594
4288
4289,4290
4290,3542
4292
4293,4294
4294,3475
4296
4297,4298
4298,3391
4299
4303
4304,4305
4305,3676
4307
4147,3693 4143 4028 4132 4032
4308,4309
4186,4156 4151 4147
4151,3694 4143 4028 4136 4001
4309,3656
4311
4312,4313
4313,3627
4315
4316,4317
4317,3587
4319
4320,4321
4321,3534
4323
4167,4168
4168,4158 4032
4158,3701 4147 4032
4324,4325
4325,3466
4327
4328,4329
4329,3381
4330
4334
4335,4336
4336,3651
4338
4339,4340
4340,3621
4342
4343,4344
4344,3580
4346
4347,4348
4348,3526
4350
4181,4167 4162
4162,3702 4158 4032 4151 4001
4351,4352
4352,3457
4354
4355,4356
4356,3371
4357
4361
4362,4363
4363,3615
4365
4366,4367
4367,3573
4174,4175
4175,4169 4001
4369
4169,3705 4162 4001
4370,4371
4371,3518
4373
4374,4375
4375,3448
4377
4378,4379
4379,3361
4380
4384
4385,4386
4386,3566
4388
4389,4390
4390,3510
4226,4227
4227,4176 4001
4392
4176,3705 4174 4001
4393,4394
4394,3439
4396
4397,4398
4398,3351
4399
4403
4404,4405
4405,3502
4407
4408,4409
4409,3430
4411
4412,4413
4413,3341
4414
4418
4419,4420
4420,3421
4180,3703 4176 4001 4181 4032
4422
4185,3698 4176 4001 4186 4028
4190,3688 4176 4001 4191 3989
4423,4424
4200,3645 4176 4001 4201 4074
4424,3331
4425
4195,3671 4176 4001 4196 4101
4429
4220,3411 4176 4001 4221 3926
4430,4431
4431,3321
4432
4265,4266
4266,4228 4032
4228,3701 4180 4032
4215,3493 4176 4001 4216 3969
4210,3558 4176 4001 4211 4008
4205,3608 4176 4001 4206 4043
4236,3684 4228 4032 4190 3989
4232,3695 4228 4032 4185 4028
4260,3401 4228 4032 4220 4221
4252,3550 4228 4032 4210 4211
4256,3484 4228 4032 4215 4216
4248,3601 4228 4032 4205 4206
4300,4301
4301,4267 4028
4267,3692 4232 4028
4244,3639 4228 4032 4200 4201
4240,3666 4228 4032 4195 4196
4283,3594 4267 4028 4248 4206
4271,3680 4267 4028 4236 3989
4287,3542 4267 4028 4252 4211
4295,3391 4267 4028 4260 4221
4279,3633 4267 4028 4244 4201
4275,3661 4267 4028 4240 4196
4331,4332
4332,4302 3989
4302,3676 4271 3989
4291,3475 4267 4028 4256 4216
4310,3627 4302 3989 4279 4201
4314,3587 4302 3989 4283 4206
4306,3656 4302 3989 4275 4196
4326,3381 4302 3989 4295 4221
4318,3534 4302 3989 4287 4211
4322,3466 4302 3989 4291 4216
4358,4359
4359,4333 4196
4333,3651 4306 4196
4337,3621 4333 4196 4310 4201
4341,3580 4333 4196 4314 4206
4345,3526 4333 4196 4318 4211
4353,3371 4333 4196 4326 4221
4349,3457 4333 4196 4322 4216
4381,4382
4382,4360 4201
4360,3615 4337 4201
4364,3573 4360 4201 4341 4206
4376,3361 4360 4201 4353 4221
4368,3518 4360 4201 4345 4211
4372,3448 4360 4201 4349 4216
4400,4401
4401,4383 4206
4383,3566 4364 4206
4391,3439 4383 4206 4372 4216
4387,3510 4383 4206 4368 4211
4395,3351 4383 4206 4376 4221
4415,4416
4416,4402 4211
4402,3502 4387 4211
4406,3430 4402 4211 4391 4216
4410,3341 4402 4211 4395 4221
4426,4427
4427,4417 4216
4417,3421 4406 4216
4421,3331 4417 4216 4410 4221
4433,4434
4434,4428 4221
4428,3321 4421 4221
4436,3321
4435,4436
4438,3322
4437,4438
4440,3323
4439,4440
4442,3324
4441,4442
4444,3325
4443,4444
4446,3326
4445,4446
4448,3327
4447,4448
4450,3328
4449,4450
4452,3329
4451,4452
4454,3330
4453,4454
4456,3331
4455,4456
4458,3421
4457,4458
4460,3422
4459,4460
4462,3423
4461,4462
4464,3424
4463,4464
4466,3425
4465,4466
4468,3426
4467,4468
4470,3427
4469,4470
4472,3428
4471,4472
4474,3429
4473,4474
4476,3341
4475,4476
4478,3430
4477,4478
4480,3502
4479,4480
4482,3503
4481,4482
4484,3504
4483,4484
4486,3505
4485,4486
4488,3506
4487,4488
4490,3507
4489,4490
4492,3508
4491,4492
4494,3509
4493,4494
4496,3351
4495,4496
4498,3439
4497,4498
4500,3510
4499,4500
4502,3566
4501,4502
4504,3567
4503,4504
4506,3568
4505,4506
4508,3569
4507,4508
4510,3570
4509,4510
4512,3571
4511,4512
4514,3572
4513,4514
4516,3361
4515,4516
4518,3448
4517,4518
4520,3518
4519,4520
4522,3573
4521,4522
4524,3615
4523,4524
4526,3616
4525,4526
4528,3617
4527,4528
4530,3618
4529,4530
4532,3619
4531,4532
4534,3620
4533,4534
4536,3371
4535,4536
4538,3457
4537,4538
4540,3526
4539,4540
4542,3580
4541,4542
4544,3621
4543,4544
4546,3651
4545,4546
4548,3652
4547,4548
4550,3653
4549,4550
4552,3654
4551,4552
4554,3655
4553,4554
4556,3381
4555,4556
4558,3466
4557,4558
4560,3534
4559,4560
4562,3587
4561,4562
4564,3627
4563,4564
4566,3656
4565,4566
4568,3676
4567,4568
4570,3677
4569,4570
4572,3678
4571,4572
4574,3679
4573,4574
4576,3391
4575,4576
4578,3475
4577,4578
4580,3542
4579,4580
4582,3594
4581,4582
4584,3633
4583,4584
4586,3661
4585,4586
4588,3680
4587,4588
4590,3692
4589,4590
4592,3693
4591,4592
4594,3694
4593,4594
4596,3401
4595,4596
4598,3484
4597,4598
4600,3550
4599,4600
4602,3601
4601,4602
4604,3639
4603,4604
4606,3666
4605,4606
4608,3684
4607,4608
4610,3695
4609,4610
4612,3701
4611,4612
4614,3702
4613,4614
4616,3411
4615,4616
4618,3493
4617,4618
4620,3558
4619,4620
4622,3608
4621,4622
4624,3645
4623,4624
4626,3671
4625,4626
4628,3688
4627,4628
4630,3698
4629,4630
4632,3703
4631,4632
4634,3705
4633,4634
4636,4428
4635,4636
4638,4417
4637,4638
4640,4402
4639,4640
4642,4383
4641,4642
4644,4360
4643,4644
4646,4333
4645,4646
4648,4302
4647,4648
4650,4267
4649,4650
4652,4228
4651,4652
4654,4176
4653,4654
