1057
1058,1059
1059,941
1056,941 1051
1061
1062,1063
1063,942
1065
1060,942 1056 1052
1066,1067
1067,943
1064,943 1056 1053
1069
1070,1071
1071,944
1068,944 1056 1054
1073
1074,1075
1075,945
1076
1072,945 1056 1055
1077,1078
1078,1056
1080
1081,1082
1082,966
1079,966 1060
1084
1085,1086
1086,967
1083,967 1079 1064
1088
1089,1090
1090,968
1087,968 1079 1068
1092
1093,1094
1094,969
1095
1091,969 1079 1072
1096,1097
1097,1079
1099
1100,1101
1101,982
1098,982 1083
1103
1104,1105
1105,983
1102,983 1098 1087
1107
1108,1109
1109,984
1110
1106,984 1098 1091
1111,1112
1112,1098
1114
1115,1116
1116,991
1113,991 1102
1118
1119,1120
1120,992
1121
1117,992 1113 1106
1122,1123
1123,1113
1125
1126,1127
1127,995
1128
1129,1130
1130,1124 1117
1124,995 1117
1132
1133,1134
1134,995
1131,995 1129
1136,1117 1122
1137
1138,1139
1139,993
1135,993 1131 1136 1113
1141,1106 1111 1102
1142
1143,1144
1144,988
1140,988 1131 1141 1098
1146,1096 1091 1087 1083
1147
1148,1149
1149,978
1145,978 1131 1146 1079
1151,1072 1077 1068 1064 1060
1152
1153,1154
1154,961
1155
1150,961 1131 1151 1056
1156,1157
1157,1131
1159
1160,1161
1161,991
1158,991 1135
1163
1164,1165
1165,985
1162,985 1158 1140
1167
1168,1169
1169,974
1166,974 1158 1145
1171
1172,1173
1173,956
1174
1170,956 1158 1150
1175,1176
1176,1158
1178
1179,1180
1180,982
1177,982 1162
1182
1183,1184
1184,970
1181,970 1177 1166
1186
1187,1188
1188,951
1189
1185,951 1177 1170
1190,1191
1191,1177
1193
1194,1195
1195,966
1192,966 1181
1197
1198,1199
1199,946
1200
1196,946 1192 1185
1201,1202
1202,1192
1204
1205,1206
1206,941
1207
1208,1209
1209,1203 1196
1203,941 1196
1211,941
1210,1211
1213,942
1212,1213
1215,943
1214,1215
1217,944
1216,1217
1219,945
1218,1219
1221,946
1220,1221
1223,966
1222,1223
1225,967
1224,1225
1227,968
1226,1227
1229,969
1228,1229
1231,951
1230,1231
1233,970
1232,1233
1235,982
1234,1235
1237,983
1236,1237
1239,984
1238,1239
1241,956
1240,1241
1243,974
1242,1243
1245,985
1244,1245
1247,991
1246,1247
1249,992
1248,1249
1251,961
1250,1251
1253,978
1252,1253
1255,988
1254,1255
1257,993
1256,1257
1259,995
1258,1259
1261,1203
1260,1261
1263,1192
1262,1263
1265,1177
1264,1265
1267,1158
1266,1267
1269,1131
1268,1269
